[
    {
        "length": "73311.15800000004",
        "length_lcc": "36940.45499999998",
        "coverage": "72.21455442949373",
        "directness": "0.7127882705637616",
        "directness_lcc": "0.6812703283180653",
        "poi_coverage": "36",
        "components": "7",
        "overlap_biketrack": "497.24899999999997",
        "overlap_bikeable": "497.24899999999997",
        "efficiency_global": "0.33280178748351796",
        "efficiency_local": "0.0",
        "efficiency_global_routed": "0.7495376975342443",
        "efficiency_local_routed": "0.13591310301356596"
    },
    {
        "length": "142678.08899999992",
        "length_lcc": "133052.58299999972",
        "coverage": "130.48476620109855",
        "directness": "0.4712116073730011",
        "directness_lcc": "0.451079731247852",
        "poi_coverage": "59",
        "components": "3",
        "overlap_biketrack": "1340.8149999999996",
        "overlap_bikeable": "1696.6110000000003",
        "efficiency_global": "0.5066385813445305",
        "efficiency_local": "0.0",
        "efficiency_global_routed": "0.8300974187941786",
        "efficiency_local_routed": "0.1221154121247133"
    },
    {
        "length": "210182.79800000068",
        "length_lcc": "177023.60600000035",
        "coverage": "194.5457528530427",
        "directness": "0.6071289434046385",
        "directness_lcc": "0.5901890050394178",
        "poi_coverage": "91",
        "components": "8",
        "overlap_biketrack": "1340.8149999999996",
        "overlap_bikeable": "3115.3389999999995",
        "efficiency_global": "0.40466676090338133",
        "efficiency_local": "0.010830674331635213",
        "efficiency_global_routed": "0.7466943453956811",
        "efficiency_local_routed": "0.14072143360178735"
    },
    {
        "length": "274114.70900000096",
        "length_lcc": "250053.51900000105",
        "coverage": "241.88764378585898",
        "directness": "0.5553861611033906",
        "directness_lcc": "0.545070507198892",
        "poi_coverage": "112",
        "components": "5",
        "overlap_biketrack": "1774.405",
        "overlap_bikeable": "4857.162999999999",
        "efficiency_global": "0.4857549787640312",
        "efficiency_local": "0.025626442556942554",
        "efficiency_global_routed": "0.7974471301679442",
        "efficiency_local_routed": "0.14905636790488802"
    },
    {
        "length": "333525.31999999983",
        "length_lcc": "315597.2439999999",
        "coverage": "280.9141150726941",
        "directness": "0.648139371037755",
        "directness_lcc": "0.6545699057403427",
        "poi_coverage": "127",
        "components": "5",
        "overlap_biketrack": "2585.104",
        "overlap_bikeable": "5704.764999999999",
        "efficiency_global": "0.5455250859945632",
        "efficiency_local": "0.04417290197513169",
        "efficiency_global_routed": "0.8128951928018254",
        "efficiency_local_routed": "0.22444776890005566"
    },
    {
        "length": "394426.00700000126",
        "length_lcc": "374542.03000000055",
        "coverage": "319.57809316639526",
        "directness": "0.6653520999385166",
        "directness_lcc": "0.6757338364091564",
        "poi_coverage": "144",
        "components": "6",
        "overlap_biketrack": "2585.104",
        "overlap_bikeable": "5969.736999999999",
        "efficiency_global": "0.554168577933148",
        "efficiency_local": "0.04555755274919255",
        "efficiency_global_routed": "0.8084057128646833",
        "efficiency_local_routed": "0.13928488605904898"
    },
    {
        "length": "460018.4060000013",
        "length_lcc": "451331.70500000124",
        "coverage": "360.7390468853718",
        "directness": "0.6882741639268181",
        "directness_lcc": "0.6836817568358192",
        "poi_coverage": "160",
        "components": "3",
        "overlap_biketrack": "2585.104",
        "overlap_bikeable": "6213.24",
        "efficiency_global": "0.6030592727438218",
        "efficiency_local": "0.06542764697047511",
        "efficiency_global_routed": "0.8096611017678403",
        "efficiency_local_routed": "0.16637261157349412"
    },
    {
        "length": "525137.995000002",
        "length_lcc": "518346.45700000226",
        "coverage": "403.63922690259307",
        "directness": "0.686886698676484",
        "directness_lcc": "0.6895381713175714",
        "poi_coverage": "178",
        "components": "2",
        "overlap_biketrack": "3249.2020000000007",
        "overlap_bikeable": "7893.131",
        "efficiency_global": "0.6193115547740797",
        "efficiency_local": "0.07657117170819225",
        "efficiency_global_routed": "0.8227309654354037",
        "efficiency_local_routed": "0.17721279779818921"
    },
    {
        "length": "587711.9959999976",
        "length_lcc": "585648.1069999975",
        "coverage": "443.3406520165609",
        "directness": "0.6896481189180957",
        "directness_lcc": "0.6778144517798725",
        "poi_coverage": "194",
        "components": "2",
        "overlap_biketrack": "3361.803000000001",
        "overlap_bikeable": "9644.018000000002",
        "efficiency_global": "0.6192082435805839",
        "efficiency_local": "0.08547169892328224",
        "efficiency_global_routed": "0.8166209379849021",
        "efficiency_local_routed": "0.18606507468296565"
    },
    {
        "length": "654119.8149999948",
        "length_lcc": "649697.9229999947",
        "coverage": "488.97602013998323",
        "directness": "0.6937846485847656",
        "directness_lcc": "0.6921821839910696",
        "poi_coverage": "216",
        "components": "3",
        "overlap_biketrack": "3361.803000000001",
        "overlap_bikeable": "9860.853000000003",
        "efficiency_global": "0.6091472431422604",
        "efficiency_local": "0.09109191500654586",
        "efficiency_global_routed": "0.8050580137408733",
        "efficiency_local_routed": "0.19310656366238763"
    },
    {
        "length": "714362.4359999979",
        "length_lcc": "712298.5469999978",
        "coverage": "519.7160599779904",
        "directness": "0.6954459500197362",
        "directness_lcc": "0.7021032416642463",
        "poi_coverage": "227",
        "components": "2",
        "overlap_biketrack": "3361.803000000001",
        "overlap_bikeable": "10410.879000000003",
        "efficiency_global": "0.6234846904505501",
        "efficiency_local": "0.1151378514861049",
        "efficiency_global_routed": "0.8014153210393048",
        "efficiency_local_routed": "0.19519941036961522"
    },
    {
        "length": "789543.8309999943",
        "length_lcc": "789543.8309999943",
        "coverage": "559.3287813901705",
        "directness": "0.6965730101098114",
        "directness_lcc": "0.6965730101098114",
        "poi_coverage": "242",
        "components": "1",
        "overlap_biketrack": "3361.803000000001",
        "overlap_bikeable": "10717.022000000003",
        "efficiency_global": "0.6385029470292022",
        "efficiency_local": "0.13580605883954475",
        "efficiency_global_routed": "0.8017638585971586",
        "efficiency_local_routed": "0.19294839665474453"
    },
    {
        "length": "838934.960999995",
        "length_lcc": "838934.960999995",
        "coverage": "583.1868245226265",
        "directness": "0.6989938146573598",
        "directness_lcc": "0.6989938146573598",
        "poi_coverage": "253",
        "components": "1",
        "overlap_biketrack": "3379.6680000000006",
        "overlap_bikeable": "11239.107000000004",
        "efficiency_global": "0.6441360799921813",
        "efficiency_local": "0.14877373801619242",
        "efficiency_global_routed": "0.8047612234113307",
        "efficiency_local_routed": "0.19338896915712778"
    },
    {
        "length": "902980.3439999939",
        "length_lcc": "902980.3439999939",
        "coverage": "618.5052525435942",
        "directness": "0.7045833422859197",
        "directness_lcc": "0.7045833422859197",
        "poi_coverage": "267",
        "components": "1",
        "overlap_biketrack": "4035.566000000001",
        "overlap_bikeable": "12583.751000000004",
        "efficiency_global": "0.6441902506379287",
        "efficiency_local": "0.1503918645978994",
        "efficiency_global_routed": "0.7984919834216366",
        "efficiency_local_routed": "0.20052143657055255"
    },
    {
        "length": "964596.5009999938",
        "length_lcc": "964596.5009999938",
        "coverage": "647.4777851742663",
        "directness": "0.7118883450457237",
        "directness_lcc": "0.7118883450457237",
        "poi_coverage": "277",
        "components": "1",
        "overlap_biketrack": "4035.566000000001",
        "overlap_bikeable": "13223.231000000009",
        "efficiency_global": "0.6473494519211632",
        "efficiency_local": "0.17599660600118008",
        "efficiency_global_routed": "0.7969446015170483",
        "efficiency_local_routed": "0.20406201863766563"
    },
    {
        "length": "1020599.3599999921",
        "length_lcc": "1020599.3599999921",
        "coverage": "673.7529648006636",
        "directness": "0.7112600676096482",
        "directness_lcc": "0.7112600676096482",
        "poi_coverage": "287",
        "components": "1",
        "overlap_biketrack": "4035.566000000001",
        "overlap_bikeable": "14979.959000000012",
        "efficiency_global": "0.6492441877793634",
        "efficiency_local": "0.17668256082329942",
        "efficiency_global_routed": "0.792763326947399",
        "efficiency_local_routed": "0.19668487627388523"
    },
    {
        "length": "1092686.964999992",
        "length_lcc": "1092686.964999992",
        "coverage": "715.8075974196674",
        "directness": "0.7114200902925347",
        "directness_lcc": "0.7114200902925347",
        "poi_coverage": "306",
        "components": "1",
        "overlap_biketrack": "4143.746000000001",
        "overlap_bikeable": "15103.872000000012",
        "efficiency_global": "0.6461170993093128",
        "efficiency_local": "0.18592777828384607",
        "efficiency_global_routed": "0.7828951912171019",
        "efficiency_local_routed": "0.1931711910916236"
    },
    {
        "length": "1161219.4629999981",
        "length_lcc": "1158887.6889999972",
        "coverage": "754.5651824061302",
        "directness": "0.7118694868938532",
        "directness_lcc": "0.7090895680065905",
        "poi_coverage": "321",
        "components": "2",
        "overlap_biketrack": "4143.746000000001",
        "overlap_bikeable": "15103.872000000012",
        "efficiency_global": "0.6350177455449887",
        "efficiency_local": "0.18775192154764367",
        "efficiency_global_routed": "0.7841568147268315",
        "efficiency_local_routed": "0.2015201459926702"
    },
    {
        "length": "1221038.7290000003",
        "length_lcc": "1218706.9549999996",
        "coverage": "784.101092047689",
        "directness": "0.7202511852318026",
        "directness_lcc": "0.7077550945946086",
        "poi_coverage": "335",
        "components": "2",
        "overlap_biketrack": "4303.193",
        "overlap_bikeable": "15807.63300000001",
        "efficiency_global": "0.6343988557959233",
        "efficiency_local": "0.20812850542279274",
        "efficiency_global_routed": "0.7849018189398972",
        "efficiency_local_routed": "0.1723598528227122"
    },
    {
        "length": "1285121.7620000055",
        "length_lcc": "1285121.7620000055",
        "coverage": "813.700198122645",
        "directness": "0.7156012646807719",
        "directness_lcc": "0.7156012646807719",
        "poi_coverage": "346",
        "components": "1",
        "overlap_biketrack": "4303.193",
        "overlap_bikeable": "16106.93600000001",
        "efficiency_global": "0.6382658197064905",
        "efficiency_local": "0.22089802182319254",
        "efficiency_global_routed": "0.7799203124882641",
        "efficiency_local_routed": "0.1877413525461786"
    },
    {
        "length": "1347276.9230000025",
        "length_lcc": "1347276.9230000025",
        "coverage": "839.7230440190326",
        "directness": "0.715037455010645",
        "directness_lcc": "0.715037455010645",
        "poi_coverage": "356",
        "components": "1",
        "overlap_biketrack": "5280.474",
        "overlap_bikeable": "18319.395000000008",
        "efficiency_global": "0.63526731012722",
        "efficiency_local": "0.23544812208374424",
        "efficiency_global_routed": "0.7966629988877271",
        "efficiency_local_routed": "0.19725016827127917"
    },
    {
        "length": "1410390.0890000004",
        "length_lcc": "1410390.0890000004",
        "coverage": "865.1776564558697",
        "directness": "0.7145156388708062",
        "directness_lcc": "0.7145156388708062",
        "poi_coverage": "364",
        "components": "1",
        "overlap_biketrack": "5351.24",
        "overlap_bikeable": "19216.169000000013",
        "efficiency_global": "0.6359887982531524",
        "efficiency_local": "0.26106102981819157",
        "efficiency_global_routed": "0.7797292333273188",
        "efficiency_local_routed": "0.17636209115436866"
    },
    {
        "length": "1469077.8730000036",
        "length_lcc": "1469077.8730000036",
        "coverage": "884.6848912378092",
        "directness": "0.7123990331687365",
        "directness_lcc": "0.7123990331687365",
        "poi_coverage": "370",
        "components": "1",
        "overlap_biketrack": "7865.633999999997",
        "overlap_bikeable": "22439.839000000014",
        "efficiency_global": "0.637334099921625",
        "efficiency_local": "0.29605361646378964",
        "efficiency_global_routed": "0.7905738404947629",
        "efficiency_local_routed": "0.18017596555844315"
    },
    {
        "length": "1519303.5080000048",
        "length_lcc": "1519303.5080000048",
        "coverage": "899.1220843815784",
        "directness": "0.7166438602435976",
        "directness_lcc": "0.7166438602435976",
        "poi_coverage": "372",
        "components": "1",
        "overlap_biketrack": "7865.633999999997",
        "overlap_bikeable": "22836.946000000014",
        "efficiency_global": "0.6393770626677504",
        "efficiency_local": "0.2947150191581926",
        "efficiency_global_routed": "0.7735183887899062",
        "efficiency_local_routed": "0.20686633827983664"
    },
    {
        "length": "1564533.404000004",
        "length_lcc": "1564533.404000004",
        "coverage": "911.0903810389874",
        "directness": "0.7189098724722252",
        "directness_lcc": "0.7189098724722252",
        "poi_coverage": "375",
        "components": "1",
        "overlap_biketrack": "7865.633999999997",
        "overlap_bikeable": "24044.617000000017",
        "efficiency_global": "0.6404525085748268",
        "efficiency_local": "0.3217243882695666",
        "efficiency_global_routed": "0.7809042916141011",
        "efficiency_local_routed": "0.19187486660668807"
    },
    {
        "length": "1613901.463000004",
        "length_lcc": "1613901.463000004",
        "coverage": "923.432651230765",
        "directness": "0.7196781059080243",
        "directness_lcc": "0.7196781059080243",
        "poi_coverage": "375",
        "components": "1",
        "overlap_biketrack": "7865.633999999997",
        "overlap_bikeable": "24044.617000000017",
        "efficiency_global": "0.6440644329158091",
        "efficiency_local": "0.34967940228169364",
        "efficiency_global_routed": "0.7776670465733715",
        "efficiency_local_routed": "0.18730754581388312"
    },
    {
        "length": "1660957.4080000024",
        "length_lcc": "1660957.4080000024",
        "coverage": "932.8759037996881",
        "directness": "0.7184852380648558",
        "directness_lcc": "0.7184852380648558",
        "poi_coverage": "375",
        "components": "1",
        "overlap_biketrack": "7981.247999999998",
        "overlap_bikeable": "25570.36800000002",
        "efficiency_global": "0.6479213463021802",
        "efficiency_local": "0.3771848289315773",
        "efficiency_global_routed": "0.7782250375964644",
        "efficiency_local_routed": "0.1887966375295474"
    },
    {
        "length": "1700366.4139999987",
        "length_lcc": "1700366.4139999987",
        "coverage": "938.8205655738489",
        "directness": "0.7253015690823406",
        "directness_lcc": "0.7253015690823406",
        "poi_coverage": "375",
        "components": "1",
        "overlap_biketrack": "7981.247999999998",
        "overlap_bikeable": "26454.595000000012",
        "efficiency_global": "0.6509666807088275",
        "efficiency_local": "0.389993821367295",
        "efficiency_global_routed": "0.7722287845029271",
        "efficiency_local_routed": "0.19279093542858727"
    },
    {
        "length": "1759787.9980000001",
        "length_lcc": "1759787.9980000001",
        "coverage": "944.6679899633396",
        "directness": "0.7262233557539328",
        "directness_lcc": "0.7262233557539328",
        "poi_coverage": "375",
        "components": "1",
        "overlap_biketrack": "7981.247999999998",
        "overlap_bikeable": "26454.595000000012",
        "efficiency_global": "0.6545082264808079",
        "efficiency_local": "0.40466488935159284",
        "efficiency_global_routed": "0.8018654254197013",
        "efficiency_local_routed": "0.21763855854986833"
    },
    {
        "length": "1814296.4690000024",
        "length_lcc": "1814296.4690000024",
        "coverage": "953.6688927645274",
        "directness": "0.7263622911465231",
        "directness_lcc": "0.7263622911465231",
        "poi_coverage": "375",
        "components": "1",
        "overlap_biketrack": "7981.247999999998",
        "overlap_bikeable": "26454.595000000012",
        "efficiency_global": "0.6562660974177988",
        "efficiency_local": "0.42879732737057885",
        "efficiency_global_routed": "0.7816544661346176",
        "efficiency_local_routed": "0.2091579462218482"
    },
    {
        "length": "1850084.1650000007",
        "length_lcc": "1850084.1650000007",
        "coverage": "959.2604762014172",
        "directness": "0.728433512348027",
        "directness_lcc": "0.728433512348027",
        "poi_coverage": "375",
        "components": "1",
        "overlap_biketrack": "7981.247999999998",
        "overlap_bikeable": "26510.57200000001",
        "efficiency_global": "0.6590138181744407",
        "efficiency_local": "0.46445797951224366",
        "efficiency_global_routed": "0.7858658148623421",
        "efficiency_local_routed": "0.19810706863835584"
    },
    {
        "length": "1883582.8900000004",
        "length_lcc": "1883582.8900000004",
        "coverage": "962.6424249075026",
        "directness": "0.7295418969343197",
        "directness_lcc": "0.7295418969343197",
        "poi_coverage": "375",
        "components": "1",
        "overlap_biketrack": "7981.247999999998",
        "overlap_bikeable": "26541.53000000001",
        "efficiency_global": "0.6614417892326131",
        "efficiency_local": "0.49231391961962984",
        "efficiency_global_routed": "0.779430688164964",
        "efficiency_local_routed": "0.21407491899106237"
    },
    {
        "length": "1921181.475",
        "length_lcc": "1921181.475",
        "coverage": "968.0363154893954",
        "directness": "0.7309401246682122",
        "directness_lcc": "0.7309401246682122",
        "poi_coverage": "375",
        "components": "1",
        "overlap_biketrack": "7981.247999999998",
        "overlap_bikeable": "26583.35200000001",
        "efficiency_global": "0.6627156329593824",
        "efficiency_local": "0.5236858346132218",
        "efficiency_global_routed": "0.779630328892771",
        "efficiency_local_routed": "0.2205093426253055"
    },
    {
        "length": "1978950.332999998",
        "length_lcc": "1978950.332999998",
        "coverage": "973.8131472231997",
        "directness": "0.7359921738505781",
        "directness_lcc": "0.7359921738505781",
        "poi_coverage": "375",
        "components": "1",
        "overlap_biketrack": "7981.247999999998",
        "overlap_bikeable": "26583.35200000001",
        "efficiency_global": "0.664389067390297",
        "efficiency_local": "0.5487496855355845",
        "efficiency_global_routed": "0.7889457004270934",
        "efficiency_local_routed": "0.23782235263785143"
    },
    {
        "length": "2015385.3929999967",
        "length_lcc": "2015385.3929999967",
        "coverage": "979.5775506189323",
        "directness": "0.7323924198110747",
        "directness_lcc": "0.7323924198110747",
        "poi_coverage": "375",
        "components": "1",
        "overlap_biketrack": "7981.247999999998",
        "overlap_bikeable": "26777.624",
        "efficiency_global": "0.6652297263888526",
        "efficiency_local": "0.5585755496690448",
        "efficiency_global_routed": "0.777359806069236",
        "efficiency_local_routed": "0.21154253173857326"
    },
    {
        "length": "2076345.798999995",
        "length_lcc": "2076345.798999995",
        "coverage": "984.5083639467161",
        "directness": "0.7376490497852422",
        "directness_lcc": "0.7376490497852422",
        "poi_coverage": "375",
        "components": "1",
        "overlap_biketrack": "7981.247999999998",
        "overlap_bikeable": "26777.624",
        "efficiency_global": "0.6662374071738931",
        "efficiency_local": "0.5732984820044991",
        "efficiency_global_routed": "0.7831957729488267",
        "efficiency_local_routed": "0.20806555078269434"
    },
    {
        "length": "2109467.2619999936",
        "length_lcc": "2109467.2619999936",
        "coverage": "985.3056767647993",
        "directness": "0.7383155898549872",
        "directness_lcc": "0.7383155898549872",
        "poi_coverage": "375",
        "components": "1",
        "overlap_biketrack": "7981.247999999998",
        "overlap_bikeable": "26831.207",
        "efficiency_global": "0.6667430020739279",
        "efficiency_local": "0.5920383013870189",
        "efficiency_global_routed": "0.7728660888062815",
        "efficiency_local_routed": "0.21204373662243356"
    },
    {
        "length": "2134284.560999994",
        "length_lcc": "2134284.560999994",
        "coverage": "990.3314799634175",
        "directness": "0.7341710750911153",
        "directness_lcc": "0.7341710750911153",
        "poi_coverage": "375",
        "components": "1",
        "overlap_biketrack": "7981.247999999998",
        "overlap_bikeable": "26831.207",
        "efficiency_global": "0.6669547086060744",
        "efficiency_local": "0.6101885554345008",
        "efficiency_global_routed": "0.7737373760685851",
        "efficiency_local_routed": "0.22515990849564047"
    },
    {
        "length": "2171115.5279999855",
        "length_lcc": "2171115.5279999855",
        "coverage": "994.3508673985322",
        "directness": "0.7404951288726606",
        "directness_lcc": "0.7404951288726606",
        "poi_coverage": "375",
        "components": "1",
        "overlap_biketrack": "8048.941999999997",
        "overlap_bikeable": "26898.900999999998",
        "efficiency_global": "0.6672909580729219",
        "efficiency_local": "0.62438471937697",
        "efficiency_global_routed": "0.7816533445325599",
        "efficiency_local_routed": "0.2210003786546334"
    },
    {
        "length": "2171115.5279999855",
        "length_lcc": "2171115.5279999855",
        "coverage": "994.3508673985322",
        "directness": "0.737814129211606",
        "directness_lcc": "0.737814129211606",
        "poi_coverage": "375",
        "components": "1",
        "overlap_biketrack": "8048.941999999997",
        "overlap_bikeable": "26898.900999999998",
        "efficiency_global": "0.6672909580729219",
        "efficiency_local": "0.6259269517052107",
        "efficiency_global_routed": "0.7938252221714109",
        "efficiency_local_routed": "0.2208061129199534"
    }
]