[
    {
        "length": "2347.707000000001",
        "length_lcc": "2347.707000000001",
        "coverage": "2.790685848330375",
        "directness": "0.8817480405117032",
        "directness_lcc": "0.8817480405117032",
        "poi_coverage": "2",
        "components": "1",
        "overlap_biketrack": "0",
        "overlap_bikeable": "219.72",
        "efficiency_global": "0.6965581512194726",
        "efficiency_local": "0",
        "efficiency_global_routed": "0.6965581512194726",
        "efficiency_local_routed": "0"
    },
    {
        "length": "2347.707000000001",
        "length_lcc": "2347.707000000001",
        "coverage": "2.790685848330375",
        "directness": "0.881748040511707",
        "directness_lcc": "0.881748040511707",
        "poi_coverage": "2",
        "components": "1",
        "overlap_biketrack": "0",
        "overlap_bikeable": "219.72",
        "efficiency_global": "0.6965581512194726",
        "efficiency_local": "0",
        "efficiency_global_routed": "0.6965581512194726",
        "efficiency_local_routed": "0"
    },
    {
        "length": "2347.707000000001",
        "length_lcc": "2347.707000000001",
        "coverage": "2.790685848330375",
        "directness": "0.8817480405117023",
        "directness_lcc": "0.8817480405117023",
        "poi_coverage": "2",
        "components": "1",
        "overlap_biketrack": "0",
        "overlap_bikeable": "219.72",
        "efficiency_global": "0.6965581512194726",
        "efficiency_local": "0",
        "efficiency_global_routed": "0.6965581512194726",
        "efficiency_local_routed": "0"
    },
    {
        "length": "2347.707000000001",
        "length_lcc": "2347.707000000001",
        "coverage": "2.790685848330375",
        "directness": "0.8817480405117055",
        "directness_lcc": "0.8817480405117055",
        "poi_coverage": "2",
        "components": "1",
        "overlap_biketrack": "0",
        "overlap_bikeable": "219.72",
        "efficiency_global": "0.6965581512194726",
        "efficiency_local": "0",
        "efficiency_global_routed": "0.6965581512194726",
        "efficiency_local_routed": "0"
    },
    {
        "length": "2347.707000000001",
        "length_lcc": "2347.707000000001",
        "coverage": "2.790685848330375",
        "directness": "0.8817480405117047",
        "directness_lcc": "0.8817480405117047",
        "poi_coverage": "2",
        "components": "1",
        "overlap_biketrack": "0",
        "overlap_bikeable": "219.72",
        "efficiency_global": "0.6965581512194726",
        "efficiency_local": "0",
        "efficiency_global_routed": "0.6965581512194726",
        "efficiency_local_routed": "0"
    },
    {
        "length": "2347.707000000001",
        "length_lcc": "2347.707000000001",
        "coverage": "2.790685848330375",
        "directness": "0.8817480405117033",
        "directness_lcc": "0.8817480405117033",
        "poi_coverage": "2",
        "components": "1",
        "overlap_biketrack": "0",
        "overlap_bikeable": "219.72",
        "efficiency_global": "0.6965581512194726",
        "efficiency_local": "0",
        "efficiency_global_routed": "0.6965581512194726",
        "efficiency_local_routed": "0"
    },
    {
        "length": "2347.707000000001",
        "length_lcc": "2347.707000000001",
        "coverage": "2.790685848330375",
        "directness": "0.8817480405117057",
        "directness_lcc": "0.8817480405117057",
        "poi_coverage": "2",
        "components": "1",
        "overlap_biketrack": "0",
        "overlap_bikeable": "219.72",
        "efficiency_global": "0.6965581512194726",
        "efficiency_local": "0",
        "efficiency_global_routed": "0.6965581512194726",
        "efficiency_local_routed": "0"
    },
    {
        "length": "2347.707000000001",
        "length_lcc": "2347.707000000001",
        "coverage": "2.790685848330375",
        "directness": "0.8817480405117035",
        "directness_lcc": "0.8817480405117035",
        "poi_coverage": "2",
        "components": "1",
        "overlap_biketrack": "0",
        "overlap_bikeable": "219.72",
        "efficiency_global": "0.6965581512194726",
        "efficiency_local": "0",
        "efficiency_global_routed": "0.6965581512194726",
        "efficiency_local_routed": "0"
    },
    {
        "length": "2347.707000000001",
        "length_lcc": "2347.707000000001",
        "coverage": "2.790685848330375",
        "directness": "0.8817480405117054",
        "directness_lcc": "0.8817480405117054",
        "poi_coverage": "2",
        "components": "1",
        "overlap_biketrack": "0",
        "overlap_bikeable": "219.72",
        "efficiency_global": "0.6965581512194726",
        "efficiency_local": "0",
        "efficiency_global_routed": "0.6965581512194726",
        "efficiency_local_routed": "0"
    },
    {
        "length": "2347.707000000001",
        "length_lcc": "2347.707000000001",
        "coverage": "2.790685848330375",
        "directness": "0.8817480405117044",
        "directness_lcc": "0.8817480405117044",
        "poi_coverage": "2",
        "components": "1",
        "overlap_biketrack": "0",
        "overlap_bikeable": "219.72",
        "efficiency_global": "0.6965581512194726",
        "efficiency_local": "0",
        "efficiency_global_routed": "0.6965581512194726",
        "efficiency_local_routed": "0"
    },
    {
        "length": "2347.707000000001",
        "length_lcc": "2347.707000000001",
        "coverage": "2.790685848330375",
        "directness": "0.8817480405117039",
        "directness_lcc": "0.8817480405117039",
        "poi_coverage": "2",
        "components": "1",
        "overlap_biketrack": "0",
        "overlap_bikeable": "219.72",
        "efficiency_global": "0.6965581512194726",
        "efficiency_local": "0",
        "efficiency_global_routed": "0.6965581512194726",
        "efficiency_local_routed": "0"
    },
    {
        "length": "2347.707000000001",
        "length_lcc": "2347.707000000001",
        "coverage": "2.790685848330375",
        "directness": "0.8817480405117026",
        "directness_lcc": "0.8817480405117026",
        "poi_coverage": "2",
        "components": "1",
        "overlap_biketrack": "0",
        "overlap_bikeable": "219.72",
        "efficiency_global": "0.6965581512194726",
        "efficiency_local": "0",
        "efficiency_global_routed": "0.6965581512194726",
        "efficiency_local_routed": "0"
    },
    {
        "length": "2347.707000000001",
        "length_lcc": "2347.707000000001",
        "coverage": "2.790685848330375",
        "directness": "0.8817480405117065",
        "directness_lcc": "0.8817480405117065",
        "poi_coverage": "2",
        "components": "1",
        "overlap_biketrack": "0",
        "overlap_bikeable": "219.72",
        "efficiency_global": "0.6965581512194726",
        "efficiency_local": "0",
        "efficiency_global_routed": "0.6965581512194726",
        "efficiency_local_routed": "0"
    },
    {
        "length": "2347.707000000001",
        "length_lcc": "2347.707000000001",
        "coverage": "2.790685848330375",
        "directness": "0.8817480405117056",
        "directness_lcc": "0.8817480405117056",
        "poi_coverage": "2",
        "components": "1",
        "overlap_biketrack": "0",
        "overlap_bikeable": "219.72",
        "efficiency_global": "0.6965581512194726",
        "efficiency_local": "0",
        "efficiency_global_routed": "0.6965581512194726",
        "efficiency_local_routed": "0"
    },
    {
        "length": "2347.707000000001",
        "length_lcc": "2347.707000000001",
        "coverage": "2.790685848330375",
        "directness": "0.8817480405117033",
        "directness_lcc": "0.8817480405117033",
        "poi_coverage": "2",
        "components": "1",
        "overlap_biketrack": "0",
        "overlap_bikeable": "219.72",
        "efficiency_global": "0.6965581512194726",
        "efficiency_local": "0",
        "efficiency_global_routed": "0.6965581512194726",
        "efficiency_local_routed": "0"
    },
    {
        "length": "2347.707000000001",
        "length_lcc": "2347.707000000001",
        "coverage": "2.790685848330375",
        "directness": "0.8817480405117022",
        "directness_lcc": "0.8817480405117022",
        "poi_coverage": "2",
        "components": "1",
        "overlap_biketrack": "0",
        "overlap_bikeable": "219.72",
        "efficiency_global": "0.6965581512194726",
        "efficiency_local": "0",
        "efficiency_global_routed": "0.6965581512194726",
        "efficiency_local_routed": "0"
    },
    {
        "length": "2347.707000000001",
        "length_lcc": "2347.707000000001",
        "coverage": "2.790685848330375",
        "directness": "0.8817480405117036",
        "directness_lcc": "0.8817480405117036",
        "poi_coverage": "2",
        "components": "1",
        "overlap_biketrack": "0",
        "overlap_bikeable": "219.72",
        "efficiency_global": "0.6965581512194726",
        "efficiency_local": "0",
        "efficiency_global_routed": "0.6965581512194726",
        "efficiency_local_routed": "0"
    },
    {
        "length": "2347.707000000001",
        "length_lcc": "2347.707000000001",
        "coverage": "2.790685848330375",
        "directness": "0.8817480405117023",
        "directness_lcc": "0.8817480405117023",
        "poi_coverage": "2",
        "components": "1",
        "overlap_biketrack": "0",
        "overlap_bikeable": "219.72",
        "efficiency_global": "0.6965581512194726",
        "efficiency_local": "0",
        "efficiency_global_routed": "0.6965581512194726",
        "efficiency_local_routed": "0"
    },
    {
        "length": "2347.707000000001",
        "length_lcc": "2347.707000000001",
        "coverage": "2.790685848330375",
        "directness": "0.8817480405117023",
        "directness_lcc": "0.8817480405117023",
        "poi_coverage": "2",
        "components": "1",
        "overlap_biketrack": "0",
        "overlap_bikeable": "219.72",
        "efficiency_global": "0.6965581512194726",
        "efficiency_local": "0",
        "efficiency_global_routed": "0.6965581512194726",
        "efficiency_local_routed": "0"
    },
    {
        "length": "2347.707000000001",
        "length_lcc": "2347.707000000001",
        "coverage": "2.790685848330375",
        "directness": "0.881748040511703",
        "directness_lcc": "0.881748040511703",
        "poi_coverage": "2",
        "components": "1",
        "overlap_biketrack": "0",
        "overlap_bikeable": "219.72",
        "efficiency_global": "0.6965581512194726",
        "efficiency_local": "0",
        "efficiency_global_routed": "0.6965581512194726",
        "efficiency_local_routed": "0"
    },
    {
        "length": "2347.707000000001",
        "length_lcc": "2347.707000000001",
        "coverage": "2.790685848330375",
        "directness": "0.8817480405117032",
        "directness_lcc": "0.8817480405117032",
        "poi_coverage": "2",
        "components": "1",
        "overlap_biketrack": "0",
        "overlap_bikeable": "219.72",
        "efficiency_global": "0.6965581512194726",
        "efficiency_local": "0",
        "efficiency_global_routed": "0.6965581512194726",
        "efficiency_local_routed": "0"
    },
    {
        "length": "2347.707000000001",
        "length_lcc": "2347.707000000001",
        "coverage": "2.790685848330375",
        "directness": "0.881748040511707",
        "directness_lcc": "0.881748040511707",
        "poi_coverage": "2",
        "components": "1",
        "overlap_biketrack": "0",
        "overlap_bikeable": "219.72",
        "efficiency_global": "0.6965581512194726",
        "efficiency_local": "0",
        "efficiency_global_routed": "0.6965581512194726",
        "efficiency_local_routed": "0"
    },
    {
        "length": "2347.707000000001",
        "length_lcc": "2347.707000000001",
        "coverage": "2.790685848330375",
        "directness": "0.8817480405117017",
        "directness_lcc": "0.8817480405117017",
        "poi_coverage": "2",
        "components": "1",
        "overlap_biketrack": "0",
        "overlap_bikeable": "219.72",
        "efficiency_global": "0.6965581512194726",
        "efficiency_local": "0",
        "efficiency_global_routed": "0.6965581512194726",
        "efficiency_local_routed": "0"
    },
    {
        "length": "2347.707000000001",
        "length_lcc": "2347.707000000001",
        "coverage": "2.790685848330375",
        "directness": "0.8817480405117061",
        "directness_lcc": "0.8817480405117061",
        "poi_coverage": "2",
        "components": "1",
        "overlap_biketrack": "0",
        "overlap_bikeable": "219.72",
        "efficiency_global": "0.6965581512194726",
        "efficiency_local": "0",
        "efficiency_global_routed": "0.6965581512194726",
        "efficiency_local_routed": "0"
    },
    {
        "length": "2347.707000000001",
        "length_lcc": "2347.707000000001",
        "coverage": "2.790685848330375",
        "directness": "0.8817480405117043",
        "directness_lcc": "0.8817480405117043",
        "poi_coverage": "2",
        "components": "1",
        "overlap_biketrack": "0",
        "overlap_bikeable": "219.72",
        "efficiency_global": "0.6965581512194726",
        "efficiency_local": "0",
        "efficiency_global_routed": "0.6965581512194726",
        "efficiency_local_routed": "0"
    },
    {
        "length": "2347.707000000001",
        "length_lcc": "2347.707000000001",
        "coverage": "2.790685848330375",
        "directness": "0.8817480405117049",
        "directness_lcc": "0.8817480405117049",
        "poi_coverage": "2",
        "components": "1",
        "overlap_biketrack": "0",
        "overlap_bikeable": "219.72",
        "efficiency_global": "0.6965581512194726",
        "efficiency_local": "0",
        "efficiency_global_routed": "0.6965581512194726",
        "efficiency_local_routed": "0"
    },
    {
        "length": "2347.707000000001",
        "length_lcc": "2347.707000000001",
        "coverage": "2.790685848330375",
        "directness": "0.8817480405117061",
        "directness_lcc": "0.8817480405117061",
        "poi_coverage": "2",
        "components": "1",
        "overlap_biketrack": "0",
        "overlap_bikeable": "219.72",
        "efficiency_global": "0.6965581512194726",
        "efficiency_local": "0",
        "efficiency_global_routed": "0.6965581512194726",
        "efficiency_local_routed": "0"
    },
    {
        "length": "2347.707000000001",
        "length_lcc": "2347.707000000001",
        "coverage": "2.790685848330375",
        "directness": "0.8817480405117013",
        "directness_lcc": "0.8817480405117013",
        "poi_coverage": "2",
        "components": "1",
        "overlap_biketrack": "0",
        "overlap_bikeable": "219.72",
        "efficiency_global": "0.6965581512194726",
        "efficiency_local": "0",
        "efficiency_global_routed": "0.6965581512194726",
        "efficiency_local_routed": "0"
    },
    {
        "length": "2347.707000000001",
        "length_lcc": "2347.707000000001",
        "coverage": "2.790685848330375",
        "directness": "0.8817480405117043",
        "directness_lcc": "0.8817480405117043",
        "poi_coverage": "2",
        "components": "1",
        "overlap_biketrack": "0",
        "overlap_bikeable": "219.72",
        "efficiency_global": "0.6965581512194726",
        "efficiency_local": "0",
        "efficiency_global_routed": "0.6965581512194726",
        "efficiency_local_routed": "0"
    },
    {
        "length": "2347.707000000001",
        "length_lcc": "2347.707000000001",
        "coverage": "2.790685848330375",
        "directness": "0.8817480405117044",
        "directness_lcc": "0.8817480405117044",
        "poi_coverage": "2",
        "components": "1",
        "overlap_biketrack": "0",
        "overlap_bikeable": "219.72",
        "efficiency_global": "0.6965581512194726",
        "efficiency_local": "0",
        "efficiency_global_routed": "0.6965581512194726",
        "efficiency_local_routed": "0"
    },
    {
        "length": "2347.707000000001",
        "length_lcc": "2347.707000000001",
        "coverage": "2.790685848330375",
        "directness": "0.8817480405117031",
        "directness_lcc": "0.8817480405117031",
        "poi_coverage": "2",
        "components": "1",
        "overlap_biketrack": "0",
        "overlap_bikeable": "219.72",
        "efficiency_global": "0.6965581512194726",
        "efficiency_local": "0",
        "efficiency_global_routed": "0.6965581512194726",
        "efficiency_local_routed": "0"
    },
    {
        "length": "2347.707000000001",
        "length_lcc": "2347.707000000001",
        "coverage": "2.790685848330375",
        "directness": "0.8817480405117046",
        "directness_lcc": "0.8817480405117046",
        "poi_coverage": "2",
        "components": "1",
        "overlap_biketrack": "0",
        "overlap_bikeable": "219.72",
        "efficiency_global": "0.6965581512194726",
        "efficiency_local": "0",
        "efficiency_global_routed": "0.6965581512194726",
        "efficiency_local_routed": "0"
    },
    {
        "length": "2347.707000000001",
        "length_lcc": "2347.707000000001",
        "coverage": "2.790685848330375",
        "directness": "0.8817480405117036",
        "directness_lcc": "0.8817480405117036",
        "poi_coverage": "2",
        "components": "1",
        "overlap_biketrack": "0",
        "overlap_bikeable": "219.72",
        "efficiency_global": "0.6965581512194726",
        "efficiency_local": "0",
        "efficiency_global_routed": "0.6965581512194726",
        "efficiency_local_routed": "0"
    },
    {
        "length": "2347.707000000001",
        "length_lcc": "2347.707000000001",
        "coverage": "2.790685848330375",
        "directness": "0.8817480405117046",
        "directness_lcc": "0.8817480405117046",
        "poi_coverage": "2",
        "components": "1",
        "overlap_biketrack": "0",
        "overlap_bikeable": "219.72",
        "efficiency_global": "0.6965581512194726",
        "efficiency_local": "0",
        "efficiency_global_routed": "0.6965581512194726",
        "efficiency_local_routed": "0"
    },
    {
        "length": "2347.707000000001",
        "length_lcc": "2347.707000000001",
        "coverage": "2.790685848330375",
        "directness": "0.881748040511704",
        "directness_lcc": "0.881748040511704",
        "poi_coverage": "2",
        "components": "1",
        "overlap_biketrack": "0",
        "overlap_bikeable": "219.72",
        "efficiency_global": "0.6965581512194726",
        "efficiency_local": "0",
        "efficiency_global_routed": "0.6965581512194726",
        "efficiency_local_routed": "0"
    },
    {
        "length": "2347.707000000001",
        "length_lcc": "2347.707000000001",
        "coverage": "2.790685848330375",
        "directness": "0.8817480405117051",
        "directness_lcc": "0.8817480405117051",
        "poi_coverage": "2",
        "components": "1",
        "overlap_biketrack": "0",
        "overlap_bikeable": "219.72",
        "efficiency_global": "0.6965581512194726",
        "efficiency_local": "0",
        "efficiency_global_routed": "0.6965581512194726",
        "efficiency_local_routed": "0"
    },
    {
        "length": "2347.707000000001",
        "length_lcc": "2347.707000000001",
        "coverage": "2.790685848330375",
        "directness": "0.881748040511704",
        "directness_lcc": "0.881748040511704",
        "poi_coverage": "2",
        "components": "1",
        "overlap_biketrack": "0",
        "overlap_bikeable": "219.72",
        "efficiency_global": "0.6965581512194726",
        "efficiency_local": "0",
        "efficiency_global_routed": "0.6965581512194726",
        "efficiency_local_routed": "0"
    },
    {
        "length": "2347.707000000001",
        "length_lcc": "2347.707000000001",
        "coverage": "2.790685848330375",
        "directness": "0.8817480405117051",
        "directness_lcc": "0.8817480405117051",
        "poi_coverage": "2",
        "components": "1",
        "overlap_biketrack": "0",
        "overlap_bikeable": "219.72",
        "efficiency_global": "0.6965581512194726",
        "efficiency_local": "0",
        "efficiency_global_routed": "0.6965581512194726",
        "efficiency_local_routed": "0"
    },
    {
        "length": "2347.707000000001",
        "length_lcc": "2347.707000000001",
        "coverage": "2.790685848330375",
        "directness": "0.8817480405117045",
        "directness_lcc": "0.8817480405117045",
        "poi_coverage": "2",
        "components": "1",
        "overlap_biketrack": "0",
        "overlap_bikeable": "219.72",
        "efficiency_global": "0.6965581512194726",
        "efficiency_local": "0",
        "efficiency_global_routed": "0.6965581512194726",
        "efficiency_local_routed": "0"
    },
    {
        "length": "2347.707000000001",
        "length_lcc": "2347.707000000001",
        "coverage": "2.790685848330375",
        "directness": "0.8817480405117046",
        "directness_lcc": "0.8817480405117046",
        "poi_coverage": "2",
        "components": "1",
        "overlap_biketrack": "0",
        "overlap_bikeable": "219.72",
        "efficiency_global": "0.6965581512194726",
        "efficiency_local": "0",
        "efficiency_global_routed": "0.6965581512194726",
        "efficiency_local_routed": "0"
    }
]