[
    {
        "network": "bikeable",
        "length": "1972678.891",
        "length_lcc": "1325884.1939999887",
        "coverage": "381.6690460452225",
        "directness": "0.6425609826202835",
        "directness_lcc": "0.6407811447880508",
        "poi_coverage": "122",
        "components": "594",
        "efficiency_global": "0.3421878052944117",
        "efficiency_local": "0.061683955695067114",
        "efficiency_global_routed": "0.34485223924745223",
        "efficiency_local_routed": "0.0779428515964066"
    },
    {
        "network": "bikeable_offstreet",
        "length": "802295.8250000004",
        "length_lcc": "129432.33700000023",
        "coverage": "357.87541633157963",
        "directness": "0.6420076003039655",
        "directness_lcc": "0.6177122546953331",
        "poi_coverage": "118",
        "components": "795",
        "efficiency_global": "0.1623007900339303",
        "efficiency_local": "0.09036457099128915",
        "efficiency_global_routed": "0.16179034427276215",
        "efficiency_local_routed": "0.09590651826142052"
    },
    {
        "network": "biketrack",
        "length": "764083.7959999986",
        "length_lcc": "202985.890000001",
        "coverage": "347.70284462176295",
        "directness": "0.6083183504585581",
        "directness_lcc": "0.5744830415468386",
        "poi_coverage": "117",
        "components": "427",
        "efficiency_global": "0.2432163231458306",
        "efficiency_local": "0.05778878873309804",
        "efficiency_global_routed": "0.24454329542520553",
        "efficiency_local_routed": "0.0665435781978142"
    },
    {
        "network": "biketrack_onstreet",
        "length": "84259.19000000025",
        "length_lcc": "4909.947000000002",
        "coverage": "121.78567253944723",
        "directness": "0.8565656061915762",
        "directness_lcc": "0.7407457539729241",
        "poi_coverage": "41",
        "components": "178",
        "efficiency_global": "0.4366183230030452",
        "efficiency_local": "0.20915624038167532",
        "efficiency_global_routed": "0.15050054286663267",
        "efficiency_local_routed": "0.14176573414768626"
    },
    {
        "network": "biketrackcarall",
        "length": "3399363.6990000475",
        "length_lcc": "3385290.6600000523",
        "coverage": "405.92457368356236",
        "directness": "0.8325827490570276",
        "directness_lcc": "0.8282316147643143",
        "poi_coverage": "124",
        "components": "60",
        "efficiency_global": "0.791658540395842",
        "efficiency_local": "0.11681741638551399",
        "efficiency_global_routed": "0.7859726800421376",
        "efficiency_local_routed": "0.10349533012266085"
    },
    {
        "network": "carall",
        "length": "2719539.0930000353",
        "length_lcc": "2719539.0930000353",
        "coverage": "397.0371468801709",
        "directness": "0.8182227672850915",
        "directness_lcc": "0.8182227672850915",
        "poi_coverage": "124",
        "components": "1",
        "efficiency_global": "0.7817631744109712",
        "efficiency_local": "0.1302957930873562",
        "efficiency_global_routed": "0.773203788193978",
        "efficiency_local_routed": "0.13612480565238053"
    }
]