[
    {
        "length": "74560.65999999992",
        "length_lcc": "9788.853000000005",
        "coverage": "83.96310907315113",
        "directness": "0.7790118807724833",
        "directness_lcc": "0.8889575772826653",
        "poi_coverage": "71",
        "components": "20",
        "overlap_biketrack": "0",
        "overlap_bikeable": "90.71200000000002",
        "efficiency_global": "0.11869270903246708",
        "efficiency_local": "0.0",
        "efficiency_global_routed": "0.302076255198266",
        "efficiency_local_routed": "0.0"
    },
    {
        "length": "130864.48599999977",
        "length_lcc": "9788.853000000005",
        "coverage": "144.93232023627573",
        "directness": "0.7200088768188332",
        "directness_lcc": "0.8889575772826566",
        "poi_coverage": "125",
        "components": "35",
        "overlap_biketrack": "0",
        "overlap_bikeable": "934.4719999999998",
        "efficiency_global": "0.07211101823003985",
        "efficiency_local": "0.2575002318891423",
        "efficiency_global_routed": "0.22971767139393287",
        "efficiency_local_routed": "0.0"
    },
    {
        "length": "207844.60599999918",
        "length_lcc": "12188.149999999994",
        "coverage": "216.57788520401073",
        "directness": "0.6793644285309455",
        "directness_lcc": "0.8779787090336252",
        "poi_coverage": "166",
        "components": "44",
        "overlap_biketrack": "0",
        "overlap_bikeable": "1057.4869999999999",
        "efficiency_global": "0.10066977698229511",
        "efficiency_local": "0.1231522848165463",
        "efficiency_global_routed": "0.4858906849404931",
        "efficiency_local_routed": "0.197574565897349"
    },
    {
        "length": "260935.64899999957",
        "length_lcc": "21970.87700000001",
        "coverage": "261.00269565233356",
        "directness": "0.6553493285407739",
        "directness_lcc": "0.5624146206240573",
        "poi_coverage": "202",
        "components": "50",
        "overlap_biketrack": "0",
        "overlap_bikeable": "2042.4140000000002",
        "efficiency_global": "0.0742967861866856",
        "efficiency_local": "0.07868062641057125",
        "efficiency_global_routed": "0.40629291739148077",
        "efficiency_local_routed": "0.1745597934667467"
    },
    {
        "length": "335865.32499999955",
        "length_lcc": "40737.624000000025",
        "coverage": "313.817878079338",
        "directness": "0.6955501014832106",
        "directness_lcc": "0.8227793332289063",
        "poi_coverage": "219",
        "components": "43",
        "overlap_biketrack": "0",
        "overlap_bikeable": "2073.574",
        "efficiency_global": "0.07431157606894265",
        "efficiency_local": "0.104760590919084",
        "efficiency_global_routed": "0.401175985463012",
        "efficiency_local_routed": "0.19715563351837798"
    },
    {
        "length": "387357.1640000003",
        "length_lcc": "42663.94999999999",
        "coverage": "349.7360818976639",
        "directness": "0.6668981537770696",
        "directness_lcc": "0.8332145277130849",
        "poi_coverage": "241",
        "components": "45",
        "overlap_biketrack": "0",
        "overlap_bikeable": "2487.570000000001",
        "efficiency_global": "0.07243555823364223",
        "efficiency_local": "0.10869393232357112",
        "efficiency_global_routed": "0.3635270053993894",
        "efficiency_local_routed": "0.22053158749358567"
    },
    {
        "length": "430232.2889999995",
        "length_lcc": "52160.386999999966",
        "coverage": "373.81317356543036",
        "directness": "0.6703955755114672",
        "directness_lcc": "0.6017555694404376",
        "poi_coverage": "260",
        "components": "44",
        "overlap_biketrack": "0",
        "overlap_bikeable": "3048.201000000002",
        "efficiency_global": "0.06992794148859169",
        "efficiency_local": "0.0778756099721065",
        "efficiency_global_routed": "0.4110236678181941",
        "efficiency_local_routed": "0.1945774185961027"
    },
    {
        "length": "491290.41899999965",
        "length_lcc": "107426.31899999984",
        "coverage": "411.38824700836966",
        "directness": "0.5555872430172925",
        "directness_lcc": "0.632952711647348",
        "poi_coverage": "273",
        "components": "37",
        "overlap_biketrack": "0",
        "overlap_bikeable": "3048.201000000002",
        "efficiency_global": "0.07593936071086774",
        "efficiency_local": "0.0803544186553833",
        "efficiency_global_routed": "0.4406743300888338",
        "efficiency_local_routed": "0.15907797679708996"
    },
    {
        "length": "543744.1319999994",
        "length_lcc": "114295.28299999982",
        "coverage": "442.8733903882451",
        "directness": "0.5488775352471555",
        "directness_lcc": "0.40766465105061067",
        "poi_coverage": "281",
        "components": "30",
        "overlap_biketrack": "0",
        "overlap_bikeable": "3242.3510000000015",
        "efficiency_global": "0.08917448281129936",
        "efficiency_local": "0.09339062152175688",
        "efficiency_global_routed": "0.4510378745958858",
        "efficiency_local_routed": "0.16229013180252644"
    },
    {
        "length": "592294.5640000013",
        "length_lcc": "185689.30400000006",
        "coverage": "474.2615747005444",
        "directness": "0.4949200381422306",
        "directness_lcc": "0.47027056359857866",
        "poi_coverage": "290",
        "components": "25",
        "overlap_biketrack": "0",
        "overlap_bikeable": "3351.7210000000023",
        "efficiency_global": "0.1069436941402468",
        "efficiency_local": "0.10507339803953128",
        "efficiency_global_routed": "0.4487307646169295",
        "efficiency_local_routed": "0.15501217969229192"
    },
    {
        "length": "631819.6470000026",
        "length_lcc": "461886.6139999992",
        "coverage": "496.43429877766926",
        "directness": "0.3492602899470569",
        "directness_lcc": "0.35181942341896166",
        "poi_coverage": "293",
        "components": "17",
        "overlap_biketrack": "0",
        "overlap_bikeable": "3351.7210000000023",
        "efficiency_global": "0.1462284599473291",
        "efficiency_local": "0.12103527826709606",
        "efficiency_global_routed": "0.522883213959634",
        "efficiency_local_routed": "0.18494524696955927"
    },
    {
        "length": "678088.0830000032",
        "length_lcc": "519612.8409999986",
        "coverage": "522.4872130048504",
        "directness": "0.32739056938726724",
        "directness_lcc": "0.3054934265268238",
        "poi_coverage": "301",
        "components": "16",
        "overlap_biketrack": "0",
        "overlap_bikeable": "3403.801000000002",
        "efficiency_global": "0.1481472756505616",
        "efficiency_local": "0.13460826728892675",
        "efficiency_global_routed": "0.5150703031282998",
        "efficiency_local_routed": "0.17461815742384257"
    },
    {
        "length": "719643.7080000021",
        "length_lcc": "556008.7629999989",
        "coverage": "546.5940301238533",
        "directness": "0.3375310557753209",
        "directness_lcc": "0.33530245312053464",
        "poi_coverage": "305",
        "components": "13",
        "overlap_biketrack": "0",
        "overlap_bikeable": "3754.342000000002",
        "efficiency_global": "0.16196440967930636",
        "efficiency_local": "0.16327632516299148",
        "efficiency_global_routed": "0.5181758899716584",
        "efficiency_local_routed": "0.18165677680638131"
    },
    {
        "length": "764595.2290000017",
        "length_lcc": "732978.7950000019",
        "coverage": "560.8702402439077",
        "directness": "0.2780344292952575",
        "directness_lcc": "0.2862137069322234",
        "poi_coverage": "307",
        "components": "8",
        "overlap_biketrack": "0",
        "overlap_bikeable": "3754.342000000002",
        "efficiency_global": "0.2333579128754863",
        "efficiency_local": "0.15713894415997973",
        "efficiency_global_routed": "0.5727208024128695",
        "efficiency_local_routed": "0.19725377345220046"
    },
    {
        "length": "794289.6630000034",
        "length_lcc": "776071.4010000019",
        "coverage": "568.9728360799911",
        "directness": "0.3845376689439678",
        "directness_lcc": "0.3710009412556635",
        "poi_coverage": "309",
        "components": "5",
        "overlap_biketrack": "0",
        "overlap_bikeable": "3754.342000000002",
        "efficiency_global": "0.28817379488207784",
        "efficiency_local": "0.17565161709406107",
        "efficiency_global_routed": "0.6082547683830942",
        "efficiency_local_routed": "0.1883028837442174"
    },
    {
        "length": "825591.5770000046",
        "length_lcc": "810094.9630000048",
        "coverage": "582.2927540136801",
        "directness": "0.39503726767548314",
        "directness_lcc": "0.41582642506727363",
        "poi_coverage": "311",
        "components": "4",
        "overlap_biketrack": "0",
        "overlap_bikeable": "3827.9630000000025",
        "efficiency_global": "0.31249300578719036",
        "efficiency_local": "0.20819593408214573",
        "efficiency_global_routed": "0.6255464239030734",
        "efficiency_local_routed": "0.20623636771391396"
    },
    {
        "length": "859578.7840000063",
        "length_lcc": "854730.9750000054",
        "coverage": "593.5126286981213",
        "directness": "0.5529734941076255",
        "directness_lcc": "0.5583560016861638",
        "poi_coverage": "311",
        "components": "2",
        "overlap_biketrack": "0",
        "overlap_bikeable": "3833.2500000000023",
        "efficiency_global": "0.4133196385420388",
        "efficiency_local": "0.21247926072804146",
        "efficiency_global_routed": "0.6960397737100281",
        "efficiency_local_routed": "0.201433098710978"
    },
    {
        "length": "899744.9000000077",
        "length_lcc": "899744.9000000077",
        "coverage": "604.7753712547861",
        "directness": "0.6113675283916913",
        "directness_lcc": "0.6113675283916913",
        "poi_coverage": "314",
        "components": "1",
        "overlap_biketrack": "0",
        "overlap_bikeable": "4294.432000000002",
        "efficiency_global": "0.4557390942453708",
        "efficiency_local": "0.2028682809508515",
        "efficiency_global_routed": "0.7173869230821975",
        "efficiency_local_routed": "0.21622855605512034"
    },
    {
        "length": "941833.7120000076",
        "length_lcc": "941833.7120000076",
        "coverage": "617.9886350779375",
        "directness": "0.6360053067280197",
        "directness_lcc": "0.6360053067280197",
        "poi_coverage": "315",
        "components": "1",
        "overlap_biketrack": "0",
        "overlap_bikeable": "5004.096000000002",
        "efficiency_global": "0.48210472029248863",
        "efficiency_local": "0.23245887718114572",
        "efficiency_global_routed": "0.7250500215899748",
        "efficiency_local_routed": "0.22109680292113199"
    },
    {
        "length": "970437.773000007",
        "length_lcc": "970437.773000007",
        "coverage": "624.2023305891875",
        "directness": "0.6529032654219604",
        "directness_lcc": "0.6529032654219604",
        "poi_coverage": "316",
        "components": "1",
        "overlap_biketrack": "0",
        "overlap_bikeable": "5029.933000000002",
        "efficiency_global": "0.5035919879218625",
        "efficiency_local": "0.2596647259246856",
        "efficiency_global_routed": "0.744773865040792",
        "efficiency_local_routed": "0.1933734065664936"
    },
    {
        "length": "1001830.2380000051",
        "length_lcc": "1001830.2380000051",
        "coverage": "631.7275786926566",
        "directness": "0.6634791685794315",
        "directness_lcc": "0.6634791685794315",
        "poi_coverage": "317",
        "components": "1",
        "overlap_biketrack": "0",
        "overlap_bikeable": "6023.006999999998",
        "efficiency_global": "0.5242970955929773",
        "efficiency_local": "0.2711691159771908",
        "efficiency_global_routed": "0.7669171508836613",
        "efficiency_local_routed": "0.20099709424172224"
    },
    {
        "length": "1020961.3090000075",
        "length_lcc": "1020961.3090000075",
        "coverage": "634.8724528894569",
        "directness": "0.6829531862762956",
        "directness_lcc": "0.6829531862762956",
        "poi_coverage": "317",
        "components": "1",
        "overlap_biketrack": "0",
        "overlap_bikeable": "6023.006999999998",
        "efficiency_global": "0.5449644954629991",
        "efficiency_local": "0.2821938275222369",
        "efficiency_global_routed": "0.7648620434204474",
        "efficiency_local_routed": "0.21571797825932465"
    },
    {
        "length": "1050416.6700000074",
        "length_lcc": "1050416.6700000074",
        "coverage": "642.4085167611545",
        "directness": "0.684038698210721",
        "directness_lcc": "0.684038698210721",
        "poi_coverage": "318",
        "components": "1",
        "overlap_biketrack": "0",
        "overlap_bikeable": "6916.749999999996",
        "efficiency_global": "0.5666774856441529",
        "efficiency_local": "0.29677230903109153",
        "efficiency_global_routed": "0.778096444331433",
        "efficiency_local_routed": "0.22616545061894144"
    },
    {
        "length": "1075934.6690000056",
        "length_lcc": "1075934.6690000056",
        "coverage": "648.2497160867722",
        "directness": "0.6936455909265877",
        "directness_lcc": "0.6936455909265877",
        "poi_coverage": "320",
        "components": "1",
        "overlap_biketrack": "0",
        "overlap_bikeable": "6954.555999999996",
        "efficiency_global": "0.5865837594512403",
        "efficiency_local": "0.31234147306532245",
        "efficiency_global_routed": "0.7663985251029157",
        "efficiency_local_routed": "0.21518321894692524"
    },
    {
        "length": "1097177.5060000077",
        "length_lcc": "1097177.5060000077",
        "coverage": "653.4815618613417",
        "directness": "0.7121287824845982",
        "directness_lcc": "0.7121287824845982",
        "poi_coverage": "320",
        "components": "1",
        "overlap_biketrack": "0",
        "overlap_bikeable": "6954.555999999997",
        "efficiency_global": "0.6011590452392396",
        "efficiency_local": "0.31670188146013645",
        "efficiency_global_routed": "0.7825510173294712",
        "efficiency_local_routed": "0.20668132984762647"
    },
    {
        "length": "1124689.3470000064",
        "length_lcc": "1124689.3470000064",
        "coverage": "660.1581298227776",
        "directness": "0.7190452914171438",
        "directness_lcc": "0.7190452914171438",
        "poi_coverage": "320",
        "components": "1",
        "overlap_biketrack": "0",
        "overlap_bikeable": "6979.679999999997",
        "efficiency_global": "0.611502812169125",
        "efficiency_local": "0.32655893618339155",
        "efficiency_global_routed": "0.7859026543743928",
        "efficiency_local_routed": "0.2339408316336039"
    },
    {
        "length": "1144489.5140000037",
        "length_lcc": "1144489.5140000037",
        "coverage": "662.5271739882913",
        "directness": "0.722380954762436",
        "directness_lcc": "0.722380954762436",
        "poi_coverage": "320",
        "components": "1",
        "overlap_biketrack": "0",
        "overlap_bikeable": "7033.138999999996",
        "efficiency_global": "0.6216485932523589",
        "efficiency_local": "0.34582788602482906",
        "efficiency_global_routed": "0.7841293971636228",
        "efficiency_local_routed": "0.22076746513880993"
    },
    {
        "length": "1182478.2110000083",
        "length_lcc": "1182478.2110000083",
        "coverage": "675.916050209738",
        "directness": "0.7256178805317028",
        "directness_lcc": "0.7256178805317028",
        "poi_coverage": "320",
        "components": "1",
        "overlap_biketrack": "0",
        "overlap_bikeable": "7091.1749999999965",
        "efficiency_global": "0.6309544813590499",
        "efficiency_local": "0.34790690565836774",
        "efficiency_global_routed": "0.7824614640954818",
        "efficiency_local_routed": "0.18576511099602144"
    },
    {
        "length": "1215992.4910000071",
        "length_lcc": "1215992.4910000071",
        "coverage": "684.2271542640332",
        "directness": "0.7352841395012686",
        "directness_lcc": "0.7352841395012686",
        "poi_coverage": "320",
        "components": "1",
        "overlap_biketrack": "0",
        "overlap_bikeable": "7091.1749999999965",
        "efficiency_global": "0.643473044366016",
        "efficiency_local": "0.3688946038913885",
        "efficiency_global_routed": "0.8024820236448882",
        "efficiency_local_routed": "0.2082779890038299"
    },
    {
        "length": "1232695.9890000045",
        "length_lcc": "1232695.9890000045",
        "coverage": "688.7534605938833",
        "directness": "0.7383074938527525",
        "directness_lcc": "0.7383074938527525",
        "poi_coverage": "320",
        "components": "1",
        "overlap_biketrack": "0",
        "overlap_bikeable": "7223.300999999998",
        "efficiency_global": "0.6483777344057748",
        "efficiency_local": "0.3953379869714861",
        "efficiency_global_routed": "0.8016642593076099",
        "efficiency_local_routed": "0.2008749996895085"
    },
    {
        "length": "1250716.3340000068",
        "length_lcc": "1250716.3340000068",
        "coverage": "689.489461865843",
        "directness": "0.7477729613333022",
        "directness_lcc": "0.7477729613333022",
        "poi_coverage": "320",
        "components": "1",
        "overlap_biketrack": "0",
        "overlap_bikeable": "7314.915999999997",
        "efficiency_global": "0.6605221463432376",
        "efficiency_local": "0.41207109827050903",
        "efficiency_global_routed": "0.8010463226505575",
        "efficiency_local_routed": "0.21655545270481266"
    },
    {
        "length": "1268256.3270000068",
        "length_lcc": "1268256.3270000068",
        "coverage": "694.5168594525766",
        "directness": "0.7537318787892601",
        "directness_lcc": "0.7537318787892601",
        "poi_coverage": "320",
        "components": "1",
        "overlap_biketrack": "0",
        "overlap_bikeable": "7314.915999999997",
        "efficiency_global": "0.6680597560187614",
        "efficiency_local": "0.4529681997550745",
        "efficiency_global_routed": "0.798988684444309",
        "efficiency_local_routed": "0.20713713771779607"
    },
    {
        "length": "1284912.1880000066",
        "length_lcc": "1284912.1880000066",
        "coverage": "698.3704216024897",
        "directness": "0.7574751210713065",
        "directness_lcc": "0.7574751210713065",
        "poi_coverage": "320",
        "components": "1",
        "overlap_biketrack": "0",
        "overlap_bikeable": "7365.879999999997",
        "efficiency_global": "0.6780334623578933",
        "efficiency_local": "0.4895998357966263",
        "efficiency_global_routed": "0.8074001040777431",
        "efficiency_local_routed": "0.22667209982675854"
    },
    {
        "length": "1314153.6050000023",
        "length_lcc": "1314153.6050000023",
        "coverage": "704.4776901380012",
        "directness": "0.756837136903066",
        "directness_lcc": "0.756837136903066",
        "poi_coverage": "320",
        "components": "1",
        "overlap_biketrack": "0",
        "overlap_bikeable": "7567.452999999997",
        "efficiency_global": "0.6835533005881944",
        "efficiency_local": "0.5209983540690957",
        "efficiency_global_routed": "0.8032522861836962",
        "efficiency_local_routed": "0.225227457461936"
    },
    {
        "length": "1333919.2640000018",
        "length_lcc": "1333919.2640000018",
        "coverage": "706.7187784048047",
        "directness": "0.754486577208385",
        "directness_lcc": "0.754486577208385",
        "poi_coverage": "320",
        "components": "1",
        "overlap_biketrack": "0",
        "overlap_bikeable": "7711.0819999999985",
        "efficiency_global": "0.6862786100547725",
        "efficiency_local": "0.5491325637971949",
        "efficiency_global_routed": "0.7969098498114743",
        "efficiency_local_routed": "0.22236178254907665"
    },
    {
        "length": "1363229.8560000013",
        "length_lcc": "1363229.8560000013",
        "coverage": "711.2187631170236",
        "directness": "0.7638567280534927",
        "directness_lcc": "0.7638567280534927",
        "poi_coverage": "320",
        "components": "1",
        "overlap_biketrack": "0",
        "overlap_bikeable": "7890.304999999997",
        "efficiency_global": "0.6946534757808952",
        "efficiency_local": "0.5716464540473168",
        "efficiency_global_routed": "0.7978968285579218",
        "efficiency_local_routed": "0.19285437548081757"
    },
    {
        "length": "1383436.8989999976",
        "length_lcc": "1383436.8989999976",
        "coverage": "715.8624093414536",
        "directness": "0.77073510037988",
        "directness_lcc": "0.77073510037988",
        "poi_coverage": "320",
        "components": "1",
        "overlap_biketrack": "0",
        "overlap_bikeable": "7890.304999999997",
        "efficiency_global": "0.7012214321215031",
        "efficiency_local": "0.6111382883675052",
        "efficiency_global_routed": "0.811942654874408",
        "efficiency_local_routed": "0.2363513602114157"
    },
    {
        "length": "1406495.5479999967",
        "length_lcc": "1406495.5479999967",
        "coverage": "722.0104949459383",
        "directness": "0.7742748845703603",
        "directness_lcc": "0.7742748845703603",
        "poi_coverage": "320",
        "components": "1",
        "overlap_biketrack": "0",
        "overlap_bikeable": "8129.648999999998",
        "efficiency_global": "0.7048251066941502",
        "efficiency_local": "0.6349996032966261",
        "efficiency_global_routed": "0.7996129158428146",
        "efficiency_local_routed": "0.2196976623066648"
    },
    {
        "length": "1418660.3049999946",
        "length_lcc": "1418660.3049999946",
        "coverage": "723.1105944641745",
        "directness": "0.7710698831872443",
        "directness_lcc": "0.7710698831872443",
        "poi_coverage": "320",
        "components": "1",
        "overlap_biketrack": "0",
        "overlap_bikeable": "8129.648999999998",
        "efficiency_global": "0.7098767867747819",
        "efficiency_local": "0.6499129423505297",
        "efficiency_global_routed": "0.8065123262006946",
        "efficiency_local_routed": "0.21867787572286929"
    },
    {
        "length": "1436341.8779999926",
        "length_lcc": "1436341.8779999926",
        "coverage": "728.159864327499",
        "directness": "0.7746622244503939",
        "directness_lcc": "0.7746622244503939",
        "poi_coverage": "320",
        "components": "1",
        "overlap_biketrack": "0",
        "overlap_bikeable": "8939.580999999996",
        "efficiency_global": "0.7119593954676419",
        "efficiency_local": "0.6699123456845137",
        "efficiency_global_routed": "0.811505425641963",
        "efficiency_local_routed": "0.22618759213002884"
    }
]