[
    {
        "length": "15688.670999999993",
        "length_lcc": "9981.076999999988",
        "coverage": "17.413895097274846",
        "directness": "0.7035322905497399",
        "directness_lcc": "0.6979054004141556",
        "poi_coverage": "10",
        "components": "3",
        "overlap_biketrack": "0",
        "overlap_bikeable": "1772.5700000000002",
        "efficiency_global": "0.3310155226493932",
        "efficiency_local": "0",
        "efficiency_global_routed": "0.3310155226493933",
        "efficiency_local_routed": "0"
    },
    {
        "length": "19193.312000000013",
        "length_lcc": "12054.308999999996",
        "coverage": "20.148430455470226",
        "directness": "0.6909965586048241",
        "directness_lcc": "0.6881166475857927",
        "poi_coverage": "12",
        "components": "3",
        "overlap_biketrack": "0",
        "overlap_bikeable": "3203.9789999999994",
        "efficiency_global": "0.27859968934647567",
        "efficiency_local": "0.0",
        "efficiency_global_routed": "0.9536512552208836",
        "efficiency_local_routed": "0.7611347879054772"
    },
    {
        "length": "26543.94400000002",
        "length_lcc": "16244.960999999987",
        "coverage": "26.50247364943765",
        "directness": "0.6139315360023262",
        "directness_lcc": "0.618092493435714",
        "poi_coverage": "15",
        "components": "4",
        "overlap_biketrack": "0",
        "overlap_bikeable": "3203.9789999999994",
        "efficiency_global": "0.14021196267993954",
        "efficiency_local": "0.0",
        "efficiency_global_routed": "0.8756815418546446",
        "efficiency_local_routed": "0.5274554567447433"
    },
    {
        "length": "32252.53400000001",
        "length_lcc": "16244.960999999987",
        "coverage": "32.86966462885733",
        "directness": "0.6216633866036151",
        "directness_lcc": "0.6129622411932136",
        "poi_coverage": "19",
        "components": "6",
        "overlap_biketrack": "0",
        "overlap_bikeable": "3203.9789999999994",
        "efficiency_global": "0.10957764263924819",
        "efficiency_local": "0.0",
        "efficiency_global_routed": "0.8354012715440666",
        "efficiency_local_routed": "0.5274554567447433"
    },
    {
        "length": "40667.11099999997",
        "length_lcc": "16244.960999999987",
        "coverage": "41.41379014597228",
        "directness": "0.62535603177656",
        "directness_lcc": "0.6161253864957106",
        "poi_coverage": "24",
        "components": "8",
        "overlap_biketrack": "0",
        "overlap_bikeable": "3417.3829999999994",
        "efficiency_global": "0.08602632430846839",
        "efficiency_local": "0.0",
        "efficiency_global_routed": "0.7677921895825258",
        "efficiency_local_routed": "0.4795049606770393"
    },
    {
        "length": "45344.16099999999",
        "length_lcc": "16244.960999999987",
        "coverage": "44.91601664647316",
        "directness": "0.6069748570991459",
        "directness_lcc": "0.6179081885673468",
        "poi_coverage": "26",
        "components": "7",
        "overlap_biketrack": "0",
        "overlap_bikeable": "3417.3829999999994",
        "efficiency_global": "0.10344738513497687",
        "efficiency_local": "0.0",
        "efficiency_global_routed": "0.754959102674779",
        "efficiency_local_routed": "0.40573496672672554"
    },
    {
        "length": "50228.21600000003",
        "length_lcc": "17160.322999999997",
        "coverage": "48.5033330985634",
        "directness": "0.5999863902481453",
        "directness_lcc": "0.6135848483919267",
        "poi_coverage": "28",
        "components": "7",
        "overlap_biketrack": "0",
        "overlap_bikeable": "3417.3829999999994",
        "efficiency_global": "0.1137972846137254",
        "efficiency_local": "0.0",
        "efficiency_global_routed": "0.7082014048017012",
        "efficiency_local_routed": "0.28175880116555246"
    },
    {
        "length": "56284.87000000001",
        "length_lcc": "17160.322999999997",
        "coverage": "52.05182980090768",
        "directness": "0.5952279101733812",
        "directness_lcc": "0.6137255184765716",
        "poi_coverage": "29",
        "components": "7",
        "overlap_biketrack": "0",
        "overlap_bikeable": "3417.3829999999994",
        "efficiency_global": "0.11259218663402584",
        "efficiency_local": "0.0",
        "efficiency_global_routed": "0.6934749554744473",
        "efficiency_local_routed": "0.2661055344341329"
    },
    {
        "length": "61959.34900000002",
        "length_lcc": "18401.21499999999",
        "coverage": "56.6593975816055",
        "directness": "0.5629533954612436",
        "directness_lcc": "0.6064667879311183",
        "poi_coverage": "32",
        "components": "7",
        "overlap_biketrack": "0",
        "overlap_bikeable": "3417.3829999999994",
        "efficiency_global": "0.11142865149792058",
        "efficiency_local": "0.0",
        "efficiency_global_routed": "0.6733668562435061",
        "efficiency_local_routed": "0.2360390733435394"
    },
    {
        "length": "65414.479",
        "length_lcc": "30201.475000000006",
        "coverage": "57.60839909789599",
        "directness": "0.5539578552304933",
        "directness_lcc": "0.5690432551537182",
        "poi_coverage": "32",
        "components": "6",
        "overlap_biketrack": "0",
        "overlap_bikeable": "3417.3829999999994",
        "efficiency_global": "0.1200522920499684",
        "efficiency_local": "0.0",
        "efficiency_global_routed": "0.7311611146023244",
        "efficiency_local_routed": "0.27051010255342745"
    },
    {
        "length": "69563.14800000018",
        "length_lcc": "30201.475000000006",
        "coverage": "60.17180920199947",
        "directness": "0.5537081964665237",
        "directness_lcc": "0.5748039725167384",
        "poi_coverage": "33",
        "components": "6",
        "overlap_biketrack": "0",
        "overlap_bikeable": "3854.380999999999",
        "efficiency_global": "0.12212034609662104",
        "efficiency_local": "0.11418287425572039",
        "efficiency_global_routed": "0.730108146881687",
        "efficiency_local_routed": "0.2774424558152356"
    },
    {
        "length": "80902.05800000024",
        "length_lcc": "30201.475000000006",
        "coverage": "67.84277913303247",
        "directness": "0.5531465423651408",
        "directness_lcc": "0.5744038405586216",
        "poi_coverage": "36",
        "components": "6",
        "overlap_biketrack": "0",
        "overlap_bikeable": "3854.380999999999",
        "efficiency_global": "0.11795203551312947",
        "efficiency_local": "0.09787103507633177",
        "efficiency_global_routed": "0.7168481479751856",
        "efficiency_local_routed": "0.2576251375427187"
    },
    {
        "length": "84441.35800000027",
        "length_lcc": "30201.475000000006",
        "coverage": "69.82502385995308",
        "directness": "0.534610729184938",
        "directness_lcc": "0.586869742211615",
        "poi_coverage": "37",
        "components": "6",
        "overlap_biketrack": "0",
        "overlap_bikeable": "3854.380999999999",
        "efficiency_global": "0.11784810530336187",
        "efficiency_local": "0.1300531774434525",
        "efficiency_global_routed": "0.6840458441375167",
        "efficiency_local_routed": "0.21815330851082856"
    },
    {
        "length": "90236.03300000007",
        "length_lcc": "44473.26700000009",
        "coverage": "71.80162037700593",
        "directness": "0.4903597829509363",
        "directness_lcc": "0.5878528958939887",
        "poi_coverage": "37",
        "components": "4",
        "overlap_biketrack": "0",
        "overlap_bikeable": "3917.514999999999",
        "efficiency_global": "0.17936194272042535",
        "efficiency_local": "0.09924822024260507",
        "efficiency_global_routed": "0.7299244508341538",
        "efficiency_local_routed": "0.2816479352726544"
    },
    {
        "length": "93001.88600000001",
        "length_lcc": "84282.04000000014",
        "coverage": "72.22195688672464",
        "directness": "0.37771570668884186",
        "directness_lcc": "0.371953946191916",
        "poi_coverage": "37",
        "components": "3",
        "overlap_biketrack": "0",
        "overlap_bikeable": "3917.514999999999",
        "efficiency_global": "0.2476144003922891",
        "efficiency_local": "0.07903534016115366",
        "efficiency_global_routed": "0.7541688721855314",
        "efficiency_local_routed": "0.35675929428253544"
    },
    {
        "length": "95732.88000000003",
        "length_lcc": "87013.03400000006",
        "coverage": "72.80774696891427",
        "directness": "0.4445223040543915",
        "directness_lcc": "0.44632576067429913",
        "poi_coverage": "37",
        "components": "3",
        "overlap_biketrack": "0",
        "overlap_bikeable": "3917.514999999999",
        "efficiency_global": "0.2778476662435338",
        "efficiency_local": "0.07096754080154302",
        "efficiency_global_routed": "0.7969158326397106",
        "efficiency_local_routed": "0.3002790351576936"
    },
    {
        "length": "98990.70800000003",
        "length_lcc": "90270.862",
        "coverage": "73.36932006194274",
        "directness": "0.44747262900193346",
        "directness_lcc": "0.4457498678184434",
        "poi_coverage": "37",
        "components": "3",
        "overlap_biketrack": "0",
        "overlap_bikeable": "3917.514999999999",
        "efficiency_global": "0.28970901981640634",
        "efficiency_local": "0.12344487592625736",
        "efficiency_global_routed": "0.7961341836848835",
        "efficiency_local_routed": "0.32356377546754994"
    },
    {
        "length": "105675.29600000002",
        "length_lcc": "102087.07600000007",
        "coverage": "76.96077572808267",
        "directness": "0.4458104364216669",
        "directness_lcc": "0.4629585691411979",
        "poi_coverage": "38",
        "components": "2",
        "overlap_biketrack": "1275.4219999999998",
        "overlap_bikeable": "5192.936999999998",
        "efficiency_global": "0.31561589810097435",
        "efficiency_local": "0.11869398929569853",
        "efficiency_global_routed": "0.7980129989570187",
        "efficiency_local_routed": "0.30847815956260827"
    },
    {
        "length": "108577.78900000006",
        "length_lcc": "108577.78900000006",
        "coverage": "77.44574681841064",
        "directness": "0.4453935729819923",
        "directness_lcc": "0.4453935729819923",
        "poi_coverage": "38",
        "components": "1",
        "overlap_biketrack": "1275.4219999999998",
        "overlap_bikeable": "5192.936999999998",
        "efficiency_global": "0.34667755073938916",
        "efficiency_local": "0.13726217497981721",
        "efficiency_global_routed": "0.796621547394305",
        "efficiency_local_routed": "0.2865981270170897"
    },
    {
        "length": "116297.36200000001",
        "length_lcc": "116297.36200000001",
        "coverage": "79.83116725209895",
        "directness": "0.5260177453125456",
        "directness_lcc": "0.5260177453125456",
        "poi_coverage": "38",
        "components": "1",
        "overlap_biketrack": "1275.4219999999998",
        "overlap_bikeable": "5192.936999999998",
        "efficiency_global": "0.3991742702429138",
        "efficiency_local": "0.1257857316921533",
        "efficiency_global_routed": "0.8474997584262938",
        "efficiency_local_routed": "0.2823238692320825"
    },
    {
        "length": "117150.842",
        "length_lcc": "117150.842",
        "coverage": "79.8315007290911",
        "directness": "0.5086367541885592",
        "directness_lcc": "0.5086367541885592",
        "poi_coverage": "38",
        "components": "1",
        "overlap_biketrack": "1275.4219999999998",
        "overlap_bikeable": "5192.936999999998",
        "efficiency_global": "0.405338962831049",
        "efficiency_local": "0.1556542895403517",
        "efficiency_global_routed": "0.8439044388627561",
        "efficiency_local_routed": "0.2674587643369149"
    },
    {
        "length": "120043.87199999994",
        "length_lcc": "120043.87199999994",
        "coverage": "80.5919569660586",
        "directness": "0.5450131706131787",
        "directness_lcc": "0.5450131706131787",
        "poi_coverage": "38",
        "components": "1",
        "overlap_biketrack": "1275.4219999999998",
        "overlap_bikeable": "5192.936999999998",
        "efficiency_global": "0.45377278259725007",
        "efficiency_local": "0.16365662593421487",
        "efficiency_global_routed": "0.8529065857358699",
        "efficiency_local_routed": "0.25718888740579826"
    },
    {
        "length": "123773.90399999995",
        "length_lcc": "123773.90399999995",
        "coverage": "81.29199231705067",
        "directness": "0.583104124216584",
        "directness_lcc": "0.583104124216584",
        "poi_coverage": "38",
        "components": "1",
        "overlap_biketrack": "1275.4219999999998",
        "overlap_bikeable": "5224.738999999998",
        "efficiency_global": "0.489583260345351",
        "efficiency_local": "0.18373644635007585",
        "efficiency_global_routed": "0.8553506622024303",
        "efficiency_local_routed": "0.2416419838831823"
    },
    {
        "length": "123773.90399999995",
        "length_lcc": "123773.90399999995",
        "coverage": "81.29199231705067",
        "directness": "0.5914396045742426",
        "directness_lcc": "0.5914396045742426",
        "poi_coverage": "38",
        "components": "1",
        "overlap_biketrack": "1275.4219999999998",
        "overlap_bikeable": "5224.738999999998",
        "efficiency_global": "0.4990062316272776",
        "efficiency_local": "0.1861589664563651",
        "efficiency_global_routed": "0.8553506622024303",
        "efficiency_local_routed": "0.2416419838831823"
    },
    {
        "length": "125298.12199999993",
        "length_lcc": "125298.12199999993",
        "coverage": "81.32481423579716",
        "directness": "0.6176745110399346",
        "directness_lcc": "0.6176745110399346",
        "poi_coverage": "38",
        "components": "1",
        "overlap_biketrack": "1275.4219999999998",
        "overlap_bikeable": "5224.738999999998",
        "efficiency_global": "0.5176952591838077",
        "efficiency_local": "0.20274763712831906",
        "efficiency_global_routed": "0.8581236713967664",
        "efficiency_local_routed": "0.22206307357791807"
    },
    {
        "length": "127717.78099999989",
        "length_lcc": "127717.78099999989",
        "coverage": "81.48862809577086",
        "directness": "0.6337284553772536",
        "directness_lcc": "0.6337284553772536",
        "poi_coverage": "38",
        "components": "1",
        "overlap_biketrack": "1275.4219999999998",
        "overlap_bikeable": "5224.738999999998",
        "efficiency_global": "0.5341272690336624",
        "efficiency_local": "0.22384491388583685",
        "efficiency_global_routed": "0.8607706846444662",
        "efficiency_local_routed": "0.21290583343037506"
    },
    {
        "length": "133229.23299999977",
        "length_lcc": "133229.23299999977",
        "coverage": "81.97221823090565",
        "directness": "0.6627869745718449",
        "directness_lcc": "0.6627869745718449",
        "poi_coverage": "38",
        "components": "1",
        "overlap_biketrack": "1275.4219999999998",
        "overlap_bikeable": "5486.91",
        "efficiency_global": "0.5418410643408005",
        "efficiency_local": "0.23884737572469436",
        "efficiency_global_routed": "0.859088590388465",
        "efficiency_local_routed": "0.23719719170973824"
    },
    {
        "length": "133229.23299999977",
        "length_lcc": "133229.23299999977",
        "coverage": "81.97221823090565",
        "directness": "0.6686722272331769",
        "directness_lcc": "0.6686722272331769",
        "poi_coverage": "38",
        "components": "1",
        "overlap_biketrack": "1275.4219999999998",
        "overlap_bikeable": "5486.91",
        "efficiency_global": "0.5477091912389772",
        "efficiency_local": "0.293785050029272",
        "efficiency_global_routed": "0.859088590388465",
        "efficiency_local_routed": "0.23719719170973824"
    },
    {
        "length": "137897.1579999994",
        "length_lcc": "137897.1579999994",
        "coverage": "82.70816876050333",
        "directness": "0.6738166935234777",
        "directness_lcc": "0.6738166935234777",
        "poi_coverage": "38",
        "components": "1",
        "overlap_biketrack": "1275.4219999999998",
        "overlap_bikeable": "5486.91",
        "efficiency_global": "0.5540478543846629",
        "efficiency_local": "0.34079362017721304",
        "efficiency_global_routed": "0.8558744819546622",
        "efficiency_local_routed": "0.2170300059112453"
    },
    {
        "length": "139732.17899999936",
        "length_lcc": "139732.17899999936",
        "coverage": "82.89622023923893",
        "directness": "0.6837389568921306",
        "directness_lcc": "0.6837389568921306",
        "poi_coverage": "38",
        "components": "1",
        "overlap_biketrack": "1275.4219999999998",
        "overlap_bikeable": "5486.91",
        "efficiency_global": "0.5718169079871833",
        "efficiency_local": "0.34842884886460146",
        "efficiency_global_routed": "0.8604016940707635",
        "efficiency_local_routed": "0.22152689255806962"
    },
    {
        "length": "141554.38299999945",
        "length_lcc": "141554.38299999945",
        "coverage": "82.89659335375126",
        "directness": "0.6885964932717431",
        "directness_lcc": "0.6885964932717431",
        "poi_coverage": "38",
        "components": "1",
        "overlap_biketrack": "1275.4219999999998",
        "overlap_bikeable": "5486.91",
        "efficiency_global": "0.5764151983968935",
        "efficiency_local": "0.4080067065054571",
        "efficiency_global_routed": "0.8593162014717135",
        "efficiency_local_routed": "0.20933450740038323"
    },
    {
        "length": "144575.6779999995",
        "length_lcc": "144575.6779999995",
        "coverage": "82.9335479662921",
        "directness": "0.6951843537338017",
        "directness_lcc": "0.6951843537338017",
        "poi_coverage": "38",
        "components": "1",
        "overlap_biketrack": "1275.4219999999998",
        "overlap_bikeable": "5486.91",
        "efficiency_global": "0.5972186199059907",
        "efficiency_local": "0.4531539608049338",
        "efficiency_global_routed": "0.8573949598653592",
        "efficiency_local_routed": "0.19981930251854763"
    },
    {
        "length": "149168.59199999977",
        "length_lcc": "149168.59199999977",
        "coverage": "84.3266107832471",
        "directness": "0.6989931253604316",
        "directness_lcc": "0.6989931253604316",
        "poi_coverage": "38",
        "components": "1",
        "overlap_biketrack": "1275.4219999999998",
        "overlap_bikeable": "6940.9630000000025",
        "efficiency_global": "0.6003000700446864",
        "efficiency_local": "0.4546160131590231",
        "efficiency_global_routed": "0.856444641243327",
        "efficiency_local_routed": "0.19460341998905012"
    },
    {
        "length": "151485.38899999973",
        "length_lcc": "151485.38899999973",
        "coverage": "84.82128919911518",
        "directness": "0.6994866274739934",
        "directness_lcc": "0.6994866274739934",
        "poi_coverage": "38",
        "components": "1",
        "overlap_biketrack": "1275.4219999999998",
        "overlap_bikeable": "6950.635000000002",
        "efficiency_global": "0.6083947851919672",
        "efficiency_local": "0.4918716039112991",
        "efficiency_global_routed": "0.8606936624444025",
        "efficiency_local_routed": "0.19240212277335558"
    },
    {
        "length": "151485.38899999973",
        "length_lcc": "151485.38899999973",
        "coverage": "84.82128919911518",
        "directness": "0.699511924534771",
        "directness_lcc": "0.699511924534771",
        "poi_coverage": "38",
        "components": "1",
        "overlap_biketrack": "1275.4219999999998",
        "overlap_bikeable": "6950.635000000002",
        "efficiency_global": "0.6105352150819661",
        "efficiency_local": "0.5175196930978089",
        "efficiency_global_routed": "0.8606936624444025",
        "efficiency_local_routed": "0.19240212277335558"
    },
    {
        "length": "153812.24799999982",
        "length_lcc": "153812.24799999982",
        "coverage": "85.06498080266394",
        "directness": "0.6989166223143798",
        "directness_lcc": "0.6989166223143798",
        "poi_coverage": "38",
        "components": "1",
        "overlap_biketrack": "1275.4219999999998",
        "overlap_bikeable": "7816.357000000003",
        "efficiency_global": "0.6223703188012664",
        "efficiency_local": "0.5718916855389764",
        "efficiency_global_routed": "0.8582887021772665",
        "efficiency_local_routed": "0.1818920245692472"
    },
    {
        "length": "153812.24799999982",
        "length_lcc": "153812.24799999982",
        "coverage": "85.06498080266394",
        "directness": "0.7006589765308182",
        "directness_lcc": "0.7006589765308182",
        "poi_coverage": "38",
        "components": "1",
        "overlap_biketrack": "1275.4219999999998",
        "overlap_bikeable": "7816.357000000003",
        "efficiency_global": "0.6243885930668543",
        "efficiency_local": "0.5808037952226333",
        "efficiency_global_routed": "0.8582887021772665",
        "efficiency_local_routed": "0.1818920245692472"
    },
    {
        "length": "155224.25099999984",
        "length_lcc": "155224.25099999984",
        "coverage": "85.25018164562924",
        "directness": "0.7025180000035225",
        "directness_lcc": "0.7025180000035225",
        "poi_coverage": "38",
        "components": "1",
        "overlap_biketrack": "1275.4219999999998",
        "overlap_bikeable": "7816.357000000003",
        "efficiency_global": "0.633115708431741",
        "efficiency_local": "0.582747574729412",
        "efficiency_global_routed": "0.858250193375853",
        "efficiency_local_routed": "0.18063396605928267"
    },
    {
        "length": "157282.34599999984",
        "length_lcc": "157282.34599999984",
        "coverage": "85.78201827336319",
        "directness": "0.706200305046752",
        "directness_lcc": "0.706200305046752",
        "poi_coverage": "38",
        "components": "1",
        "overlap_biketrack": "1275.4219999999998",
        "overlap_bikeable": "7816.357000000003",
        "efficiency_global": "0.6391156832459527",
        "efficiency_local": "0.6054374929492824",
        "efficiency_global_routed": "0.8584695556515508",
        "efficiency_local_routed": "0.17822551317849222"
    },
    {
        "length": "162491.04900000014",
        "length_lcc": "162491.04900000014",
        "coverage": "86.06648730295558",
        "directness": "0.7183520129903072",
        "directness_lcc": "0.7183520129903072",
        "poi_coverage": "38",
        "components": "1",
        "overlap_biketrack": "1275.4219999999998",
        "overlap_bikeable": "8649.050000000007",
        "efficiency_global": "0.6547236850825471",
        "efficiency_local": "0.6313920330869957",
        "efficiency_global_routed": "0.858277557762505",
        "efficiency_local_routed": "0.17929064496743985"
    }
]