[
    {
        "length": "26195.445000000014",
        "length_lcc": "3574.2990000000013",
        "coverage": "28.824843938604783",
        "directness": "0.7670378035514586",
        "directness_lcc": "0.7519124111126317",
        "poi_coverage": "17",
        "components": "7",
        "overlap_biketrack": "1075.5149999999999",
        "overlap_bikeable": "6890.412999999996",
        "efficiency_global": "0.1820462016612801",
        "efficiency_local": "0.0",
        "efficiency_global_routed": "0.833812509179593",
        "efficiency_local_routed": "0.44526488817583604"
    },
    {
        "length": "64309.09499999993",
        "length_lcc": "16136.410000000002",
        "coverage": "66.48294583968232",
        "directness": "0.5444356145740095",
        "directness_lcc": "0.48677133781513543",
        "poi_coverage": "36",
        "components": "13",
        "overlap_biketrack": "5598.119",
        "overlap_bikeable": "20975.218999999994",
        "efficiency_global": "0.08810012849953502",
        "efficiency_local": "0.0",
        "efficiency_global_routed": "0.6269330241761166",
        "efficiency_local_routed": "0.2968432587838907"
    },
    {
        "length": "90016.00299999991",
        "length_lcc": "18474.829000000005",
        "coverage": "90.3745236025942",
        "directness": "0.5448836752584645",
        "directness_lcc": "0.47590981696121665",
        "poi_coverage": "49",
        "components": "16",
        "overlap_biketrack": "6344.306999999998",
        "overlap_bikeable": "27935.352999999985",
        "efficiency_global": "0.0709628229406302",
        "efficiency_local": "0.0",
        "efficiency_global_routed": "0.7957615222803405",
        "efficiency_local_routed": "0.22214553585596658"
    },
    {
        "length": "127248.28899999996",
        "length_lcc": "20909.93900000001",
        "coverage": "120.82775183278653",
        "directness": "0.6167366200517165",
        "directness_lcc": "0.5197513079708503",
        "poi_coverage": "65",
        "components": "18",
        "overlap_biketrack": "7440.717999999995",
        "overlap_bikeable": "33733.54999999996",
        "efficiency_global": "0.0669271891962075",
        "efficiency_local": "0.0",
        "efficiency_global_routed": "0.7149647347178477",
        "efficiency_local_routed": "0.2178862961654635"
    },
    {
        "length": "146708.16800000015",
        "length_lcc": "20909.93900000001",
        "coverage": "137.7247374782165",
        "directness": "0.5936429547192135",
        "directness_lcc": "0.5193509576698461",
        "poi_coverage": "74",
        "components": "19",
        "overlap_biketrack": "8170.120999999996",
        "overlap_bikeable": "38023.567",
        "efficiency_global": "0.06606582955891287",
        "efficiency_local": "0.0",
        "efficiency_global_routed": "0.6635602130543425",
        "efficiency_local_routed": "0.19495089656909895"
    },
    {
        "length": "167380.191",
        "length_lcc": "31580.886999999984",
        "coverage": "153.72512017911055",
        "directness": "0.5143301171206024",
        "directness_lcc": "0.47233581391680834",
        "poi_coverage": "81",
        "components": "18",
        "overlap_biketrack": "8170.120999999996",
        "overlap_bikeable": "44290.854999999945",
        "efficiency_global": "0.07406547058967214",
        "efficiency_local": "0.0",
        "efficiency_global_routed": "0.6375911448765526",
        "efficiency_local_routed": "0.1707472777402718"
    },
    {
        "length": "186522.7410000004",
        "length_lcc": "35998.15500000001",
        "coverage": "163.28435767514884",
        "directness": "0.5456415323970063",
        "directness_lcc": "0.5244835005193452",
        "poi_coverage": "87",
        "components": "17",
        "overlap_biketrack": "10558.835000000001",
        "overlap_bikeable": "51544.874999999956",
        "efficiency_global": "0.08155974197296346",
        "efficiency_local": "0.0",
        "efficiency_global_routed": "0.6143724344760063",
        "efficiency_local_routed": "0.17707654997604186"
    },
    {
        "length": "212832.3220000004",
        "length_lcc": "40174.70599999995",
        "coverage": "185.24853635729644",
        "directness": "0.5250736126159264",
        "directness_lcc": "0.49977554284802983",
        "poi_coverage": "96",
        "components": "18",
        "overlap_biketrack": "11247.941000000006",
        "overlap_bikeable": "58833.72299999997",
        "efficiency_global": "0.08131719541932135",
        "efficiency_local": "0.040317184368304955",
        "efficiency_global_routed": "0.6146135902296312",
        "efficiency_local_routed": "0.22235734968711063"
    },
    {
        "length": "246161.41700000074",
        "length_lcc": "97849.40200000019",
        "coverage": "202.1298659422282",
        "directness": "0.4632353759845401",
        "directness_lcc": "0.45657553600374323",
        "poi_coverage": "102",
        "components": "14",
        "overlap_biketrack": "12418.206000000006",
        "overlap_bikeable": "65708.79299999998",
        "efficiency_global": "0.08868392786060068",
        "efficiency_local": "0.068133532437758",
        "efficiency_global_routed": "0.6054890492055744",
        "efficiency_local_routed": "0.18581082491626194"
    },
    {
        "length": "260684.1640000009",
        "length_lcc": "149794.71900000013",
        "coverage": "209.16468954523992",
        "directness": "0.4717491172929164",
        "directness_lcc": "0.45527160387274535",
        "poi_coverage": "104",
        "components": "11",
        "overlap_biketrack": "14081.301000000005",
        "overlap_bikeable": "68455.00799999994",
        "efficiency_global": "0.12169667712428804",
        "efficiency_local": "0.13640421103579478",
        "efficiency_global_routed": "0.6172959333774551",
        "efficiency_local_routed": "0.1976958722367586"
    },
    {
        "length": "285053.5130000002",
        "length_lcc": "167798.42099999997",
        "coverage": "223.048342420003",
        "directness": "0.5348391001987581",
        "directness_lcc": "0.5182832439492133",
        "poi_coverage": "108",
        "components": "8",
        "overlap_biketrack": "16430.842000000008",
        "overlap_bikeable": "73900.56000000004",
        "efficiency_global": "0.16160699077484306",
        "efficiency_local": "0.1155819078820968",
        "efficiency_global_routed": "0.6435146306891494",
        "efficiency_local_routed": "0.1814362529945935"
    },
    {
        "length": "315461.4389999999",
        "length_lcc": "233304.10700000045",
        "coverage": "236.67541799541263",
        "directness": "0.4447748730729032",
        "directness_lcc": "0.4475785332513192",
        "poi_coverage": "111",
        "components": "5",
        "overlap_biketrack": "19767.361000000023",
        "overlap_bikeable": "81521.5020000001",
        "efficiency_global": "0.18320257278392915",
        "efficiency_local": "0.11163318259280215",
        "efficiency_global_routed": "0.6725153458610931",
        "efficiency_local_routed": "0.16972789525174395"
    },
    {
        "length": "331146.7849999991",
        "length_lcc": "320292.2659999994",
        "coverage": "243.60097390961158",
        "directness": "0.35447890330371806",
        "directness_lcc": "0.34611442231140394",
        "poi_coverage": "112",
        "components": "3",
        "overlap_biketrack": "21064.765000000018",
        "overlap_bikeable": "86956.5530000001",
        "efficiency_global": "0.2382927422274513",
        "efficiency_local": "0.13997103179443252",
        "efficiency_global_routed": "0.7000470867940065",
        "efficiency_local_routed": "0.17280176116551543"
    },
    {
        "length": "342805.9559999992",
        "length_lcc": "342805.9559999992",
        "coverage": "247.13907887446481",
        "directness": "0.4082321083156334",
        "directness_lcc": "0.4082321083156334",
        "poi_coverage": "112",
        "components": "1",
        "overlap_biketrack": "21264.544000000027",
        "overlap_bikeable": "88193.19200000017",
        "efficiency_global": "0.3217820584069169",
        "efficiency_local": "0.14540910474572083",
        "efficiency_global_routed": "0.7240588278420775",
        "efficiency_local_routed": "0.1974721426361604"
    },
    {
        "length": "360959.2029999987",
        "length_lcc": "360959.2029999987",
        "coverage": "256.2784532667674",
        "directness": "0.5084727755983919",
        "directness_lcc": "0.5084727755983919",
        "poi_coverage": "114",
        "components": "1",
        "overlap_biketrack": "21665.379000000023",
        "overlap_bikeable": "89806.53200000011",
        "efficiency_global": "0.37998924318274413",
        "efficiency_local": "0.14851368337734383",
        "efficiency_global_routed": "0.7335192228067672",
        "efficiency_local_routed": "0.2023133422645372"
    },
    {
        "length": "376874.0359999982",
        "length_lcc": "376874.0359999982",
        "coverage": "261.177641593234",
        "directness": "0.5566634795561095",
        "directness_lcc": "0.5566634795561095",
        "poi_coverage": "114",
        "components": "1",
        "overlap_biketrack": "23476.911000000015",
        "overlap_bikeable": "96942.777",
        "efficiency_global": "0.3915781675471784",
        "efficiency_local": "0.14008046465542945",
        "efficiency_global_routed": "0.7396568823877397",
        "efficiency_local_routed": "0.19341253862670746"
    },
    {
        "length": "394384.3759999981",
        "length_lcc": "394384.3759999981",
        "coverage": "268.5180376220407",
        "directness": "0.5550858249070282",
        "directness_lcc": "0.5550858249070282",
        "poi_coverage": "115",
        "components": "1",
        "overlap_biketrack": "24050.794",
        "overlap_bikeable": "100429.92400000006",
        "efficiency_global": "0.42088294552537314",
        "efficiency_local": "0.15192127945898182",
        "efficiency_global_routed": "0.7355009031850838",
        "efficiency_local_routed": "0.1952814172275543"
    },
    {
        "length": "421181.91099999676",
        "length_lcc": "421181.91099999676",
        "coverage": "274.887931104131",
        "directness": "0.6168576867147435",
        "directness_lcc": "0.6168576867147435",
        "poi_coverage": "115",
        "components": "1",
        "overlap_biketrack": "24220.76100000001",
        "overlap_bikeable": "104446.41500000001",
        "efficiency_global": "0.46487056089731865",
        "efficiency_local": "0.1698049311793807",
        "efficiency_global_routed": "0.7555187148759341",
        "efficiency_local_routed": "0.1859264514261854"
    },
    {
        "length": "439762.714999998",
        "length_lcc": "439762.714999998",
        "coverage": "283.3267975970745",
        "directness": "0.6176919203699001",
        "directness_lcc": "0.6176919203699001",
        "poi_coverage": "119",
        "components": "1",
        "overlap_biketrack": "24859.300000000003",
        "overlap_bikeable": "109912.15300000005",
        "efficiency_global": "0.46335110536034574",
        "efficiency_local": "0.18617141860538639",
        "efficiency_global_routed": "0.7552524812415572",
        "efficiency_local_routed": "0.19108348464749625"
    },
    {
        "length": "452576.8899999981",
        "length_lcc": "452576.8899999981",
        "coverage": "287.7491320723483",
        "directness": "0.6130097531897922",
        "directness_lcc": "0.6130097531897922",
        "poi_coverage": "121",
        "components": "1",
        "overlap_biketrack": "25164.405",
        "overlap_bikeable": "113890.89500000008",
        "efficiency_global": "0.4679459496065446",
        "efficiency_local": "0.21686855503010138",
        "efficiency_global_routed": "0.7500988122403376",
        "efficiency_local_routed": "0.18703856161738144"
    },
    {
        "length": "461986.01799999696",
        "length_lcc": "461986.01799999696",
        "coverage": "290.50401749887715",
        "directness": "0.6298926706211281",
        "directness_lcc": "0.6298926706211281",
        "poi_coverage": "121",
        "components": "1",
        "overlap_biketrack": "25287.318999999996",
        "overlap_bikeable": "116972.61400000012",
        "efficiency_global": "0.48026765627877466",
        "efficiency_local": "0.2242513661732325",
        "efficiency_global_routed": "0.7618301628258498",
        "efficiency_local_routed": "0.17804496261560732"
    },
    {
        "length": "470380.83599999646",
        "length_lcc": "470380.83599999646",
        "coverage": "293.14854759026525",
        "directness": "0.6312760893937953",
        "directness_lcc": "0.6312760893937953",
        "poi_coverage": "122",
        "components": "1",
        "overlap_biketrack": "25556.679999999993",
        "overlap_bikeable": "119416.07900000019",
        "efficiency_global": "0.487351955226596",
        "efficiency_local": "0.23767462232232403",
        "efficiency_global_routed": "0.7576671417766222",
        "efficiency_local_routed": "0.1731756392616749"
    },
    {
        "length": "481487.0139999963",
        "length_lcc": "481487.0139999963",
        "coverage": "295.44681636613444",
        "directness": "0.6360199897323436",
        "directness_lcc": "0.6360199897323436",
        "poi_coverage": "122",
        "components": "1",
        "overlap_biketrack": "26038.625999999997",
        "overlap_bikeable": "125178.66800000012",
        "efficiency_global": "0.5006982339150304",
        "efficiency_local": "0.2680438417888004",
        "efficiency_global_routed": "0.7577952100038957",
        "efficiency_local_routed": "0.1925310759085343"
    },
    {
        "length": "493999.14599999634",
        "length_lcc": "493999.14599999634",
        "coverage": "297.50730088996687",
        "directness": "0.6455409252784902",
        "directness_lcc": "0.6455409252784902",
        "poi_coverage": "122",
        "components": "1",
        "overlap_biketrack": "27324.12199999998",
        "overlap_bikeable": "127284.33700000013",
        "efficiency_global": "0.5160823624677867",
        "efficiency_local": "0.26805532524806386",
        "efficiency_global_routed": "0.7656867233973607",
        "efficiency_local_routed": "0.18450849789058663"
    },
    {
        "length": "505094.4799999961",
        "length_lcc": "505094.4799999961",
        "coverage": "299.35511889531784",
        "directness": "0.6392453782615499",
        "directness_lcc": "0.6392453782615499",
        "poi_coverage": "122",
        "components": "1",
        "overlap_biketrack": "28818.56999999998",
        "overlap_bikeable": "134515.33800000022",
        "efficiency_global": "0.525052724676533",
        "efficiency_local": "0.27679171268900404",
        "efficiency_global_routed": "0.7668374970857229",
        "efficiency_local_routed": "0.17883103645003662"
    },
    {
        "length": "516893.8419999965",
        "length_lcc": "516893.8419999965",
        "coverage": "301.0367853863373",
        "directness": "0.64434646605926",
        "directness_lcc": "0.64434646605926",
        "poi_coverage": "122",
        "components": "1",
        "overlap_biketrack": "30579.396999999994",
        "overlap_bikeable": "141667.11899999998",
        "efficiency_global": "0.5404447526503297",
        "efficiency_local": "0.28598289683449774",
        "efficiency_global_routed": "0.7654559087763294",
        "efficiency_local_routed": "0.18193630077591655"
    },
    {
        "length": "521832.38399999717",
        "length_lcc": "521832.38399999717",
        "coverage": "301.35647128062726",
        "directness": "0.6694553601368578",
        "directness_lcc": "0.6694553601368578",
        "poi_coverage": "122",
        "components": "1",
        "overlap_biketrack": "30776.603999999992",
        "overlap_bikeable": "142208.376",
        "efficiency_global": "0.5506516282858933",
        "efficiency_local": "0.30945064399457806",
        "efficiency_global_routed": "0.7702032008510983",
        "efficiency_local_routed": "0.18574938064325539"
    },
    {
        "length": "537568.1879999953",
        "length_lcc": "537568.1879999953",
        "coverage": "304.05410592365115",
        "directness": "0.6857003366849866",
        "directness_lcc": "0.6857003366849866",
        "poi_coverage": "122",
        "components": "1",
        "overlap_biketrack": "31066.943",
        "overlap_bikeable": "146985.44400000005",
        "efficiency_global": "0.570889085673136",
        "efficiency_local": "0.3177174738480259",
        "efficiency_global_routed": "0.7790967785557384",
        "efficiency_local_routed": "0.1755086659413821"
    },
    {
        "length": "547339.7079999951",
        "length_lcc": "547339.7079999951",
        "coverage": "306.3673006537514",
        "directness": "0.6965525256012902",
        "directness_lcc": "0.6965525256012902",
        "poi_coverage": "122",
        "components": "1",
        "overlap_biketrack": "32097.11200000001",
        "overlap_bikeable": "149079.41900000017",
        "efficiency_global": "0.5792065236656432",
        "efficiency_local": "0.3377292965664562",
        "efficiency_global_routed": "0.7837491242247527",
        "efficiency_local_routed": "0.1732977634830484"
    },
    {
        "length": "556491.5629999947",
        "length_lcc": "556491.5629999947",
        "coverage": "309.1829961223668",
        "directness": "0.6924713353096432",
        "directness_lcc": "0.6924713353096432",
        "poi_coverage": "123",
        "components": "1",
        "overlap_biketrack": "34022.443000000014",
        "overlap_bikeable": "153239.06899999993",
        "efficiency_global": "0.5803596662420055",
        "efficiency_local": "0.3722981889247261",
        "efficiency_global_routed": "0.7844378991644192",
        "efficiency_local_routed": "0.19032131607363156"
    },
    {
        "length": "562073.4179999955",
        "length_lcc": "562073.4179999955",
        "coverage": "309.86343952242396",
        "directness": "0.698893302227183",
        "directness_lcc": "0.698893302227183",
        "poi_coverage": "123",
        "components": "1",
        "overlap_biketrack": "34452.98700000001",
        "overlap_bikeable": "155957.51299999977",
        "efficiency_global": "0.5859364786033813",
        "efficiency_local": "0.4292481210565865",
        "efficiency_global_routed": "0.784641290992983",
        "efficiency_local_routed": "0.1810911206521669"
    },
    {
        "length": "573845.5319999953",
        "length_lcc": "573845.5319999953",
        "coverage": "313.74128907029063",
        "directness": "0.7112020878034797",
        "directness_lcc": "0.7112020878034797",
        "poi_coverage": "124",
        "components": "1",
        "overlap_biketrack": "34922.455000000016",
        "overlap_bikeable": "159006.66799999974",
        "efficiency_global": "0.5950616335060248",
        "efficiency_local": "0.4505188377634451",
        "efficiency_global_routed": "0.7893324824736966",
        "efficiency_local_routed": "0.18102968080215315"
    },
    {
        "length": "579473.5839999962",
        "length_lcc": "579473.5839999962",
        "coverage": "314.1565204445384",
        "directness": "0.718195651618361",
        "directness_lcc": "0.718195651618361",
        "poi_coverage": "124",
        "components": "1",
        "overlap_biketrack": "35293.64100000002",
        "overlap_bikeable": "159377.8539999997",
        "efficiency_global": "0.601199203840702",
        "efficiency_local": "0.4853418940119144",
        "efficiency_global_routed": "0.7893410881247249",
        "efficiency_local_routed": "0.18362395817269683"
    },
    {
        "length": "587634.816999995",
        "length_lcc": "587634.816999995",
        "coverage": "314.6995142778347",
        "directness": "0.7218203314961017",
        "directness_lcc": "0.7218203314961017",
        "poi_coverage": "124",
        "components": "1",
        "overlap_biketrack": "36094.67100000003",
        "overlap_bikeable": "165074.13199999966",
        "efficiency_global": "0.6097961920445565",
        "efficiency_local": "0.5188036246022003",
        "efficiency_global_routed": "0.7887555072816248",
        "efficiency_local_routed": "0.1989414635318012"
    },
    {
        "length": "594771.2789999954",
        "length_lcc": "594771.2789999954",
        "coverage": "315.8374088585381",
        "directness": "0.7245185730485699",
        "directness_lcc": "0.7245185730485699",
        "poi_coverage": "124",
        "components": "1",
        "overlap_biketrack": "36963.53000000002",
        "overlap_bikeable": "166250.5069999997",
        "efficiency_global": "0.620417467688486",
        "efficiency_local": "0.5212240549279764",
        "efficiency_global_routed": "0.7909209421116729",
        "efficiency_local_routed": "0.20065072595835232"
    },
    {
        "length": "599406.9789999947",
        "length_lcc": "599406.9789999947",
        "coverage": "316.2582117878954",
        "directness": "0.7263498691788356",
        "directness_lcc": "0.7263498691788356",
        "poi_coverage": "124",
        "components": "1",
        "overlap_biketrack": "37008.02200000002",
        "overlap_bikeable": "167922.10299999977",
        "efficiency_global": "0.6333799249592099",
        "efficiency_local": "0.5397572084181684",
        "efficiency_global_routed": "0.7917700953815157",
        "efficiency_local_routed": "0.1889375923140879"
    },
    {
        "length": "605065.3199999951",
        "length_lcc": "605065.3199999951",
        "coverage": "317.2784929171459",
        "directness": "0.7231408383055443",
        "directness_lcc": "0.7231408383055443",
        "poi_coverage": "124",
        "components": "1",
        "overlap_biketrack": "37253.73700000001",
        "overlap_bikeable": "169952.8569999998",
        "efficiency_global": "0.6431132109715844",
        "efficiency_local": "0.5760825143721998",
        "efficiency_global_routed": "0.7913714201414437",
        "efficiency_local_routed": "0.19843907975597821"
    },
    {
        "length": "614154.4439999952",
        "length_lcc": "614154.4439999952",
        "coverage": "319.38005283230297",
        "directness": "0.7336213219375165",
        "directness_lcc": "0.7336213219375165",
        "poi_coverage": "124",
        "components": "1",
        "overlap_biketrack": "37253.73700000001",
        "overlap_bikeable": "172420.76099999988",
        "efficiency_global": "0.6476190461606692",
        "efficiency_local": "0.5932050559706852",
        "efficiency_global_routed": "0.7913690333852785",
        "efficiency_local_routed": "0.18930344153102346"
    },
    {
        "length": "619300.2829999953",
        "length_lcc": "619300.2829999953",
        "coverage": "319.57319114546584",
        "directness": "0.7311565022055112",
        "directness_lcc": "0.7311565022055112",
        "poi_coverage": "124",
        "components": "1",
        "overlap_biketrack": "37253.73700000001",
        "overlap_bikeable": "175266.66",
        "efficiency_global": "0.6568944082506837",
        "efficiency_local": "0.6192764709944633",
        "efficiency_global_routed": "0.7908020409874802",
        "efficiency_local_routed": "0.1788282066898476"
    },
    {
        "length": "628168.181999995",
        "length_lcc": "628168.181999995",
        "coverage": "320.85982523910775",
        "directness": "0.7432288378407894",
        "directness_lcc": "0.7432288378407894",
        "poi_coverage": "124",
        "components": "1",
        "overlap_biketrack": "37561.77300000001",
        "overlap_bikeable": "177366.70600000012",
        "efficiency_global": "0.6598830651464503",
        "efficiency_local": "0.6411807003713069",
        "efficiency_global_routed": "0.7903929373004371",
        "efficiency_local_routed": "0.18807323187819752"
    }
]