[
    {
        "length": "22069.17600000003",
        "length_lcc": "18978.160000000025",
        "coverage": "21.090181791894523",
        "directness": "0.6712792925448604",
        "directness_lcc": "0.6666157222724571",
        "poi_coverage": "11",
        "components": "2",
        "overlap_biketrack": "55.292",
        "overlap_bikeable": "7496.41",
        "efficiency_global": "0.5110807676715919",
        "efficiency_local": "0.0",
        "efficiency_global_routed": "0.8562162121663925",
        "efficiency_local_routed": "0.0"
    },
    {
        "length": "41246.85200000001",
        "length_lcc": "36365.363000000034",
        "coverage": "40.17759173411922",
        "directness": "0.5568589773974504",
        "directness_lcc": "0.5634104372107028",
        "poi_coverage": "21",
        "components": "3",
        "overlap_biketrack": "237.26",
        "overlap_bikeable": "11524.860999999986",
        "efficiency_global": "0.4796622517813837",
        "efficiency_local": "0.0",
        "efficiency_global_routed": "0.8404303781325847",
        "efficiency_local_routed": "0.0"
    },
    {
        "length": "58346.933000000055",
        "length_lcc": "43798.94899999998",
        "coverage": "55.58250818833887",
        "directness": "0.5903076787620869",
        "directness_lcc": "0.5738231726724256",
        "poi_coverage": "30",
        "components": "3",
        "overlap_biketrack": "237.26",
        "overlap_bikeable": "20062.072000000044",
        "efficiency_global": "0.3768106083149628",
        "efficiency_local": "0.0",
        "efficiency_global_routed": "0.7646777694655835",
        "efficiency_local_routed": "0.0"
    },
    {
        "length": "80388.68399999998",
        "length_lcc": "77083.4960000001",
        "coverage": "73.25843304961714",
        "directness": "0.5293583896208173",
        "directness_lcc": "0.5354798454196634",
        "poi_coverage": "37",
        "components": "2",
        "overlap_biketrack": "489.1769999999999",
        "overlap_bikeable": "25464.73100000004",
        "efficiency_global": "0.513078848488434",
        "efficiency_local": "0.0",
        "efficiency_global_routed": "0.7634448561457026",
        "efficiency_local_routed": "0.06917875642776744"
    },
    {
        "length": "100492.44600000003",
        "length_lcc": "94798.64900000003",
        "coverage": "87.63018365969546",
        "directness": "0.6860207322627341",
        "directness_lcc": "0.6824167974700571",
        "poi_coverage": "43",
        "components": "2",
        "overlap_biketrack": "907.374",
        "overlap_bikeable": "33369.84400000006",
        "efficiency_global": "0.561759270508545",
        "efficiency_local": "0.031956652950603515",
        "efficiency_global_routed": "0.7597229101604371",
        "efficiency_local_routed": "0.04005615725394334"
    },
    {
        "length": "119008.79699999993",
        "length_lcc": "113315.00000000006",
        "coverage": "100.9934259751956",
        "directness": "0.6840676017659778",
        "directness_lcc": "0.6843599909629257",
        "poi_coverage": "49",
        "components": "2",
        "overlap_biketrack": "1111.1969999999997",
        "overlap_bikeable": "40437.986000000004",
        "efficiency_global": "0.5734655268930935",
        "efficiency_local": "0.04369504892692547",
        "efficiency_global_routed": "0.7847120819669953",
        "efficiency_local_routed": "0.08698478242915923"
    },
    {
        "length": "136433.5089999999",
        "length_lcc": "129604.11799999987",
        "coverage": "114.34410306774622",
        "directness": "0.6783529090928283",
        "directness_lcc": "0.6824459273918123",
        "poi_coverage": "57",
        "components": "2",
        "overlap_biketrack": "1530.8439999999998",
        "overlap_bikeable": "44635.04800000004",
        "efficiency_global": "0.539622189482274",
        "efficiency_local": "0.06667869979483652",
        "efficiency_global_routed": "0.7655044625263994",
        "efficiency_local_routed": "0.021825842764398425"
    },
    {
        "length": "158903.98999999958",
        "length_lcc": "147519.98400000005",
        "coverage": "129.53284319680407",
        "directness": "0.6914612740667887",
        "directness_lcc": "0.6951122358192564",
        "poi_coverage": "62",
        "components": "2",
        "overlap_biketrack": "2439.221",
        "overlap_bikeable": "52967.909999999996",
        "efficiency_global": "0.5431635506636906",
        "efficiency_local": "0.09742680337502752",
        "efficiency_global_routed": "0.7594926181803964",
        "efficiency_local_routed": "0.04902775855106883"
    },
    {
        "length": "178947.68499999985",
        "length_lcc": "178947.68499999985",
        "coverage": "141.5500841255649",
        "directness": "0.6774519594674205",
        "directness_lcc": "0.6774519594674205",
        "poi_coverage": "66",
        "components": "1",
        "overlap_biketrack": "2439.221",
        "overlap_bikeable": "56970.962000000065",
        "efficiency_global": "0.6121389204044385",
        "efficiency_local": "0.11947050346115183",
        "efficiency_global_routed": "0.8224107350600747",
        "efficiency_local_routed": "0.09632511447940018"
    },
    {
        "length": "197987.10499999998",
        "length_lcc": "197987.10499999998",
        "coverage": "153.02988501406804",
        "directness": "0.6994836854320451",
        "directness_lcc": "0.6994836854320451",
        "poi_coverage": "70",
        "components": "1",
        "overlap_biketrack": "2538.037",
        "overlap_bikeable": "63519.329000000114",
        "efficiency_global": "0.6284440880851486",
        "efficiency_local": "0.13072342088460992",
        "efficiency_global_routed": "0.8427882897581975",
        "efficiency_local_routed": "0.14701264190164332"
    },
    {
        "length": "218595.422",
        "length_lcc": "218595.422",
        "coverage": "165.80306007204462",
        "directness": "0.6993523911467642",
        "directness_lcc": "0.6993523911467642",
        "poi_coverage": "76",
        "components": "1",
        "overlap_biketrack": "2538.037",
        "overlap_bikeable": "72722.74200000013",
        "efficiency_global": "0.6323943826108911",
        "efficiency_local": "0.14831022108499545",
        "efficiency_global_routed": "0.8353081997123789",
        "efficiency_local_routed": "0.17376851100374932"
    },
    {
        "length": "237740.5789999998",
        "length_lcc": "237740.5789999998",
        "coverage": "174.9057459301951",
        "directness": "0.7057770541252002",
        "directness_lcc": "0.7057770541252002",
        "poi_coverage": "79",
        "components": "1",
        "overlap_biketrack": "2538.037",
        "overlap_bikeable": "80405.15200000015",
        "efficiency_global": "0.6388856913605364",
        "efficiency_local": "0.16829172436623535",
        "efficiency_global_routed": "0.8278786324546779",
        "efficiency_local_routed": "0.16660503104557997"
    },
    {
        "length": "255883.7919999996",
        "length_lcc": "255883.7919999996",
        "coverage": "184.79292785445458",
        "directness": "0.7012891592743301",
        "directness_lcc": "0.7012891592743301",
        "poi_coverage": "83",
        "components": "1",
        "overlap_biketrack": "2715.508",
        "overlap_bikeable": "86716.35500000014",
        "efficiency_global": "0.6376524604190993",
        "efficiency_local": "0.2006057144104118",
        "efficiency_global_routed": "0.831764351212845",
        "efficiency_local_routed": "0.15692002792274504"
    },
    {
        "length": "274023.18699999974",
        "length_lcc": "274023.18699999974",
        "coverage": "196.9730825213869",
        "directness": "0.7055327823543591",
        "directness_lcc": "0.7055327823543591",
        "poi_coverage": "87",
        "components": "1",
        "overlap_biketrack": "2912.1550000000007",
        "overlap_bikeable": "95416.54200000009",
        "efficiency_global": "0.6377299675470655",
        "efficiency_local": "0.1997597102336824",
        "efficiency_global_routed": "0.8290102209541357",
        "efficiency_local_routed": "0.14907402652660778"
    },
    {
        "length": "295339.7879999996",
        "length_lcc": "295339.7879999996",
        "coverage": "209.7869925009077",
        "directness": "0.7147770168732986",
        "directness_lcc": "0.7147770168732986",
        "poi_coverage": "94",
        "components": "1",
        "overlap_biketrack": "2912.1550000000007",
        "overlap_bikeable": "104679.57500000008",
        "efficiency_global": "0.635995131832861",
        "efficiency_local": "0.19812150286432842",
        "efficiency_global_routed": "0.8271479898325986",
        "efficiency_local_routed": "0.15056387753435851"
    },
    {
        "length": "312452.28399999946",
        "length_lcc": "312452.28399999946",
        "coverage": "219.0256329700177",
        "directness": "0.7074764903834962",
        "directness_lcc": "0.7074764903834962",
        "poi_coverage": "98",
        "components": "1",
        "overlap_biketrack": "2912.1550000000007",
        "overlap_bikeable": "112663.74800000015",
        "efficiency_global": "0.6349689137579008",
        "efficiency_local": "0.21828597422231308",
        "efficiency_global_routed": "0.8178850172462225",
        "efficiency_local_routed": "0.14240196161198584"
    },
    {
        "length": "330173.2309999988",
        "length_lcc": "330173.2309999988",
        "coverage": "232.86780250907026",
        "directness": "0.7099278893741741",
        "directness_lcc": "0.7099278893741741",
        "poi_coverage": "105",
        "components": "1",
        "overlap_biketrack": "3015.9580000000005",
        "overlap_bikeable": "119623.89100000012",
        "efficiency_global": "0.6263938554932688",
        "efficiency_local": "0.21363584281193312",
        "efficiency_global_routed": "0.8130266794292199",
        "efficiency_local_routed": "0.143368036236554"
    },
    {
        "length": "347204.0799999988",
        "length_lcc": "347204.0799999988",
        "coverage": "241.72459816512978",
        "directness": "0.709458999379223",
        "directness_lcc": "0.709458999379223",
        "poi_coverage": "109",
        "components": "1",
        "overlap_biketrack": "3104.6330000000003",
        "overlap_bikeable": "126671.10900000007",
        "efficiency_global": "0.6274871647550538",
        "efficiency_local": "0.24173818159238705",
        "efficiency_global_routed": "0.8157096887999641",
        "efficiency_local_routed": "0.15487142292301945"
    },
    {
        "length": "363536.2889999984",
        "length_lcc": "363536.2889999984",
        "coverage": "251.57861227351617",
        "directness": "0.7133902433179256",
        "directness_lcc": "0.7133902433179256",
        "poi_coverage": "114",
        "components": "1",
        "overlap_biketrack": "3104.6330000000003",
        "overlap_bikeable": "135509.45500000007",
        "efficiency_global": "0.6250666478057537",
        "efficiency_local": "0.25009335636645247",
        "efficiency_global_routed": "0.8117292235265602",
        "efficiency_local_routed": "0.1513319608738912"
    },
    {
        "length": "381201.6089999986",
        "length_lcc": "381201.6089999986",
        "coverage": "257.98970545549787",
        "directness": "0.708851995700418",
        "directness_lcc": "0.708851995700418",
        "poi_coverage": "118",
        "components": "1",
        "overlap_biketrack": "3104.6330000000003",
        "overlap_bikeable": "141017.37699999986",
        "efficiency_global": "0.6250957348470566",
        "efficiency_local": "0.2700396821628917",
        "efficiency_global_routed": "0.8089487366047244",
        "efficiency_local_routed": "0.1399852190501265"
    },
    {
        "length": "402383.8939999983",
        "length_lcc": "402383.8939999983",
        "coverage": "268.01904906515693",
        "directness": "0.712872213739795",
        "directness_lcc": "0.712872213739795",
        "poi_coverage": "123",
        "components": "1",
        "overlap_biketrack": "3185.921",
        "overlap_bikeable": "148781.16299999942",
        "efficiency_global": "0.6211942769794072",
        "efficiency_local": "0.28564471632983685",
        "efficiency_global_routed": "0.8049693522851109",
        "efficiency_local_routed": "0.1479082454233595"
    },
    {
        "length": "419080.92199999787",
        "length_lcc": "419080.92199999787",
        "coverage": "273.1397581221467",
        "directness": "0.7137036768661866",
        "directness_lcc": "0.7137036768661866",
        "poi_coverage": "124",
        "components": "1",
        "overlap_biketrack": "3185.921",
        "overlap_bikeable": "154787.47999999952",
        "efficiency_global": "0.6262165753950572",
        "efficiency_local": "0.3458367244490825",
        "efficiency_global_routed": "0.8025600908156981",
        "efficiency_local_routed": "0.14723486180379655"
    },
    {
        "length": "429627.67199999775",
        "length_lcc": "429627.67199999775",
        "coverage": "275.8661303368324",
        "directness": "0.7186774158844941",
        "directness_lcc": "0.7186774158844941",
        "poi_coverage": "125",
        "components": "1",
        "overlap_biketrack": "3313.7389999999996",
        "overlap_bikeable": "158927.63899999947",
        "efficiency_global": "0.6305840303440962",
        "efficiency_local": "0.3513670563343814",
        "efficiency_global_routed": "0.798772929171196",
        "efficiency_local_routed": "0.15796830979355797"
    },
    {
        "length": "442497.10499999713",
        "length_lcc": "442497.10499999713",
        "coverage": "278.0344240573879",
        "directness": "0.720484563652999",
        "directness_lcc": "0.720484563652999",
        "poi_coverage": "125",
        "components": "1",
        "overlap_biketrack": "3848.8740000000003",
        "overlap_bikeable": "165207.94199999957",
        "efficiency_global": "0.6364089093491957",
        "efficiency_local": "0.3858214928389383",
        "efficiency_global_routed": "0.7989107554241",
        "efficiency_local_routed": "0.15401559535950538"
    },
    {
        "length": "455605.0319999965",
        "length_lcc": "455605.0319999965",
        "coverage": "280.6773798771348",
        "directness": "0.7159055384643754",
        "directness_lcc": "0.7159055384643754",
        "poi_coverage": "125",
        "components": "1",
        "overlap_biketrack": "4016.7810000000004",
        "overlap_bikeable": "172594.67399999953",
        "efficiency_global": "0.6426020684520487",
        "efficiency_local": "0.4392443148797131",
        "efficiency_global_routed": "0.7963465162862721",
        "efficiency_local_routed": "0.16327854852778081"
    },
    {
        "length": "468660.83999999677",
        "length_lcc": "468660.83999999677",
        "coverage": "282.6577287633375",
        "directness": "0.7249331201850167",
        "directness_lcc": "0.7249331201850167",
        "poi_coverage": "125",
        "components": "1",
        "overlap_biketrack": "4016.7810000000004",
        "overlap_bikeable": "179425.47699999972",
        "efficiency_global": "0.6476529606415999",
        "efficiency_local": "0.46574037723811107",
        "efficiency_global_routed": "0.7981694367140629",
        "efficiency_local_routed": "0.1722643370300816"
    },
    {
        "length": "492175.7729999958",
        "length_lcc": "492175.7729999958",
        "coverage": "285.50659325298625",
        "directness": "0.7231740877663615",
        "directness_lcc": "0.7231740877663615",
        "poi_coverage": "125",
        "components": "1",
        "overlap_biketrack": "4016.7810000000004",
        "overlap_bikeable": "187740.36399999968",
        "efficiency_global": "0.6539844044769726",
        "efficiency_local": "0.4730409117276084",
        "efficiency_global_routed": "0.8041046333241477",
        "efficiency_local_routed": "0.1758122632941648"
    },
    {
        "length": "499099.1469999957",
        "length_lcc": "499099.1469999957",
        "coverage": "287.50528313294166",
        "directness": "0.7292273181990537",
        "directness_lcc": "0.7292273181990537",
        "poi_coverage": "125",
        "components": "1",
        "overlap_biketrack": "5232.017",
        "overlap_bikeable": "190757.76099999956",
        "efficiency_global": "0.6582407900534095",
        "efficiency_local": "0.5080282878289264",
        "efficiency_global_routed": "0.8041736238021978",
        "efficiency_local_routed": "0.17536974022966695"
    },
    {
        "length": "511352.8249999956",
        "length_lcc": "511352.8249999956",
        "coverage": "291.48769295701265",
        "directness": "0.7262038751018655",
        "directness_lcc": "0.7262038751018655",
        "poi_coverage": "125",
        "components": "1",
        "overlap_biketrack": "5232.017",
        "overlap_bikeable": "196869.84499999956",
        "efficiency_global": "0.6611211650751809",
        "efficiency_local": "0.5090903643284643",
        "efficiency_global_routed": "0.8059334509626507",
        "efficiency_local_routed": "0.17289333428994216"
    },
    {
        "length": "528104.2589999958",
        "length_lcc": "528104.2589999958",
        "coverage": "295.62282670845156",
        "directness": "0.7296600758261127",
        "directness_lcc": "0.7296600758261127",
        "poi_coverage": "125",
        "components": "1",
        "overlap_biketrack": "5624.156",
        "overlap_bikeable": "204231.61399999945",
        "efficiency_global": "0.6634665563616582",
        "efficiency_local": "0.510438669055239",
        "efficiency_global_routed": "0.8044389903549263",
        "efficiency_local_routed": "0.1741516836747049"
    },
    {
        "length": "543445.4129999962",
        "length_lcc": "543445.4129999962",
        "coverage": "300.6645237653148",
        "directness": "0.7337831192549089",
        "directness_lcc": "0.7337831192549089",
        "poi_coverage": "125",
        "components": "1",
        "overlap_biketrack": "5858.1089999999995",
        "overlap_bikeable": "212127.36399999945",
        "efficiency_global": "0.6664043857809157",
        "efficiency_local": "0.5186267048669597",
        "efficiency_global_routed": "0.8054266511216027",
        "efficiency_local_routed": "0.17488313980005282"
    },
    {
        "length": "549448.5569999958",
        "length_lcc": "549448.5569999958",
        "coverage": "300.8759472237953",
        "directness": "0.7305869846742643",
        "directness_lcc": "0.7305869846742643",
        "poi_coverage": "125",
        "components": "1",
        "overlap_biketrack": "5858.1089999999995",
        "overlap_bikeable": "214517.3179999995",
        "efficiency_global": "0.6683929209299142",
        "efficiency_local": "0.5401702614751013",
        "efficiency_global_routed": "0.8034508196977891",
        "efficiency_local_routed": "0.18175456938784904"
    },
    {
        "length": "567653.8589999964",
        "length_lcc": "567653.8589999964",
        "coverage": "303.33585853800747",
        "directness": "0.7307593916683838",
        "directness_lcc": "0.7307593916683838",
        "poi_coverage": "125",
        "components": "1",
        "overlap_biketrack": "6338.4299999999985",
        "overlap_bikeable": "221407.15899999946",
        "efficiency_global": "0.6707048283242288",
        "efficiency_local": "0.5667052268916423",
        "efficiency_global_routed": "0.8056841230688265",
        "efficiency_local_routed": "0.17977061458177845"
    },
    {
        "length": "580876.0499999982",
        "length_lcc": "580876.0499999982",
        "coverage": "305.2451502055279",
        "directness": "0.7260554165147787",
        "directness_lcc": "0.7260554165147787",
        "poi_coverage": "125",
        "components": "1",
        "overlap_biketrack": "6338.4299999999985",
        "overlap_bikeable": "228518.19099999947",
        "efficiency_global": "0.672094291733969",
        "efficiency_local": "0.5630191569332793",
        "efficiency_global_routed": "0.7962197308684975",
        "efficiency_local_routed": "0.18459038322441787"
    },
    {
        "length": "600792.034999997",
        "length_lcc": "600792.034999997",
        "coverage": "308.23745323387953",
        "directness": "0.7336305489229561",
        "directness_lcc": "0.7336305489229561",
        "poi_coverage": "125",
        "components": "1",
        "overlap_biketrack": "6561.941",
        "overlap_bikeable": "236474.06999999957",
        "efficiency_global": "0.67279566826547",
        "efficiency_local": "0.5870204547688177",
        "efficiency_global_routed": "0.8079825334962063",
        "efficiency_local_routed": "0.17079062159595235"
    },
    {
        "length": "608778.5849999967",
        "length_lcc": "608778.5849999967",
        "coverage": "308.790573130695",
        "directness": "0.7348416904530666",
        "directness_lcc": "0.7348416904530666",
        "poi_coverage": "125",
        "components": "1",
        "overlap_biketrack": "6561.941",
        "overlap_bikeable": "238039.67199999953",
        "efficiency_global": "0.6739237965865863",
        "efficiency_local": "0.5917339880230922",
        "efficiency_global_routed": "0.8034205671553618",
        "efficiency_local_routed": "0.177178027717772"
    },
    {
        "length": "618450.4659999979",
        "length_lcc": "618450.4659999979",
        "coverage": "310.6578492760357",
        "directness": "0.7316501439995787",
        "directness_lcc": "0.7316501439995787",
        "poi_coverage": "125",
        "components": "1",
        "overlap_biketrack": "6561.941",
        "overlap_bikeable": "242763.17199999976",
        "efficiency_global": "0.6751210249053681",
        "efficiency_local": "0.6123834378704759",
        "efficiency_global_routed": "0.8027654102295894",
        "efficiency_local_routed": "0.17171426006215199"
    },
    {
        "length": "629245.0939999977",
        "length_lcc": "629245.0939999977",
        "coverage": "311.75607229052326",
        "directness": "0.7383653517351917",
        "directness_lcc": "0.7383653517351917",
        "poi_coverage": "125",
        "components": "1",
        "overlap_biketrack": "6561.941",
        "overlap_bikeable": "251179.3749999998",
        "efficiency_global": "0.6758924693499893",
        "efficiency_local": "0.6383984037411005",
        "efficiency_global_routed": "0.7967791359359461",
        "efficiency_local_routed": "0.17789998101907334"
    },
    {
        "length": "629245.0939999977",
        "length_lcc": "629245.0939999977",
        "coverage": "311.75607229052326",
        "directness": "0.7340908321547062",
        "directness_lcc": "0.7340908321547062",
        "poi_coverage": "125",
        "components": "1",
        "overlap_biketrack": "6561.941",
        "overlap_bikeable": "251179.3749999998",
        "efficiency_global": "0.6758924693499893",
        "efficiency_local": "0.6383984037411005",
        "efficiency_global_routed": "0.8015308281365318",
        "efficiency_local_routed": "0.17293605590237554"
    },
    {
        "length": "629245.0939999977",
        "length_lcc": "629245.0939999977",
        "coverage": "311.75607229052326",
        "directness": "0.7328911216948818",
        "directness_lcc": "0.7328911216948818",
        "poi_coverage": "125",
        "components": "1",
        "overlap_biketrack": "6561.941",
        "overlap_bikeable": "251179.3749999998",
        "efficiency_global": "0.6758924693499893",
        "efficiency_local": "0.6427397862664341",
        "efficiency_global_routed": "0.8005669784227647",
        "efficiency_local_routed": "0.1841847505632762"
    }
]