[
    {
        "length": "2722.497999999999",
        "length_lcc": "2722.497999999999",
        "coverage": "3.3949733644885596",
        "directness": "0.8868597080111218",
        "directness_lcc": "0.8868597080111218",
        "poi_coverage": "2",
        "components": "1",
        "overlap_biketrack": "0",
        "overlap_bikeable": "380.1429999999999",
        "efficiency_global": "0.7488044737365159",
        "efficiency_local": "0",
        "efficiency_global_routed": "0.7488044737365159",
        "efficiency_local_routed": "0"
    },
    {
        "length": "2722.497999999999",
        "length_lcc": "2722.497999999999",
        "coverage": "3.3949733644885596",
        "directness": "0.8868597080111232",
        "directness_lcc": "0.8868597080111232",
        "poi_coverage": "2",
        "components": "1",
        "overlap_biketrack": "0",
        "overlap_bikeable": "380.1429999999999",
        "efficiency_global": "0.7488044737365159",
        "efficiency_local": "0",
        "efficiency_global_routed": "0.7488044737365159",
        "efficiency_local_routed": "0"
    },
    {
        "length": "2722.497999999999",
        "length_lcc": "2722.497999999999",
        "coverage": "3.3949733644885596",
        "directness": "0.8868597080111221",
        "directness_lcc": "0.8868597080111221",
        "poi_coverage": "2",
        "components": "1",
        "overlap_biketrack": "0",
        "overlap_bikeable": "380.1429999999999",
        "efficiency_global": "0.7488044737365159",
        "efficiency_local": "0",
        "efficiency_global_routed": "0.7488044737365159",
        "efficiency_local_routed": "0"
    },
    {
        "length": "2722.497999999999",
        "length_lcc": "2722.497999999999",
        "coverage": "3.3949733644885596",
        "directness": "0.8868597080111249",
        "directness_lcc": "0.8868597080111249",
        "poi_coverage": "2",
        "components": "1",
        "overlap_biketrack": "0",
        "overlap_bikeable": "380.1429999999999",
        "efficiency_global": "0.7488044737365159",
        "efficiency_local": "0",
        "efficiency_global_routed": "0.7488044737365159",
        "efficiency_local_routed": "0"
    },
    {
        "length": "2722.497999999999",
        "length_lcc": "2722.497999999999",
        "coverage": "3.3949733644885596",
        "directness": "0.8868597080111239",
        "directness_lcc": "0.8868597080111239",
        "poi_coverage": "2",
        "components": "1",
        "overlap_biketrack": "0",
        "overlap_bikeable": "380.1429999999999",
        "efficiency_global": "0.7488044737365159",
        "efficiency_local": "0",
        "efficiency_global_routed": "0.7488044737365159",
        "efficiency_local_routed": "0"
    },
    {
        "length": "2722.497999999999",
        "length_lcc": "2722.497999999999",
        "coverage": "3.3949733644885596",
        "directness": "0.8868597080111252",
        "directness_lcc": "0.8868597080111252",
        "poi_coverage": "2",
        "components": "1",
        "overlap_biketrack": "0",
        "overlap_bikeable": "380.1429999999999",
        "efficiency_global": "0.7488044737365159",
        "efficiency_local": "0",
        "efficiency_global_routed": "0.7488044737365159",
        "efficiency_local_routed": "0"
    },
    {
        "length": "2722.497999999999",
        "length_lcc": "2722.497999999999",
        "coverage": "3.3949733644885596",
        "directness": "0.8868597080111202",
        "directness_lcc": "0.8868597080111202",
        "poi_coverage": "2",
        "components": "1",
        "overlap_biketrack": "0",
        "overlap_bikeable": "380.1429999999999",
        "efficiency_global": "0.7488044737365159",
        "efficiency_local": "0",
        "efficiency_global_routed": "0.7488044737365159",
        "efficiency_local_routed": "0"
    },
    {
        "length": "2722.497999999999",
        "length_lcc": "2722.497999999999",
        "coverage": "3.3949733644885596",
        "directness": "0.8868597080111236",
        "directness_lcc": "0.8868597080111236",
        "poi_coverage": "2",
        "components": "1",
        "overlap_biketrack": "0",
        "overlap_bikeable": "380.1429999999999",
        "efficiency_global": "0.7488044737365159",
        "efficiency_local": "0",
        "efficiency_global_routed": "0.7488044737365159",
        "efficiency_local_routed": "0"
    },
    {
        "length": "2722.497999999999",
        "length_lcc": "2722.497999999999",
        "coverage": "3.3949733644885596",
        "directness": "0.8868597080111218",
        "directness_lcc": "0.8868597080111218",
        "poi_coverage": "2",
        "components": "1",
        "overlap_biketrack": "0",
        "overlap_bikeable": "380.1429999999999",
        "efficiency_global": "0.7488044737365159",
        "efficiency_local": "0",
        "efficiency_global_routed": "0.7488044737365159",
        "efficiency_local_routed": "0"
    },
    {
        "length": "2722.497999999999",
        "length_lcc": "2722.497999999999",
        "coverage": "3.3949733644885596",
        "directness": "0.8868597080111202",
        "directness_lcc": "0.8868597080111202",
        "poi_coverage": "2",
        "components": "1",
        "overlap_biketrack": "0",
        "overlap_bikeable": "380.1429999999999",
        "efficiency_global": "0.7488044737365159",
        "efficiency_local": "0",
        "efficiency_global_routed": "0.7488044737365159",
        "efficiency_local_routed": "0"
    },
    {
        "length": "2722.497999999999",
        "length_lcc": "2722.497999999999",
        "coverage": "3.3949733644885596",
        "directness": "0.8868597080111248",
        "directness_lcc": "0.8868597080111248",
        "poi_coverage": "2",
        "components": "1",
        "overlap_biketrack": "0",
        "overlap_bikeable": "380.1429999999999",
        "efficiency_global": "0.7488044737365159",
        "efficiency_local": "0",
        "efficiency_global_routed": "0.7488044737365159",
        "efficiency_local_routed": "0"
    },
    {
        "length": "2722.497999999999",
        "length_lcc": "2722.497999999999",
        "coverage": "3.3949733644885596",
        "directness": "0.8868597080111225",
        "directness_lcc": "0.8868597080111225",
        "poi_coverage": "2",
        "components": "1",
        "overlap_biketrack": "0",
        "overlap_bikeable": "380.1429999999999",
        "efficiency_global": "0.7488044737365159",
        "efficiency_local": "0",
        "efficiency_global_routed": "0.7488044737365159",
        "efficiency_local_routed": "0"
    },
    {
        "length": "2722.497999999999",
        "length_lcc": "2722.497999999999",
        "coverage": "3.3949733644885596",
        "directness": "0.8868597080111247",
        "directness_lcc": "0.8868597080111247",
        "poi_coverage": "2",
        "components": "1",
        "overlap_biketrack": "0",
        "overlap_bikeable": "380.1429999999999",
        "efficiency_global": "0.7488044737365159",
        "efficiency_local": "0",
        "efficiency_global_routed": "0.7488044737365159",
        "efficiency_local_routed": "0"
    },
    {
        "length": "2722.497999999999",
        "length_lcc": "2722.497999999999",
        "coverage": "3.3949733644885596",
        "directness": "0.886859708011124",
        "directness_lcc": "0.886859708011124",
        "poi_coverage": "2",
        "components": "1",
        "overlap_biketrack": "0",
        "overlap_bikeable": "380.1429999999999",
        "efficiency_global": "0.7488044737365159",
        "efficiency_local": "0",
        "efficiency_global_routed": "0.7488044737365159",
        "efficiency_local_routed": "0"
    },
    {
        "length": "2722.497999999999",
        "length_lcc": "2722.497999999999",
        "coverage": "3.3949733644885596",
        "directness": "0.8868597080111222",
        "directness_lcc": "0.8868597080111222",
        "poi_coverage": "2",
        "components": "1",
        "overlap_biketrack": "0",
        "overlap_bikeable": "380.1429999999999",
        "efficiency_global": "0.7488044737365159",
        "efficiency_local": "0",
        "efficiency_global_routed": "0.7488044737365159",
        "efficiency_local_routed": "0"
    },
    {
        "length": "2722.497999999999",
        "length_lcc": "2722.497999999999",
        "coverage": "3.3949733644885596",
        "directness": "0.8868597080111255",
        "directness_lcc": "0.8868597080111255",
        "poi_coverage": "2",
        "components": "1",
        "overlap_biketrack": "0",
        "overlap_bikeable": "380.1429999999999",
        "efficiency_global": "0.7488044737365159",
        "efficiency_local": "0",
        "efficiency_global_routed": "0.7488044737365159",
        "efficiency_local_routed": "0"
    },
    {
        "length": "2722.497999999999",
        "length_lcc": "2722.497999999999",
        "coverage": "3.3949733644885596",
        "directness": "0.8868597080111245",
        "directness_lcc": "0.8868597080111245",
        "poi_coverage": "2",
        "components": "1",
        "overlap_biketrack": "0",
        "overlap_bikeable": "380.1429999999999",
        "efficiency_global": "0.7488044737365159",
        "efficiency_local": "0",
        "efficiency_global_routed": "0.7488044737365159",
        "efficiency_local_routed": "0"
    },
    {
        "length": "2722.497999999999",
        "length_lcc": "2722.497999999999",
        "coverage": "3.3949733644885596",
        "directness": "0.8868597080111196",
        "directness_lcc": "0.8868597080111196",
        "poi_coverage": "2",
        "components": "1",
        "overlap_biketrack": "0",
        "overlap_bikeable": "380.1429999999999",
        "efficiency_global": "0.7488044737365159",
        "efficiency_local": "0",
        "efficiency_global_routed": "0.7488044737365159",
        "efficiency_local_routed": "0"
    },
    {
        "length": "2722.497999999999",
        "length_lcc": "2722.497999999999",
        "coverage": "3.3949733644885596",
        "directness": "0.8868597080111226",
        "directness_lcc": "0.8868597080111226",
        "poi_coverage": "2",
        "components": "1",
        "overlap_biketrack": "0",
        "overlap_bikeable": "380.1429999999999",
        "efficiency_global": "0.7488044737365159",
        "efficiency_local": "0",
        "efficiency_global_routed": "0.7488044737365159",
        "efficiency_local_routed": "0"
    },
    {
        "length": "2722.497999999999",
        "length_lcc": "2722.497999999999",
        "coverage": "3.3949733644885596",
        "directness": "0.8868597080111227",
        "directness_lcc": "0.8868597080111227",
        "poi_coverage": "2",
        "components": "1",
        "overlap_biketrack": "0",
        "overlap_bikeable": "380.1429999999999",
        "efficiency_global": "0.7488044737365159",
        "efficiency_local": "0",
        "efficiency_global_routed": "0.7488044737365159",
        "efficiency_local_routed": "0"
    },
    {
        "length": "2722.497999999999",
        "length_lcc": "2722.497999999999",
        "coverage": "3.3949733644885596",
        "directness": "0.8868597080111217",
        "directness_lcc": "0.8868597080111217",
        "poi_coverage": "2",
        "components": "1",
        "overlap_biketrack": "0",
        "overlap_bikeable": "380.1429999999999",
        "efficiency_global": "0.7488044737365159",
        "efficiency_local": "0",
        "efficiency_global_routed": "0.7488044737365159",
        "efficiency_local_routed": "0"
    },
    {
        "length": "2722.497999999999",
        "length_lcc": "2722.497999999999",
        "coverage": "3.3949733644885596",
        "directness": "0.8868597080111238",
        "directness_lcc": "0.8868597080111238",
        "poi_coverage": "2",
        "components": "1",
        "overlap_biketrack": "0",
        "overlap_bikeable": "380.1429999999999",
        "efficiency_global": "0.7488044737365159",
        "efficiency_local": "0",
        "efficiency_global_routed": "0.7488044737365159",
        "efficiency_local_routed": "0"
    },
    {
        "length": "2722.497999999999",
        "length_lcc": "2722.497999999999",
        "coverage": "3.3949733644885596",
        "directness": "0.8868597080111195",
        "directness_lcc": "0.8868597080111195",
        "poi_coverage": "2",
        "components": "1",
        "overlap_biketrack": "0",
        "overlap_bikeable": "380.1429999999999",
        "efficiency_global": "0.7488044737365159",
        "efficiency_local": "0",
        "efficiency_global_routed": "0.7488044737365159",
        "efficiency_local_routed": "0"
    },
    {
        "length": "2722.497999999999",
        "length_lcc": "2722.497999999999",
        "coverage": "3.3949733644885596",
        "directness": "0.8868597080111207",
        "directness_lcc": "0.8868597080111207",
        "poi_coverage": "2",
        "components": "1",
        "overlap_biketrack": "0",
        "overlap_bikeable": "380.1429999999999",
        "efficiency_global": "0.7488044737365159",
        "efficiency_local": "0",
        "efficiency_global_routed": "0.7488044737365159",
        "efficiency_local_routed": "0"
    },
    {
        "length": "2722.497999999999",
        "length_lcc": "2722.497999999999",
        "coverage": "3.3949733644885596",
        "directness": "0.8868597080111188",
        "directness_lcc": "0.8868597080111188",
        "poi_coverage": "2",
        "components": "1",
        "overlap_biketrack": "0",
        "overlap_bikeable": "380.1429999999999",
        "efficiency_global": "0.7488044737365159",
        "efficiency_local": "0",
        "efficiency_global_routed": "0.7488044737365159",
        "efficiency_local_routed": "0"
    },
    {
        "length": "2722.497999999999",
        "length_lcc": "2722.497999999999",
        "coverage": "3.3949733644885596",
        "directness": "0.8868597080111221",
        "directness_lcc": "0.8868597080111221",
        "poi_coverage": "2",
        "components": "1",
        "overlap_biketrack": "0",
        "overlap_bikeable": "380.1429999999999",
        "efficiency_global": "0.7488044737365159",
        "efficiency_local": "0",
        "efficiency_global_routed": "0.7488044737365159",
        "efficiency_local_routed": "0"
    },
    {
        "length": "2722.497999999999",
        "length_lcc": "2722.497999999999",
        "coverage": "3.3949733644885596",
        "directness": "0.8868597080111225",
        "directness_lcc": "0.8868597080111225",
        "poi_coverage": "2",
        "components": "1",
        "overlap_biketrack": "0",
        "overlap_bikeable": "380.1429999999999",
        "efficiency_global": "0.7488044737365159",
        "efficiency_local": "0",
        "efficiency_global_routed": "0.7488044737365159",
        "efficiency_local_routed": "0"
    },
    {
        "length": "2722.497999999999",
        "length_lcc": "2722.497999999999",
        "coverage": "3.3949733644885596",
        "directness": "0.8868597080111236",
        "directness_lcc": "0.8868597080111236",
        "poi_coverage": "2",
        "components": "1",
        "overlap_biketrack": "0",
        "overlap_bikeable": "380.1429999999999",
        "efficiency_global": "0.7488044737365159",
        "efficiency_local": "0",
        "efficiency_global_routed": "0.7488044737365159",
        "efficiency_local_routed": "0"
    },
    {
        "length": "2722.497999999999",
        "length_lcc": "2722.497999999999",
        "coverage": "3.3949733644885596",
        "directness": "0.8868597080111228",
        "directness_lcc": "0.8868597080111228",
        "poi_coverage": "2",
        "components": "1",
        "overlap_biketrack": "0",
        "overlap_bikeable": "380.1429999999999",
        "efficiency_global": "0.7488044737365159",
        "efficiency_local": "0",
        "efficiency_global_routed": "0.7488044737365159",
        "efficiency_local_routed": "0"
    },
    {
        "length": "2722.497999999999",
        "length_lcc": "2722.497999999999",
        "coverage": "3.3949733644885596",
        "directness": "0.8868597080111251",
        "directness_lcc": "0.8868597080111251",
        "poi_coverage": "2",
        "components": "1",
        "overlap_biketrack": "0",
        "overlap_bikeable": "380.1429999999999",
        "efficiency_global": "0.7488044737365159",
        "efficiency_local": "0",
        "efficiency_global_routed": "0.7488044737365159",
        "efficiency_local_routed": "0"
    },
    {
        "length": "2722.497999999999",
        "length_lcc": "2722.497999999999",
        "coverage": "3.3949733644885596",
        "directness": "0.8868597080111235",
        "directness_lcc": "0.8868597080111235",
        "poi_coverage": "2",
        "components": "1",
        "overlap_biketrack": "0",
        "overlap_bikeable": "380.1429999999999",
        "efficiency_global": "0.7488044737365159",
        "efficiency_local": "0",
        "efficiency_global_routed": "0.7488044737365159",
        "efficiency_local_routed": "0"
    },
    {
        "length": "2722.497999999999",
        "length_lcc": "2722.497999999999",
        "coverage": "3.3949733644885596",
        "directness": "0.8868597080111209",
        "directness_lcc": "0.8868597080111209",
        "poi_coverage": "2",
        "components": "1",
        "overlap_biketrack": "0",
        "overlap_bikeable": "380.1429999999999",
        "efficiency_global": "0.7488044737365159",
        "efficiency_local": "0",
        "efficiency_global_routed": "0.7488044737365159",
        "efficiency_local_routed": "0"
    },
    {
        "length": "2722.497999999999",
        "length_lcc": "2722.497999999999",
        "coverage": "3.3949733644885596",
        "directness": "0.8868597080111229",
        "directness_lcc": "0.8868597080111229",
        "poi_coverage": "2",
        "components": "1",
        "overlap_biketrack": "0",
        "overlap_bikeable": "380.1429999999999",
        "efficiency_global": "0.7488044737365159",
        "efficiency_local": "0",
        "efficiency_global_routed": "0.7488044737365159",
        "efficiency_local_routed": "0"
    },
    {
        "length": "2722.497999999999",
        "length_lcc": "2722.497999999999",
        "coverage": "3.3949733644885596",
        "directness": "0.8868597080111196",
        "directness_lcc": "0.8868597080111196",
        "poi_coverage": "2",
        "components": "1",
        "overlap_biketrack": "0",
        "overlap_bikeable": "380.1429999999999",
        "efficiency_global": "0.7488044737365159",
        "efficiency_local": "0",
        "efficiency_global_routed": "0.7488044737365159",
        "efficiency_local_routed": "0"
    },
    {
        "length": "2722.497999999999",
        "length_lcc": "2722.497999999999",
        "coverage": "3.3949733644885596",
        "directness": "0.8868597080111219",
        "directness_lcc": "0.8868597080111219",
        "poi_coverage": "2",
        "components": "1",
        "overlap_biketrack": "0",
        "overlap_bikeable": "380.1429999999999",
        "efficiency_global": "0.7488044737365159",
        "efficiency_local": "0",
        "efficiency_global_routed": "0.7488044737365159",
        "efficiency_local_routed": "0"
    },
    {
        "length": "2722.497999999999",
        "length_lcc": "2722.497999999999",
        "coverage": "3.3949733644885596",
        "directness": "0.8868597080111209",
        "directness_lcc": "0.8868597080111209",
        "poi_coverage": "2",
        "components": "1",
        "overlap_biketrack": "0",
        "overlap_bikeable": "380.1429999999999",
        "efficiency_global": "0.7488044737365159",
        "efficiency_local": "0",
        "efficiency_global_routed": "0.7488044737365159",
        "efficiency_local_routed": "0"
    },
    {
        "length": "2722.497999999999",
        "length_lcc": "2722.497999999999",
        "coverage": "3.3949733644885596",
        "directness": "0.886859708011118",
        "directness_lcc": "0.886859708011118",
        "poi_coverage": "2",
        "components": "1",
        "overlap_biketrack": "0",
        "overlap_bikeable": "380.1429999999999",
        "efficiency_global": "0.7488044737365159",
        "efficiency_local": "0",
        "efficiency_global_routed": "0.7488044737365159",
        "efficiency_local_routed": "0"
    },
    {
        "length": "2722.497999999999",
        "length_lcc": "2722.497999999999",
        "coverage": "3.3949733644885596",
        "directness": "0.886859708011121",
        "directness_lcc": "0.886859708011121",
        "poi_coverage": "2",
        "components": "1",
        "overlap_biketrack": "0",
        "overlap_bikeable": "380.1429999999999",
        "efficiency_global": "0.7488044737365159",
        "efficiency_local": "0",
        "efficiency_global_routed": "0.7488044737365159",
        "efficiency_local_routed": "0"
    },
    {
        "length": "2722.497999999999",
        "length_lcc": "2722.497999999999",
        "coverage": "3.3949733644885596",
        "directness": "0.8868597080111241",
        "directness_lcc": "0.8868597080111241",
        "poi_coverage": "2",
        "components": "1",
        "overlap_biketrack": "0",
        "overlap_bikeable": "380.1429999999999",
        "efficiency_global": "0.7488044737365159",
        "efficiency_local": "0",
        "efficiency_global_routed": "0.7488044737365159",
        "efficiency_local_routed": "0"
    },
    {
        "length": "2722.497999999999",
        "length_lcc": "2722.497999999999",
        "coverage": "3.3949733644885596",
        "directness": "0.8868597080111232",
        "directness_lcc": "0.8868597080111232",
        "poi_coverage": "2",
        "components": "1",
        "overlap_biketrack": "0",
        "overlap_bikeable": "380.1429999999999",
        "efficiency_global": "0.7488044737365159",
        "efficiency_local": "0",
        "efficiency_global_routed": "0.7488044737365159",
        "efficiency_local_routed": "0"
    }
]