[
    {
        "length": "57625.54699999985",
        "length_lcc": "46333.11299999994",
        "coverage": "55.25255251628103",
        "directness": "0.7512862138785464",
        "directness_lcc": "0.747762794892346",
        "poi_coverage": "27",
        "components": "3",
        "overlap_biketrack": "0",
        "overlap_bikeable": "119.253",
        "efficiency_global": "0.5071307023380001",
        "efficiency_local": "0.0",
        "efficiency_global_routed": "0.9517262577842331",
        "efficiency_local_routed": "0.3051993465625953"
    },
    {
        "length": "113927.21300000024",
        "length_lcc": "103516.22900000025",
        "coverage": "104.37525048301518",
        "directness": "0.7021031727904348",
        "directness_lcc": "0.6942750243382652",
        "poi_coverage": "52",
        "components": "4",
        "overlap_biketrack": "0",
        "overlap_bikeable": "410.918",
        "efficiency_global": "0.49974571335075857",
        "efficiency_local": "0.02260189467757967",
        "efficiency_global_routed": "0.8794804991983447",
        "efficiency_local_routed": "0.17181243891049955"
    },
    {
        "length": "175684.02699999945",
        "length_lcc": "160677.51499999964",
        "coverage": "160.1901137175274",
        "directness": "0.6919688765470454",
        "directness_lcc": "0.6887916013511909",
        "poi_coverage": "79",
        "components": "6",
        "overlap_biketrack": "0",
        "overlap_bikeable": "436.623",
        "efficiency_global": "0.4874332987825026",
        "efficiency_local": "0.0269757034313906",
        "efficiency_global_routed": "0.8197767068543543",
        "efficiency_local_routed": "0.10399173934056552"
    },
    {
        "length": "246188.85399999903",
        "length_lcc": "216464.320999999",
        "coverage": "221.69268859544323",
        "directness": "0.6783190031114692",
        "directness_lcc": "0.6813507535415382",
        "poi_coverage": "104",
        "components": "8",
        "overlap_biketrack": "0",
        "overlap_bikeable": "1126.8039999999999",
        "efficiency_global": "0.4836194218574302",
        "efficiency_local": "0.03709096553562077",
        "efficiency_global_routed": "0.7965545439269943",
        "efficiency_local_routed": "0.2156239183950106"
    },
    {
        "length": "309064.2889999988",
        "length_lcc": "286863.88699999865",
        "coverage": "269.8851854241366",
        "directness": "0.6709183067454034",
        "directness_lcc": "0.6754848235618264",
        "poi_coverage": "123",
        "components": "5",
        "overlap_biketrack": "0",
        "overlap_bikeable": "1126.8039999999999",
        "efficiency_global": "0.5275375464454138",
        "efficiency_local": "0.028672855450089255",
        "efficiency_global_routed": "0.8204847723298843",
        "efficiency_local_routed": "0.27517321554785695"
    },
    {
        "length": "378514.16899999784",
        "length_lcc": "374783.3439999979",
        "coverage": "321.3368764844966",
        "directness": "0.6633599948911233",
        "directness_lcc": "0.6669941817053749",
        "poi_coverage": "140",
        "components": "3",
        "overlap_biketrack": "0",
        "overlap_bikeable": "1597.6340000000007",
        "efficiency_global": "0.5575803418255457",
        "efficiency_local": "0.035267542793933446",
        "efficiency_global_routed": "0.834858702292122",
        "efficiency_local_routed": "0.2830130802070004"
    },
    {
        "length": "437008.9839999985",
        "length_lcc": "435241.1369999985",
        "coverage": "362.78550521446255",
        "directness": "0.6739703148193427",
        "directness_lcc": "0.6697353330461041",
        "poi_coverage": "157",
        "components": "2",
        "overlap_biketrack": "0",
        "overlap_bikeable": "1597.6340000000007",
        "efficiency_global": "0.5790222523185892",
        "efficiency_local": "0.04188706918466925",
        "efficiency_global_routed": "0.8431951748677988",
        "efficiency_local_routed": "0.25413547987564"
    },
    {
        "length": "498706.33699999744",
        "length_lcc": "494108.6289999972",
        "coverage": "406.60861826783764",
        "directness": "0.6746075941599138",
        "directness_lcc": "0.6765494825727856",
        "poi_coverage": "176",
        "components": "2",
        "overlap_biketrack": "0",
        "overlap_bikeable": "1831.7840000000006",
        "efficiency_global": "0.5863421209331847",
        "efficiency_local": "0.049149818033870356",
        "efficiency_global_routed": "0.8459838484182352",
        "efficiency_local_routed": "0.2508570260997575"
    },
    {
        "length": "556045.8509999991",
        "length_lcc": "556045.8509999991",
        "coverage": "440.52800010422874",
        "directness": "0.6955407533743724",
        "directness_lcc": "0.6955407533743724",
        "poi_coverage": "188",
        "components": "1",
        "overlap_biketrack": "0",
        "overlap_bikeable": "1831.7840000000006",
        "efficiency_global": "0.6093322303555236",
        "efficiency_local": "0.06196965609822975",
        "efficiency_global_routed": "0.8447351545479082",
        "efficiency_local_routed": "0.23629521062314643"
    },
    {
        "length": "612594.6900000022",
        "length_lcc": "612594.6900000022",
        "coverage": "473.7224191501201",
        "directness": "0.6952805561083989",
        "directness_lcc": "0.6952805561083989",
        "poi_coverage": "200",
        "components": "1",
        "overlap_biketrack": "0",
        "overlap_bikeable": "1884.3210000000006",
        "efficiency_global": "0.6182770584846384",
        "efficiency_local": "0.0676477403068998",
        "efficiency_global_routed": "0.8420989599516286",
        "efficiency_local_routed": "0.2220623202191607"
    },
    {
        "length": "667128.4240000063",
        "length_lcc": "667128.4240000063",
        "coverage": "509.45311717665015",
        "directness": "0.6968817358970865",
        "directness_lcc": "0.6968817358970865",
        "poi_coverage": "212",
        "components": "1",
        "overlap_biketrack": "0",
        "overlap_bikeable": "2034.4540000000002",
        "efficiency_global": "0.6205407679778426",
        "efficiency_local": "0.09481989937105138",
        "efficiency_global_routed": "0.834904878177718",
        "efficiency_local_routed": "0.23090925992536895"
    },
    {
        "length": "725549.9650000044",
        "length_lcc": "725549.9650000044",
        "coverage": "542.694187442874",
        "directness": "0.7037082818037975",
        "directness_lcc": "0.7037082818037975",
        "poi_coverage": "225",
        "components": "1",
        "overlap_biketrack": "0",
        "overlap_bikeable": "2049.7200000000003",
        "efficiency_global": "0.6289259625083864",
        "efficiency_local": "0.10858355756279812",
        "efficiency_global_routed": "0.8333997452214369",
        "efficiency_local_routed": "0.24380736829661243"
    },
    {
        "length": "784578.0660000035",
        "length_lcc": "784578.0660000035",
        "coverage": "576.4386259951434",
        "directness": "0.70595080620664",
        "directness_lcc": "0.70595080620664",
        "poi_coverage": "236",
        "components": "1",
        "overlap_biketrack": "0",
        "overlap_bikeable": "2096.7580000000003",
        "efficiency_global": "0.6282740424930725",
        "efficiency_local": "0.11816734172115069",
        "efficiency_global_routed": "0.8279868171684972",
        "efficiency_local_routed": "0.23536561643524767"
    },
    {
        "length": "839090.9280000033",
        "length_lcc": "839090.9280000033",
        "coverage": "606.1102132751602",
        "directness": "0.7130398100249749",
        "directness_lcc": "0.7130398100249749",
        "poi_coverage": "246",
        "components": "1",
        "overlap_biketrack": "0",
        "overlap_bikeable": "2860.1999999999994",
        "efficiency_global": "0.6313988402981106",
        "efficiency_local": "0.13053217352142873",
        "efficiency_global_routed": "0.8192630859363057",
        "efficiency_local_routed": "0.2446219227762772"
    },
    {
        "length": "887312.6900000025",
        "length_lcc": "887312.6900000025",
        "coverage": "628.5757652879919",
        "directness": "0.7135504728892228",
        "directness_lcc": "0.7135504728892228",
        "poi_coverage": "260",
        "components": "1",
        "overlap_biketrack": "0",
        "overlap_bikeable": "2860.1999999999994",
        "efficiency_global": "0.6299049517322439",
        "efficiency_local": "0.13318121407982206",
        "efficiency_global_routed": "0.813434816691133",
        "efficiency_local_routed": "0.23818627989691923"
    },
    {
        "length": "947256.4410000038",
        "length_lcc": "947256.4410000038",
        "coverage": "658.9181057853708",
        "directness": "0.7106443008171012",
        "directness_lcc": "0.7106443008171012",
        "poi_coverage": "272",
        "components": "1",
        "overlap_biketrack": "0",
        "overlap_bikeable": "3228.032000000001",
        "efficiency_global": "0.6280194917023466",
        "efficiency_local": "0.13411101299701225",
        "efficiency_global_routed": "0.8105910026255724",
        "efficiency_local_routed": "0.22126684137341057"
    },
    {
        "length": "1002856.4430000033",
        "length_lcc": "1002856.4430000033",
        "coverage": "696.2640763326444",
        "directness": "0.7177651950460769",
        "directness_lcc": "0.7177651950460769",
        "poi_coverage": "289",
        "components": "1",
        "overlap_biketrack": "0",
        "overlap_bikeable": "4081.2720000000004",
        "efficiency_global": "0.6202238423114299",
        "efficiency_local": "0.13657773516819627",
        "efficiency_global_routed": "0.7998472849748393",
        "efficiency_local_routed": "0.2371650208275057"
    },
    {
        "length": "1063781.9250000017",
        "length_lcc": "1063781.9250000017",
        "coverage": "733.6382785339903",
        "directness": "0.7095588551328375",
        "directness_lcc": "0.7095588551328375",
        "poi_coverage": "304",
        "components": "1",
        "overlap_biketrack": "0",
        "overlap_bikeable": "4127.522",
        "efficiency_global": "0.6130703041197219",
        "efficiency_local": "0.15691302375596555",
        "efficiency_global_routed": "0.7921151678078548",
        "efficiency_local_routed": "0.22312621310851874"
    },
    {
        "length": "1117517.7779999948",
        "length_lcc": "1117517.7779999948",
        "coverage": "761.4473464728642",
        "directness": "0.7135281666800807",
        "directness_lcc": "0.7135281666800807",
        "poi_coverage": "314",
        "components": "1",
        "overlap_biketrack": "0",
        "overlap_bikeable": "4976.501000000002",
        "efficiency_global": "0.6128323195173528",
        "efficiency_local": "0.15851233264359554",
        "efficiency_global_routed": "0.7816996598199366",
        "efficiency_local_routed": "0.22405024872117066"
    },
    {
        "length": "1175644.667999998",
        "length_lcc": "1175644.667999998",
        "coverage": "783.7747729826124",
        "directness": "0.7180164037241945",
        "directness_lcc": "0.7180164037241945",
        "poi_coverage": "321",
        "components": "1",
        "overlap_biketrack": "0",
        "overlap_bikeable": "5125.937000000004",
        "efficiency_global": "0.6130498726016134",
        "efficiency_local": "0.16654768121480357",
        "efficiency_global_routed": "0.7913348146869424",
        "efficiency_local_routed": "0.226573874431635"
    },
    {
        "length": "1233274.2249999985",
        "length_lcc": "1233274.2249999985",
        "coverage": "801.9791822839546",
        "directness": "0.7161442987332086",
        "directness_lcc": "0.7161442987332086",
        "poi_coverage": "328",
        "components": "1",
        "overlap_biketrack": "0",
        "overlap_bikeable": "6141.934",
        "efficiency_global": "0.6157106480031825",
        "efficiency_local": "0.1737290531452932",
        "efficiency_global_routed": "0.7861157198833542",
        "efficiency_local_routed": "0.20879876037472372"
    },
    {
        "length": "1267593.114999993",
        "length_lcc": "1267593.114999993",
        "coverage": "812.2446901591453",
        "directness": "0.7226311283553943",
        "directness_lcc": "0.7226311283553943",
        "poi_coverage": "331",
        "components": "1",
        "overlap_biketrack": "0",
        "overlap_bikeable": "6235.000000000001",
        "efficiency_global": "0.6177498643025219",
        "efficiency_local": "0.21459461849431727",
        "efficiency_global_routed": "0.7862478873844748",
        "efficiency_local_routed": "0.21100237459019056"
    },
    {
        "length": "1324968.0999999929",
        "length_lcc": "1324968.0999999929",
        "coverage": "830.5994046658581",
        "directness": "0.722040250088107",
        "directness_lcc": "0.722040250088107",
        "poi_coverage": "335",
        "components": "1",
        "overlap_biketrack": "0",
        "overlap_bikeable": "6270.3949999999995",
        "efficiency_global": "0.6206882226589836",
        "efficiency_local": "0.22724137489717455",
        "efficiency_global_routed": "0.769166122588579",
        "efficiency_local_routed": "0.2111141545862514"
    },
    {
        "length": "1353993.4059999974",
        "length_lcc": "1353993.4059999974",
        "coverage": "839.6065148881291",
        "directness": "0.7241913105362314",
        "directness_lcc": "0.7241913105362314",
        "poi_coverage": "337",
        "components": "1",
        "overlap_biketrack": "0",
        "overlap_bikeable": "7932.670000000003",
        "efficiency_global": "0.6232637239620465",
        "efficiency_local": "0.24880975946835704",
        "efficiency_global_routed": "0.7979497237781495",
        "efficiency_local_routed": "0.22930648019448224"
    },
    {
        "length": "1392876.6279999933",
        "length_lcc": "1392876.6279999933",
        "coverage": "844.5260332196312",
        "directness": "0.7285756409863754",
        "directness_lcc": "0.7285756409863754",
        "poi_coverage": "337",
        "components": "1",
        "overlap_biketrack": "0",
        "overlap_bikeable": "8954.163000000002",
        "efficiency_global": "0.6269797600376763",
        "efficiency_local": "0.2939639074355956",
        "efficiency_global_routed": "0.7788076532274464",
        "efficiency_local_routed": "0.18927728739843075"
    },
    {
        "length": "1424172.830999995",
        "length_lcc": "1424172.830999995",
        "coverage": "848.6223285972152",
        "directness": "0.7267191751614104",
        "directness_lcc": "0.7267191751614104",
        "poi_coverage": "337",
        "components": "1",
        "overlap_biketrack": "0",
        "overlap_bikeable": "8954.163000000002",
        "efficiency_global": "0.6300938557516368",
        "efficiency_local": "0.3299320720028257",
        "efficiency_global_routed": "0.7836095501773584",
        "efficiency_local_routed": "0.20785588829730334"
    },
    {
        "length": "1463293.447999992",
        "length_lcc": "1463293.447999992",
        "coverage": "852.8558550938097",
        "directness": "0.7331098450164449",
        "directness_lcc": "0.7331098450164449",
        "poi_coverage": "337",
        "components": "1",
        "overlap_biketrack": "0",
        "overlap_bikeable": "9149.866000000002",
        "efficiency_global": "0.6330806409672957",
        "efficiency_local": "0.3592204178284048",
        "efficiency_global_routed": "0.7873247619459042",
        "efficiency_local_routed": "0.2134423075863706"
    },
    {
        "length": "1491968.224999992",
        "length_lcc": "1491968.224999992",
        "coverage": "858.8502540879433",
        "directness": "0.7346017048782907",
        "directness_lcc": "0.7346017048782907",
        "poi_coverage": "337",
        "components": "1",
        "overlap_biketrack": "0",
        "overlap_bikeable": "9149.866000000002",
        "efficiency_global": "0.6368659811687312",
        "efficiency_local": "0.3933794907174497",
        "efficiency_global_routed": "0.7646303247370893",
        "efficiency_local_routed": "0.20639041600406144"
    },
    {
        "length": "1535844.751999995",
        "length_lcc": "1535844.751999995",
        "coverage": "863.5004291212558",
        "directness": "0.7311224931682658",
        "directness_lcc": "0.7311224931682658",
        "poi_coverage": "337",
        "components": "1",
        "overlap_biketrack": "0",
        "overlap_bikeable": "9480.422000000004",
        "efficiency_global": "0.6390525121561405",
        "efficiency_local": "0.4089400060174555",
        "efficiency_global_routed": "0.789637921189552",
        "efficiency_local_routed": "0.19400761226206722"
    },
    {
        "length": "1559925.7619999938",
        "length_lcc": "1559925.7619999938",
        "coverage": "865.9181971093122",
        "directness": "0.7345897165557773",
        "directness_lcc": "0.7345897165557773",
        "poi_coverage": "337",
        "components": "1",
        "overlap_biketrack": "0",
        "overlap_bikeable": "9603.414000000006",
        "efficiency_global": "0.6425208021096331",
        "efficiency_local": "0.44564962487041615",
        "efficiency_global_routed": "0.7831966809108682",
        "efficiency_local_routed": "0.21750051941280213"
    },
    {
        "length": "1597950.8609999982",
        "length_lcc": "1597950.8609999982",
        "coverage": "871.2100626717735",
        "directness": "0.7324476790999928",
        "directness_lcc": "0.7324476790999928",
        "poi_coverage": "337",
        "components": "1",
        "overlap_biketrack": "0",
        "overlap_bikeable": "9899.163000000006",
        "efficiency_global": "0.645189214711642",
        "efficiency_local": "0.47175757066776436",
        "efficiency_global_routed": "0.7653067440721082",
        "efficiency_local_routed": "0.227199654657296"
    },
    {
        "length": "1625410.1039999963",
        "length_lcc": "1625410.1039999963",
        "coverage": "874.0280606846998",
        "directness": "0.7352245271710244",
        "directness_lcc": "0.7352245271710244",
        "poi_coverage": "337",
        "components": "1",
        "overlap_biketrack": "0",
        "overlap_bikeable": "9951.773000000007",
        "efficiency_global": "0.6465326163971935",
        "efficiency_local": "0.484231694184561",
        "efficiency_global_routed": "0.7734844267553626",
        "efficiency_local_routed": "0.22150509086408354"
    },
    {
        "length": "1656537.8529999945",
        "length_lcc": "1656537.8529999945",
        "coverage": "876.1337473817126",
        "directness": "0.7357695046076286",
        "directness_lcc": "0.7357695046076286",
        "poi_coverage": "337",
        "components": "1",
        "overlap_biketrack": "0",
        "overlap_bikeable": "9978.692000000005",
        "efficiency_global": "0.6483322291814659",
        "efficiency_local": "0.5060981191214204",
        "efficiency_global_routed": "0.770730025173277",
        "efficiency_local_routed": "0.2473563296867038"
    },
    {
        "length": "1677185.7069999939",
        "length_lcc": "1677185.7069999939",
        "coverage": "879.3246785663323",
        "directness": "0.7369559178343899",
        "directness_lcc": "0.7369559178343899",
        "poi_coverage": "337",
        "components": "1",
        "overlap_biketrack": "0",
        "overlap_bikeable": "10123.942000000008",
        "efficiency_global": "0.6495458707572237",
        "efficiency_local": "0.5205677934434336",
        "efficiency_global_routed": "0.7784286704924805",
        "efficiency_local_routed": "0.20422749502458906"
    },
    {
        "length": "1700671.585999996",
        "length_lcc": "1700671.585999996",
        "coverage": "883.272886772942",
        "directness": "0.741440990394177",
        "directness_lcc": "0.741440990394177",
        "poi_coverage": "337",
        "components": "1",
        "overlap_biketrack": "0",
        "overlap_bikeable": "10456.814000000008",
        "efficiency_global": "0.6510623303439761",
        "efficiency_local": "0.542578821999898",
        "efficiency_global_routed": "0.7812415612905173",
        "efficiency_local_routed": "0.23203550526141614"
    },
    {
        "length": "1720547.1389999972",
        "length_lcc": "1720547.1389999972",
        "coverage": "885.5016076402876",
        "directness": "0.7376904127170378",
        "directness_lcc": "0.7376904127170378",
        "poi_coverage": "337",
        "components": "1",
        "overlap_biketrack": "0",
        "overlap_bikeable": "10473.492000000007",
        "efficiency_global": "0.6521356189107174",
        "efficiency_local": "0.5732095939020848",
        "efficiency_global_routed": "0.7757366508346455",
        "efficiency_local_routed": "0.21854785361324217"
    },
    {
        "length": "1732951.2739999974",
        "length_lcc": "1732951.2739999974",
        "coverage": "886.6207251028177",
        "directness": "0.7406499425886797",
        "directness_lcc": "0.7406499425886797",
        "poi_coverage": "337",
        "components": "1",
        "overlap_biketrack": "0",
        "overlap_bikeable": "10473.492000000007",
        "efficiency_global": "0.6529344061397856",
        "efficiency_local": "0.5943238794241542",
        "efficiency_global_routed": "0.7843740467101618",
        "efficiency_local_routed": "0.23670064298487942"
    },
    {
        "length": "1781171.2869999937",
        "length_lcc": "1781171.2869999937",
        "coverage": "897.6992189307359",
        "directness": "0.7406544839821558",
        "directness_lcc": "0.7406544839821558",
        "poi_coverage": "337",
        "components": "1",
        "overlap_biketrack": "0",
        "overlap_bikeable": "12713.435000000007",
        "efficiency_global": "0.6538169408924995",
        "efficiency_local": "0.6071102377714482",
        "efficiency_global_routed": "0.7603217517939763",
        "efficiency_local_routed": "0.217826700860306"
    },
    {
        "length": "1806027.9989999929",
        "length_lcc": "1806027.9989999929",
        "coverage": "900.5770545470916",
        "directness": "0.7411768962030305",
        "directness_lcc": "0.7411768962030305",
        "poi_coverage": "337",
        "components": "1",
        "overlap_biketrack": "0",
        "overlap_bikeable": "13331.208000000015",
        "efficiency_global": "0.654133705634383",
        "efficiency_local": "0.6178032626541434",
        "efficiency_global_routed": "0.7772594432866295",
        "efficiency_local_routed": "0.22863642815395543"
    },
    {
        "length": "1806027.9989999929",
        "length_lcc": "1806027.9989999929",
        "coverage": "900.5770545470916",
        "directness": "0.7408667270796919",
        "directness_lcc": "0.7408667270796919",
        "poi_coverage": "337",
        "components": "1",
        "overlap_biketrack": "0",
        "overlap_bikeable": "13331.208000000015",
        "efficiency_global": "0.654133705634383",
        "efficiency_local": "0.6207720060048558",
        "efficiency_global_routed": "0.7833660995353894",
        "efficiency_local_routed": "0.2300800337797938"
    }
]