[
    {
        "length": "1170.6259999999993",
        "length_lcc": "1170.6259999999993",
        "coverage": "1.7790459683293678",
        "directness": "0.7826042554860655",
        "directness_lcc": "0.7826042554860655",
        "poi_coverage": "7",
        "components": "1",
        "overlap_biketrack": "0",
        "overlap_bikeable": "576.1800000000001",
        "efficiency_global": "0.8163441514870825",
        "efficiency_local": "0.0",
        "efficiency_global_routed": "0.9418419529614456",
        "efficiency_local_routed": "0.0"
    },
    {
        "length": "4560.555",
        "length_lcc": "4560.555",
        "coverage": "2.453700831893088",
        "directness": "0.7204316236409745",
        "directness_lcc": "0.7204316236409745",
        "poi_coverage": "9",
        "components": "1",
        "overlap_biketrack": "343.0",
        "overlap_bikeable": "919.1799999999998",
        "efficiency_global": "0.8081612941128152",
        "efficiency_local": "0.8104880438352913",
        "efficiency_global_routed": "0.9229032506011025",
        "efficiency_local_routed": "0.15951332326015305"
    },
    {
        "length": "6965.889",
        "length_lcc": "6965.889",
        "coverage": "3.6367967648821145",
        "directness": "0.7651732179500677",
        "directness_lcc": "0.7651732179500677",
        "poi_coverage": "12",
        "components": "1",
        "overlap_biketrack": "343.0",
        "overlap_bikeable": "2130.2400000000002",
        "efficiency_global": "0.8516862332119955",
        "efficiency_local": "0.7986023837441367",
        "efficiency_global_routed": "0.8928411919004435",
        "efficiency_local_routed": "0.14172744918110103"
    },
    {
        "length": "11860.810999999996",
        "length_lcc": "11860.810999999996",
        "coverage": "5.81214253042432",
        "directness": "0.7683694381144309",
        "directness_lcc": "0.7683694381144309",
        "poi_coverage": "16",
        "components": "1",
        "overlap_biketrack": "343.0",
        "overlap_bikeable": "2606.6250000000005",
        "efficiency_global": "0.8473980092759251",
        "efficiency_local": "0.8182636140395144",
        "efficiency_global_routed": "0.8858000048180844",
        "efficiency_local_routed": "0.24398875425086708"
    },
    {
        "length": "18009.768000000025",
        "length_lcc": "18009.768000000025",
        "coverage": "7.813258771335078",
        "directness": "0.7307198177211378",
        "directness_lcc": "0.7307198177211378",
        "poi_coverage": "20",
        "components": "1",
        "overlap_biketrack": "495.02599999999995",
        "overlap_bikeable": "4254.302000000001",
        "efficiency_global": "0.7995694892620541",
        "efficiency_local": "0.7608356926783424",
        "efficiency_global_routed": "0.8699591962919279",
        "efficiency_local_routed": "0.1062806404719741"
    },
    {
        "length": "24251.11699999998",
        "length_lcc": "24251.11699999998",
        "coverage": "9.74881489564678",
        "directness": "0.7158557972897839",
        "directness_lcc": "0.7158557972897839",
        "poi_coverage": "23",
        "components": "1",
        "overlap_biketrack": "689.8629999999998",
        "overlap_bikeable": "6734.814999999999",
        "efficiency_global": "0.7944783719787694",
        "efficiency_local": "0.7043899581519143",
        "efficiency_global_routed": "0.8637976626923711",
        "efficiency_local_routed": "0.09327857032521597"
    },
    {
        "length": "33015.90499999999",
        "length_lcc": "33015.90499999999",
        "coverage": "12.60012989511909",
        "directness": "0.735542373096313",
        "directness_lcc": "0.735542373096313",
        "poi_coverage": "26",
        "components": "1",
        "overlap_biketrack": "1658.1050000000007",
        "overlap_bikeable": "10604.800000000008",
        "efficiency_global": "0.7833114418982235",
        "efficiency_local": "0.7038661385972524",
        "efficiency_global_routed": "0.8551396887123089",
        "efficiency_local_routed": "0.14909081129081067"
    },
    {
        "length": "42008.85299999995",
        "length_lcc": "42008.85299999995",
        "coverage": "16.646695365745455",
        "directness": "0.7361750430021122",
        "directness_lcc": "0.7361750430021122",
        "poi_coverage": "30",
        "components": "1",
        "overlap_biketrack": "1658.1050000000007",
        "overlap_bikeable": "13092.611000000006",
        "efficiency_global": "0.7799112249743908",
        "efficiency_local": "0.7238735455504394",
        "efficiency_global_routed": "0.8480287480657476",
        "efficiency_local_routed": "0.15568698809540252"
    },
    {
        "length": "53603.24400000003",
        "length_lcc": "53603.24400000003",
        "coverage": "19.6495171958082",
        "directness": "0.7174892619997959",
        "directness_lcc": "0.7174892619997959",
        "poi_coverage": "33",
        "components": "1",
        "overlap_biketrack": "2463.9939999999997",
        "overlap_bikeable": "17628.64400000001",
        "efficiency_global": "0.753947944298894",
        "efficiency_local": "0.728947793918139",
        "efficiency_global_routed": "0.8283147871613646",
        "efficiency_local_routed": "0.16664954358669593"
    },
    {
        "length": "57665.83400000006",
        "length_lcc": "57665.83400000006",
        "coverage": "21.51570826485914",
        "directness": "0.7222151026139711",
        "directness_lcc": "0.7222151026139711",
        "poi_coverage": "36",
        "components": "1",
        "overlap_biketrack": "2463.9939999999997",
        "overlap_bikeable": "19579.394000000008",
        "efficiency_global": "0.7554523138354378",
        "efficiency_local": "0.7403672006000976",
        "efficiency_global_routed": "0.8303146321008864",
        "efficiency_local_routed": "0.15994923660378743"
    },
    {
        "length": "67363.51000000015",
        "length_lcc": "67363.51000000015",
        "coverage": "25.010922769827015",
        "directness": "0.7343205595129146",
        "directness_lcc": "0.7343205595129146",
        "poi_coverage": "40",
        "components": "1",
        "overlap_biketrack": "2961.1189999999997",
        "overlap_bikeable": "22172.279999999988",
        "efficiency_global": "0.7548040196896778",
        "efficiency_local": "0.7359782180004633",
        "efficiency_global_routed": "0.827528771980909",
        "efficiency_local_routed": "0.15908716023665956"
    },
    {
        "length": "77006.74800000014",
        "length_lcc": "77006.74800000014",
        "coverage": "28.441875210076596",
        "directness": "0.7383540691529709",
        "directness_lcc": "0.7383540691529709",
        "poi_coverage": "45",
        "components": "1",
        "overlap_biketrack": "3396.529999999999",
        "overlap_bikeable": "25524.792999999976",
        "efficiency_global": "0.757806573351959",
        "efficiency_local": "0.7337009664133725",
        "efficiency_global_routed": "0.8273597755239602",
        "efficiency_local_routed": "0.17108386831514416"
    },
    {
        "length": "86318.50400000007",
        "length_lcc": "86318.50400000007",
        "coverage": "31.927217488149996",
        "directness": "0.7435306945612222",
        "directness_lcc": "0.7435306945612222",
        "poi_coverage": "49",
        "components": "1",
        "overlap_biketrack": "4195.852999999999",
        "overlap_bikeable": "29691.662999999986",
        "efficiency_global": "0.7590462614723398",
        "efficiency_local": "0.7442050032568134",
        "efficiency_global_routed": "0.828678247705719",
        "efficiency_local_routed": "0.18741608186787198"
    },
    {
        "length": "93375.02800000003",
        "length_lcc": "93375.02800000003",
        "coverage": "34.87225207668558",
        "directness": "0.7361749667970312",
        "directness_lcc": "0.7361749667970312",
        "poi_coverage": "53",
        "components": "1",
        "overlap_biketrack": "4195.852999999999",
        "overlap_bikeable": "31738.46099999998",
        "efficiency_global": "0.7551441573237173",
        "efficiency_local": "0.7255875508300361",
        "efficiency_global_routed": "0.8328244713415092",
        "efficiency_local_routed": "0.1675306762675598"
    },
    {
        "length": "103765.68800000004",
        "length_lcc": "103765.68800000004",
        "coverage": "38.54846758059919",
        "directness": "0.7413894640870172",
        "directness_lcc": "0.7413894640870172",
        "poi_coverage": "56",
        "components": "1",
        "overlap_biketrack": "4226.104",
        "overlap_bikeable": "34104.42999999998",
        "efficiency_global": "0.75518815823492",
        "efficiency_local": "0.7407915962893232",
        "efficiency_global_routed": "0.8321001100081586",
        "efficiency_local_routed": "0.16448225473867828"
    },
    {
        "length": "110245.15500000007",
        "length_lcc": "110245.15500000007",
        "coverage": "40.19715540853697",
        "directness": "0.7439892011568902",
        "directness_lcc": "0.7439892011568902",
        "poi_coverage": "57",
        "components": "1",
        "overlap_biketrack": "4237.044",
        "overlap_bikeable": "35169.57399999995",
        "efficiency_global": "0.7541560330633561",
        "efficiency_local": "0.7333298197464615",
        "efficiency_global_routed": "0.8316407297335386",
        "efficiency_local_routed": "0.174245563428307"
    },
    {
        "length": "125540.8399999999",
        "length_lcc": "125540.8399999999",
        "coverage": "45.83192660159752",
        "directness": "0.7430534642205165",
        "directness_lcc": "0.7430534642205165",
        "poi_coverage": "60",
        "components": "1",
        "overlap_biketrack": "4267.974999999999",
        "overlap_bikeable": "38132.52899999994",
        "efficiency_global": "0.7546660665070787",
        "efficiency_local": "0.736842493205211",
        "efficiency_global_routed": "0.8308987162029189",
        "efficiency_local_routed": "0.1613151545401205"
    },
    {
        "length": "132992.37799999962",
        "length_lcc": "132992.37799999962",
        "coverage": "49.13246894520857",
        "directness": "0.7429262440599916",
        "directness_lcc": "0.7429262440599916",
        "poi_coverage": "64",
        "components": "1",
        "overlap_biketrack": "4267.974999999999",
        "overlap_bikeable": "40883.244999999944",
        "efficiency_global": "0.7569543869865856",
        "efficiency_local": "0.7398892118360704",
        "efficiency_global_routed": "0.8300478621184665",
        "efficiency_local_routed": "0.17080227140256682"
    },
    {
        "length": "144664.13699999932",
        "length_lcc": "144664.13699999932",
        "coverage": "52.88515074969224",
        "directness": "0.7498148719865075",
        "directness_lcc": "0.7498148719865075",
        "poi_coverage": "71",
        "components": "1",
        "overlap_biketrack": "4267.974999999999",
        "overlap_bikeable": "44957.17300000001",
        "efficiency_global": "0.754875811439249",
        "efficiency_local": "0.7423247508950951",
        "efficiency_global_routed": "0.8330291142793612",
        "efficiency_local_routed": "0.18127732759832668"
    },
    {
        "length": "146158.61299999934",
        "length_lcc": "146158.61299999934",
        "coverage": "54.26681814870702",
        "directness": "0.7494184216307275",
        "directness_lcc": "0.7494184216307275",
        "poi_coverage": "73",
        "components": "1",
        "overlap_biketrack": "4267.974999999999",
        "overlap_bikeable": "45044.77300000001",
        "efficiency_global": "0.7566219704039188",
        "efficiency_local": "0.7425910880652759",
        "efficiency_global_routed": "0.832050490484267",
        "efficiency_local_routed": "0.1712377484724936"
    },
    {
        "length": "161362.8689999994",
        "length_lcc": "161362.8689999994",
        "coverage": "59.64407593790417",
        "directness": "0.7461229233938756",
        "directness_lcc": "0.7461229233938756",
        "poi_coverage": "76",
        "components": "1",
        "overlap_biketrack": "4267.974999999999",
        "overlap_bikeable": "47943.530000000035",
        "efficiency_global": "0.7520059299909202",
        "efficiency_local": "0.725544011674441",
        "efficiency_global_routed": "0.8277093547730958",
        "efficiency_local_routed": "0.15524777298135292"
    },
    {
        "length": "176868.20999999967",
        "length_lcc": "176868.20999999967",
        "coverage": "67.35782363283406",
        "directness": "0.7470488322850938",
        "directness_lcc": "0.7470488322850938",
        "poi_coverage": "80",
        "components": "1",
        "overlap_biketrack": "4660.55",
        "overlap_bikeable": "50891.26199999999",
        "efficiency_global": "0.7518061512643002",
        "efficiency_local": "0.7386738398675782",
        "efficiency_global_routed": "0.8282133382906247",
        "efficiency_local_routed": "0.17014089034958846"
    },
    {
        "length": "185967.50799999942",
        "length_lcc": "185967.50799999942",
        "coverage": "71.95178895923148",
        "directness": "0.7492197121473702",
        "directness_lcc": "0.7492197121473702",
        "poi_coverage": "82",
        "components": "1",
        "overlap_biketrack": "4660.55",
        "overlap_bikeable": "51460.38199999997",
        "efficiency_global": "0.753995998458284",
        "efficiency_local": "0.7466091684341674",
        "efficiency_global_routed": "0.8389648584349707",
        "efficiency_local_routed": "0.16956498024570826"
    },
    {
        "length": "195808.6409999998",
        "length_lcc": "195808.6409999998",
        "coverage": "75.64167206097613",
        "directness": "0.7503277321138927",
        "directness_lcc": "0.7503277321138927",
        "poi_coverage": "85",
        "components": "1",
        "overlap_biketrack": "4660.55",
        "overlap_bikeable": "54820.45599999997",
        "efficiency_global": "0.7549655320236291",
        "efficiency_local": "0.7457026009552852",
        "efficiency_global_routed": "0.8425184802126527",
        "efficiency_local_routed": "0.1689435654722852"
    },
    {
        "length": "204610.8529999997",
        "length_lcc": "204610.8529999997",
        "coverage": "80.41844593266623",
        "directness": "0.7496995522765213",
        "directness_lcc": "0.7496995522765213",
        "poi_coverage": "87",
        "components": "1",
        "overlap_biketrack": "4842.634",
        "overlap_bikeable": "57424.630000000005",
        "efficiency_global": "0.7553602377731949",
        "efficiency_local": "0.7478354586339881",
        "efficiency_global_routed": "0.840931391328764",
        "efficiency_local_routed": "0.16911405300657012"
    },
    {
        "length": "222336.907",
        "length_lcc": "222336.907",
        "coverage": "85.80958514320226",
        "directness": "0.7542729648010766",
        "directness_lcc": "0.7542729648010766",
        "poi_coverage": "92",
        "components": "1",
        "overlap_biketrack": "6334.7779999999975",
        "overlap_bikeable": "62142.09800000004",
        "efficiency_global": "0.7564817611458347",
        "efficiency_local": "0.749039191265743",
        "efficiency_global_routed": "0.8431782088671542",
        "efficiency_local_routed": "0.15860974210022322"
    },
    {
        "length": "227857.31200000015",
        "length_lcc": "227857.31200000015",
        "coverage": "88.12319399791174",
        "directness": "0.7511154828019609",
        "directness_lcc": "0.7511154828019609",
        "poi_coverage": "94",
        "components": "1",
        "overlap_biketrack": "6498.436999999997",
        "overlap_bikeable": "64451.16300000005",
        "efficiency_global": "0.756972226243838",
        "efficiency_local": "0.7499385589724105",
        "efficiency_global_routed": "0.8418553971219136",
        "efficiency_local_routed": "0.1657152668002427"
    },
    {
        "length": "245341.3830000004",
        "length_lcc": "245341.3830000004",
        "coverage": "97.38748750489438",
        "directness": "0.7536732872010482",
        "directness_lcc": "0.7536732872010482",
        "poi_coverage": "98",
        "components": "1",
        "overlap_biketrack": "6498.436999999997",
        "overlap_bikeable": "67696.15700000005",
        "efficiency_global": "0.7561701155667413",
        "efficiency_local": "0.7510951377595849",
        "efficiency_global_routed": "0.8401450015715124",
        "efficiency_local_routed": "0.16348226368258464"
    },
    {
        "length": "261414.7590000008",
        "length_lcc": "261414.7590000008",
        "coverage": "106.46806204080903",
        "directness": "0.7606561492326354",
        "directness_lcc": "0.7606561492326354",
        "poi_coverage": "101",
        "components": "1",
        "overlap_biketrack": "6942.802999999998",
        "overlap_bikeable": "72675.0180000001",
        "efficiency_global": "0.7563568381676581",
        "efficiency_local": "0.7478016150223149",
        "efficiency_global_routed": "0.8388190624284328",
        "efficiency_local_routed": "0.17034175142265354"
    },
    {
        "length": "277078.86700000183",
        "length_lcc": "277078.86700000183",
        "coverage": "115.3502297616954",
        "directness": "0.756441980679129",
        "directness_lcc": "0.756441980679129",
        "poi_coverage": "105",
        "components": "1",
        "overlap_biketrack": "6942.802999999998",
        "overlap_bikeable": "78219.40999999996",
        "efficiency_global": "0.7550648951419912",
        "efficiency_local": "0.7466271348880986",
        "efficiency_global_routed": "0.8384054677391019",
        "efficiency_local_routed": "0.165392180150744"
    },
    {
        "length": "287136.3760000017",
        "length_lcc": "287136.3760000017",
        "coverage": "120.0169190265638",
        "directness": "0.7579786816922223",
        "directness_lcc": "0.7579786816922223",
        "poi_coverage": "108",
        "components": "1",
        "overlap_biketrack": "6942.802999999998",
        "overlap_bikeable": "84899.03599999988",
        "efficiency_global": "0.7547959151129796",
        "efficiency_local": "0.7474907819592586",
        "efficiency_global_routed": "0.8378393973983431",
        "efficiency_local_routed": "0.16835345400973079"
    },
    {
        "length": "314721.1090000026",
        "length_lcc": "314721.1090000026",
        "coverage": "135.67036775598768",
        "directness": "0.7624202929201161",
        "directness_lcc": "0.7624202929201161",
        "poi_coverage": "113",
        "components": "1",
        "overlap_biketrack": "7586.033999999997",
        "overlap_bikeable": "96121.68899999981",
        "efficiency_global": "0.7544015229632114",
        "efficiency_local": "0.7461489155509053",
        "efficiency_global_routed": "0.8387484758393354",
        "efficiency_local_routed": "0.16413854109772097"
    },
    {
        "length": "329891.1030000031",
        "length_lcc": "329891.1030000031",
        "coverage": "143.22431108975812",
        "directness": "0.7531717996461283",
        "directness_lcc": "0.7531717996461283",
        "poi_coverage": "117",
        "components": "1",
        "overlap_biketrack": "7586.033999999997",
        "overlap_bikeable": "102861.50899999986",
        "efficiency_global": "0.7536953975570343",
        "efficiency_local": "0.745691164933736",
        "efficiency_global_routed": "0.8379177427915396",
        "efficiency_local_routed": "0.15974553878123696"
    },
    {
        "length": "345207.2310000028",
        "length_lcc": "345207.2310000028",
        "coverage": "149.9701889887929",
        "directness": "0.7528652053298299",
        "directness_lcc": "0.7528652053298299",
        "poi_coverage": "120",
        "components": "1",
        "overlap_biketrack": "7586.033999999997",
        "overlap_bikeable": "110539.60199999982",
        "efficiency_global": "0.751517686445913",
        "efficiency_local": "0.7395364720197455",
        "efficiency_global_routed": "0.8356125976730904",
        "efficiency_local_routed": "0.15591117543426156"
    },
    {
        "length": "358924.7730000033",
        "length_lcc": "358924.7730000033",
        "coverage": "156.1046632786852",
        "directness": "0.7588648139600329",
        "directness_lcc": "0.7588648139600329",
        "poi_coverage": "122",
        "components": "1",
        "overlap_biketrack": "7613.462999999998",
        "overlap_bikeable": "115232.10799999988",
        "efficiency_global": "0.751265793962098",
        "efficiency_local": "0.7365966378389815",
        "efficiency_global_routed": "0.8350148114542543",
        "efficiency_local_routed": "0.1560843834575184"
    },
    {
        "length": "380422.4570000036",
        "length_lcc": "380422.4570000036",
        "coverage": "169.56803529008127",
        "directness": "0.7605592465718553",
        "directness_lcc": "0.7605592465718553",
        "poi_coverage": "127",
        "components": "1",
        "overlap_biketrack": "8369.078",
        "overlap_bikeable": "123408.26799999997",
        "efficiency_global": "0.7489515705782414",
        "efficiency_local": "0.7311939946365826",
        "efficiency_global_routed": "0.8319826874764775",
        "efficiency_local_routed": "0.15749755551708267"
    },
    {
        "length": "401393.540000003",
        "length_lcc": "401393.540000003",
        "coverage": "177.72376430542272",
        "directness": "0.7603276313141901",
        "directness_lcc": "0.7603276313141901",
        "poi_coverage": "130",
        "components": "1",
        "overlap_biketrack": "9774.734999999997",
        "overlap_bikeable": "130159.02999999981",
        "efficiency_global": "0.7567762220656028",
        "efficiency_local": "0.7369148142096775",
        "efficiency_global_routed": "0.8312772667821284",
        "efficiency_local_routed": "0.1648909122430302"
    },
    {
        "length": "422848.10500000365",
        "length_lcc": "422848.10500000365",
        "coverage": "189.23131728244178",
        "directness": "0.7592061887127222",
        "directness_lcc": "0.7592061887127222",
        "poi_coverage": "133",
        "components": "1",
        "overlap_biketrack": "10319.289999999997",
        "overlap_bikeable": "139263.05199999988",
        "efficiency_global": "0.7552337991769079",
        "efficiency_local": "0.7326648442130217",
        "efficiency_global_routed": "0.8306339432880403",
        "efficiency_local_routed": "0.15726565841994694"
    },
    {
        "length": "442863.7410000034",
        "length_lcc": "442863.7410000034",
        "coverage": "197.58927124184714",
        "directness": "0.765938748621974",
        "directness_lcc": "0.765938748621974",
        "poi_coverage": "137",
        "components": "1",
        "overlap_biketrack": "10342.221999999996",
        "overlap_bikeable": "145931.09199999992",
        "efficiency_global": "0.754736916163812",
        "efficiency_local": "0.732062577352619",
        "efficiency_global_routed": "0.8278152162394721",
        "efficiency_local_routed": "0.15709286448470028"
    },
    {
        "length": "475572.5490000035",
        "length_lcc": "475572.5490000035",
        "coverage": "217.7586743125135",
        "directness": "0.764178056431551",
        "directness_lcc": "0.764178056431551",
        "poi_coverage": "140",
        "components": "1",
        "overlap_biketrack": "11418.753",
        "overlap_bikeable": "158434.7289999998",
        "efficiency_global": "0.7547745039035367",
        "efficiency_local": "0.7324124209348157",
        "efficiency_global_routed": "0.8311041010350108",
        "efficiency_local_routed": "0.16163901592763663"
    }
]