[
    {
        "length": "1625.968",
        "length_lcc": "1625.968",
        "coverage": "2.3031616062445592",
        "directness": "0.8595989914129407",
        "directness_lcc": "0.8595989914129407",
        "poi_coverage": "5",
        "components": "1",
        "overlap_biketrack": "787.1769999999999",
        "overlap_bikeable": "787.1769999999999",
        "efficiency_global": "0.8452279601643821",
        "efficiency_local": "0",
        "efficiency_global_routed": "0.8452279601643823",
        "efficiency_local_routed": "0"
    },
    {
        "length": "4402.634",
        "length_lcc": "4402.634",
        "coverage": "3.589953165486446",
        "directness": "0.6521473446287036",
        "directness_lcc": "0.6521473446287036",
        "poi_coverage": "6",
        "components": "1",
        "overlap_biketrack": "2035.26",
        "overlap_bikeable": "2035.26",
        "efficiency_global": "0.848478283587028",
        "efficiency_local": "0.6306481504279637",
        "efficiency_global_routed": "0.9283335585294431",
        "efficiency_local_routed": "0.29657782024743323"
    },
    {
        "length": "8567.237999999998",
        "length_lcc": "8567.237999999998",
        "coverage": "4.907171063092266",
        "directness": "0.6348338179054777",
        "directness_lcc": "0.6348338179054777",
        "poi_coverage": "9",
        "components": "1",
        "overlap_biketrack": "3705.8419999999996",
        "overlap_bikeable": "4226.9039999999995",
        "efficiency_global": "0.8287262878230879",
        "efficiency_local": "0.8189511433597575",
        "efficiency_global_routed": "0.8757143446544094",
        "efficiency_local_routed": "0.0"
    },
    {
        "length": "12902.269000000006",
        "length_lcc": "12902.269000000006",
        "coverage": "6.733118918506105",
        "directness": "0.658245364604416",
        "directness_lcc": "0.658245364604416",
        "poi_coverage": "12",
        "components": "1",
        "overlap_biketrack": "6625.108",
        "overlap_bikeable": "7146.169999999997",
        "efficiency_global": "0.8071283132127024",
        "efficiency_local": "0.7833505822174623",
        "efficiency_global_routed": "0.8795264880030975",
        "efficiency_local_routed": "0.0"
    },
    {
        "length": "14647.381000000005",
        "length_lcc": "14647.381000000005",
        "coverage": "6.888041779714499",
        "directness": "0.6573396912261067",
        "directness_lcc": "0.6573396912261067",
        "poi_coverage": "12",
        "components": "1",
        "overlap_biketrack": "7504.358999999997",
        "overlap_bikeable": "8025.420999999996",
        "efficiency_global": "0.7575761964557716",
        "efficiency_local": "0.7578653273252512",
        "efficiency_global_routed": "0.89078457697709",
        "efficiency_local_routed": "0.14197774366829904"
    },
    {
        "length": "19981.705999999995",
        "length_lcc": "19981.705999999995",
        "coverage": "8.834925147575571",
        "directness": "0.6702266554029946",
        "directness_lcc": "0.6702266554029946",
        "poi_coverage": "14",
        "components": "1",
        "overlap_biketrack": "10484.882000000005",
        "overlap_bikeable": "11103.487",
        "efficiency_global": "0.7673867293975051",
        "efficiency_local": "0.7448634236716759",
        "efficiency_global_routed": "0.8679295955738039",
        "efficiency_local_routed": "0.196153720266543"
    },
    {
        "length": "21081.170000000002",
        "length_lcc": "21081.170000000002",
        "coverage": "9.205053235351645",
        "directness": "0.6709090716718635",
        "directness_lcc": "0.6709090716718635",
        "poi_coverage": "15",
        "components": "1",
        "overlap_biketrack": "11156.990999999995",
        "overlap_bikeable": "11775.596",
        "efficiency_global": "0.7589679791652542",
        "efficiency_local": "0.7533650875014927",
        "efficiency_global_routed": "0.8643733864278543",
        "efficiency_local_routed": "0.18608327067225017"
    },
    {
        "length": "24193.129",
        "length_lcc": "24193.129",
        "coverage": "10.438895619667367",
        "directness": "0.6915766746653534",
        "directness_lcc": "0.6915766746653534",
        "poi_coverage": "16",
        "components": "1",
        "overlap_biketrack": "12623.250999999993",
        "overlap_bikeable": "13241.855999999996",
        "efficiency_global": "0.7203750373306083",
        "efficiency_local": "0.7203695198350079",
        "efficiency_global_routed": "0.8414775059856318",
        "efficiency_local_routed": "0.2014870856641365"
    },
    {
        "length": "30232.073999999982",
        "length_lcc": "30232.073999999982",
        "coverage": "11.888012836897376",
        "directness": "0.6968334055838511",
        "directness_lcc": "0.6968334055838511",
        "poi_coverage": "18",
        "components": "1",
        "overlap_biketrack": "16517.83999999999",
        "overlap_bikeable": "17136.445",
        "efficiency_global": "0.7200051589876743",
        "efficiency_local": "0.7064430677987009",
        "efficiency_global_routed": "0.8671724075261112",
        "efficiency_local_routed": "0.25162395124750464"
    },
    {
        "length": "33834.975999999995",
        "length_lcc": "33834.975999999995",
        "coverage": "13.029213651322923",
        "directness": "0.693933080174103",
        "directness_lcc": "0.693933080174103",
        "poi_coverage": "20",
        "components": "1",
        "overlap_biketrack": "17817.76899999998",
        "overlap_bikeable": "18436.37399999998",
        "efficiency_global": "0.7220196102455375",
        "efficiency_local": "0.7016435838914837",
        "efficiency_global_routed": "0.862257117907066",
        "efficiency_local_routed": "0.2611481766976454"
    },
    {
        "length": "37035.78100000008",
        "length_lcc": "37035.78100000008",
        "coverage": "14.60544404115047",
        "directness": "0.6889235366119468",
        "directness_lcc": "0.6889235366119468",
        "poi_coverage": "21",
        "components": "1",
        "overlap_biketrack": "18914.278999999973",
        "overlap_bikeable": "19543.92399999998",
        "efficiency_global": "0.720714236461039",
        "efficiency_local": "0.7050499353910307",
        "efficiency_global_routed": "0.8574328368254678",
        "efficiency_local_routed": "0.22759114968897642"
    },
    {
        "length": "41278.700000000084",
        "length_lcc": "41278.700000000084",
        "coverage": "16.001277530601776",
        "directness": "0.7033699639036961",
        "directness_lcc": "0.7033699639036961",
        "poi_coverage": "24",
        "components": "1",
        "overlap_biketrack": "22264.321999999975",
        "overlap_bikeable": "22964.46299999999",
        "efficiency_global": "0.7230821882506692",
        "efficiency_local": "0.7152508530201283",
        "efficiency_global_routed": "0.8469467001591044",
        "efficiency_local_routed": "0.23542404222600366"
    },
    {
        "length": "51446.21100000017",
        "length_lcc": "51446.21100000017",
        "coverage": "21.21327122189479",
        "directness": "0.7149948588228626",
        "directness_lcc": "0.7149948588228626",
        "poi_coverage": "28",
        "components": "1",
        "overlap_biketrack": "28840.329999999958",
        "overlap_bikeable": "29636.467999999964",
        "efficiency_global": "0.7267119275854634",
        "efficiency_local": "0.7221375182123201",
        "efficiency_global_routed": "0.8450886384380863",
        "efficiency_local_routed": "0.2557022090473292"
    },
    {
        "length": "53495.16800000014",
        "length_lcc": "53495.16800000014",
        "coverage": "21.901401524447152",
        "directness": "0.7181349849086373",
        "directness_lcc": "0.7181349849086373",
        "poi_coverage": "29",
        "components": "1",
        "overlap_biketrack": "30404.571999999964",
        "overlap_bikeable": "31200.709999999974",
        "efficiency_global": "0.7280986664486078",
        "efficiency_local": "0.7092648789702315",
        "efficiency_global_routed": "0.8477664569918208",
        "efficiency_local_routed": "0.26882712942799397"
    },
    {
        "length": "57739.23300000019",
        "length_lcc": "57739.23300000019",
        "coverage": "24.276632378973503",
        "directness": "0.7191632419959266",
        "directness_lcc": "0.7191632419959266",
        "poi_coverage": "32",
        "components": "1",
        "overlap_biketrack": "32868.30199999997",
        "overlap_bikeable": "33677.17599999997",
        "efficiency_global": "0.7306670497294946",
        "efficiency_local": "0.717959430005725",
        "efficiency_global_routed": "0.8493757415336747",
        "efficiency_local_routed": "0.2958473362163943"
    },
    {
        "length": "61972.2660000002",
        "length_lcc": "61972.2660000002",
        "coverage": "25.610071497550305",
        "directness": "0.7178048575735311",
        "directness_lcc": "0.7178048575735311",
        "poi_coverage": "33",
        "components": "1",
        "overlap_biketrack": "36332.64800000005",
        "overlap_bikeable": "37141.52200000008",
        "efficiency_global": "0.7258988839024908",
        "efficiency_local": "0.7069708743641776",
        "efficiency_global_routed": "0.847642850945521",
        "efficiency_local_routed": "0.2849681703692428"
    },
    {
        "length": "65630.49700000015",
        "length_lcc": "65630.49700000015",
        "coverage": "26.280719240476525",
        "directness": "0.7229150579188677",
        "directness_lcc": "0.7229150579188677",
        "poi_coverage": "34",
        "components": "1",
        "overlap_biketrack": "38758.64700000008",
        "overlap_bikeable": "39567.52100000006",
        "efficiency_global": "0.6949472413887298",
        "efficiency_local": "0.6912198019226927",
        "efficiency_global_routed": "0.8384815277108125",
        "efficiency_local_routed": "0.23510249489007337"
    },
    {
        "length": "71962.632",
        "length_lcc": "71962.632",
        "coverage": "29.06206111223251",
        "directness": "0.7255001142225603",
        "directness_lcc": "0.7255001142225603",
        "poi_coverage": "37",
        "components": "1",
        "overlap_biketrack": "43591.571000000025",
        "overlap_bikeable": "44400.44500000003",
        "efficiency_global": "0.6987851756866202",
        "efficiency_local": "0.6916417203850687",
        "efficiency_global_routed": "0.836827817726673",
        "efficiency_local_routed": "0.2282615128091373"
    },
    {
        "length": "75266.35000000002",
        "length_lcc": "75266.35000000002",
        "coverage": "29.789041981785825",
        "directness": "0.7282208770751052",
        "directness_lcc": "0.7282208770751052",
        "poi_coverage": "38",
        "components": "1",
        "overlap_biketrack": "44905.615000000034",
        "overlap_bikeable": "45714.48900000004",
        "efficiency_global": "0.6943131458707856",
        "efficiency_local": "0.6845982421331621",
        "efficiency_global_routed": "0.8359450178685678",
        "efficiency_local_routed": "0.22710241041734622"
    },
    {
        "length": "81081.77600000003",
        "length_lcc": "81081.77600000003",
        "coverage": "31.81626143053366",
        "directness": "0.7284583193757133",
        "directness_lcc": "0.7284583193757133",
        "poi_coverage": "39",
        "components": "1",
        "overlap_biketrack": "46785.68300000004",
        "overlap_bikeable": "47594.55700000004",
        "efficiency_global": "0.6936751535127745",
        "efficiency_local": "0.6703697574449683",
        "efficiency_global_routed": "0.838969962328846",
        "efficiency_local_routed": "0.2535685426935125"
    },
    {
        "length": "82310.63000000003",
        "length_lcc": "82310.63000000003",
        "coverage": "32.836647312766715",
        "directness": "0.7226704387400693",
        "directness_lcc": "0.7226704387400693",
        "poi_coverage": "42",
        "components": "1",
        "overlap_biketrack": "47980.67200000003",
        "overlap_bikeable": "48789.54600000002",
        "efficiency_global": "0.6920372275653182",
        "efficiency_local": "0.6659754902660765",
        "efficiency_global_routed": "0.8376090127140448",
        "efficiency_local_routed": "0.25150700982608554"
    },
    {
        "length": "85763.01399999992",
        "length_lcc": "85763.01399999992",
        "coverage": "33.914989412705125",
        "directness": "0.7340880770189658",
        "directness_lcc": "0.7340880770189658",
        "poi_coverage": "44",
        "components": "1",
        "overlap_biketrack": "49854.327000000034",
        "overlap_bikeable": "50663.201000000045",
        "efficiency_global": "0.7025452529112943",
        "efficiency_local": "0.6708118974279964",
        "efficiency_global_routed": "0.8396137542982544",
        "efficiency_local_routed": "0.2711014310771788"
    },
    {
        "length": "89158.82999999997",
        "length_lcc": "89158.82999999997",
        "coverage": "35.02494077153731",
        "directness": "0.7356199958523112",
        "directness_lcc": "0.7356199958523112",
        "poi_coverage": "46",
        "components": "1",
        "overlap_biketrack": "51770.28900000006",
        "overlap_bikeable": "52579.16300000005",
        "efficiency_global": "0.7011033648700621",
        "efficiency_local": "0.6735882937542228",
        "efficiency_global_routed": "0.8413900315894486",
        "efficiency_local_routed": "0.2684239026584103"
    },
    {
        "length": "94221.23300000005",
        "length_lcc": "94221.23300000005",
        "coverage": "36.83983114917232",
        "directness": "0.7380223738568358",
        "directness_lcc": "0.7380223738568358",
        "poi_coverage": "50",
        "components": "1",
        "overlap_biketrack": "55052.418000000056",
        "overlap_bikeable": "55861.29200000006",
        "efficiency_global": "0.7057193617586821",
        "efficiency_local": "0.674885501794555",
        "efficiency_global_routed": "0.8425827117773117",
        "efficiency_local_routed": "0.2630813251073189"
    },
    {
        "length": "99643.84600000009",
        "length_lcc": "99643.84600000009",
        "coverage": "38.564718967159294",
        "directness": "0.7426879501284444",
        "directness_lcc": "0.7426879501284444",
        "poi_coverage": "53",
        "components": "1",
        "overlap_biketrack": "56350.66300000007",
        "overlap_bikeable": "57209.92600000007",
        "efficiency_global": "0.7090613577995373",
        "efficiency_local": "0.6768405114682057",
        "efficiency_global_routed": "0.8404124034947943",
        "efficiency_local_routed": "0.258006319094034"
    },
    {
        "length": "102085.81800000012",
        "length_lcc": "102085.81800000012",
        "coverage": "39.660582165590256",
        "directness": "0.7437466758612554",
        "directness_lcc": "0.7437466758612554",
        "poi_coverage": "54",
        "components": "1",
        "overlap_biketrack": "57697.122000000076",
        "overlap_bikeable": "58556.385000000104",
        "efficiency_global": "0.710207511408703",
        "efficiency_local": "0.6783091692906902",
        "efficiency_global_routed": "0.8409930612172015",
        "efficiency_local_routed": "0.27266449284368016"
    },
    {
        "length": "105537.53700000019",
        "length_lcc": "105537.53700000019",
        "coverage": "40.38632931859378",
        "directness": "0.745832315368423",
        "directness_lcc": "0.745832315368423",
        "poi_coverage": "56",
        "components": "1",
        "overlap_biketrack": "58881.28300000008",
        "overlap_bikeable": "60273.97100000009",
        "efficiency_global": "0.7085849265375276",
        "efficiency_local": "0.6803328312526847",
        "efficiency_global_routed": "0.8378513737600342",
        "efficiency_local_routed": "0.2663140610091881"
    },
    {
        "length": "108950.99200000009",
        "length_lcc": "108950.99200000009",
        "coverage": "41.78924578489943",
        "directness": "0.7449380450211583",
        "directness_lcc": "0.7449380450211583",
        "poi_coverage": "57",
        "components": "1",
        "overlap_biketrack": "59790.634000000086",
        "overlap_bikeable": "61183.322000000095",
        "efficiency_global": "0.7033585869301442",
        "efficiency_local": "0.6681691449031391",
        "efficiency_global_routed": "0.8351935544464468",
        "efficiency_local_routed": "0.26502288179034506"
    },
    {
        "length": "113774.54500000009",
        "length_lcc": "113774.54500000009",
        "coverage": "42.94710788019221",
        "directness": "0.7475056945995349",
        "directness_lcc": "0.7475056945995349",
        "poi_coverage": "58",
        "components": "1",
        "overlap_biketrack": "61980.96500000011",
        "overlap_bikeable": "63373.65300000011",
        "efficiency_global": "0.7025649273400042",
        "efficiency_local": "0.6712994560683561",
        "efficiency_global_routed": "0.8329165968121096",
        "efficiency_local_routed": "0.2644524973447559"
    },
    {
        "length": "115955.78400000013",
        "length_lcc": "115955.78400000013",
        "coverage": "43.652627789961585",
        "directness": "0.7484845994903335",
        "directness_lcc": "0.7484845994903335",
        "poi_coverage": "59",
        "components": "1",
        "overlap_biketrack": "62857.2660000001",
        "overlap_bikeable": "64249.95400000009",
        "efficiency_global": "0.701570954738289",
        "efficiency_local": "0.6672573229773745",
        "efficiency_global_routed": "0.8323966582324555",
        "efficiency_local_routed": "0.2501622005827577"
    },
    {
        "length": "123723.46000000022",
        "length_lcc": "123723.46000000022",
        "coverage": "45.72609468902993",
        "directness": "0.7491325569071278",
        "directness_lcc": "0.7491325569071278",
        "poi_coverage": "60",
        "components": "1",
        "overlap_biketrack": "67990.39100000009",
        "overlap_bikeable": "69383.07900000004",
        "efficiency_global": "0.6957166708820018",
        "efficiency_local": "0.6555036600774288",
        "efficiency_global_routed": "0.832103875628074",
        "efficiency_local_routed": "0.25473426929745124"
    },
    {
        "length": "127073.24600000026",
        "length_lcc": "127073.24600000026",
        "coverage": "46.42396482640279",
        "directness": "0.7519762956998775",
        "directness_lcc": "0.7519762956998775",
        "poi_coverage": "60",
        "components": "1",
        "overlap_biketrack": "69670.25400000004",
        "overlap_bikeable": "71340.74199999997",
        "efficiency_global": "0.6819569643960168",
        "efficiency_local": "0.6473290698780871",
        "efficiency_global_routed": "0.8290284934312652",
        "efficiency_local_routed": "0.2612930289919811"
    },
    {
        "length": "133841.96100000045",
        "length_lcc": "133841.96100000045",
        "coverage": "49.91868378791895",
        "directness": "0.7496596572499676",
        "directness_lcc": "0.7496596572499676",
        "poi_coverage": "62",
        "components": "1",
        "overlap_biketrack": "74986.58099999999",
        "overlap_bikeable": "76733.35799999998",
        "efficiency_global": "0.681762773568697",
        "efficiency_local": "0.6481821835175717",
        "efficiency_global_routed": "0.829227789176667",
        "efficiency_local_routed": "0.2652037497327924"
    },
    {
        "length": "136614.07000000033",
        "length_lcc": "136614.07000000033",
        "coverage": "51.39563209224677",
        "directness": "0.7581360008443575",
        "directness_lcc": "0.7581360008443575",
        "poi_coverage": "63",
        "components": "1",
        "overlap_biketrack": "76844.99899999998",
        "overlap_bikeable": "78591.776",
        "efficiency_global": "0.6830145101189803",
        "efficiency_local": "0.6528542074052731",
        "efficiency_global_routed": "0.8299492265103797",
        "efficiency_local_routed": "0.2668862764162953"
    },
    {
        "length": "144729.2840000001",
        "length_lcc": "144729.2840000001",
        "coverage": "53.88751616003449",
        "directness": "0.7572592900646276",
        "directness_lcc": "0.7572592900646276",
        "poi_coverage": "65",
        "components": "1",
        "overlap_biketrack": "83687.66999999997",
        "overlap_bikeable": "85434.44699999994",
        "efficiency_global": "0.6847125782752446",
        "efficiency_local": "0.649163143312825",
        "efficiency_global_routed": "0.8344758652129298",
        "efficiency_local_routed": "0.2726176946114904"
    },
    {
        "length": "155265.5940000002",
        "length_lcc": "155265.5940000002",
        "coverage": "59.13689529955703",
        "directness": "0.7586000929935071",
        "directness_lcc": "0.7586000929935071",
        "poi_coverage": "68",
        "components": "1",
        "overlap_biketrack": "90707.74699999994",
        "overlap_bikeable": "92575.21099999994",
        "efficiency_global": "0.6864249288159319",
        "efficiency_local": "0.6516699387547689",
        "efficiency_global_routed": "0.8356199577799983",
        "efficiency_local_routed": "0.25416267729100545"
    },
    {
        "length": "158772.82600000032",
        "length_lcc": "158772.82600000032",
        "coverage": "60.45861430842699",
        "directness": "0.7558472436150346",
        "directness_lcc": "0.7558472436150346",
        "poi_coverage": "69",
        "components": "1",
        "overlap_biketrack": "91494.49999999994",
        "overlap_bikeable": "93549.71399999995",
        "efficiency_global": "0.6862619953928168",
        "efficiency_local": "0.6527354827019073",
        "efficiency_global_routed": "0.8342786091434409",
        "efficiency_local_routed": "0.2540400717781992"
    },
    {
        "length": "165666.24300000022",
        "length_lcc": "165666.24300000022",
        "coverage": "63.65909209370755",
        "directness": "0.761658299157407",
        "directness_lcc": "0.761658299157407",
        "poi_coverage": "71",
        "components": "1",
        "overlap_biketrack": "93845.32199999993",
        "overlap_bikeable": "95900.53599999993",
        "efficiency_global": "0.6860263165553248",
        "efficiency_local": "0.6533594100863994",
        "efficiency_global_routed": "0.8379797659291953",
        "efficiency_local_routed": "0.2785045791381972"
    },
    {
        "length": "190920.5480000002",
        "length_lcc": "190920.5480000002",
        "coverage": "77.01437301488616",
        "directness": "0.7507199023809694",
        "directness_lcc": "0.7507199023809694",
        "poi_coverage": "73",
        "components": "1",
        "overlap_biketrack": "101038.23099999993",
        "overlap_bikeable": "103186.99899999992",
        "efficiency_global": "0.6875656342550072",
        "efficiency_local": "0.6532392290282342",
        "efficiency_global_routed": "0.8376208556801091",
        "efficiency_local_routed": "0.2735550523914981"
    },
    {
        "length": "198409.11500000005",
        "length_lcc": "198409.11500000005",
        "coverage": "79.8731291250216",
        "directness": "0.7522991644844117",
        "directness_lcc": "0.7522991644844117",
        "poi_coverage": "75",
        "components": "1",
        "overlap_biketrack": "106945.09900000002",
        "overlap_bikeable": "109093.86699999994",
        "efficiency_global": "0.687154217300541",
        "efficiency_local": "0.6549254158449164",
        "efficiency_global_routed": "0.8382697845700835",
        "efficiency_local_routed": "0.27679341056493006"
    }
]