[
    {
        "length": "0",
        "length_lcc": "0",
        "coverage": "0",
        "directness": "0",
        "directness_lcc": "0",
        "poi_coverage": "0",
        "components": "0",
        "overlap_biketrack": "0",
        "overlap_bikeable": "0",
        "efficiency_global": "0",
        "efficiency_local": "0",
        "efficiency_global_routed": "0",
        "efficiency_local_routed": "0"
    },
    {
        "length": "2235.7190000000005",
        "length_lcc": "2235.7190000000005",
        "coverage": "2.800143600509927",
        "directness": "0.8120156529201621",
        "directness_lcc": "0.8120156529201621",
        "poi_coverage": "2",
        "components": "1",
        "overlap_biketrack": "0",
        "overlap_bikeable": "478.6920000000001",
        "efficiency_global": "0.7929768623429904",
        "efficiency_local": "0",
        "efficiency_global_routed": "0.7929768623429904",
        "efficiency_local_routed": "0"
    },
    {
        "length": "7441.471000000004",
        "length_lcc": "7441.471000000004",
        "coverage": "6.209555233887584",
        "directness": "0.6227108970112717",
        "directness_lcc": "0.6227108970112717",
        "poi_coverage": "3",
        "components": "1",
        "overlap_biketrack": "95.52699999999999",
        "overlap_bikeable": "3562.3689999999997",
        "efficiency_global": "0.781065107989961",
        "efficiency_local": "0.7858486320943804",
        "efficiency_global_routed": "0",
        "efficiency_local_routed": "0"
    },
    {
        "length": "10923.52199999999",
        "length_lcc": "10923.52199999999",
        "coverage": "8.163584048325305",
        "directness": "0.6776983617185246",
        "directness_lcc": "0.6776983617185246",
        "poi_coverage": "4",
        "components": "1",
        "overlap_biketrack": "95.52699999999999",
        "overlap_bikeable": "4438.973000000001",
        "efficiency_global": "0.814784038984306",
        "efficiency_local": "0.782751543201491",
        "efficiency_global_routed": "0.8890980750237865",
        "efficiency_local_routed": "0.7205633740649554"
    },
    {
        "length": "15065.220999999974",
        "length_lcc": "15065.220999999974",
        "coverage": "10.454759235671752",
        "directness": "0.7087199991787156",
        "directness_lcc": "0.7087199991787156",
        "poi_coverage": "5",
        "components": "1",
        "overlap_biketrack": "234.526",
        "overlap_bikeable": "5567.947000000002",
        "efficiency_global": "0.8143597954039853",
        "efficiency_local": "0.787949785758406",
        "efficiency_global_routed": "0.9178499421440234",
        "efficiency_local_routed": "0.3543725262830502"
    },
    {
        "length": "15065.220999999974",
        "length_lcc": "15065.220999999974",
        "coverage": "10.454759235671752",
        "directness": "0.703851600750091",
        "directness_lcc": "0.703851600750091",
        "poi_coverage": "5",
        "components": "1",
        "overlap_biketrack": "234.526",
        "overlap_bikeable": "5567.947000000002",
        "efficiency_global": "0.8143597954039853",
        "efficiency_local": "0.787949785758406",
        "efficiency_global_routed": "0.9178499421440234",
        "efficiency_local_routed": "0.3543725262830502"
    },
    {
        "length": "18731.960000000003",
        "length_lcc": "18731.960000000003",
        "coverage": "12.352576837454606",
        "directness": "0.6731927731087611",
        "directness_lcc": "0.6731927731087611",
        "poi_coverage": "6",
        "components": "1",
        "overlap_biketrack": "234.526",
        "overlap_bikeable": "6086.625000000001",
        "efficiency_global": "0.7957526320490573",
        "efficiency_local": "0.7667910881502916",
        "efficiency_global_routed": "0.868250063081226",
        "efficiency_local_routed": "0.2440299722510364"
    },
    {
        "length": "22446.675000000032",
        "length_lcc": "22446.675000000032",
        "coverage": "14.271016724664374",
        "directness": "0.6776372854881882",
        "directness_lcc": "0.6776372854881882",
        "poi_coverage": "7",
        "components": "1",
        "overlap_biketrack": "234.526",
        "overlap_bikeable": "8317.473000000002",
        "efficiency_global": "0.7781924674863611",
        "efficiency_local": "0.7787716638521848",
        "efficiency_global_routed": "0.8459771747346302",
        "efficiency_local_routed": "0.18069721043427178"
    },
    {
        "length": "28565.49200000004",
        "length_lcc": "28565.49200000004",
        "coverage": "16.691019018501514",
        "directness": "0.6491081460002587",
        "directness_lcc": "0.6491081460002587",
        "poi_coverage": "8",
        "components": "1",
        "overlap_biketrack": "345.035",
        "overlap_bikeable": "13013.279999999986",
        "efficiency_global": "0.7662644206153574",
        "efficiency_local": "0.7627164397028954",
        "efficiency_global_routed": "0.8268092053079289",
        "efficiency_local_routed": "0.05990148804660288"
    },
    {
        "length": "34429.73099999999",
        "length_lcc": "34429.73099999999",
        "coverage": "19.412087736947804",
        "directness": "0.6622928144092933",
        "directness_lcc": "0.6622928144092933",
        "poi_coverage": "9",
        "components": "1",
        "overlap_biketrack": "434.557",
        "overlap_bikeable": "15270.667999999989",
        "efficiency_global": "0.7750819556362772",
        "efficiency_local": "0.7774756342682384",
        "efficiency_global_routed": "0.8286087213424113",
        "efficiency_local_routed": "0.05109306642667321"
    },
    {
        "length": "34429.73099999999",
        "length_lcc": "34429.73099999999",
        "coverage": "19.412087736947804",
        "directness": "0.6533167716708553",
        "directness_lcc": "0.6533167716708553",
        "poi_coverage": "9",
        "components": "1",
        "overlap_biketrack": "434.557",
        "overlap_bikeable": "15270.667999999989",
        "efficiency_global": "0.7750819556362772",
        "efficiency_local": "0.7774756342682384",
        "efficiency_global_routed": "0.8286087213424113",
        "efficiency_local_routed": "0.05109306642667321"
    },
    {
        "length": "39328.38099999997",
        "length_lcc": "39328.38099999997",
        "coverage": "22.415944847686287",
        "directness": "0.6639236231206113",
        "directness_lcc": "0.6639236231206113",
        "poi_coverage": "10",
        "components": "1",
        "overlap_biketrack": "463.47900000000004",
        "overlap_bikeable": "16526.662999999982",
        "efficiency_global": "0.7788326234351036",
        "efficiency_local": "0.7649025116950637",
        "efficiency_global_routed": "0.8431185078464266",
        "efficiency_local_routed": "0.054120742147460224"
    },
    {
        "length": "45382.09199999995",
        "length_lcc": "45382.09199999995",
        "coverage": "25.440594851266944",
        "directness": "0.6646422869783267",
        "directness_lcc": "0.6646422869783267",
        "poi_coverage": "11",
        "components": "1",
        "overlap_biketrack": "463.47900000000004",
        "overlap_bikeable": "18507.13899999998",
        "efficiency_global": "0.762557284571626",
        "efficiency_local": "0.7564149259751196",
        "efficiency_global_routed": "0.8973699291153963",
        "efficiency_local_routed": "0.09921147927589118"
    },
    {
        "length": "51035.02599999995",
        "length_lcc": "51035.02599999995",
        "coverage": "28.14802341944741",
        "directness": "0.6665836237525271",
        "directness_lcc": "0.6665836237525271",
        "poi_coverage": "12",
        "components": "1",
        "overlap_biketrack": "463.47900000000004",
        "overlap_bikeable": "20550.54299999999",
        "efficiency_global": "0.7577305903171039",
        "efficiency_local": "0.7650272751030923",
        "efficiency_global_routed": "0.8903507579528503",
        "efficiency_local_routed": "0.08640999807900199"
    },
    {
        "length": "55023.84399999996",
        "length_lcc": "55023.84399999996",
        "coverage": "30.353294749764455",
        "directness": "0.6669650924023854",
        "directness_lcc": "0.6669650924023854",
        "poi_coverage": "13",
        "components": "1",
        "overlap_biketrack": "600.759",
        "overlap_bikeable": "22360.444",
        "efficiency_global": "0.7638800038235181",
        "efficiency_local": "0.7621887966063204",
        "efficiency_global_routed": "0.8880445203204749",
        "efficiency_local_routed": "0.1065480649759503"
    },
    {
        "length": "55023.84399999996",
        "length_lcc": "55023.84399999996",
        "coverage": "30.353294749764455",
        "directness": "0.6647552301104935",
        "directness_lcc": "0.6647552301104935",
        "poi_coverage": "13",
        "components": "1",
        "overlap_biketrack": "600.759",
        "overlap_bikeable": "22360.444",
        "efficiency_global": "0.7638800038235181",
        "efficiency_local": "0.7621887966063204",
        "efficiency_global_routed": "0.8880445203204749",
        "efficiency_local_routed": "0.1065480649759503"
    },
    {
        "length": "56927.57099999996",
        "length_lcc": "56927.57099999996",
        "coverage": "32.1106659494864",
        "directness": "0.6717844031665999",
        "directness_lcc": "0.6717844031665999",
        "poi_coverage": "14",
        "components": "1",
        "overlap_biketrack": "600.759",
        "overlap_bikeable": "23010.905999999984",
        "efficiency_global": "0.7635503104877421",
        "efficiency_local": "0.7451363418936228",
        "efficiency_global_routed": "0.8858391671618012",
        "efficiency_local_routed": "0.10350383454806601"
    },
    {
        "length": "62806.721999999936",
        "length_lcc": "62806.721999999936",
        "coverage": "36.159753324349154",
        "directness": "0.6689657877609546",
        "directness_lcc": "0.6689657877609546",
        "poi_coverage": "16",
        "components": "1",
        "overlap_biketrack": "600.759",
        "overlap_bikeable": "24394.043999999994",
        "efficiency_global": "0.748769852993959",
        "efficiency_local": "0.7297443247191774",
        "efficiency_global_routed": "0.884063190285349",
        "efficiency_local_routed": "0.09790903268060298"
    },
    {
        "length": "64829.31299999992",
        "length_lcc": "64829.31299999992",
        "coverage": "37.708753473717664",
        "directness": "0.6767813797828837",
        "directness_lcc": "0.6767813797828837",
        "poi_coverage": "17",
        "components": "1",
        "overlap_biketrack": "858.2719999999999",
        "overlap_bikeable": "26197.068",
        "efficiency_global": "0.7394124837443866",
        "efficiency_local": "0.7269946609961695",
        "efficiency_global_routed": "0.8764111240031308",
        "efficiency_local_routed": "0.13579172927188507"
    },
    {
        "length": "71262.6039999999",
        "length_lcc": "71262.6039999999",
        "coverage": "40.42511983999974",
        "directness": "0.7018047596348299",
        "directness_lcc": "0.7018047596348299",
        "poi_coverage": "18",
        "components": "1",
        "overlap_biketrack": "1401.4699999999998",
        "overlap_bikeable": "29410.107999999997",
        "efficiency_global": "0.741017119861244",
        "efficiency_local": "0.7320348866004859",
        "efficiency_global_routed": "0.8745954742003264",
        "efficiency_local_routed": "0.12444366396621888"
    },
    {
        "length": "71262.6039999999",
        "length_lcc": "71262.6039999999",
        "coverage": "40.42511983999974",
        "directness": "0.6897927044608375",
        "directness_lcc": "0.6897927044608375",
        "poi_coverage": "18",
        "components": "1",
        "overlap_biketrack": "1401.4699999999998",
        "overlap_bikeable": "29410.107999999997",
        "efficiency_global": "0.741017119861244",
        "efficiency_local": "0.7320348866004859",
        "efficiency_global_routed": "0.8745954742003264",
        "efficiency_local_routed": "0.12444366396621888"
    },
    {
        "length": "75924.69499999988",
        "length_lcc": "75924.69499999988",
        "coverage": "42.04101601557234",
        "directness": "0.677007551981839",
        "directness_lcc": "0.677007551981839",
        "poi_coverage": "19",
        "components": "1",
        "overlap_biketrack": "1401.4699999999998",
        "overlap_bikeable": "30723.017000000014",
        "efficiency_global": "0.7366074609591546",
        "efficiency_local": "0.7308419932313809",
        "efficiency_global_routed": "0.8642001060931139",
        "efficiency_local_routed": "0.10558739056090108"
    },
    {
        "length": "81629.92499999997",
        "length_lcc": "81629.92499999997",
        "coverage": "44.642705360275365",
        "directness": "0.6924415327106203",
        "directness_lcc": "0.6924415327106203",
        "poi_coverage": "20",
        "components": "1",
        "overlap_biketrack": "1401.47",
        "overlap_bikeable": "34067.62",
        "efficiency_global": "0.7300017073800449",
        "efficiency_local": "0.7355703371335232",
        "efficiency_global_routed": "0.8574312225109638",
        "efficiency_local_routed": "0.11954513097472456"
    },
    {
        "length": "84901.22300000006",
        "length_lcc": "84901.22300000006",
        "coverage": "46.21087906899624",
        "directness": "0.6860518401209272",
        "directness_lcc": "0.6860518401209272",
        "poi_coverage": "21",
        "components": "1",
        "overlap_biketrack": "1518.019",
        "overlap_bikeable": "36273.88800000004",
        "efficiency_global": "0.7270280111974653",
        "efficiency_local": "0.7327717315006903",
        "efficiency_global_routed": "0.8525703896965576",
        "efficiency_local_routed": "0.1151980353029164"
    },
    {
        "length": "88108.42300000014",
        "length_lcc": "88108.42300000014",
        "coverage": "47.912210458860464",
        "directness": "0.6964428582936288",
        "directness_lcc": "0.6964428582936288",
        "poi_coverage": "22",
        "components": "1",
        "overlap_biketrack": "1518.019",
        "overlap_bikeable": "37899.827000000034",
        "efficiency_global": "0.7267931848192466",
        "efficiency_local": "0.7343700781597318",
        "efficiency_global_routed": "0.8505786160515741",
        "efficiency_local_routed": "0.10923951623552418"
    },
    {
        "length": "88108.42300000014",
        "length_lcc": "88108.42300000014",
        "coverage": "47.912210458860464",
        "directness": "0.6900223662871678",
        "directness_lcc": "0.6900223662871678",
        "poi_coverage": "22",
        "components": "1",
        "overlap_biketrack": "1518.019",
        "overlap_bikeable": "37899.827000000034",
        "efficiency_global": "0.7267931848192466",
        "efficiency_local": "0.7343700781597318",
        "efficiency_global_routed": "0.8505786160515741",
        "efficiency_local_routed": "0.10923951623552418"
    },
    {
        "length": "91268.25600000027",
        "length_lcc": "91268.25600000027",
        "coverage": "49.69011073308154",
        "directness": "0.6888931406067722",
        "directness_lcc": "0.6888931406067722",
        "poi_coverage": "23",
        "components": "1",
        "overlap_biketrack": "1518.019",
        "overlap_bikeable": "38814.94400000003",
        "efficiency_global": "0.7290310387648882",
        "efficiency_local": "0.7372205454722883",
        "efficiency_global_routed": "0.8479093456499647",
        "efficiency_local_routed": "0.10386708101082627"
    },
    {
        "length": "93766.04600000025",
        "length_lcc": "93766.04600000025",
        "coverage": "50.427960546769306",
        "directness": "0.6920532905548075",
        "directness_lcc": "0.6920532905548075",
        "poi_coverage": "23",
        "components": "1",
        "overlap_biketrack": "1518.019",
        "overlap_bikeable": "40321.96800000003",
        "efficiency_global": "0.7247863871494871",
        "efficiency_local": "0.7251432325847176",
        "efficiency_global_routed": "0.8469225675872362",
        "efficiency_local_routed": "0.15686909913473443"
    },
    {
        "length": "96731.28400000032",
        "length_lcc": "96731.28400000032",
        "coverage": "53.06892554537704",
        "directness": "0.6914542180830012",
        "directness_lcc": "0.6914542180830012",
        "poi_coverage": "24",
        "components": "1",
        "overlap_biketrack": "1518.019",
        "overlap_bikeable": "40770.157000000014",
        "efficiency_global": "0.7205540174778559",
        "efficiency_local": "0.7161254797273003",
        "efficiency_global_routed": "0.8449311124119157",
        "efficiency_local_routed": "0.15686909913473443"
    },
    {
        "length": "102948.26800000027",
        "length_lcc": "102948.26800000027",
        "coverage": "55.42197054666532",
        "directness": "0.6915696656693535",
        "directness_lcc": "0.6915696656693535",
        "poi_coverage": "25",
        "components": "1",
        "overlap_biketrack": "1518.019",
        "overlap_bikeable": "44941.68000000006",
        "efficiency_global": "0.7169040068399557",
        "efficiency_local": "0.7129581663256669",
        "efficiency_global_routed": "0.8361675967002578",
        "efficiency_local_routed": "0.1456641634822534"
    },
    {
        "length": "102948.26800000027",
        "length_lcc": "102948.26800000027",
        "coverage": "55.42197054666532",
        "directness": "0.6907468833488696",
        "directness_lcc": "0.6907468833488696",
        "poi_coverage": "25",
        "components": "1",
        "overlap_biketrack": "1518.019",
        "overlap_bikeable": "44941.68000000006",
        "efficiency_global": "0.7169040068399557",
        "efficiency_local": "0.7129581663256669",
        "efficiency_global_routed": "0.8361675967002578",
        "efficiency_local_routed": "0.1456641634822534"
    },
    {
        "length": "107878.1320000002",
        "length_lcc": "107878.1320000002",
        "coverage": "58.3449676204109",
        "directness": "0.6909469996255629",
        "directness_lcc": "0.6909469996255629",
        "poi_coverage": "26",
        "components": "1",
        "overlap_biketrack": "1518.019",
        "overlap_bikeable": "46080.09500000002",
        "efficiency_global": "0.7102799913532635",
        "efficiency_local": "0.6992715239989096",
        "efficiency_global_routed": "0.8324608368028321",
        "efficiency_local_routed": "0.12547752277196514"
    },
    {
        "length": "109302.16000000015",
        "length_lcc": "109302.16000000015",
        "coverage": "59.369904630580706",
        "directness": "0.6930143670648731",
        "directness_lcc": "0.6930143670648731",
        "poi_coverage": "27",
        "components": "1",
        "overlap_biketrack": "2007.3719999999998",
        "overlap_bikeable": "46569.44800000004",
        "efficiency_global": "0.6963476809754965",
        "efficiency_local": "0.6753643175525538",
        "efficiency_global_routed": "0.830701256796319",
        "efficiency_local_routed": "0.1237586525970067"
    },
    {
        "length": "114379.30100000018",
        "length_lcc": "114379.30100000018",
        "coverage": "61.71195357852235",
        "directness": "0.6957714964333935",
        "directness_lcc": "0.6957714964333935",
        "poi_coverage": "28",
        "components": "1",
        "overlap_biketrack": "2007.3719999999998",
        "overlap_bikeable": "47993.814000000064",
        "efficiency_global": "0.6957804582933576",
        "efficiency_local": "0.6761086395513872",
        "efficiency_global_routed": "0.8265675718005682",
        "efficiency_local_routed": "0.11582540563566013"
    },
    {
        "length": "118028.03200000024",
        "length_lcc": "118028.03200000024",
        "coverage": "62.8400329196585",
        "directness": "0.6958249141149075",
        "directness_lcc": "0.6958249141149075",
        "poi_coverage": "29",
        "components": "1",
        "overlap_biketrack": "2095.9690000000005",
        "overlap_bikeable": "50180.512000000075",
        "efficiency_global": "0.6958714973721529",
        "efficiency_local": "0.6669352724599499",
        "efficiency_global_routed": "0.8222922461610197",
        "efficiency_local_routed": "0.10755216237597012"
    },
    {
        "length": "118028.03200000024",
        "length_lcc": "118028.03200000024",
        "coverage": "62.8400329196585",
        "directness": "0.7090432156282662",
        "directness_lcc": "0.7090432156282662",
        "poi_coverage": "29",
        "components": "1",
        "overlap_biketrack": "2095.9690000000005",
        "overlap_bikeable": "50180.512000000075",
        "efficiency_global": "0.6958714973721529",
        "efficiency_local": "0.6669352724599499",
        "efficiency_global_routed": "0.8222922461610197",
        "efficiency_local_routed": "0.10755216237597012"
    },
    {
        "length": "124238.77700000023",
        "length_lcc": "124238.77700000023",
        "coverage": "65.17714956856996",
        "directness": "0.7003890944525559",
        "directness_lcc": "0.7003890944525559",
        "poi_coverage": "30",
        "components": "1",
        "overlap_biketrack": "2095.9690000000005",
        "overlap_bikeable": "52141.97600000011",
        "efficiency_global": "0.6932380430546128",
        "efficiency_local": "0.6589412443482358",
        "efficiency_global_routed": "0.8320807835778264",
        "efficiency_local_routed": "0.1410130757079523"
    },
    {
        "length": "131012.07300000021",
        "length_lcc": "131012.07300000021",
        "coverage": "69.42114143534519",
        "directness": "0.7062307754915377",
        "directness_lcc": "0.7062307754915377",
        "poi_coverage": "31",
        "components": "1",
        "overlap_biketrack": "2206.726",
        "overlap_bikeable": "52690.55300000012",
        "efficiency_global": "0.6868288880156136",
        "efficiency_local": "0.6442861939928083",
        "efficiency_global_routed": "0.8287574174247917",
        "efficiency_local_routed": "0.1378982079887572"
    },
    {
        "length": "135591.2490000002",
        "length_lcc": "135591.2490000002",
        "coverage": "70.31447529818752",
        "directness": "0.7062642910038514",
        "directness_lcc": "0.7062642910038514",
        "poi_coverage": "32",
        "components": "1",
        "overlap_biketrack": "2206.726",
        "overlap_bikeable": "53720.7230000001",
        "efficiency_global": "0.6857923035493172",
        "efficiency_local": "0.6412088652367492",
        "efficiency_global_routed": "0.8305778812593496",
        "efficiency_local_routed": "0.16849279704637707"
    },
    {
        "length": "139739.46600000025",
        "length_lcc": "139739.46600000025",
        "coverage": "71.24956575794731",
        "directness": "0.71793494479174",
        "directness_lcc": "0.71793494479174",
        "poi_coverage": "33",
        "components": "1",
        "overlap_biketrack": "2296.012",
        "overlap_bikeable": "55231.2950000001",
        "efficiency_global": "0.6786208061736166",
        "efficiency_local": "0.6331713470076485",
        "efficiency_global_routed": "0.8257708424052631",
        "efficiency_local_routed": "0.1705818377143042"
    }
]