[
    {
        "length": "26002.530000000002",
        "length_lcc": "9878.731000000009",
        "coverage": "27.461086645248876",
        "directness": "0.8132201082981044",
        "directness_lcc": "0.7975703711188966",
        "poi_coverage": "12",
        "components": "4",
        "overlap_biketrack": "0",
        "overlap_bikeable": "2155.6600000000003",
        "efficiency_global": "0.23483013699290897",
        "efficiency_local": "0.0",
        "efficiency_global_routed": "0.8431777903291071",
        "efficiency_local_routed": "0.0"
    },
    {
        "length": "41565.294000000016",
        "length_lcc": "34089.98000000002",
        "coverage": "40.0173482266175",
        "directness": "0.6828782295819085",
        "directness_lcc": "0.6787337654158002",
        "poi_coverage": "16",
        "components": "2",
        "overlap_biketrack": "0",
        "overlap_bikeable": "3767.0990000000006",
        "efficiency_global": "0.5281769171195402",
        "efficiency_local": "0.0",
        "efficiency_global_routed": "0.9240605223098057",
        "efficiency_local_routed": "0.0"
    },
    {
        "length": "59549.176999999945",
        "length_lcc": "59549.176999999945",
        "coverage": "54.53940878778064",
        "directness": "0.5498563347331974",
        "directness_lcc": "0.5498563347331974",
        "poi_coverage": "21",
        "components": "1",
        "overlap_biketrack": "0",
        "overlap_bikeable": "4473.831999999999",
        "efficiency_global": "0.5923838634528189",
        "efficiency_local": "0.0",
        "efficiency_global_routed": "0.896040852188662",
        "efficiency_local_routed": "0.0"
    },
    {
        "length": "74122.37499999977",
        "length_lcc": "74122.37499999977",
        "coverage": "65.58299269246156",
        "directness": "0.6269997895503134",
        "directness_lcc": "0.6269997895503134",
        "poi_coverage": "25",
        "components": "1",
        "overlap_biketrack": "0",
        "overlap_bikeable": "5086.058999999996",
        "efficiency_global": "0.625295927461837",
        "efficiency_local": "0.04725225149139775",
        "efficiency_global_routed": "0.8982805689980403",
        "efficiency_local_routed": "0.07720953427285246"
    },
    {
        "length": "100176.734",
        "length_lcc": "100176.734",
        "coverage": "88.48324773193693",
        "directness": "0.6366152951474711",
        "directness_lcc": "0.6366152951474711",
        "poi_coverage": "32",
        "components": "1",
        "overlap_biketrack": "0",
        "overlap_bikeable": "6348.285999999997",
        "efficiency_global": "0.5911459184252768",
        "efficiency_local": "0.03903446862332858",
        "efficiency_global_routed": "0.8790266121025786",
        "efficiency_local_routed": "0.060051859989996355"
    },
    {
        "length": "118735.85100000013",
        "length_lcc": "116030.83000000006",
        "coverage": "104.73379928575126",
        "directness": "0.6351850251162613",
        "directness_lcc": "0.6311939173464961",
        "poi_coverage": "37",
        "components": "2",
        "overlap_biketrack": "0",
        "overlap_bikeable": "10304.203000000001",
        "efficiency_global": "0.557933261136689",
        "efficiency_local": "0.032064027797734186",
        "efficiency_global_routed": "0.8999326048847116",
        "efficiency_local_routed": "0.1523689940218089"
    },
    {
        "length": "137512.35500000042",
        "length_lcc": "137512.35500000042",
        "coverage": "116.27241967546068",
        "directness": "0.6396221833186265",
        "directness_lcc": "0.6396221833186265",
        "poi_coverage": "41",
        "components": "1",
        "overlap_biketrack": "0",
        "overlap_bikeable": "11347.382",
        "efficiency_global": "0.614882097462663",
        "efficiency_local": "0.08148474799606042",
        "efficiency_global_routed": "0.897833507371014",
        "efficiency_local_routed": "0.1210708555249505"
    },
    {
        "length": "155972.08400000076",
        "length_lcc": "155972.08400000076",
        "coverage": "125.78036688943621",
        "directness": "0.6481033208469846",
        "directness_lcc": "0.6481033208469846",
        "poi_coverage": "46",
        "components": "1",
        "overlap_biketrack": "0",
        "overlap_bikeable": "12213.773000000005",
        "efficiency_global": "0.6073161258364409",
        "efficiency_local": "0.09493244350239076",
        "efficiency_global_routed": "0.9122785511052431",
        "efficiency_local_routed": "0.23811728290714795"
    },
    {
        "length": "164384.14100000114",
        "length_lcc": "164384.14100000114",
        "coverage": "130.03076854812477",
        "directness": "0.6477306783342327",
        "directness_lcc": "0.6477306783342327",
        "poi_coverage": "48",
        "components": "1",
        "overlap_biketrack": "0",
        "overlap_bikeable": "12213.773000000005",
        "efficiency_global": "0.6028630411902554",
        "efficiency_local": "0.08809106458773659",
        "efficiency_global_routed": "0.9087485378839594",
        "efficiency_local_routed": "0.3189517105137487"
    },
    {
        "length": "200708.049000001",
        "length_lcc": "200708.049000001",
        "coverage": "160.62633209588608",
        "directness": "0.6397809434367041",
        "directness_lcc": "0.6397809434367041",
        "poi_coverage": "57",
        "components": "1",
        "overlap_biketrack": "0",
        "overlap_bikeable": "14045.410000000005",
        "efficiency_global": "0.5764825833071531",
        "efficiency_local": "0.07814731999605284",
        "efficiency_global_routed": "0.8931488936508929",
        "efficiency_local_routed": "0.3233341079447863"
    },
    {
        "length": "214168.746000001",
        "length_lcc": "214168.746000001",
        "coverage": "170.50570630185985",
        "directness": "0.631653330417918",
        "directness_lcc": "0.631653330417918",
        "poi_coverage": "60",
        "components": "1",
        "overlap_biketrack": "0",
        "overlap_bikeable": "14303.640000000005",
        "efficiency_global": "0.5727915590900441",
        "efficiency_local": "0.08444376955968644",
        "efficiency_global_routed": "0.8894816772422616",
        "efficiency_local_routed": "0.26456335223600896"
    },
    {
        "length": "233109.9310000006",
        "length_lcc": "233109.9310000006",
        "coverage": "183.21193704761194",
        "directness": "0.6519341153764591",
        "directness_lcc": "0.6519341153764591",
        "poi_coverage": "64",
        "components": "1",
        "overlap_biketrack": "0",
        "overlap_bikeable": "15139.074999999995",
        "efficiency_global": "0.5686957153252711",
        "efficiency_local": "0.08216150551753275",
        "efficiency_global_routed": "0.8751056045390403",
        "efficiency_local_routed": "0.2643583621774708"
    },
    {
        "length": "245380.25200000088",
        "length_lcc": "245380.25200000088",
        "coverage": "191.83061517507878",
        "directness": "0.6436012613381631",
        "directness_lcc": "0.6436012613381631",
        "poi_coverage": "68",
        "components": "1",
        "overlap_biketrack": "0",
        "overlap_bikeable": "15253.814999999995",
        "efficiency_global": "0.5563681819404833",
        "efficiency_local": "0.07444499788178524",
        "efficiency_global_routed": "0.8690975091411339",
        "efficiency_local_routed": "0.24554817788671643"
    },
    {
        "length": "264713.65900000004",
        "length_lcc": "264713.65900000004",
        "coverage": "199.08055322361994",
        "directness": "0.6513898683489477",
        "directness_lcc": "0.6513898683489477",
        "poi_coverage": "73",
        "components": "1",
        "overlap_biketrack": "0",
        "overlap_bikeable": "18730.030999999963",
        "efficiency_global": "0.5444037059447049",
        "efficiency_local": "0.08927235072585431",
        "efficiency_global_routed": "0.8525948855245191",
        "efficiency_local_routed": "0.21464060417376996"
    },
    {
        "length": "276713.41799999936",
        "length_lcc": "276713.41799999936",
        "coverage": "207.658369073097",
        "directness": "0.6509837156584994",
        "directness_lcc": "0.6509837156584994",
        "poi_coverage": "78",
        "components": "1",
        "overlap_biketrack": "0",
        "overlap_bikeable": "19346.476999999966",
        "efficiency_global": "0.5455040413433321",
        "efficiency_local": "0.10113206809997934",
        "efficiency_global_routed": "0.846446802870028",
        "efficiency_local_routed": "0.21157469539508889"
    },
    {
        "length": "296255.6289999998",
        "length_lcc": "296255.6289999998",
        "coverage": "221.02901041743672",
        "directness": "0.6516742854646687",
        "directness_lcc": "0.6516742854646687",
        "poi_coverage": "80",
        "components": "1",
        "overlap_biketrack": "0",
        "overlap_bikeable": "19586.54999999998",
        "efficiency_global": "0.5462963649920297",
        "efficiency_local": "0.09438993022664738",
        "efficiency_global_routed": "0.8449351810738864",
        "efficiency_local_routed": "0.20373859556564114"
    },
    {
        "length": "310633.06999999954",
        "length_lcc": "310633.06999999954",
        "coverage": "225.69001079742986",
        "directness": "0.6500324425078355",
        "directness_lcc": "0.6500324425078355",
        "poi_coverage": "82",
        "components": "1",
        "overlap_biketrack": "0",
        "overlap_bikeable": "21590.852999999992",
        "efficiency_global": "0.5502360049143241",
        "efficiency_local": "0.09888093180925707",
        "efficiency_global_routed": "0.8474105785367326",
        "efficiency_local_routed": "0.20877952461561028"
    },
    {
        "length": "325105.4650000002",
        "length_lcc": "325105.4650000002",
        "coverage": "230.85427641443823",
        "directness": "0.6613776057064712",
        "directness_lcc": "0.6613776057064712",
        "poi_coverage": "84",
        "components": "1",
        "overlap_biketrack": "0",
        "overlap_bikeable": "24919.22600000001",
        "efficiency_global": "0.5515253173432092",
        "efficiency_local": "0.13619900839421198",
        "efficiency_global_routed": "0.8370668319146563",
        "efficiency_local_routed": "0.19887173056401283"
    },
    {
        "length": "339527.4619999993",
        "length_lcc": "339527.4619999993",
        "coverage": "238.07022244693664",
        "directness": "0.6459905876974739",
        "directness_lcc": "0.6459905876974739",
        "poi_coverage": "86",
        "components": "1",
        "overlap_biketrack": "0",
        "overlap_bikeable": "27180.43200000003",
        "efficiency_global": "0.549656571831835",
        "efficiency_local": "0.12115598134197293",
        "efficiency_global_routed": "0.8338349096342627",
        "efficiency_local_routed": "0.2255381447859748"
    },
    {
        "length": "355131.7569999993",
        "length_lcc": "355131.7569999993",
        "coverage": "240.4276071471412",
        "directness": "0.6595976053971574",
        "directness_lcc": "0.6595976053971574",
        "poi_coverage": "87",
        "components": "1",
        "overlap_biketrack": "0",
        "overlap_bikeable": "29138.450000000026",
        "efficiency_global": "0.5545209831345733",
        "efficiency_local": "0.23321422555853805",
        "efficiency_global_routed": "0.8569634375238692",
        "efficiency_local_routed": "0.22831406603198615"
    },
    {
        "length": "359568.2989999989",
        "length_lcc": "359568.2989999989",
        "coverage": "240.73239217276458",
        "directness": "0.662386697423382",
        "directness_lcc": "0.662386697423382",
        "poi_coverage": "87",
        "components": "1",
        "overlap_biketrack": "0",
        "overlap_bikeable": "29138.450000000026",
        "efficiency_global": "0.5580311374410057",
        "efficiency_local": "0.23345272691438063",
        "efficiency_global_routed": "0.8505831657279452",
        "efficiency_local_routed": "0.22423770965001052"
    },
    {
        "length": "366221.41999999975",
        "length_lcc": "366221.41999999975",
        "coverage": "241.35544121984333",
        "directness": "0.6542313320502546",
        "directness_lcc": "0.6542313320502546",
        "poi_coverage": "87",
        "components": "1",
        "overlap_biketrack": "492.71400000000006",
        "overlap_bikeable": "30382.81600000003",
        "efficiency_global": "0.5619932513689895",
        "efficiency_local": "0.24768920367685002",
        "efficiency_global_routed": "0.8488084403704057",
        "efficiency_local_routed": "0.23710190605909567"
    },
    {
        "length": "367487.667",
        "length_lcc": "367487.667",
        "coverage": "241.35544122111725",
        "directness": "0.6566337717860318",
        "directness_lcc": "0.6566337717860318",
        "poi_coverage": "87",
        "components": "1",
        "overlap_biketrack": "492.71400000000006",
        "overlap_bikeable": "30382.81600000003",
        "efficiency_global": "0.5669370864534884",
        "efficiency_local": "0.28691342421446697",
        "efficiency_global_routed": "0.8446645328184316",
        "efficiency_local_routed": "0.2567091840855839"
    },
    {
        "length": "376832.95399999974",
        "length_lcc": "376832.95399999974",
        "coverage": "242.03549965079654",
        "directness": "0.6531890245304819",
        "directness_lcc": "0.6531890245304819",
        "poi_coverage": "87",
        "components": "1",
        "overlap_biketrack": "492.71400000000006",
        "overlap_bikeable": "32856.72500000004",
        "efficiency_global": "0.5783383458281294",
        "efficiency_local": "0.3033603917362385",
        "efficiency_global_routed": "0.8380472732165071",
        "efficiency_local_routed": "0.2618607722079269"
    },
    {
        "length": "387526.0840000008",
        "length_lcc": "387526.0840000008",
        "coverage": "245.72420684990752",
        "directness": "0.665581890702858",
        "directness_lcc": "0.665581890702858",
        "poi_coverage": "87",
        "components": "1",
        "overlap_biketrack": "492.71400000000006",
        "overlap_bikeable": "32856.72500000004",
        "efficiency_global": "0.5822687763521893",
        "efficiency_local": "0.33880573654777674",
        "efficiency_global_routed": "0.8389942438466111",
        "efficiency_local_routed": "0.28118759246076447"
    },
    {
        "length": "389372.5460000009",
        "length_lcc": "389372.5460000009",
        "coverage": "245.94985835939477",
        "directness": "0.6612322207815242",
        "directness_lcc": "0.6612322207815242",
        "poi_coverage": "87",
        "components": "1",
        "overlap_biketrack": "492.71400000000006",
        "overlap_bikeable": "33172.610000000066",
        "efficiency_global": "0.5904362770963245",
        "efficiency_local": "0.36658131993350485",
        "efficiency_global_routed": "0.8372214215431004",
        "efficiency_local_routed": "0.2932405437903767"
    },
    {
        "length": "392061.2120000009",
        "length_lcc": "392061.2120000009",
        "coverage": "246.1695462805991",
        "directness": "0.6574872205911334",
        "directness_lcc": "0.6574872205911334",
        "poi_coverage": "87",
        "components": "1",
        "overlap_biketrack": "492.71400000000006",
        "overlap_bikeable": "34571.603000000076",
        "efficiency_global": "0.5933161332159571",
        "efficiency_local": "0.41069088012008703",
        "efficiency_global_routed": "0.8348255911726148",
        "efficiency_local_routed": "0.29147635785972476"
    },
    {
        "length": "402051.7830000003",
        "length_lcc": "402051.7830000003",
        "coverage": "248.1936460808175",
        "directness": "0.6740873678743898",
        "directness_lcc": "0.6740873678743898",
        "poi_coverage": "87",
        "components": "1",
        "overlap_biketrack": "492.71400000000006",
        "overlap_bikeable": "35248.29000000007",
        "efficiency_global": "0.5940015605188401",
        "efficiency_local": "0.4213247574537964",
        "efficiency_global_routed": "0.8331221236434114",
        "efficiency_local_routed": "0.29206963890142523"
    },
    {
        "length": "413099.3770000007",
        "length_lcc": "413099.3770000007",
        "coverage": "249.155005429476",
        "directness": "0.6714251411701024",
        "directness_lcc": "0.6714251411701024",
        "poi_coverage": "87",
        "components": "1",
        "overlap_biketrack": "492.71400000000006",
        "overlap_bikeable": "35884.324000000095",
        "efficiency_global": "0.5994634670293972",
        "efficiency_local": "0.4463199704469497",
        "efficiency_global_routed": "0.8323839655990292",
        "efficiency_local_routed": "0.28204583811304923"
    },
    {
        "length": "424101.4300000004",
        "length_lcc": "424101.4300000004",
        "coverage": "258.09144009312286",
        "directness": "0.6738360606352698",
        "directness_lcc": "0.6738360606352698",
        "poi_coverage": "87",
        "components": "1",
        "overlap_biketrack": "492.71400000000006",
        "overlap_bikeable": "45105.60100000005",
        "efficiency_global": "0.6024148515502968",
        "efficiency_local": "0.4482712779990865",
        "efficiency_global_routed": "0.8324226197069056",
        "efficiency_local_routed": "0.2808574353272009"
    },
    {
        "length": "426971.011",
        "length_lcc": "426971.011",
        "coverage": "258.75320801679743",
        "directness": "0.662536417827445",
        "directness_lcc": "0.662536417827445",
        "poi_coverage": "87",
        "components": "1",
        "overlap_biketrack": "492.71400000000006",
        "overlap_bikeable": "46000.696000000054",
        "efficiency_global": "0.6050056440734519",
        "efficiency_local": "0.49910632131246613",
        "efficiency_global_routed": "0.8319887397177156",
        "efficiency_local_routed": "0.27740338141377535"
    },
    {
        "length": "431258.42800000025",
        "length_lcc": "431258.42800000025",
        "coverage": "258.86892914506336",
        "directness": "0.679931006812933",
        "directness_lcc": "0.679931006812933",
        "poi_coverage": "87",
        "components": "1",
        "overlap_biketrack": "492.71400000000006",
        "overlap_bikeable": "46000.696000000054",
        "efficiency_global": "0.6063392685521757",
        "efficiency_local": "0.5064271432603428",
        "efficiency_global_routed": "0.8331061226074448",
        "efficiency_local_routed": "0.27494798383462005"
    },
    {
        "length": "434923.69399999996",
        "length_lcc": "434923.69399999996",
        "coverage": "258.9765816061637",
        "directness": "0.6777085124881472",
        "directness_lcc": "0.6777085124881472",
        "poi_coverage": "87",
        "components": "1",
        "overlap_biketrack": "492.71400000000006",
        "overlap_bikeable": "47098.98000000007",
        "efficiency_global": "0.6077895948229957",
        "efficiency_local": "0.5163397705751104",
        "efficiency_global_routed": "0.8293400578473654",
        "efficiency_local_routed": "0.2676088192264631"
    },
    {
        "length": "443784.6070000004",
        "length_lcc": "443784.6070000004",
        "coverage": "262.2708502880429",
        "directness": "0.6724643834399883",
        "directness_lcc": "0.6724643834399883",
        "poi_coverage": "87",
        "components": "1",
        "overlap_biketrack": "492.71400000000006",
        "overlap_bikeable": "48275.90200000006",
        "efficiency_global": "0.6100898790812082",
        "efficiency_local": "0.5374994310759419",
        "efficiency_global_routed": "0.8289045719659609",
        "efficiency_local_routed": "0.2734785249116694"
    },
    {
        "length": "443784.6070000004",
        "length_lcc": "443784.6070000004",
        "coverage": "262.2708502880429",
        "directness": "0.6844158169686584",
        "directness_lcc": "0.6844158169686584",
        "poi_coverage": "87",
        "components": "1",
        "overlap_biketrack": "492.71400000000006",
        "overlap_bikeable": "48275.90200000006",
        "efficiency_global": "0.6100898790812082",
        "efficiency_local": "0.5374994310759419",
        "efficiency_global_routed": "0.8289045719659609",
        "efficiency_local_routed": "0.2734785249116694"
    },
    {
        "length": "448787.2950000017",
        "length_lcc": "448787.2950000017",
        "coverage": "262.81898709953276",
        "directness": "0.6776488828190796",
        "directness_lcc": "0.6776488828190796",
        "poi_coverage": "87",
        "components": "1",
        "overlap_biketrack": "492.71400000000006",
        "overlap_bikeable": "48564.697000000044",
        "efficiency_global": "0.6119702347807622",
        "efficiency_local": "0.5468553674810503",
        "efficiency_global_routed": "0.8332108233040897",
        "efficiency_local_routed": "0.2858472184464015"
    },
    {
        "length": "448787.2950000017",
        "length_lcc": "448787.2950000017",
        "coverage": "262.81898709953276",
        "directness": "0.682162643067335",
        "directness_lcc": "0.682162643067335",
        "poi_coverage": "87",
        "components": "1",
        "overlap_biketrack": "492.71400000000006",
        "overlap_bikeable": "48564.697000000044",
        "efficiency_global": "0.6119702347807622",
        "efficiency_local": "0.5468553674810503",
        "efficiency_global_routed": "0.8332108233040897",
        "efficiency_local_routed": "0.2858472184464015"
    },
    {
        "length": "448787.2950000017",
        "length_lcc": "448787.2950000017",
        "coverage": "262.81898709953276",
        "directness": "0.6832821565326112",
        "directness_lcc": "0.6832821565326112",
        "poi_coverage": "87",
        "components": "1",
        "overlap_biketrack": "492.71400000000006",
        "overlap_bikeable": "48564.697000000044",
        "efficiency_global": "0.6119702347807622",
        "efficiency_local": "0.5468553674810503",
        "efficiency_global_routed": "0.8332108233040897",
        "efficiency_local_routed": "0.2858472184464015"
    },
    {
        "length": "448787.2950000017",
        "length_lcc": "448787.2950000017",
        "coverage": "262.81898709953276",
        "directness": "0.6845111126943457",
        "directness_lcc": "0.6845111126943457",
        "poi_coverage": "87",
        "components": "1",
        "overlap_biketrack": "492.71400000000006",
        "overlap_bikeable": "48564.697000000044",
        "efficiency_global": "0.6119702347807622",
        "efficiency_local": "0.5705331212174681",
        "efficiency_global_routed": "0.8332108233040897",
        "efficiency_local_routed": "0.2858472184464015"
    },
    {
        "length": "448787.2950000017",
        "length_lcc": "448787.2950000017",
        "coverage": "262.81898709953276",
        "directness": "0.6775621671294296",
        "directness_lcc": "0.6775621671294296",
        "poi_coverage": "87",
        "components": "1",
        "overlap_biketrack": "492.71400000000006",
        "overlap_bikeable": "48564.697000000044",
        "efficiency_global": "0.6119702347807622",
        "efficiency_local": "0.588651417171247",
        "efficiency_global_routed": "0.8332108233040897",
        "efficiency_local_routed": "0.2858472184464015"
    }
]