[
    {
        "length": "792.2569999999998",
        "length_lcc": "792.2569999999998",
        "coverage": "1.5763926563615767",
        "directness": "0.9999963182198802",
        "directness_lcc": "0.9999963182198802",
        "poi_coverage": "2",
        "components": "1",
        "overlap_biketrack": "0",
        "overlap_bikeable": "0",
        "efficiency_global": "0.9999962296340105",
        "efficiency_local": "0",
        "efficiency_global_routed": "0.9999962296340108",
        "efficiency_local_routed": "0"
    },
    {
        "length": "5938.313000000002",
        "length_lcc": "5938.313000000002",
        "coverage": "4.524046641291835",
        "directness": "0.7656281234127454",
        "directness_lcc": "0.7656281234127454",
        "poi_coverage": "5",
        "components": "1",
        "overlap_biketrack": "0",
        "overlap_bikeable": "0",
        "efficiency_global": "0.9251917776284501",
        "efficiency_local": "0.9367526681417132",
        "efficiency_global_routed": "0.9063215112806303",
        "efficiency_local_routed": "0.5568686396949412"
    },
    {
        "length": "8493.198000000006",
        "length_lcc": "8493.198000000006",
        "coverage": "5.992818397920124",
        "directness": "0.7879024963098448",
        "directness_lcc": "0.7879024963098448",
        "poi_coverage": "7",
        "components": "1",
        "overlap_biketrack": "0",
        "overlap_bikeable": "0",
        "efficiency_global": "0.8958750241272233",
        "efficiency_local": "0.8615900656641255",
        "efficiency_global_routed": "0.9074922205805968",
        "efficiency_local_routed": "0.34758769395899997"
    },
    {
        "length": "10913.459999999995",
        "length_lcc": "10913.459999999995",
        "coverage": "6.964375054021602",
        "directness": "0.7654113587413287",
        "directness_lcc": "0.7654113587413287",
        "poi_coverage": "8",
        "components": "1",
        "overlap_biketrack": "0",
        "overlap_bikeable": "0",
        "efficiency_global": "0.8404666878121877",
        "efficiency_local": "0.8425763623718635",
        "efficiency_global_routed": "0.888324484300562",
        "efficiency_local_routed": "0.21099108327651134"
    },
    {
        "length": "12093.779999999995",
        "length_lcc": "12093.779999999995",
        "coverage": "7.2960013992701604",
        "directness": "0.7645447372762241",
        "directness_lcc": "0.7645447372762241",
        "poi_coverage": "10",
        "components": "1",
        "overlap_biketrack": "0",
        "overlap_bikeable": "0",
        "efficiency_global": "0.8471745296681878",
        "efficiency_local": "0.8266755890043006",
        "efficiency_global_routed": "0.8963781603863616",
        "efficiency_local_routed": "0.3473609645594568"
    },
    {
        "length": "16345.604999999994",
        "length_lcc": "16345.604999999994",
        "coverage": "8.794302462876303",
        "directness": "0.8002676818864953",
        "directness_lcc": "0.8002676818864953",
        "poi_coverage": "11",
        "components": "1",
        "overlap_biketrack": "0",
        "overlap_bikeable": "0",
        "efficiency_global": "0.8754951236599905",
        "efficiency_local": "0.8471067489525554",
        "efficiency_global_routed": "0.8344545716044555",
        "efficiency_local_routed": "0.24496169684166424"
    },
    {
        "length": "17933.153999999995",
        "length_lcc": "17933.153999999995",
        "coverage": "9.055493560012275",
        "directness": "0.7941097565130212",
        "directness_lcc": "0.7941097565130212",
        "poi_coverage": "11",
        "components": "1",
        "overlap_biketrack": "0",
        "overlap_bikeable": "0",
        "efficiency_global": "0.8689776943679499",
        "efficiency_local": "0.8533127919221353",
        "efficiency_global_routed": "0.6696170214703524",
        "efficiency_local_routed": "0.2555786334733928"
    },
    {
        "length": "29885.089000000033",
        "length_lcc": "29885.089000000033",
        "coverage": "16.657000134867637",
        "directness": "0.7075177914881199",
        "directness_lcc": "0.7075177914881199",
        "poi_coverage": "13",
        "components": "1",
        "overlap_biketrack": "536.858",
        "overlap_bikeable": "536.858",
        "efficiency_global": "0.8659920321054208",
        "efficiency_local": "0.8444744071965467",
        "efficiency_global_routed": "0.7683614984555771",
        "efficiency_local_routed": "0.199280629522174"
    },
    {
        "length": "36645.06100000005",
        "length_lcc": "36645.06100000005",
        "coverage": "21.93496507185693",
        "directness": "0.7246067161542107",
        "directness_lcc": "0.7246067161542107",
        "poi_coverage": "19",
        "components": "1",
        "overlap_biketrack": "536.858",
        "overlap_bikeable": "536.858",
        "efficiency_global": "0.8566610542716031",
        "efficiency_local": "0.8474528393652733",
        "efficiency_global_routed": "0.7683614984555771",
        "efficiency_local_routed": "0.199280629522174"
    },
    {
        "length": "46986.39399999998",
        "length_lcc": "46986.39399999998",
        "coverage": "27.668731700144868",
        "directness": "0.7235263635637633",
        "directness_lcc": "0.7235263635637633",
        "poi_coverage": "25",
        "components": "1",
        "overlap_biketrack": "1057.113",
        "overlap_bikeable": "1057.113",
        "efficiency_global": "0.8491555475532595",
        "efficiency_local": "0.8283072998610663",
        "efficiency_global_routed": "0.7866868108078536",
        "efficiency_local_routed": "0.26881538866193155"
    },
    {
        "length": "50824.709999999955",
        "length_lcc": "50824.709999999955",
        "coverage": "29.471074739741184",
        "directness": "0.7321789132638266",
        "directness_lcc": "0.7321789132638266",
        "poi_coverage": "28",
        "components": "1",
        "overlap_biketrack": "1808.736",
        "overlap_bikeable": "1808.736",
        "efficiency_global": "0.864711475774449",
        "efficiency_local": "0.8064513008116029",
        "efficiency_global_routed": "0.7937984609350061",
        "efficiency_local_routed": "0.2525955276040647"
    },
    {
        "length": "53363.65699999994",
        "length_lcc": "53363.65699999994",
        "coverage": "30.458195072477235",
        "directness": "0.7268473963002975",
        "directness_lcc": "0.7268473963002975",
        "poi_coverage": "29",
        "components": "1",
        "overlap_biketrack": "1808.736",
        "overlap_bikeable": "1808.736",
        "efficiency_global": "0.8553523536045519",
        "efficiency_local": "0.8083112437516589",
        "efficiency_global_routed": "0.7955119099361196",
        "efficiency_local_routed": "0.24161311336040966"
    },
    {
        "length": "65512.97099999994",
        "length_lcc": "65512.97099999994",
        "coverage": "35.92939958958779",
        "directness": "0.7246596528145101",
        "directness_lcc": "0.7246596528145101",
        "poi_coverage": "35",
        "components": "1",
        "overlap_biketrack": "3220.589000000001",
        "overlap_bikeable": "3220.589000000001",
        "efficiency_global": "0.8570056872693295",
        "efficiency_local": "0.8419039878254918",
        "efficiency_global_routed": "0.7956849946430257",
        "efficiency_local_routed": "0.19026305721292075"
    },
    {
        "length": "65512.97099999994",
        "length_lcc": "65512.97099999994",
        "coverage": "35.92939958958779",
        "directness": "0.7312309056806444",
        "directness_lcc": "0.7312309056806444",
        "poi_coverage": "35",
        "components": "1",
        "overlap_biketrack": "3220.589000000001",
        "overlap_bikeable": "3220.589000000001",
        "efficiency_global": "0.8554076234971386",
        "efficiency_local": "0.824561494608139",
        "efficiency_global_routed": "0.7956849946430257",
        "efficiency_local_routed": "0.19026305721292075"
    },
    {
        "length": "65998.55599999994",
        "length_lcc": "65998.55599999994",
        "coverage": "36.10610685064919",
        "directness": "0.7301152708291291",
        "directness_lcc": "0.7301152708291291",
        "poi_coverage": "36",
        "components": "1",
        "overlap_biketrack": "3220.589000000001",
        "overlap_bikeable": "3220.589000000001",
        "efficiency_global": "0.8876074109251606",
        "efficiency_local": "0.8246358150799782",
        "efficiency_global_routed": "0.8022525232379852",
        "efficiency_local_routed": "0.15750318726867976"
    },
    {
        "length": "66596.47099999995",
        "length_lcc": "66596.47099999995",
        "coverage": "36.11422704344595",
        "directness": "0.7251545981201049",
        "directness_lcc": "0.7251545981201049",
        "poi_coverage": "36",
        "components": "1",
        "overlap_biketrack": "3220.589000000001",
        "overlap_bikeable": "3220.589000000001",
        "efficiency_global": "0.88935859940577",
        "efficiency_local": "0.8326485738225381",
        "efficiency_global_routed": "0.8503364440571254",
        "efficiency_local_routed": "0.1574609216290734"
    },
    {
        "length": "67326.22799999993",
        "length_lcc": "67326.22799999993",
        "coverage": "36.379955488263874",
        "directness": "0.7325624848567098",
        "directness_lcc": "0.7325624848567098",
        "poi_coverage": "36",
        "components": "1",
        "overlap_biketrack": "3220.589000000001",
        "overlap_bikeable": "3220.589000000001",
        "efficiency_global": "0.8774577720023994",
        "efficiency_local": "0.8180970140326145",
        "efficiency_global_routed": "0.8493311448420382",
        "efficiency_local_routed": "0.15511075861968424"
    },
    {
        "length": "68155.06699999994",
        "length_lcc": "68155.06699999994",
        "coverage": "36.570731085886",
        "directness": "0.729421890198163",
        "directness_lcc": "0.729421890198163",
        "poi_coverage": "36",
        "components": "1",
        "overlap_biketrack": "3220.589000000001",
        "overlap_bikeable": "3220.589000000001",
        "efficiency_global": "0.866983503889176",
        "efficiency_local": "0.8028252280295379",
        "efficiency_global_routed": "0.8481142810758229",
        "efficiency_local_routed": "0.17345229505654788"
    },
    {
        "length": "69529.007",
        "length_lcc": "69529.007",
        "coverage": "37.28415330463586",
        "directness": "0.7263297122125765",
        "directness_lcc": "0.7263297122125765",
        "poi_coverage": "37",
        "components": "1",
        "overlap_biketrack": "3220.589000000001",
        "overlap_bikeable": "3220.589000000001",
        "efficiency_global": "0.8567374242767163",
        "efficiency_local": "0.7931452325934153",
        "efficiency_global_routed": "0.8530802899062198",
        "efficiency_local_routed": "0.16372302788536797"
    },
    {
        "length": "73419.70299999998",
        "length_lcc": "73419.70299999998",
        "coverage": "38.354218402325536",
        "directness": "0.7345911970633784",
        "directness_lcc": "0.7345911970633784",
        "poi_coverage": "38",
        "components": "1",
        "overlap_biketrack": "3612.6640000000007",
        "overlap_bikeable": "3612.6640000000007",
        "efficiency_global": "0.8666710800458813",
        "efficiency_local": "0.8227528654365202",
        "efficiency_global_routed": "0.8523202466074936",
        "efficiency_local_routed": "0.18555051072238554"
    },
    {
        "length": "73913.00000000003",
        "length_lcc": "73913.00000000003",
        "coverage": "38.4597882288737",
        "directness": "0.72690905999289",
        "directness_lcc": "0.72690905999289",
        "poi_coverage": "38",
        "components": "1",
        "overlap_biketrack": "3612.6640000000007",
        "overlap_bikeable": "3612.6640000000007",
        "efficiency_global": "0.8617785992554678",
        "efficiency_local": "0.836355102611044",
        "efficiency_global_routed": "0.8510279792060608",
        "efficiency_local_routed": "0.16937386294110987"
    },
    {
        "length": "76849.19300000016",
        "length_lcc": "76849.19300000016",
        "coverage": "39.15598596925234",
        "directness": "0.7255889618709365",
        "directness_lcc": "0.7255889618709365",
        "poi_coverage": "39",
        "components": "1",
        "overlap_biketrack": "3612.6640000000007",
        "overlap_bikeable": "3612.6640000000007",
        "efficiency_global": "0.8643259752080048",
        "efficiency_local": "0.8228787559123277",
        "efficiency_global_routed": "0.8492891034779606",
        "efficiency_local_routed": "0.1853256254992765"
    },
    {
        "length": "77275.86700000017",
        "length_lcc": "77275.86700000017",
        "coverage": "39.48495267639427",
        "directness": "0.7258563824574294",
        "directness_lcc": "0.7258563824574294",
        "poi_coverage": "39",
        "components": "1",
        "overlap_biketrack": "3612.6640000000007",
        "overlap_bikeable": "3612.6640000000007",
        "efficiency_global": "0.8628055286475748",
        "efficiency_local": "0.8181535567400543",
        "efficiency_global_routed": "0.8497178961251272",
        "efficiency_local_routed": "0.183170676365564"
    },
    {
        "length": "84157.10700000018",
        "length_lcc": "84157.10700000018",
        "coverage": "40.9807523161107",
        "directness": "0.7327378175620659",
        "directness_lcc": "0.7327378175620659",
        "poi_coverage": "40",
        "components": "1",
        "overlap_biketrack": "3905.813",
        "overlap_bikeable": "3905.813",
        "efficiency_global": "0.8581028989100301",
        "efficiency_local": "0.8006719883456584",
        "efficiency_global_routed": "0.848261251829047",
        "efficiency_local_routed": "0.1653630840444103"
    },
    {
        "length": "85037.18800000017",
        "length_lcc": "85037.18800000017",
        "coverage": "41.74770471812652",
        "directness": "0.739574971848664",
        "directness_lcc": "0.739574971848664",
        "poi_coverage": "42",
        "components": "1",
        "overlap_biketrack": "3905.813",
        "overlap_bikeable": "3905.813",
        "efficiency_global": "0.8528110006204791",
        "efficiency_local": "0.7790322048768569",
        "efficiency_global_routed": "0.8481183668520791",
        "efficiency_local_routed": "0.1653630840444103"
    },
    {
        "length": "86256.81600000017",
        "length_lcc": "86256.81600000017",
        "coverage": "42.20352366702486",
        "directness": "0.7383220265675341",
        "directness_lcc": "0.7383220265675341",
        "poi_coverage": "43",
        "components": "1",
        "overlap_biketrack": "3905.813",
        "overlap_bikeable": "3905.813",
        "efficiency_global": "0.8531410727316074",
        "efficiency_local": "0.8161911178510037",
        "efficiency_global_routed": "0.8512970458590665",
        "efficiency_local_routed": "0.1793712888637827"
    },
    {
        "length": "88738.92000000019",
        "length_lcc": "88738.92000000019",
        "coverage": "42.95059953140628",
        "directness": "0.7472345612610317",
        "directness_lcc": "0.7472345612610317",
        "poi_coverage": "43",
        "components": "1",
        "overlap_biketrack": "3905.813",
        "overlap_bikeable": "3905.813",
        "efficiency_global": "0.8596059000861737",
        "efficiency_local": "0.8509089070843897",
        "efficiency_global_routed": "0.89194341865395",
        "efficiency_local_routed": "0.20144506802698847"
    },
    {
        "length": "90281.7220000002",
        "length_lcc": "90281.7220000002",
        "coverage": "43.76335462509992",
        "directness": "0.7432337935133194",
        "directness_lcc": "0.7432337935133194",
        "poi_coverage": "44",
        "components": "1",
        "overlap_biketrack": "3905.813",
        "overlap_bikeable": "3905.813",
        "efficiency_global": "0.8614000000364851",
        "efficiency_local": "0.8562329875684553",
        "efficiency_global_routed": "0.8927674476176976",
        "efficiency_local_routed": "0.2095214613173548"
    },
    {
        "length": "96653.09800000019",
        "length_lcc": "96653.09800000019",
        "coverage": "45.994997123295214",
        "directness": "0.7498659367320759",
        "directness_lcc": "0.7498659367320759",
        "poi_coverage": "45",
        "components": "1",
        "overlap_biketrack": "3905.813",
        "overlap_bikeable": "3905.813",
        "efficiency_global": "0.8595274171492148",
        "efficiency_local": "0.8526257070353329",
        "efficiency_global_routed": "0.8895011787520526",
        "efficiency_local_routed": "0.20932236712378907"
    },
    {
        "length": "100467.90400000018",
        "length_lcc": "100467.90400000018",
        "coverage": "47.883628809884996",
        "directness": "0.7474494172869272",
        "directness_lcc": "0.7474494172869272",
        "poi_coverage": "47",
        "components": "1",
        "overlap_biketrack": "3905.813",
        "overlap_bikeable": "3905.813",
        "efficiency_global": "0.8585494171035688",
        "efficiency_local": "0.8457947624694531",
        "efficiency_global_routed": "0.8898386164003058",
        "efficiency_local_routed": "0.19774051806457066"
    },
    {
        "length": "116847.47300000013",
        "length_lcc": "116847.47300000013",
        "coverage": "55.924953805953464",
        "directness": "0.7485873351124985",
        "directness_lcc": "0.7485873351124985",
        "poi_coverage": "50",
        "components": "1",
        "overlap_biketrack": "4003.6100000000006",
        "overlap_bikeable": "4003.6100000000006",
        "efficiency_global": "0.8600424170986481",
        "efficiency_local": "0.8456551948303576",
        "efficiency_global_routed": "0.8944240184809852",
        "efficiency_local_routed": "0.19376351137607226"
    },
    {
        "length": "118489.28300000013",
        "length_lcc": "118489.28300000013",
        "coverage": "56.79548251126592",
        "directness": "0.7450539683239317",
        "directness_lcc": "0.7450539683239317",
        "poi_coverage": "51",
        "components": "1",
        "overlap_biketrack": "4003.6100000000006",
        "overlap_bikeable": "4003.6100000000006",
        "efficiency_global": "0.8585497271166115",
        "efficiency_local": "0.8477718417131176",
        "efficiency_global_routed": "0.8932799549470828",
        "efficiency_local_routed": "0.19824632683652693"
    },
    {
        "length": "120993.22400000005",
        "length_lcc": "120993.22400000005",
        "coverage": "57.27755075759571",
        "directness": "0.7525056133982356",
        "directness_lcc": "0.7525056133982356",
        "poi_coverage": "52",
        "components": "1",
        "overlap_biketrack": "4003.6100000000006",
        "overlap_bikeable": "4003.6100000000006",
        "efficiency_global": "0.8575703382132488",
        "efficiency_local": "0.8518765291510957",
        "efficiency_global_routed": "0.8930331379349156",
        "efficiency_local_routed": "0.19927151558085318"
    },
    {
        "length": "122848.36800000002",
        "length_lcc": "122848.36800000002",
        "coverage": "57.97732190296859",
        "directness": "0.7497234420716649",
        "directness_lcc": "0.7497234420716649",
        "poi_coverage": "53",
        "components": "1",
        "overlap_biketrack": "4003.6100000000006",
        "overlap_bikeable": "4003.6100000000006",
        "efficiency_global": "0.8535816162307274",
        "efficiency_local": "0.8456107299386133",
        "efficiency_global_routed": "0.8928513202188086",
        "efficiency_local_routed": "0.1896309669942251"
    },
    {
        "length": "129515.84000000004",
        "length_lcc": "129515.84000000004",
        "coverage": "60.06946010092857",
        "directness": "0.7552629042954937",
        "directness_lcc": "0.7552629042954937",
        "poi_coverage": "55",
        "components": "1",
        "overlap_biketrack": "4003.6100000000006",
        "overlap_bikeable": "4003.6100000000006",
        "efficiency_global": "0.8521757150765963",
        "efficiency_local": "0.8407855433240277",
        "efficiency_global_routed": "0.889184726775375",
        "efficiency_local_routed": "0.20843093475236696"
    },
    {
        "length": "132298.94300000006",
        "length_lcc": "132298.94300000006",
        "coverage": "61.04093446510335",
        "directness": "0.7595461329487607",
        "directness_lcc": "0.7595461329487607",
        "poi_coverage": "57",
        "components": "1",
        "overlap_biketrack": "4003.6100000000006",
        "overlap_bikeable": "4003.6100000000006",
        "efficiency_global": "0.8508485567134904",
        "efficiency_local": "0.8384900929308224",
        "efficiency_global_routed": "0.8887121246747336",
        "efficiency_local_routed": "0.21275455937336502"
    },
    {
        "length": "136628.24000000017",
        "length_lcc": "136628.24000000017",
        "coverage": "63.60739176656356",
        "directness": "0.7577736769465586",
        "directness_lcc": "0.7577736769465586",
        "poi_coverage": "58",
        "components": "1",
        "overlap_biketrack": "4003.6100000000006",
        "overlap_bikeable": "4003.6100000000006",
        "efficiency_global": "0.8500359848187521",
        "efficiency_local": "0.8382192866814585",
        "efficiency_global_routed": "0.8887864724948067",
        "efficiency_local_routed": "0.21514458101065345"
    },
    {
        "length": "140784.3100000003",
        "length_lcc": "140784.3100000003",
        "coverage": "65.60158083004595",
        "directness": "0.7631044665705109",
        "directness_lcc": "0.7631044665705109",
        "poi_coverage": "60",
        "components": "1",
        "overlap_biketrack": "4003.6100000000006",
        "overlap_bikeable": "4003.6100000000006",
        "efficiency_global": "0.8491469072267824",
        "efficiency_local": "0.8364919483375406",
        "efficiency_global_routed": "0.888044807970665",
        "efficiency_local_routed": "0.22494988078193293"
    },
    {
        "length": "149658.51800000045",
        "length_lcc": "149658.51800000045",
        "coverage": "69.3915072311578",
        "directness": "0.7645879739942658",
        "directness_lcc": "0.7645879739942658",
        "poi_coverage": "62",
        "components": "1",
        "overlap_biketrack": "4003.6100000000006",
        "overlap_bikeable": "4003.6100000000006",
        "efficiency_global": "0.8474897088643667",
        "efficiency_local": "0.8392101783522187",
        "efficiency_global_routed": "0.8872809130297313",
        "efficiency_local_routed": "0.21749319640930725"
    },
    {
        "length": "160016.24000000063",
        "length_lcc": "160016.24000000063",
        "coverage": "73.49328952185276",
        "directness": "0.7619626574968664",
        "directness_lcc": "0.7619626574968664",
        "poi_coverage": "63",
        "components": "1",
        "overlap_biketrack": "4003.6100000000006",
        "overlap_bikeable": "4003.6100000000006",
        "efficiency_global": "0.8463271554488422",
        "efficiency_local": "0.8372965797533916",
        "efficiency_global_routed": "0.8865476078373554",
        "efficiency_local_routed": "0.22399846721369468"
    }
]