[
    {
        "length": "41699.90400000005",
        "length_lcc": "10903.791000000001",
        "coverage": "44.536131655066946",
        "directness": "0.7695361289485312",
        "directness_lcc": "0.7408855015557291",
        "poi_coverage": "25",
        "components": "11",
        "overlap_biketrack": "15.415",
        "overlap_bikeable": "8447.129000000003",
        "efficiency_global": "0.10756263622587785",
        "efficiency_local": "0",
        "efficiency_global_routed": "0.10756263622587785",
        "efficiency_local_routed": "0"
    },
    {
        "length": "80172.52599999997",
        "length_lcc": "10903.791000000001",
        "coverage": "81.59441464437455",
        "directness": "0.719354034757432",
        "directness_lcc": "0.7436264259845721",
        "poi_coverage": "43",
        "components": "16",
        "overlap_biketrack": "760.5000000000001",
        "overlap_bikeable": "19377.97499999999",
        "efficiency_global": "0.09621057334982538",
        "efficiency_local": "0.0",
        "efficiency_global_routed": "0.2295614404045081",
        "efficiency_local_routed": "0.0"
    },
    {
        "length": "108254.17099999991",
        "length_lcc": "12301.941",
        "coverage": "107.3350028659882",
        "directness": "0.7042896084445142",
        "directness_lcc": "0.7395706134406375",
        "poi_coverage": "58",
        "components": "19",
        "overlap_biketrack": "2036.7640000000001",
        "overlap_bikeable": "24124.342000000004",
        "efficiency_global": "0.0811062696700316",
        "efficiency_local": "0.0",
        "efficiency_global_routed": "0.2460127592567721",
        "efficiency_local_routed": "0.0"
    },
    {
        "length": "134350.09199999986",
        "length_lcc": "14478.251000000006",
        "coverage": "130.94589215140257",
        "directness": "0.671018637061096",
        "directness_lcc": "0.7264058367149369",
        "poi_coverage": "71",
        "components": "21",
        "overlap_biketrack": "2036.7640000000001",
        "overlap_bikeable": "28079.504999999997",
        "efficiency_global": "0.07409065895064307",
        "efficiency_local": "0.0",
        "efficiency_global_routed": "0.4575736471651888",
        "efficiency_local_routed": "0.20981093875769866"
    },
    {
        "length": "170963.76099999927",
        "length_lcc": "43828.320000000065",
        "coverage": "158.92608992774802",
        "directness": "0.6158260536455046",
        "directness_lcc": "0.5693634710385845",
        "poi_coverage": "85",
        "components": "21",
        "overlap_biketrack": "2063.137",
        "overlap_bikeable": "40898.38500000004",
        "efficiency_global": "0.07332734589291288",
        "efficiency_local": "0.0846185679379348",
        "efficiency_global_routed": "0.5345198267077146",
        "efficiency_local_routed": "0.2783015845244994"
    },
    {
        "length": "192875.36899999905",
        "length_lcc": "46357.09600000006",
        "coverage": "174.6404366542102",
        "directness": "0.5694392536859917",
        "directness_lcc": "0.5636036797316183",
        "poi_coverage": "93",
        "components": "19",
        "overlap_biketrack": "2063.137",
        "overlap_bikeable": "47504.261000000086",
        "efficiency_global": "0.08635452715605361",
        "efficiency_local": "0.11946755931333902",
        "efficiency_global_routed": "0.5119387759176289",
        "efficiency_local_routed": "0.2704913646773212"
    },
    {
        "length": "216295.9749999992",
        "length_lcc": "51339.33000000001",
        "coverage": "194.19912827744966",
        "directness": "0.5766625862879594",
        "directness_lcc": "0.5672007885891369",
        "poi_coverage": "105",
        "components": "21",
        "overlap_biketrack": "2063.137",
        "overlap_bikeable": "52226.52700000002",
        "efficiency_global": "0.07739642352068897",
        "efficiency_local": "0.10009444158685162",
        "efficiency_global_routed": "0.534635381723644",
        "efficiency_local_routed": "0.25444436730644976"
    },
    {
        "length": "238412.51799999934",
        "length_lcc": "56522.79400000007",
        "coverage": "205.2463945635925",
        "directness": "0.555886263201978",
        "directness_lcc": "0.5407724680568192",
        "poi_coverage": "109",
        "components": "18",
        "overlap_biketrack": "2265.5280000000002",
        "overlap_bikeable": "56794.03600000003",
        "efficiency_global": "0.0837686758948358",
        "efficiency_local": "0.11472297595268563",
        "efficiency_global_routed": "0.5602639658365371",
        "efficiency_local_routed": "0.19955772453360263"
    },
    {
        "length": "279058.8739999987",
        "length_lcc": "109741.3039999999",
        "coverage": "226.59045487271632",
        "directness": "0.5541743973947415",
        "directness_lcc": "0.41871630345219557",
        "poi_coverage": "114",
        "components": "11",
        "overlap_biketrack": "3609.1319999999987",
        "overlap_bikeable": "68068.61199999995",
        "efficiency_global": "0.11976773059316748",
        "efficiency_local": "0.10425529981409629",
        "efficiency_global_routed": "0.5574308711504595",
        "efficiency_local_routed": "0.22596592787659864"
    },
    {
        "length": "298243.5629999994",
        "length_lcc": "187433.40299999953",
        "coverage": "232.38159312581118",
        "directness": "0.41877605946258034",
        "directness_lcc": "0.4281848497123755",
        "poi_coverage": "116",
        "components": "8",
        "overlap_biketrack": "4649.271999999999",
        "overlap_bikeable": "71434.31199999999",
        "efficiency_global": "0.14377473563824855",
        "efficiency_local": "0.1386240953126992",
        "efficiency_global_routed": "0.6234010988583999",
        "efficiency_local_routed": "0.22014780668172013"
    },
    {
        "length": "322258.4100000009",
        "length_lcc": "244492.08699999962",
        "coverage": "246.0368550854861",
        "directness": "0.39361920623979874",
        "directness_lcc": "0.38766908251841475",
        "poi_coverage": "122",
        "components": "6",
        "overlap_biketrack": "4878.603999999998",
        "overlap_bikeable": "75815.56599999998",
        "efficiency_global": "0.1493690423806203",
        "efficiency_local": "0.11928241793767595",
        "efficiency_global_routed": "0.6849818784140802",
        "efficiency_local_routed": "0.22659828405712873"
    },
    {
        "length": "349743.31599999947",
        "length_lcc": "261791.39299999957",
        "coverage": "258.85613322975786",
        "directness": "0.46165070351030896",
        "directness_lcc": "0.4582133897493042",
        "poi_coverage": "128",
        "components": "5",
        "overlap_biketrack": "4878.603999999998",
        "overlap_bikeable": "78996.99799999998",
        "efficiency_global": "0.19168133077739868",
        "efficiency_local": "0.10799993446369958",
        "efficiency_global_routed": "0.6836096549899253",
        "efficiency_local_routed": "0.22873058909094873"
    },
    {
        "length": "366601.8659999993",
        "length_lcc": "359184.2669999998",
        "coverage": "266.4723387971882",
        "directness": "0.490733207663556",
        "directness_lcc": "0.48135932679783466",
        "poi_coverage": "132",
        "components": "4",
        "overlap_biketrack": "5278.8330000000005",
        "overlap_bikeable": "83850.63299999993",
        "efficiency_global": "0.2632401614973765",
        "efficiency_local": "0.10636260809974603",
        "efficiency_global_routed": "0.7301145869446467",
        "efficiency_local_routed": "0.21637967244193268"
    },
    {
        "length": "396815.96099999984",
        "length_lcc": "388303.09599999996",
        "coverage": "280.42365311649803",
        "directness": "0.5082046214141227",
        "directness_lcc": "0.5211952674054612",
        "poi_coverage": "135",
        "components": "3",
        "overlap_biketrack": "5862.678000000002",
        "overlap_bikeable": "88226.58",
        "efficiency_global": "0.2777876892921222",
        "efficiency_local": "0.11040534758115167",
        "efficiency_global_routed": "0.7447798807320394",
        "efficiency_local_routed": "0.206772676865766"
    },
    {
        "length": "422079.8139999999",
        "length_lcc": "422079.8139999999",
        "coverage": "286.84009681387784",
        "directness": "0.5506395870879235",
        "directness_lcc": "0.5506395870879235",
        "poi_coverage": "136",
        "components": "1",
        "overlap_biketrack": "6085.269000000001",
        "overlap_bikeable": "94953.38600000009",
        "efficiency_global": "0.3085986093701992",
        "efficiency_local": "0.13377021562650535",
        "efficiency_global_routed": "0.7443854939150991",
        "efficiency_local_routed": "0.2109119435879442"
    },
    {
        "length": "447037.864000001",
        "length_lcc": "447037.864000001",
        "coverage": "295.23808114683203",
        "directness": "0.577770659226958",
        "directness_lcc": "0.577770659226958",
        "poi_coverage": "136",
        "components": "1",
        "overlap_biketrack": "7667.096999999998",
        "overlap_bikeable": "104924.36299999994",
        "efficiency_global": "0.3579036984296654",
        "efficiency_local": "0.15343432453604108",
        "efficiency_global_routed": "0.7494266952507188",
        "efficiency_local_routed": "0.2112885088834895"
    },
    {
        "length": "463992.88800000126",
        "length_lcc": "463992.88800000126",
        "coverage": "300.4290715994511",
        "directness": "0.5824079705252282",
        "directness_lcc": "0.5824079705252282",
        "poi_coverage": "138",
        "components": "1",
        "overlap_biketrack": "8230.783999999998",
        "overlap_bikeable": "109790.15899999999",
        "efficiency_global": "0.4162542158490604",
        "efficiency_local": "0.19116414335877244",
        "efficiency_global_routed": "0.7480609048964549",
        "efficiency_local_routed": "0.21580759017661938"
    },
    {
        "length": "486163.9510000014",
        "length_lcc": "486163.9510000014",
        "coverage": "307.8211234397538",
        "directness": "0.5867576780321756",
        "directness_lcc": "0.5867576780321756",
        "poi_coverage": "139",
        "components": "1",
        "overlap_biketrack": "8230.783999999998",
        "overlap_bikeable": "115541.50499999993",
        "efficiency_global": "0.4387766803964255",
        "efficiency_local": "0.2176010598258351",
        "efficiency_global_routed": "0.749977413989077",
        "efficiency_local_routed": "0.20621737729968298"
    },
    {
        "length": "504678.9510000016",
        "length_lcc": "504678.9510000016",
        "coverage": "315.2352277763415",
        "directness": "0.6070220284299698",
        "directness_lcc": "0.6070220284299698",
        "poi_coverage": "141",
        "components": "1",
        "overlap_biketrack": "8230.783999999998",
        "overlap_bikeable": "117768.41099999993",
        "efficiency_global": "0.46154245386210646",
        "efficiency_local": "0.2126318793838487",
        "efficiency_global_routed": "0.7502019113514199",
        "efficiency_local_routed": "0.21605185627770399"
    },
    {
        "length": "522835.954000001",
        "length_lcc": "522835.954000001",
        "coverage": "320.92054140842174",
        "directness": "0.6222631603822303",
        "directness_lcc": "0.6222631603822303",
        "poi_coverage": "142",
        "components": "1",
        "overlap_biketrack": "8230.783999999998",
        "overlap_bikeable": "121570.10799999992",
        "efficiency_global": "0.48473537370040937",
        "efficiency_local": "0.22469664321734314",
        "efficiency_global_routed": "0.7582125651552263",
        "efficiency_local_routed": "0.21246110123559098"
    },
    {
        "length": "544617.9830000008",
        "length_lcc": "544617.9830000008",
        "coverage": "328.0495545739832",
        "directness": "0.6605085978116373",
        "directness_lcc": "0.6605085978116373",
        "poi_coverage": "143",
        "components": "1",
        "overlap_biketrack": "8230.783999999998",
        "overlap_bikeable": "129532.62099999991",
        "efficiency_global": "0.5248648765649042",
        "efficiency_local": "0.21571870433991513",
        "efficiency_global_routed": "0.7721944282549441",
        "efficiency_local_routed": "0.20925435393267264"
    },
    {
        "length": "567179.9100000015",
        "length_lcc": "567179.9100000015",
        "coverage": "332.33675071759035",
        "directness": "0.6742361414572581",
        "directness_lcc": "0.6742361414572581",
        "poi_coverage": "143",
        "components": "1",
        "overlap_biketrack": "8573.402999999998",
        "overlap_bikeable": "133618.46699999992",
        "efficiency_global": "0.5464515095570885",
        "efficiency_local": "0.2173073039998843",
        "efficiency_global_routed": "0.772434517782675",
        "efficiency_local_routed": "0.22343411683060785"
    },
    {
        "length": "589693.0580000032",
        "length_lcc": "589693.0580000032",
        "coverage": "336.3264017156628",
        "directness": "0.6749881791314973",
        "directness_lcc": "0.6749881791314973",
        "poi_coverage": "143",
        "components": "1",
        "overlap_biketrack": "8657.074999999995",
        "overlap_bikeable": "137712.29899999982",
        "efficiency_global": "0.5596253034098848",
        "efficiency_local": "0.2462163203677271",
        "efficiency_global_routed": "0.7802182546541823",
        "efficiency_local_routed": "0.22268558611736866"
    },
    {
        "length": "604506.8060000016",
        "length_lcc": "604506.8060000016",
        "coverage": "337.0605168143482",
        "directness": "0.6795232796866776",
        "directness_lcc": "0.6795232796866776",
        "poi_coverage": "143",
        "components": "1",
        "overlap_biketrack": "8657.074999999995",
        "overlap_bikeable": "140742.05999999994",
        "efficiency_global": "0.5689026210930439",
        "efficiency_local": "0.26528622239900795",
        "efficiency_global_routed": "0.7753617373909059",
        "efficiency_local_routed": "0.2260219745873106"
    },
    {
        "length": "619823.1619999997",
        "length_lcc": "619823.1619999997",
        "coverage": "340.00987982168004",
        "directness": "0.6875859760571171",
        "directness_lcc": "0.6875859760571171",
        "poi_coverage": "143",
        "components": "1",
        "overlap_biketrack": "8985.590999999999",
        "overlap_bikeable": "145303.18899999998",
        "efficiency_global": "0.5778635988487226",
        "efficiency_local": "0.2813122594783846",
        "efficiency_global_routed": "0.7795089010134642",
        "efficiency_local_routed": "0.20537440587239778"
    },
    {
        "length": "636753.9500000002",
        "length_lcc": "636753.9500000002",
        "coverage": "345.94934531754876",
        "directness": "0.6925002554501039",
        "directness_lcc": "0.6925002554501039",
        "poi_coverage": "144",
        "components": "1",
        "overlap_biketrack": "9619.658000000001",
        "overlap_bikeable": "150356.22399999978",
        "efficiency_global": "0.5854567415735735",
        "efficiency_local": "0.28842492465660663",
        "efficiency_global_routed": "0.7727843810192503",
        "efficiency_local_routed": "0.21870839895762387"
    },
    {
        "length": "646797.1809999989",
        "length_lcc": "646797.1809999989",
        "coverage": "347.91102032277973",
        "directness": "0.6986972544328652",
        "directness_lcc": "0.6986972544328652",
        "poi_coverage": "145",
        "components": "1",
        "overlap_biketrack": "9685.419000000002",
        "overlap_bikeable": "151317.65999999974",
        "efficiency_global": "0.5969721738755577",
        "efficiency_local": "0.2881253346170583",
        "efficiency_global_routed": "0.7773606770169933",
        "efficiency_local_routed": "0.20004183982915452"
    },
    {
        "length": "660684.0969999995",
        "length_lcc": "660684.0969999995",
        "coverage": "349.3416913061526",
        "directness": "0.7008517191144361",
        "directness_lcc": "0.7008517191144361",
        "poi_coverage": "145",
        "components": "1",
        "overlap_biketrack": "9685.419000000002",
        "overlap_bikeable": "154515.87599999958",
        "efficiency_global": "0.6050915394520211",
        "efficiency_local": "0.30410415876577634",
        "efficiency_global_routed": "0.7864050792192668",
        "efficiency_local_routed": "0.2162652982638806"
    },
    {
        "length": "673664.0020000007",
        "length_lcc": "673664.0020000007",
        "coverage": "350.49175329607874",
        "directness": "0.7038336310964156",
        "directness_lcc": "0.7038336310964156",
        "poi_coverage": "145",
        "components": "1",
        "overlap_biketrack": "9685.419000000002",
        "overlap_bikeable": "156153.63499999957",
        "efficiency_global": "0.6121499692671787",
        "efficiency_local": "0.34002936232358716",
        "efficiency_global_routed": "0.7861996571719555",
        "efficiency_local_routed": "0.21450737887155047"
    },
    {
        "length": "682550.7390000001",
        "length_lcc": "682550.7390000001",
        "coverage": "350.7963140420987",
        "directness": "0.7163029988799686",
        "directness_lcc": "0.7163029988799686",
        "poi_coverage": "145",
        "components": "1",
        "overlap_biketrack": "10375.178000000009",
        "overlap_bikeable": "158957.9589999995",
        "efficiency_global": "0.616382433586837",
        "efficiency_local": "0.36735926526257884",
        "efficiency_global_routed": "0.7978554687188966",
        "efficiency_local_routed": "0.20294602337369486"
    },
    {
        "length": "703087.4549999995",
        "length_lcc": "703087.4549999995",
        "coverage": "355.2094378558749",
        "directness": "0.7214594726399369",
        "directness_lcc": "0.7214594726399369",
        "poi_coverage": "145",
        "components": "1",
        "overlap_biketrack": "10703.844000000005",
        "overlap_bikeable": "163912.1529999995",
        "efficiency_global": "0.6280704803725475",
        "efficiency_local": "0.3835164240089347",
        "efficiency_global_routed": "0.8016653953446443",
        "efficiency_local_routed": "0.19459746025739455"
    },
    {
        "length": "713190.6549999996",
        "length_lcc": "713190.6549999996",
        "coverage": "356.11212493218835",
        "directness": "0.730339717066887",
        "directness_lcc": "0.730339717066887",
        "poi_coverage": "145",
        "components": "1",
        "overlap_biketrack": "10703.844000000005",
        "overlap_bikeable": "166635.93499999942",
        "efficiency_global": "0.6410352478751598",
        "efficiency_local": "0.4130434421303319",
        "efficiency_global_routed": "0.8033364830723683",
        "efficiency_local_routed": "0.19428268447359823"
    },
    {
        "length": "726302.0849999995",
        "length_lcc": "726302.0849999995",
        "coverage": "357.0580906549668",
        "directness": "0.7341814514312195",
        "directness_lcc": "0.7341814514312195",
        "poi_coverage": "145",
        "components": "1",
        "overlap_biketrack": "11103.475000000006",
        "overlap_bikeable": "171547.12499999924",
        "efficiency_global": "0.6476298233397862",
        "efficiency_local": "0.45546923818408985",
        "efficiency_global_routed": "0.805498816529571",
        "efficiency_local_routed": "0.2038275981463275"
    },
    {
        "length": "736699.4599999997",
        "length_lcc": "736699.4599999997",
        "coverage": "358.7283360033382",
        "directness": "0.7279313185977597",
        "directness_lcc": "0.7279313185977597",
        "poi_coverage": "145",
        "components": "1",
        "overlap_biketrack": "11103.475000000006",
        "overlap_bikeable": "173903.09899999932",
        "efficiency_global": "0.653991167746767",
        "efficiency_local": "0.49012212448963993",
        "efficiency_global_routed": "0.8023519732851646",
        "efficiency_local_routed": "0.20048522629640492"
    },
    {
        "length": "751177.9019999995",
        "length_lcc": "751177.9019999995",
        "coverage": "359.54369823501565",
        "directness": "0.7378098304066383",
        "directness_lcc": "0.7378098304066383",
        "poi_coverage": "145",
        "components": "1",
        "overlap_biketrack": "11103.475000000006",
        "overlap_bikeable": "177327.70999999947",
        "efficiency_global": "0.6603486610304233",
        "efficiency_local": "0.5189803166719954",
        "efficiency_global_routed": "0.8162628249910316",
        "efficiency_local_routed": "0.20618669909416606"
    },
    {
        "length": "768630.2630000007",
        "length_lcc": "768630.2630000007",
        "coverage": "361.9225008956841",
        "directness": "0.7408325427196174",
        "directness_lcc": "0.7408325427196174",
        "poi_coverage": "145",
        "components": "1",
        "overlap_biketrack": "11103.475000000006",
        "overlap_bikeable": "182810.97899999947",
        "efficiency_global": "0.6655471956951498",
        "efficiency_local": "0.5396033651617508",
        "efficiency_global_routed": "0.8009098180192432",
        "efficiency_local_routed": "0.19587426920490994"
    },
    {
        "length": "781445.1309999995",
        "length_lcc": "781445.1309999995",
        "coverage": "362.15449743771086",
        "directness": "0.7544209151855887",
        "directness_lcc": "0.7544209151855887",
        "poi_coverage": "145",
        "components": "1",
        "overlap_biketrack": "11103.475000000006",
        "overlap_bikeable": "185531.06099999935",
        "efficiency_global": "0.6794342955880457",
        "efficiency_local": "0.5735334073812549",
        "efficiency_global_routed": "0.8107903022469255",
        "efficiency_local_routed": "0.21295001938722952"
    },
    {
        "length": "795002.9830000002",
        "length_lcc": "795002.9830000002",
        "coverage": "362.9751666794942",
        "directness": "0.7550924433503609",
        "directness_lcc": "0.7550924433503609",
        "poi_coverage": "145",
        "components": "1",
        "overlap_biketrack": "11103.475000000006",
        "overlap_bikeable": "186276.5599999992",
        "efficiency_global": "0.6838058383827661",
        "efficiency_local": "0.6066857871634",
        "efficiency_global_routed": "0.8132682952500143",
        "efficiency_local_routed": "0.1925997148089129"
    },
    {
        "length": "808064.3750000016",
        "length_lcc": "808064.3750000016",
        "coverage": "364.1141713696227",
        "directness": "0.7607559733858731",
        "directness_lcc": "0.7607559733858731",
        "poi_coverage": "145",
        "components": "1",
        "overlap_biketrack": "11103.475000000006",
        "overlap_bikeable": "190751.08399999922",
        "efficiency_global": "0.6894863017640571",
        "efficiency_local": "0.6377108417969913",
        "efficiency_global_routed": "0.8010858359332713",
        "efficiency_local_routed": "0.1855686549227445"
    },
    {
        "length": "827005.0230000011",
        "length_lcc": "827005.0230000011",
        "coverage": "365.4309123077313",
        "directness": "0.7685709223062265",
        "directness_lcc": "0.7685709223062265",
        "poi_coverage": "145",
        "components": "1",
        "overlap_biketrack": "11103.475000000006",
        "overlap_bikeable": "195196.66599999918",
        "efficiency_global": "0.6982411927866133",
        "efficiency_local": "0.661163285526448",
        "efficiency_global_routed": "0.8125643215551634",
        "efficiency_local_routed": "0.18045100420425872"
    }
]