[
    {
        "length": "4025.6479999999983",
        "length_lcc": "1746.9900000000005",
        "coverage": "5.469303045813671",
        "directness": "0.703195523693326",
        "directness_lcc": "0.7796970409391637",
        "poi_coverage": "11",
        "components": "3",
        "overlap_biketrack": "0",
        "overlap_bikeable": "1850.029",
        "efficiency_global": "0.2971834881360785",
        "efficiency_local": "0",
        "efficiency_global_routed": "0.29718348813607853",
        "efficiency_local_routed": "0"
    },
    {
        "length": "7799.663",
        "length_lcc": "2401.8630000000007",
        "coverage": "9.555000630257052",
        "directness": "0.81702205180251",
        "directness_lcc": "0.8760635074244243",
        "poi_coverage": "15",
        "components": "5",
        "overlap_biketrack": "0",
        "overlap_bikeable": "3941.5679999999984",
        "efficiency_global": "0.14423927577566717",
        "efficiency_local": "0",
        "efficiency_global_routed": "0.1442392757756672",
        "efficiency_local_routed": "0"
    },
    {
        "length": "12378.856000000007",
        "length_lcc": "5133.906999999999",
        "coverage": "13.674839264825765",
        "directness": "0.7990766489392991",
        "directness_lcc": "0.7764335835512631",
        "poi_coverage": "19",
        "components": "5",
        "overlap_biketrack": "330.676",
        "overlap_bikeable": "6059.1050000000005",
        "efficiency_global": "0.1587282229189512",
        "efficiency_local": "0.0",
        "efficiency_global_routed": "0.26291145931731436",
        "efficiency_local_routed": "0.0"
    },
    {
        "length": "15838.149000000016",
        "length_lcc": "11244.099",
        "coverage": "15.195852198665873",
        "directness": "0.6596886089692128",
        "directness_lcc": "0.6593328479809368",
        "poi_coverage": "21",
        "components": "4",
        "overlap_biketrack": "330.676",
        "overlap_bikeable": "8346.380000000005",
        "efficiency_global": "0.14347376760842354",
        "efficiency_local": "0.0",
        "efficiency_global_routed": "0.46094949430044635",
        "efficiency_local_routed": "0.0"
    },
    {
        "length": "20010.125000000007",
        "length_lcc": "17163.065000000006",
        "coverage": "17.918726491693906",
        "directness": "0.6763452184667571",
        "directness_lcc": "0.6680677634715252",
        "poi_coverage": "22",
        "components": "3",
        "overlap_biketrack": "330.676",
        "overlap_bikeable": "8814.742000000002",
        "efficiency_global": "0.17618793469093638",
        "efficiency_local": "0.0",
        "efficiency_global_routed": "0.515627702347687",
        "efficiency_local_routed": "0.0"
    },
    {
        "length": "24729.632999999994",
        "length_lcc": "20483.310000000016",
        "coverage": "21.29436909876044",
        "directness": "0.6440219435215015",
        "directness_lcc": "0.6496642716281005",
        "poi_coverage": "25",
        "components": "4",
        "overlap_biketrack": "330.676",
        "overlap_bikeable": "11281.693000000014",
        "efficiency_global": "0.14495579876531695",
        "efficiency_local": "0.2093272107021725",
        "efficiency_global_routed": "0.5091889824093978",
        "efficiency_local_routed": "0.13148953613087677"
    },
    {
        "length": "28944.581999999988",
        "length_lcc": "23743.974999999995",
        "coverage": "24.464050540917196",
        "directness": "0.6116473314979414",
        "directness_lcc": "0.599124904139964",
        "poi_coverage": "26",
        "components": "3",
        "overlap_biketrack": "447.22499999999997",
        "overlap_bikeable": "13003.839000000016",
        "efficiency_global": "0.16995879392660282",
        "efficiency_local": "0.1522379714197618",
        "efficiency_global_routed": "0.5378419020131485",
        "efficiency_local_routed": "0.11687958767189047"
    },
    {
        "length": "31632.562999999966",
        "length_lcc": "31632.562999999966",
        "coverage": "25.345284939000113",
        "directness": "0.5599662423218966",
        "directness_lcc": "0.5599662423218966",
        "poi_coverage": "26",
        "components": "1",
        "overlap_biketrack": "1228.6169999999997",
        "overlap_bikeable": "13899.679000000015",
        "efficiency_global": "0.24163007179778143",
        "efficiency_local": "0.12881674504749077",
        "efficiency_global_routed": "0.8172201565992392",
        "efficiency_local_routed": "0.28420610469218277"
    },
    {
        "length": "35029.26200000003",
        "length_lcc": "35029.26200000003",
        "coverage": "26.400130139537175",
        "directness": "0.5284805677371581",
        "directness_lcc": "0.5284805677371581",
        "poi_coverage": "26",
        "components": "1",
        "overlap_biketrack": "1324.9830000000002",
        "overlap_bikeable": "16005.138",
        "efficiency_global": "0.2400789788688453",
        "efficiency_local": "0.11164117904115867",
        "efficiency_global_routed": "0.7638967489040931",
        "efficiency_local_routed": "0.20779089461703726"
    },
    {
        "length": "36401.92500000004",
        "length_lcc": "36401.92500000004",
        "coverage": "27.36877214798457",
        "directness": "0.5318381175713739",
        "directness_lcc": "0.5318381175713739",
        "poi_coverage": "27",
        "components": "1",
        "overlap_biketrack": "1324.9830000000002",
        "overlap_bikeable": "17276.651",
        "efficiency_global": "0.25262096975880227",
        "efficiency_local": "0.21651137900427786",
        "efficiency_global_routed": "0.794925543264796",
        "efficiency_local_routed": "0.29925076600965084"
    },
    {
        "length": "39460.16599999997",
        "length_lcc": "39460.16599999997",
        "coverage": "29.799692983150848",
        "directness": "0.49424776694229855",
        "directness_lcc": "0.49424776694229855",
        "poi_coverage": "28",
        "components": "1",
        "overlap_biketrack": "1324.9830000000002",
        "overlap_bikeable": "17593.633000000005",
        "efficiency_global": "0.33784697474073044",
        "efficiency_local": "0.20377541553343798",
        "efficiency_global_routed": "0.7821227716014574",
        "efficiency_local_routed": "0.3589680219171606"
    },
    {
        "length": "46428.552999999985",
        "length_lcc": "46428.552999999985",
        "coverage": "34.21890431279464",
        "directness": "0.524417786025766",
        "directness_lcc": "0.524417786025766",
        "poi_coverage": "30",
        "components": "1",
        "overlap_biketrack": "1365.719",
        "overlap_bikeable": "18397.894999999993",
        "efficiency_global": "0.3581441758386898",
        "efficiency_local": "0.289546222312644",
        "efficiency_global_routed": "0.7936087835432944",
        "efficiency_local_routed": "0.3143433717455772"
    },
    {
        "length": "50935.281999999956",
        "length_lcc": "49615.72499999995",
        "coverage": "35.48843200534631",
        "directness": "0.5671419091302694",
        "directness_lcc": "0.5703982340901035",
        "poi_coverage": "32",
        "components": "2",
        "overlap_biketrack": "1365.719",
        "overlap_bikeable": "19099.58399999999",
        "efficiency_global": "0.31458681578719594",
        "efficiency_local": "0.2657067451337446",
        "efficiency_global_routed": "0.7584953590920898",
        "efficiency_local_routed": "0.3348272670700855"
    },
    {
        "length": "54574.84599999995",
        "length_lcc": "53255.288999999924",
        "coverage": "36.07631771636188",
        "directness": "0.5771625571194107",
        "directness_lcc": "0.5773932481767164",
        "poi_coverage": "32",
        "components": "2",
        "overlap_biketrack": "1365.719",
        "overlap_bikeable": "20910.625999999967",
        "efficiency_global": "0.3470017707020633",
        "efficiency_local": "0.2557103436712693",
        "efficiency_global_routed": "0.74622164475673",
        "efficiency_local_routed": "0.32521567574445975"
    },
    {
        "length": "60840.970000000016",
        "length_lcc": "60840.970000000016",
        "coverage": "39.15021528871618",
        "directness": "0.5375647443829352",
        "directness_lcc": "0.5375647443829352",
        "poi_coverage": "34",
        "components": "1",
        "overlap_biketrack": "1365.719",
        "overlap_bikeable": "21689.045999999955",
        "efficiency_global": "0.34937795890556395",
        "efficiency_local": "0.2665986860742229",
        "efficiency_global_routed": "0.7112187169061135",
        "efficiency_local_routed": "0.32647108030387095"
    },
    {
        "length": "61559.71300000001",
        "length_lcc": "61559.71300000001",
        "coverage": "39.20114888228594",
        "directness": "0.5315249067691274",
        "directness_lcc": "0.5315249067691274",
        "poi_coverage": "34",
        "components": "1",
        "overlap_biketrack": "1365.719",
        "overlap_bikeable": "21689.045999999955",
        "efficiency_global": "0.349476618727623",
        "efficiency_local": "0.31928458779052876",
        "efficiency_global_routed": "0.7116829492294102",
        "efficiency_local_routed": "0.3078155900007926"
    },
    {
        "length": "63428.50100000002",
        "length_lcc": "63428.50100000002",
        "coverage": "39.20528807567313",
        "directness": "0.5693489130900892",
        "directness_lcc": "0.5693489130900892",
        "poi_coverage": "34",
        "components": "1",
        "overlap_biketrack": "1365.719",
        "overlap_bikeable": "21689.045999999955",
        "efficiency_global": "0.3893209789010004",
        "efficiency_local": "0.3021029537268543",
        "efficiency_global_routed": "0.7478557049087914",
        "efficiency_local_routed": "0.3335722390431092"
    },
    {
        "length": "69606.00200000005",
        "length_lcc": "69606.00200000005",
        "coverage": "39.37599298404769",
        "directness": "0.6035805910767297",
        "directness_lcc": "0.6035805910767297",
        "poi_coverage": "34",
        "components": "1",
        "overlap_biketrack": "1437.937",
        "overlap_bikeable": "23433.41399999998",
        "efficiency_global": "0.4286921529689191",
        "efficiency_local": "0.23274768148557493",
        "efficiency_global_routed": "0.7882525127466695",
        "efficiency_local_routed": "0.32533599387072026"
    },
    {
        "length": "73172.985",
        "length_lcc": "73172.985",
        "coverage": "42.18677602885135",
        "directness": "0.6101379512937742",
        "directness_lcc": "0.6101379512937742",
        "poi_coverage": "35",
        "components": "1",
        "overlap_biketrack": "1437.937",
        "overlap_bikeable": "25118.76199999997",
        "efficiency_global": "0.43436448011639545",
        "efficiency_local": "0.22314868124541604",
        "efficiency_global_routed": "0.7827343705363249",
        "efficiency_local_routed": "0.3120847303902359"
    },
    {
        "length": "75344.98399999991",
        "length_lcc": "75344.98399999991",
        "coverage": "42.68737266558979",
        "directness": "0.6163302072994348",
        "directness_lcc": "0.6163302072994348",
        "poi_coverage": "35",
        "components": "1",
        "overlap_biketrack": "1437.9370000000001",
        "overlap_bikeable": "25982.697999999986",
        "efficiency_global": "0.45944363555275075",
        "efficiency_local": "0.21034806821945365",
        "efficiency_global_routed": "0.7871016908790597",
        "efficiency_local_routed": "0.30598572914180444"
    },
    {
        "length": "76220.89199999986",
        "length_lcc": "76220.89199999986",
        "coverage": "42.687372667974586",
        "directness": "0.6414445820042151",
        "directness_lcc": "0.6414445820042151",
        "poi_coverage": "35",
        "components": "1",
        "overlap_biketrack": "1437.9370000000001",
        "overlap_bikeable": "26103.413999999993",
        "efficiency_global": "0.47431691303785745",
        "efficiency_local": "0.22796471094035978",
        "efficiency_global_routed": "0.7919347686730979",
        "efficiency_local_routed": "0.29191951821409823"
    },
    {
        "length": "77963.88699999989",
        "length_lcc": "77963.88699999989",
        "coverage": "42.687372667447754",
        "directness": "0.6305252242942165",
        "directness_lcc": "0.6305252242942165",
        "poi_coverage": "35",
        "components": "1",
        "overlap_biketrack": "1437.9370000000001",
        "overlap_bikeable": "27067.09499999998",
        "efficiency_global": "0.48426085299555915",
        "efficiency_local": "0.20555625982995687",
        "efficiency_global_routed": "0.7861793468080224",
        "efficiency_local_routed": "0.2756308119189391"
    },
    {
        "length": "79096.32999999994",
        "length_lcc": "79096.32999999994",
        "coverage": "42.687372667927654",
        "directness": "0.6379118641317142",
        "directness_lcc": "0.6379118641317142",
        "poi_coverage": "35",
        "components": "1",
        "overlap_biketrack": "1437.9370000000001",
        "overlap_bikeable": "27972.715999999975",
        "efficiency_global": "0.49265005036153875",
        "efficiency_local": "0.29526945031819213",
        "efficiency_global_routed": "0.792281810648108",
        "efficiency_local_routed": "0.26608908211672705"
    },
    {
        "length": "80697.85499999988",
        "length_lcc": "80697.85499999988",
        "coverage": "43.036308104239666",
        "directness": "0.6605083020844353",
        "directness_lcc": "0.6605083020844353",
        "poi_coverage": "35",
        "components": "1",
        "overlap_biketrack": "1437.9370000000001",
        "overlap_bikeable": "27972.715999999975",
        "efficiency_global": "0.49512136828877307",
        "efficiency_local": "0.28993109710716564",
        "efficiency_global_routed": "0.7992826714918805",
        "efficiency_local_routed": "0.23801311374005021"
    },
    {
        "length": "83078.28799999993",
        "length_lcc": "83078.28799999993",
        "coverage": "43.29158789714424",
        "directness": "0.6617912601630354",
        "directness_lcc": "0.6617912601630354",
        "poi_coverage": "35",
        "components": "1",
        "overlap_biketrack": "1437.9370000000001",
        "overlap_bikeable": "29614.919999999995",
        "efficiency_global": "0.5004058909322281",
        "efficiency_local": "0.32212368761739596",
        "efficiency_global_routed": "0.8002010134904056",
        "efficiency_local_routed": "0.21809168124941508"
    },
    {
        "length": "84799.26399999998",
        "length_lcc": "84799.26399999998",
        "coverage": "43.3393514233449",
        "directness": "0.6724873533992534",
        "directness_lcc": "0.6724873533992534",
        "poi_coverage": "35",
        "components": "1",
        "overlap_biketrack": "1437.9370000000001",
        "overlap_bikeable": "30413.502999999986",
        "efficiency_global": "0.520365241374982",
        "efficiency_local": "0.3566718372465814",
        "efficiency_global_routed": "0.8029829146851878",
        "efficiency_local_routed": "0.17473646824444783"
    },
    {
        "length": "89715.586",
        "length_lcc": "89715.586",
        "coverage": "43.95578684053686",
        "directness": "0.7015182609265364",
        "directness_lcc": "0.7015182609265364",
        "poi_coverage": "35",
        "components": "1",
        "overlap_biketrack": "1437.9370000000001",
        "overlap_bikeable": "31519.705999999976",
        "efficiency_global": "0.5206312950818711",
        "efficiency_local": "0.3677590830310509",
        "efficiency_global_routed": "0.7972482014239834",
        "efficiency_local_routed": "0.17161838833178386"
    },
    {
        "length": "91886.83200000001",
        "length_lcc": "91886.83200000001",
        "coverage": "44.33706566707474",
        "directness": "0.7156460512237004",
        "directness_lcc": "0.7156460512237004",
        "poi_coverage": "35",
        "components": "1",
        "overlap_biketrack": "1437.9370000000001",
        "overlap_bikeable": "32167.971999999972",
        "efficiency_global": "0.5294727649212917",
        "efficiency_local": "0.38246730284834257",
        "efficiency_global_routed": "0.80236082237768",
        "efficiency_local_routed": "0.16589777538739106"
    },
    {
        "length": "94194.17700000003",
        "length_lcc": "94194.17700000003",
        "coverage": "44.3415749502318",
        "directness": "0.7050501357761306",
        "directness_lcc": "0.7050501357761306",
        "poi_coverage": "35",
        "components": "1",
        "overlap_biketrack": "1437.9370000000001",
        "overlap_bikeable": "32866.26299999996",
        "efficiency_global": "0.5374581604839492",
        "efficiency_local": "0.4202676452116747",
        "efficiency_global_routed": "0.8041808863332321",
        "efficiency_local_routed": "0.17508782560411237"
    },
    {
        "length": "102656.09899999997",
        "length_lcc": "102656.09899999997",
        "coverage": "48.818499845793326",
        "directness": "0.6925570319286662",
        "directness_lcc": "0.6925570319286662",
        "poi_coverage": "35",
        "components": "1",
        "overlap_biketrack": "2369.7280000000005",
        "overlap_bikeable": "35432.311",
        "efficiency_global": "0.53882473281264",
        "efficiency_local": "0.4440913757863432",
        "efficiency_global_routed": "0.8032202088447008",
        "efficiency_local_routed": "0.1697279942080681"
    },
    {
        "length": "102706.63699999996",
        "length_lcc": "102706.63699999996",
        "coverage": "48.81849984579936",
        "directness": "0.6965817388639743",
        "directness_lcc": "0.6965817388639743",
        "poi_coverage": "35",
        "components": "1",
        "overlap_biketrack": "2369.7280000000005",
        "overlap_bikeable": "35482.849",
        "efficiency_global": "0.5463377378219528",
        "efficiency_local": "0.4634963698702644",
        "efficiency_global_routed": "0.8151830680969386",
        "efficiency_local_routed": "0.1876046493783503"
    },
    {
        "length": "104878.32100000001",
        "length_lcc": "104878.32100000001",
        "coverage": "48.8184998497862",
        "directness": "0.7035168483943595",
        "directness_lcc": "0.7035168483943595",
        "poi_coverage": "35",
        "components": "1",
        "overlap_biketrack": "2369.7280000000005",
        "overlap_bikeable": "36523.94300000001",
        "efficiency_global": "0.5584560592074426",
        "efficiency_local": "0.49753474738707815",
        "efficiency_global_routed": "0.8178036026532542",
        "efficiency_local_routed": "0.18069577107591536"
    },
    {
        "length": "104929.66400000002",
        "length_lcc": "104929.66400000002",
        "coverage": "48.81849984977227",
        "directness": "0.6991636396958566",
        "directness_lcc": "0.6991636396958566",
        "poi_coverage": "35",
        "components": "1",
        "overlap_biketrack": "2369.7280000000005",
        "overlap_bikeable": "36575.28600000001",
        "efficiency_global": "0.5282016941259428",
        "efficiency_local": "0.5029051044011728",
        "efficiency_global_routed": "0.8099150957577914",
        "efficiency_local_routed": "0.17872139759464484"
    },
    {
        "length": "107376.71300000006",
        "length_lcc": "107376.71300000006",
        "coverage": "49.23208679479043",
        "directness": "0.720740756104906",
        "directness_lcc": "0.720740756104906",
        "poi_coverage": "35",
        "components": "1",
        "overlap_biketrack": "2369.7280000000005",
        "overlap_bikeable": "37592.828",
        "efficiency_global": "0.532370385296591",
        "efficiency_local": "0.5396936545088478",
        "efficiency_global_routed": "0.8108881848628442",
        "efficiency_local_routed": "0.18331052664388686"
    },
    {
        "length": "108250.78700000011",
        "length_lcc": "108250.78700000011",
        "coverage": "49.23208679588103",
        "directness": "0.7058835677812343",
        "directness_lcc": "0.7058835677812343",
        "poi_coverage": "35",
        "components": "1",
        "overlap_biketrack": "2369.7280000000005",
        "overlap_bikeable": "38458.94599999999",
        "efficiency_global": "0.5573897009642982",
        "efficiency_local": "0.5608291505064007",
        "efficiency_global_routed": "0.8095164561591297",
        "efficiency_local_routed": "0.18012251748486274"
    },
    {
        "length": "108250.78700000011",
        "length_lcc": "108250.78700000011",
        "coverage": "49.23208679588103",
        "directness": "0.7046197197420504",
        "directness_lcc": "0.7046197197420504",
        "poi_coverage": "35",
        "components": "1",
        "overlap_biketrack": "2369.7280000000005",
        "overlap_bikeable": "38458.94599999999",
        "efficiency_global": "0.5575743356100924",
        "efficiency_local": "0.5722741500871302",
        "efficiency_global_routed": "0.8095164561591297",
        "efficiency_local_routed": "0.18012251748486274"
    },
    {
        "length": "108566.4280000001",
        "length_lcc": "108566.4280000001",
        "coverage": "49.23208679742909",
        "directness": "0.7066043368605093",
        "directness_lcc": "0.7066043368605093",
        "poi_coverage": "35",
        "components": "1",
        "overlap_biketrack": "2369.7280000000005",
        "overlap_bikeable": "38774.58699999999",
        "efficiency_global": "0.5524145063916972",
        "efficiency_local": "0.5804829597805095",
        "efficiency_global_routed": "0.8072725091124233",
        "efficiency_local_routed": "0.17856973716171737"
    },
    {
        "length": "109202.98000000014",
        "length_lcc": "109202.98000000014",
        "coverage": "49.232086798650855",
        "directness": "0.7114096615670682",
        "directness_lcc": "0.7114096615670682",
        "poi_coverage": "35",
        "components": "1",
        "overlap_biketrack": "2404.614000000001",
        "overlap_bikeable": "38893.16299999999",
        "efficiency_global": "0.5628624377690985",
        "efficiency_local": "0.5858834903677212",
        "efficiency_global_routed": "0.8090425561652663",
        "efficiency_local_routed": "0.21032346323835605"
    },
    {
        "length": "109536.97900000015",
        "length_lcc": "109536.97900000015",
        "coverage": "49.232086798693814",
        "directness": "0.7101352344999592",
        "directness_lcc": "0.7101352344999592",
        "poi_coverage": "35",
        "components": "1",
        "overlap_biketrack": "2404.614000000001",
        "overlap_bikeable": "39227.16199999996",
        "efficiency_global": "0.5681570073680934",
        "efficiency_local": "0.5951015048670384",
        "efficiency_global_routed": "0.8047042580666712",
        "efficiency_local_routed": "0.21654745688837346"
    },
    {
        "length": "109616.59500000016",
        "length_lcc": "109616.59500000016",
        "coverage": "49.232086798822905",
        "directness": "0.7136599645146002",
        "directness_lcc": "0.7136599645146002",
        "poi_coverage": "35",
        "components": "1",
        "overlap_biketrack": "2404.614000000001",
        "overlap_bikeable": "39306.77799999996",
        "efficiency_global": "0.5899407807447543",
        "efficiency_local": "0.6159992652645117",
        "efficiency_global_routed": "0.8053445779457461",
        "efficiency_local_routed": "0.2238318923608945"
    }
]