[
    {
        "length": "4670.147000000001",
        "length_lcc": "3545.1610000000023",
        "coverage": "5.762516295954674",
        "directness": "0.7423906584705934",
        "directness_lcc": "0.73593626560976",
        "poi_coverage": "12",
        "components": "2",
        "overlap_biketrack": "40.736000000000004",
        "overlap_bikeable": "1426.158",
        "efficiency_global": "0.31766800065453815",
        "efficiency_local": "0.0",
        "efficiency_global_routed": "0.23654736273315022",
        "efficiency_local_routed": "0"
    },
    {
        "length": "7150.867999999999",
        "length_lcc": "5658.328999999999",
        "coverage": "8.03822500038332",
        "directness": "0.6743334084037825",
        "directness_lcc": "0.6687671571041335",
        "poi_coverage": "14",
        "components": "2",
        "overlap_biketrack": "179.73499999999999",
        "overlap_bikeable": "1937.1150000000002",
        "efficiency_global": "0.40327059155509976",
        "efficiency_local": "0.0",
        "efficiency_global_routed": "0.3094261477531741",
        "efficiency_local_routed": "0"
    },
    {
        "length": "10052.799000000003",
        "length_lcc": "10052.799000000003",
        "coverage": "9.755045354466148",
        "directness": "0.5614811706215255",
        "directness_lcc": "0.5614811706215255",
        "poi_coverage": "16",
        "components": "1",
        "overlap_biketrack": "179.73499999999999",
        "overlap_bikeable": "3235.5670000000005",
        "efficiency_global": "0.5877691622348147",
        "efficiency_local": "0.0",
        "efficiency_global_routed": "0.9092397241578426",
        "efficiency_local_routed": "0.0"
    },
    {
        "length": "12627.332000000015",
        "length_lcc": "12627.332000000015",
        "coverage": "11.742125481754487",
        "directness": "0.5458385204719229",
        "directness_lcc": "0.5458385204719229",
        "poi_coverage": "20",
        "components": "1",
        "overlap_biketrack": "510.384",
        "overlap_bikeable": "4971.420000000001",
        "efficiency_global": "0.5801858415086197",
        "efficiency_local": "0.0",
        "efficiency_global_routed": "0.8919142473369036",
        "efficiency_local_routed": "0.0"
    },
    {
        "length": "17617.775999999994",
        "length_lcc": "17617.775999999994",
        "coverage": "15.351329789505344",
        "directness": "0.5356781007118951",
        "directness_lcc": "0.5356781007118951",
        "poi_coverage": "22",
        "components": "1",
        "overlap_biketrack": "510.384",
        "overlap_bikeable": "5675.832999999997",
        "efficiency_global": "0.5274608656981424",
        "efficiency_local": "0.0",
        "efficiency_global_routed": "0.8563888765557556",
        "efficiency_local_routed": "0.0"
    },
    {
        "length": "23505.13200000001",
        "length_lcc": "23505.13200000001",
        "coverage": "19.077880464278774",
        "directness": "0.615424052944471",
        "directness_lcc": "0.615424052944471",
        "poi_coverage": "24",
        "components": "1",
        "overlap_biketrack": "754.4289999999999",
        "overlap_bikeable": "7836.752000000004",
        "efficiency_global": "0.5180686068508538",
        "efficiency_local": "0.0",
        "efficiency_global_routed": "0.8393923325148661",
        "efficiency_local_routed": "0.0"
    },
    {
        "length": "26770.484",
        "length_lcc": "26770.484",
        "coverage": "20.536421459096484",
        "directness": "0.642624387647469",
        "directness_lcc": "0.642624387647469",
        "poi_coverage": "25",
        "components": "1",
        "overlap_biketrack": "877.5559999999998",
        "overlap_bikeable": "9403.772000000003",
        "efficiency_global": "0.5269780174261589",
        "efficiency_local": "0.12412636445800453",
        "efficiency_global_routed": "0.8134141267197691",
        "efficiency_local_routed": "0.0"
    },
    {
        "length": "28876.834999999992",
        "length_lcc": "28535.595999999998",
        "coverage": "23.290698749287277",
        "directness": "0.6385189083613936",
        "directness_lcc": "0.6399104330662508",
        "poi_coverage": "28",
        "components": "2",
        "overlap_biketrack": "877.5559999999998",
        "overlap_bikeable": "10225.776000000003",
        "efficiency_global": "0.4663264155642864",
        "efficiency_local": "0.11033454618489291",
        "efficiency_global_routed": "0.7625270109577974",
        "efficiency_local_routed": "0.0"
    },
    {
        "length": "36453.47799999997",
        "length_lcc": "36453.47799999997",
        "coverage": "27.388235274556273",
        "directness": "0.6743128360609273",
        "directness_lcc": "0.6743128360609273",
        "poi_coverage": "29",
        "components": "1",
        "overlap_biketrack": "877.5559999999998",
        "overlap_bikeable": "12003.60600000002",
        "efficiency_global": "0.5208254159188873",
        "efficiency_local": "0.06916979610251851",
        "efficiency_global_routed": "0.8991718383936704",
        "efficiency_local_routed": "0.22339821308476215"
    },
    {
        "length": "38561.992999999995",
        "length_lcc": "38561.992999999995",
        "coverage": "28.045129720303578",
        "directness": "0.6641961757748681",
        "directness_lcc": "0.6641961757748681",
        "poi_coverage": "30",
        "components": "1",
        "overlap_biketrack": "877.5559999999998",
        "overlap_bikeable": "12849.450000000015",
        "efficiency_global": "0.4472967864317047",
        "efficiency_local": "0.04919182554774922",
        "efficiency_global_routed": "0.8536888967448566",
        "efficiency_local_routed": "0.20314848022885534"
    },
    {
        "length": "38561.992999999995",
        "length_lcc": "38561.992999999995",
        "coverage": "28.045129720303578",
        "directness": "0.6701816779164635",
        "directness_lcc": "0.6701816779164635",
        "poi_coverage": "30",
        "components": "1",
        "overlap_biketrack": "877.5559999999998",
        "overlap_bikeable": "12849.450000000015",
        "efficiency_global": "0.4472967864317047",
        "efficiency_local": "0.04919182554774922",
        "efficiency_global_routed": "0.8536888967448566",
        "efficiency_local_routed": "0.20314848022885534"
    },
    {
        "length": "43202.52599999998",
        "length_lcc": "43202.52599999998",
        "coverage": "30.209188123337555",
        "directness": "0.6849733696301996",
        "directness_lcc": "0.6849733696301996",
        "poi_coverage": "31",
        "components": "1",
        "overlap_biketrack": "877.5559999999998",
        "overlap_bikeable": "13073.794000000016",
        "efficiency_global": "0.4743699639489588",
        "efficiency_local": "0.10818850397526945",
        "efficiency_global_routed": "0.8573664399754325",
        "efficiency_local_routed": "0.1723452896011253"
    },
    {
        "length": "45423.92499999999",
        "length_lcc": "45423.92499999999",
        "coverage": "31.789177176844703",
        "directness": "0.6902656430150814",
        "directness_lcc": "0.6902656430150814",
        "poi_coverage": "32",
        "components": "1",
        "overlap_biketrack": "1119.1399999999999",
        "overlap_bikeable": "13832.515000000014",
        "efficiency_global": "0.4525114818319648",
        "efficiency_local": "0.10046075369132164",
        "efficiency_global_routed": "0.8623034088370278",
        "efficiency_local_routed": "0.1661901006867994"
    },
    {
        "length": "48083.74",
        "length_lcc": "48083.74",
        "coverage": "32.40605169784504",
        "directness": "0.6830337329541043",
        "directness_lcc": "0.6830337329541043",
        "poi_coverage": "32",
        "components": "1",
        "overlap_biketrack": "1187.69",
        "overlap_bikeable": "14141.276000000007",
        "efficiency_global": "0.4619972843767074",
        "efficiency_local": "0.0994574553393886",
        "efficiency_global_routed": "0.8574182162098541",
        "efficiency_local_routed": "0.20931409628242043"
    },
    {
        "length": "52183.26199999996",
        "length_lcc": "52183.26199999996",
        "coverage": "34.93679350785454",
        "directness": "0.6892531952746054",
        "directness_lcc": "0.6892531952746054",
        "poi_coverage": "33",
        "components": "1",
        "overlap_biketrack": "2119.481",
        "overlap_bikeable": "16278.828000000009",
        "efficiency_global": "0.47414681244646645",
        "efficiency_local": "0.1309702631750991",
        "efficiency_global_routed": "0.8536971589045496",
        "efficiency_local_routed": "0.19623196526476916"
    },
    {
        "length": "53076.753999999964",
        "length_lcc": "53076.753999999964",
        "coverage": "35.06512753927802",
        "directness": "0.691572811329338",
        "directness_lcc": "0.691572811329338",
        "poi_coverage": "33",
        "components": "1",
        "overlap_biketrack": "2119.481",
        "overlap_bikeable": "17031.175999999992",
        "efficiency_global": "0.4922049076394795",
        "efficiency_local": "0.14344840946215157",
        "efficiency_global_routed": "0.8517061576767585",
        "efficiency_local_routed": "0.18468890848448863"
    },
    {
        "length": "54083.83499999996",
        "length_lcc": "54083.83499999996",
        "coverage": "35.065141449884656",
        "directness": "0.6988899385561111",
        "directness_lcc": "0.6988899385561111",
        "poi_coverage": "33",
        "components": "1",
        "overlap_biketrack": "2119.481",
        "overlap_bikeable": "17361.116999999995",
        "efficiency_global": "0.5006942603845059",
        "efficiency_local": "0.17420849932959723",
        "efficiency_global_routed": "0.851646449587305",
        "efficiency_local_routed": "0.17399095707525067"
    },
    {
        "length": "59159.25399999995",
        "length_lcc": "59159.25399999995",
        "coverage": "38.166788929230556",
        "directness": "0.7025156921162448",
        "directness_lcc": "0.7025156921162448",
        "poi_coverage": "34",
        "components": "1",
        "overlap_biketrack": "2119.481",
        "overlap_bikeable": "19457.758",
        "efficiency_global": "0.5218828202404358",
        "efficiency_local": "0.18051026798276512",
        "efficiency_global_routed": "0.832531784199733",
        "efficiency_local_routed": "0.17889627492527493"
    },
    {
        "length": "66051.74099999992",
        "length_lcc": "66051.74099999992",
        "coverage": "39.46991162028684",
        "directness": "0.7109706906868704",
        "directness_lcc": "0.7109706906868704",
        "poi_coverage": "35",
        "components": "1",
        "overlap_biketrack": "2191.699",
        "overlap_bikeable": "21485.80299999999",
        "efficiency_global": "0.5268519338322618",
        "efficiency_local": "0.32895650365130485",
        "efficiency_global_routed": "0.8291186874610608",
        "efficiency_local_routed": "0.17396198141975772"
    },
    {
        "length": "66051.74099999992",
        "length_lcc": "66051.74099999992",
        "coverage": "39.46991162028684",
        "directness": "0.7061663290948218",
        "directness_lcc": "0.7061663290948218",
        "poi_coverage": "35",
        "components": "1",
        "overlap_biketrack": "2191.699",
        "overlap_bikeable": "21485.80299999999",
        "efficiency_global": "0.5268519338322618",
        "efficiency_local": "0.32895650365130485",
        "efficiency_global_routed": "0.8291186874610608",
        "efficiency_local_routed": "0.17396198141975772"
    },
    {
        "length": "66051.74099999992",
        "length_lcc": "66051.74099999992",
        "coverage": "39.46991162028684",
        "directness": "0.7066243682459524",
        "directness_lcc": "0.7066243682459524",
        "poi_coverage": "35",
        "components": "1",
        "overlap_biketrack": "2191.699",
        "overlap_bikeable": "21485.80299999999",
        "efficiency_global": "0.5268519338322618",
        "efficiency_local": "0.32895650365130485",
        "efficiency_global_routed": "0.8291186874610608",
        "efficiency_local_routed": "0.17396198141975772"
    },
    {
        "length": "69575.62000000002",
        "length_lcc": "69575.62000000002",
        "coverage": "39.90064063798532",
        "directness": "0.7111738038262693",
        "directness_lcc": "0.7111738038262693",
        "poi_coverage": "35",
        "components": "1",
        "overlap_biketrack": "2191.699",
        "overlap_bikeable": "23560.62399999997",
        "efficiency_global": "0.5323356526191525",
        "efficiency_local": "0.4709461057222631",
        "efficiency_global_routed": "0.8246598203698164",
        "efficiency_local_routed": "0.1401417789756247"
    },
    {
        "length": "70208.79500000001",
        "length_lcc": "70208.79500000001",
        "coverage": "39.9733154317227",
        "directness": "0.7164587795113839",
        "directness_lcc": "0.7164587795113839",
        "poi_coverage": "35",
        "components": "1",
        "overlap_biketrack": "2191.699",
        "overlap_bikeable": "23742.99399999997",
        "efficiency_global": "0.5325081298253658",
        "efficiency_local": "0.49448631726964437",
        "efficiency_global_routed": "0.8240584650171942",
        "efficiency_local_routed": "0.1573083191732624"
    },
    {
        "length": "73747.713",
        "length_lcc": "73747.713",
        "coverage": "40.634330361517314",
        "directness": "0.7082827848165671",
        "directness_lcc": "0.7082827848165671",
        "poi_coverage": "35",
        "components": "1",
        "overlap_biketrack": "2191.699000000001",
        "overlap_bikeable": "24719.99999999997",
        "efficiency_global": "0.5408515396441902",
        "efficiency_local": "0.4763459364695762",
        "efficiency_global_routed": "0.8259509954907652",
        "efficiency_local_routed": "0.17359358981154424"
    },
    {
        "length": "76138.14499999996",
        "length_lcc": "76138.14499999996",
        "coverage": "40.680727740452426",
        "directness": "0.7132101905364281",
        "directness_lcc": "0.7132101905364281",
        "poi_coverage": "35",
        "components": "1",
        "overlap_biketrack": "2191.699000000001",
        "overlap_bikeable": "25613.60799999996",
        "efficiency_global": "0.5481971861297492",
        "efficiency_local": "0.4512059301352424",
        "efficiency_global_routed": "0.8266405537918439",
        "efficiency_local_routed": "0.1835711621362328"
    },
    {
        "length": "77498.66600000003",
        "length_lcc": "77498.66600000003",
        "coverage": "40.76299994445673",
        "directness": "0.7241678402410182",
        "directness_lcc": "0.7241678402410182",
        "poi_coverage": "35",
        "components": "1",
        "overlap_biketrack": "2191.699000000001",
        "overlap_bikeable": "26885.120999999974",
        "efficiency_global": "0.5629435816332862",
        "efficiency_local": "0.4598689033881216",
        "efficiency_global_routed": "0.8232499239780816",
        "efficiency_local_routed": "0.20177466110219375"
    },
    {
        "length": "78661.86299999997",
        "length_lcc": "78661.86299999997",
        "coverage": "40.7629999447534",
        "directness": "0.7200844691327173",
        "directness_lcc": "0.7200844691327173",
        "poi_coverage": "35",
        "components": "1",
        "overlap_biketrack": "2191.699000000001",
        "overlap_bikeable": "27851.856999999967",
        "efficiency_global": "0.5686569389556374",
        "efficiency_local": "0.47920674191635865",
        "efficiency_global_routed": "0.8109387776637095",
        "efficiency_local_routed": "0.2245449133188069"
    },
    {
        "length": "81417.7119999999",
        "length_lcc": "81417.7119999999",
        "coverage": "41.268432719754315",
        "directness": "0.7119543249707194",
        "directness_lcc": "0.7119543249707194",
        "poi_coverage": "35",
        "components": "1",
        "overlap_biketrack": "2191.699000000001",
        "overlap_bikeable": "29833.842999999953",
        "efficiency_global": "0.5781795223369602",
        "efficiency_local": "0.5010155195206939",
        "efficiency_global_routed": "0.8113013443272004",
        "efficiency_local_routed": "0.25165116225613543"
    },
    {
        "length": "82520.59199999996",
        "length_lcc": "82520.59199999996",
        "coverage": "41.33174496731134",
        "directness": "0.7074044683661698",
        "directness_lcc": "0.7074044683661698",
        "poi_coverage": "35",
        "components": "1",
        "overlap_biketrack": "2191.699000000001",
        "overlap_bikeable": "30897.347999999965",
        "efficiency_global": "0.5787650086829584",
        "efficiency_local": "0.5163778801165405",
        "efficiency_global_routed": "0.8166982936828763",
        "efficiency_local_routed": "0.24612677960896862"
    },
    {
        "length": "87099.30200000004",
        "length_lcc": "87099.30200000004",
        "coverage": "41.47424237588002",
        "directness": "0.7225542338038938",
        "directness_lcc": "0.7225542338038938",
        "poi_coverage": "35",
        "components": "1",
        "overlap_biketrack": "2191.699000000001",
        "overlap_bikeable": "31327.913999999953",
        "efficiency_global": "0.5838590639316691",
        "efficiency_local": "0.6154796043952934",
        "efficiency_global_routed": "0.8174077812852163",
        "efficiency_local_routed": "0.26380784157344317"
    },
    {
        "length": "87099.30200000004",
        "length_lcc": "87099.30200000004",
        "coverage": "41.47424237588002",
        "directness": "0.7214920628189546",
        "directness_lcc": "0.7214920628189546",
        "poi_coverage": "35",
        "components": "1",
        "overlap_biketrack": "2191.699000000001",
        "overlap_bikeable": "31327.913999999953",
        "efficiency_global": "0.5838590639316691",
        "efficiency_local": "0.6154796043952934",
        "efficiency_global_routed": "0.8174077812852163",
        "efficiency_local_routed": "0.26380784157344317"
    },
    {
        "length": "87099.30200000004",
        "length_lcc": "87099.30200000004",
        "coverage": "41.47424237588002",
        "directness": "0.7199537227669002",
        "directness_lcc": "0.7199537227669002",
        "poi_coverage": "35",
        "components": "1",
        "overlap_biketrack": "2191.699000000001",
        "overlap_bikeable": "31327.913999999953",
        "efficiency_global": "0.5838590639316691",
        "efficiency_local": "0.6154796043952934",
        "efficiency_global_routed": "0.8174077812852163",
        "efficiency_local_routed": "0.26380784157344317"
    },
    {
        "length": "91156.58700000012",
        "length_lcc": "91156.58700000012",
        "coverage": "43.477344896996534",
        "directness": "0.7213018576786909",
        "directness_lcc": "0.7213018576786909",
        "poi_coverage": "35",
        "components": "1",
        "overlap_biketrack": "2308.248000000001",
        "overlap_bikeable": "32223.679999999957",
        "efficiency_global": "0.5852261398949309",
        "efficiency_local": "0.6240027917568844",
        "efficiency_global_routed": "0.8214149435579395",
        "efficiency_local_routed": "0.25279055752702934"
    },
    {
        "length": "97910.34500000009",
        "length_lcc": "97910.34500000009",
        "coverage": "47.192931669608065",
        "directness": "0.7083127404813326",
        "directness_lcc": "0.7083127404813326",
        "poi_coverage": "35",
        "components": "1",
        "overlap_biketrack": "2308.248000000001",
        "overlap_bikeable": "34553.405",
        "efficiency_global": "0.5878137744778704",
        "efficiency_local": "0.6077485246827651",
        "efficiency_global_routed": "0.8201735230021066",
        "efficiency_local_routed": "0.24808665750367195"
    },
    {
        "length": "109616.59500000016",
        "length_lcc": "109616.59500000016",
        "coverage": "49.23208676029199",
        "directness": "0.7076483203029219",
        "directness_lcc": "0.7076483203029219",
        "poi_coverage": "35",
        "components": "1",
        "overlap_biketrack": "2404.614000000001",
        "overlap_bikeable": "39306.77799999996",
        "efficiency_global": "0.5899407807447543",
        "efficiency_local": "0.6075476673340069",
        "efficiency_global_routed": "0.8053445779457461",
        "efficiency_local_routed": "0.2238318923608945"
    },
    {
        "length": "109616.59500000016",
        "length_lcc": "109616.59500000016",
        "coverage": "49.23208676029199",
        "directness": "0.711559048361869",
        "directness_lcc": "0.711559048361869",
        "poi_coverage": "35",
        "components": "1",
        "overlap_biketrack": "2404.614000000001",
        "overlap_bikeable": "39306.77799999996",
        "efficiency_global": "0.5899407807447543",
        "efficiency_local": "0.6075476673340069",
        "efficiency_global_routed": "0.8053445779457461",
        "efficiency_local_routed": "0.2238318923608945"
    },
    {
        "length": "109616.59500000016",
        "length_lcc": "109616.59500000016",
        "coverage": "49.23208676029199",
        "directness": "0.7145808259245191",
        "directness_lcc": "0.7145808259245191",
        "poi_coverage": "35",
        "components": "1",
        "overlap_biketrack": "2404.614000000001",
        "overlap_bikeable": "39306.77799999996",
        "efficiency_global": "0.5899407807447543",
        "efficiency_local": "0.6075476673340069",
        "efficiency_global_routed": "0.8053445779457461",
        "efficiency_local_routed": "0.2238318923608945"
    },
    {
        "length": "109616.59500000016",
        "length_lcc": "109616.59500000016",
        "coverage": "49.23208676029199",
        "directness": "0.7195842016073534",
        "directness_lcc": "0.7195842016073534",
        "poi_coverage": "35",
        "components": "1",
        "overlap_biketrack": "2404.614000000001",
        "overlap_bikeable": "39306.77799999996",
        "efficiency_global": "0.5899407807447543",
        "efficiency_local": "0.6075476673340069",
        "efficiency_global_routed": "0.8053445779457461",
        "efficiency_local_routed": "0.2238318923608945"
    },
    {
        "length": "109616.59500000016",
        "length_lcc": "109616.59500000016",
        "coverage": "49.23208676029199",
        "directness": "0.711625617821621",
        "directness_lcc": "0.711625617821621",
        "poi_coverage": "35",
        "components": "1",
        "overlap_biketrack": "2404.614000000001",
        "overlap_bikeable": "39306.77799999996",
        "efficiency_global": "0.5899407807447543",
        "efficiency_local": "0.6075476673340069",
        "efficiency_global_routed": "0.8053445779457461",
        "efficiency_local_routed": "0.2238318923608945"
    },
    {
        "length": "109616.59500000016",
        "length_lcc": "109616.59500000016",
        "coverage": "49.23208676029199",
        "directness": "0.7101871846273686",
        "directness_lcc": "0.7101871846273686",
        "poi_coverage": "35",
        "components": "1",
        "overlap_biketrack": "2404.614000000001",
        "overlap_bikeable": "39306.77799999996",
        "efficiency_global": "0.5899407807447543",
        "efficiency_local": "0.6159992652645117",
        "efficiency_global_routed": "0.8053445779457461",
        "efficiency_local_routed": "0.2238318923608945"
    }
]