[
    {
        "length": "0",
        "length_lcc": "0",
        "coverage": "0",
        "directness": "0",
        "directness_lcc": "0",
        "poi_coverage": "0",
        "components": "0",
        "overlap_biketrack": "0",
        "overlap_bikeable": "0",
        "efficiency_global": "0",
        "efficiency_local": "0",
        "efficiency_global_routed": "0",
        "efficiency_local_routed": "0"
    },
    {
        "length": "2412.1199999999994",
        "length_lcc": "2412.1199999999994",
        "coverage": "2.794343945854529",
        "directness": "0.6705821619117069",
        "directness_lcc": "0.6705821619117069",
        "poi_coverage": "2",
        "components": "1",
        "overlap_biketrack": "0",
        "overlap_bikeable": "349.439",
        "efficiency_global": "0.35744135203570954",
        "efficiency_local": "0",
        "efficiency_global_routed": "0.6993031893080082",
        "efficiency_local_routed": "0"
    },
    {
        "length": "9562.948000000008",
        "length_lcc": "9562.948000000008",
        "coverage": "7.582992679755762",
        "directness": "0.6333068459867045",
        "directness_lcc": "0.6333068459867045",
        "poi_coverage": "4",
        "components": "1",
        "overlap_biketrack": "0",
        "overlap_bikeable": "399.4930000000001",
        "efficiency_global": "0.7272674229833288",
        "efficiency_local": "0.619012328704821",
        "efficiency_global_routed": "0.8118097228568464",
        "efficiency_local_routed": "0.0"
    },
    {
        "length": "15666.655000000012",
        "length_lcc": "15666.655000000012",
        "coverage": "11.174918613037516",
        "directness": "0.6271275994441973",
        "directness_lcc": "0.6271275994441973",
        "poi_coverage": "5",
        "components": "1",
        "overlap_biketrack": "0",
        "overlap_bikeable": "836.2199999999998",
        "efficiency_global": "0.7491766601969864",
        "efficiency_local": "0.30103368016157217",
        "efficiency_global_routed": "0.9046031916471162",
        "efficiency_local_routed": "0.10719399033096062"
    },
    {
        "length": "21235.356000000007",
        "length_lcc": "21235.356000000007",
        "coverage": "11.955505410302948",
        "directness": "0.6085051114133446",
        "directness_lcc": "0.6085051114133446",
        "poi_coverage": "6",
        "components": "1",
        "overlap_biketrack": "0",
        "overlap_bikeable": "946.1429999999999",
        "efficiency_global": "0.7548389932179995",
        "efficiency_local": "0.7519166221306247",
        "efficiency_global_routed": "0.8974938337382475",
        "efficiency_local_routed": "0.07656713595068616"
    },
    {
        "length": "24796.471000000012",
        "length_lcc": "24796.471000000012",
        "coverage": "14.025060346326683",
        "directness": "0.6396517462918415",
        "directness_lcc": "0.6396517462918415",
        "poi_coverage": "7",
        "components": "1",
        "overlap_biketrack": "0",
        "overlap_bikeable": "946.1429999999999",
        "efficiency_global": "0.7634174156823422",
        "efficiency_local": "0.7530823526366152",
        "efficiency_global_routed": "0.8929787558302354",
        "efficiency_local_routed": "0.06990912412888736"
    },
    {
        "length": "29238.857",
        "length_lcc": "29238.857",
        "coverage": "16.70236908367559",
        "directness": "0.644500186223719",
        "directness_lcc": "0.644500186223719",
        "poi_coverage": "8",
        "components": "1",
        "overlap_biketrack": "0",
        "overlap_bikeable": "1044.7969999999998",
        "efficiency_global": "0.7493832000951439",
        "efficiency_local": "0.7537339705161524",
        "efficiency_global_routed": "0.9042846750933488",
        "efficiency_local_routed": "0.059745529785968685"
    },
    {
        "length": "31300.426999999996",
        "length_lcc": "31300.426999999996",
        "coverage": "18.533715502560945",
        "directness": "0.6630924164000263",
        "directness_lcc": "0.6630924164000263",
        "poi_coverage": "9",
        "components": "1",
        "overlap_biketrack": "0",
        "overlap_bikeable": "1044.7969999999998",
        "efficiency_global": "0.7427453334933842",
        "efficiency_local": "0.7275207686390915",
        "efficiency_global_routed": "0.8997397286962456",
        "efficiency_local_routed": "0.05744762479420066"
    },
    {
        "length": "37558.95199999998",
        "length_lcc": "37558.95199999998",
        "coverage": "21.175666083181024",
        "directness": "0.6529917703903794",
        "directness_lcc": "0.6529917703903794",
        "poi_coverage": "10",
        "components": "1",
        "overlap_biketrack": "0",
        "overlap_bikeable": "1044.7969999999998",
        "efficiency_global": "0.7304156440100544",
        "efficiency_local": "0.7370369063586016",
        "efficiency_global_routed": "0.8807710333832387",
        "efficiency_local_routed": "0.10484268451360707"
    },
    {
        "length": "46975.24499999995",
        "length_lcc": "46975.24499999995",
        "coverage": "26.592771678765544",
        "directness": "0.6821944079640857",
        "directness_lcc": "0.6821944079640857",
        "poi_coverage": "12",
        "components": "1",
        "overlap_biketrack": "0",
        "overlap_bikeable": "1044.7969999999998",
        "efficiency_global": "0.7221272524369341",
        "efficiency_local": "0.7058397741857884",
        "efficiency_global_routed": "0.878157267728027",
        "efficiency_local_routed": "0.13161497047704637"
    },
    {
        "length": "50813.852999999945",
        "length_lcc": "50813.852999999945",
        "coverage": "29.088621369476005",
        "directness": "0.643261308318442",
        "directness_lcc": "0.643261308318442",
        "poi_coverage": "13",
        "components": "1",
        "overlap_biketrack": "0",
        "overlap_bikeable": "1044.7969999999998",
        "efficiency_global": "0.702601947508441",
        "efficiency_local": "0.7112417699421603",
        "efficiency_global_routed": "0.8706328625082426",
        "efficiency_local_routed": "0.14326766789802228"
    },
    {
        "length": "55184.073999999935",
        "length_lcc": "55184.073999999935",
        "coverage": "31.685748090034853",
        "directness": "0.6495100034397259",
        "directness_lcc": "0.6495100034397259",
        "poi_coverage": "14",
        "components": "1",
        "overlap_biketrack": "0",
        "overlap_bikeable": "1728.9280000000003",
        "efficiency_global": "0.7097186596115954",
        "efficiency_local": "0.7071080204315472",
        "efficiency_global_routed": "0.8665861474352822",
        "efficiency_local_routed": "0.15314494048577945"
    },
    {
        "length": "60658.51199999991",
        "length_lcc": "60658.51199999991",
        "coverage": "34.23736105864009",
        "directness": "0.663410410716645",
        "directness_lcc": "0.663410410716645",
        "poi_coverage": "15",
        "components": "1",
        "overlap_biketrack": "0",
        "overlap_bikeable": "4490.174999999998",
        "efficiency_global": "0.7046535620108999",
        "efficiency_local": "0.7044982073996902",
        "efficiency_global_routed": "0.8580481699910167",
        "efficiency_local_routed": "0.1368820727681951"
    },
    {
        "length": "67964.72699999987",
        "length_lcc": "67964.72699999987",
        "coverage": "38.15307146461846",
        "directness": "0.6662559863252552",
        "directness_lcc": "0.6662559863252552",
        "poi_coverage": "16",
        "components": "1",
        "overlap_biketrack": "0",
        "overlap_bikeable": "4490.174999999998",
        "efficiency_global": "0.7067214865513254",
        "efficiency_local": "0.7023092086663104",
        "efficiency_global_routed": "0.8558457217797276",
        "efficiency_local_routed": "0.17222707988469166"
    },
    {
        "length": "74880.62199999967",
        "length_lcc": "74880.62199999967",
        "coverage": "41.26593218996145",
        "directness": "0.6706435706740855",
        "directness_lcc": "0.6706435706740855",
        "poi_coverage": "17",
        "components": "1",
        "overlap_biketrack": "0",
        "overlap_bikeable": "5442.151000000002",
        "efficiency_global": "0.7027602131058552",
        "efficiency_local": "0.6950603824093956",
        "efficiency_global_routed": "0.8485548904768433",
        "efficiency_local_routed": "0.17392092742355264"
    },
    {
        "length": "78450.90599999973",
        "length_lcc": "78450.90599999973",
        "coverage": "42.967096500429435",
        "directness": "0.6768193728037345",
        "directness_lcc": "0.6768193728037345",
        "poi_coverage": "18",
        "components": "1",
        "overlap_biketrack": "0",
        "overlap_bikeable": "5442.151000000002",
        "efficiency_global": "0.7092054066110575",
        "efficiency_local": "0.6915058467145996",
        "efficiency_global_routed": "0.8475083474811504",
        "efficiency_local_routed": "0.17120341293255964"
    },
    {
        "length": "85607.35799999973",
        "length_lcc": "85607.35799999973",
        "coverage": "46.63229324822926",
        "directness": "0.6712670477112559",
        "directness_lcc": "0.6712670477112559",
        "poi_coverage": "19",
        "components": "1",
        "overlap_biketrack": "0",
        "overlap_bikeable": "5442.151000000002",
        "efficiency_global": "0.7095509289634745",
        "efficiency_local": "0.6896756546541524",
        "efficiency_global_routed": "0.8438498410474811",
        "efficiency_local_routed": "0.14812882683193662"
    },
    {
        "length": "89053.34999999974",
        "length_lcc": "89053.34999999974",
        "coverage": "48.48916743443145",
        "directness": "0.6766298616244866",
        "directness_lcc": "0.6766298616244866",
        "poi_coverage": "20",
        "components": "1",
        "overlap_biketrack": "0",
        "overlap_bikeable": "5878.5650000000005",
        "efficiency_global": "0.708659480078796",
        "efficiency_local": "0.6994654046052565",
        "efficiency_global_routed": "0.8424781526167531",
        "efficiency_local_routed": "0.15929318945131815"
    },
    {
        "length": "99719.8629999997",
        "length_lcc": "99719.8629999997",
        "coverage": "54.11923797232459",
        "directness": "0.6791230708417677",
        "directness_lcc": "0.6791230708417677",
        "poi_coverage": "22",
        "components": "1",
        "overlap_biketrack": "0",
        "overlap_bikeable": "10971.810000000007",
        "efficiency_global": "0.7001560038004155",
        "efficiency_local": "0.67802846125245",
        "efficiency_global_routed": "0.8378310142098845",
        "efficiency_local_routed": "0.1555645059091795"
    },
    {
        "length": "111848.19799999974",
        "length_lcc": "111848.19799999974",
        "coverage": "59.99556514074657",
        "directness": "0.6693817838484123",
        "directness_lcc": "0.6693817838484123",
        "poi_coverage": "24",
        "components": "1",
        "overlap_biketrack": "0",
        "overlap_bikeable": "11042.218000000008",
        "efficiency_global": "0.6923775304574302",
        "efficiency_local": "0.6774927175441359",
        "efficiency_global_routed": "0.829343810049437",
        "efficiency_local_routed": "0.16378689423018025"
    },
    {
        "length": "116884.57599999965",
        "length_lcc": "116884.57599999965",
        "coverage": "61.647141728158935",
        "directness": "0.6673494771586905",
        "directness_lcc": "0.6673494771586905",
        "poi_coverage": "25",
        "components": "1",
        "overlap_biketrack": "0",
        "overlap_bikeable": "11042.218000000008",
        "efficiency_global": "0.6918303971887114",
        "efficiency_local": "0.6765064703831256",
        "efficiency_global_routed": "0.8211082829557523",
        "efficiency_local_routed": "0.14796214457147774"
    },
    {
        "length": "117780.86299999968",
        "length_lcc": "117780.86299999968",
        "coverage": "61.81645162497413",
        "directness": "0.6744198920789893",
        "directness_lcc": "0.6744198920789893",
        "poi_coverage": "25",
        "components": "1",
        "overlap_biketrack": "0",
        "overlap_bikeable": "11042.218000000006",
        "efficiency_global": "0.6827567389380932",
        "efficiency_local": "0.6801759090990042",
        "efficiency_global_routed": "0.8172872329747489",
        "efficiency_local_routed": "0.15551939962465056"
    },
    {
        "length": "123536.96499999969",
        "length_lcc": "123536.96499999969",
        "coverage": "64.18535957936366",
        "directness": "0.6718428544624817",
        "directness_lcc": "0.6718428544624817",
        "poi_coverage": "26",
        "components": "1",
        "overlap_biketrack": "0",
        "overlap_bikeable": "11509.979",
        "efficiency_global": "0.6862773885603318",
        "efficiency_local": "0.6770750312224867",
        "efficiency_global_routed": "0.8155337056979466",
        "efficiency_local_routed": "0.15623203151898474"
    },
    {
        "length": "131634.51099999974",
        "length_lcc": "131634.51099999974",
        "coverage": "68.57193584366853",
        "directness": "0.6500568431651019",
        "directness_lcc": "0.6500568431651019",
        "poi_coverage": "27",
        "components": "1",
        "overlap_biketrack": "0",
        "overlap_bikeable": "11860.320000000002",
        "efficiency_global": "0.682571744556756",
        "efficiency_local": "0.6776407546741566",
        "efficiency_global_routed": "0.813661074833919",
        "efficiency_local_routed": "0.1513453612200181"
    },
    {
        "length": "133689.34499999986",
        "length_lcc": "133689.34499999986",
        "coverage": "69.82526507562494",
        "directness": "0.6545949273258272",
        "directness_lcc": "0.6545949273258272",
        "poi_coverage": "28",
        "components": "1",
        "overlap_biketrack": "0",
        "overlap_bikeable": "11860.320000000002",
        "efficiency_global": "0.6773760532053714",
        "efficiency_local": "0.6641599325165507",
        "efficiency_global_routed": "0.8205168502471234",
        "efficiency_local_routed": "0.1598561790448728"
    },
    {
        "length": "140268.7729999997",
        "length_lcc": "140268.7729999997",
        "coverage": "71.8457991610106",
        "directness": "0.6473595820463066",
        "directness_lcc": "0.6473595820463066",
        "poi_coverage": "29",
        "components": "1",
        "overlap_biketrack": "0",
        "overlap_bikeable": "11860.320000000002",
        "efficiency_global": "0.6728254022192354",
        "efficiency_local": "0.66996018532488",
        "efficiency_global_routed": "0.8153548164340145",
        "efficiency_local_routed": "0.15804579270743394"
    },
    {
        "length": "147343.41199999963",
        "length_lcc": "147343.41199999963",
        "coverage": "74.29539949942026",
        "directness": "0.6501518695926763",
        "directness_lcc": "0.6501518695926763",
        "poi_coverage": "30",
        "components": "1",
        "overlap_biketrack": "0",
        "overlap_bikeable": "11860.320000000002",
        "efficiency_global": "0.6767351684294708",
        "efficiency_local": "0.6734142525188509",
        "efficiency_global_routed": "0.8238925261426514",
        "efficiency_local_routed": "0.195901660594992"
    },
    {
        "length": "154521.64999999956",
        "length_lcc": "154521.64999999956",
        "coverage": "77.81747043402578",
        "directness": "0.6567025806788234",
        "directness_lcc": "0.6567025806788234",
        "poi_coverage": "31",
        "components": "1",
        "overlap_biketrack": "0",
        "overlap_bikeable": "12203.749000000003",
        "efficiency_global": "0.6748021161778656",
        "efficiency_local": "0.6729189088226554",
        "efficiency_global_routed": "0.821780703596812",
        "efficiency_local_routed": "0.18523509678080163"
    },
    {
        "length": "161018.603",
        "length_lcc": "161018.603",
        "coverage": "80.84770641863231",
        "directness": "0.658511095213852",
        "directness_lcc": "0.658511095213852",
        "poi_coverage": "32",
        "components": "1",
        "overlap_biketrack": "0",
        "overlap_bikeable": "12266.303000000004",
        "efficiency_global": "0.6761086844284077",
        "efficiency_local": "0.6755026662495076",
        "efficiency_global_routed": "0.8194275488724495",
        "efficiency_local_routed": "0.18042117816589784"
    },
    {
        "length": "171076.71100000013",
        "length_lcc": "171076.71100000013",
        "coverage": "84.49270030827458",
        "directness": "0.6619954850258061",
        "directness_lcc": "0.6619954850258061",
        "poi_coverage": "34",
        "components": "1",
        "overlap_biketrack": "0",
        "overlap_bikeable": "12266.303000000004",
        "efficiency_global": "0.679031687999934",
        "efficiency_local": "0.6777805284782606",
        "efficiency_global_routed": "0.809676701237971",
        "efficiency_local_routed": "0.17584589046519256"
    },
    {
        "length": "175897.86000000028",
        "length_lcc": "175897.86000000028",
        "coverage": "87.28187081124895",
        "directness": "0.6735855371217231",
        "directness_lcc": "0.6735855371217231",
        "poi_coverage": "35",
        "components": "1",
        "overlap_biketrack": "0",
        "overlap_bikeable": "13353.570000000005",
        "efficiency_global": "0.6826850760004346",
        "efficiency_local": "0.6794009343516891",
        "efficiency_global_routed": "0.8092829694202845",
        "efficiency_local_routed": "0.1727608748429962"
    },
    {
        "length": "182995.9150000004",
        "length_lcc": "182995.9150000004",
        "coverage": "91.48051022003656",
        "directness": "0.6665217390735155",
        "directness_lcc": "0.6665217390735155",
        "poi_coverage": "36",
        "components": "1",
        "overlap_biketrack": "0",
        "overlap_bikeable": "13353.570000000005",
        "efficiency_global": "0.6825617876155006",
        "efficiency_local": "0.6775707196025008",
        "efficiency_global_routed": "0.8084006277615964",
        "efficiency_local_routed": "0.16881205484658487"
    },
    {
        "length": "189012.42600000044",
        "length_lcc": "189012.42600000044",
        "coverage": "93.47632728649519",
        "directness": "0.672772058909125",
        "directness_lcc": "0.672772058909125",
        "poi_coverage": "37",
        "components": "1",
        "overlap_biketrack": "0",
        "overlap_bikeable": "13353.570000000005",
        "efficiency_global": "0.682178704384118",
        "efficiency_local": "0.6797726612039383",
        "efficiency_global_routed": "0.8070216531525327",
        "efficiency_local_routed": "0.16905202261413968"
    },
    {
        "length": "194505.7310000005",
        "length_lcc": "194505.7310000005",
        "coverage": "96.83657774085937",
        "directness": "0.6763928202762527",
        "directness_lcc": "0.6763928202762527",
        "poi_coverage": "38",
        "components": "1",
        "overlap_biketrack": "0",
        "overlap_bikeable": "15778.45600000001",
        "efficiency_global": "0.6799193923719659",
        "efficiency_local": "0.6765199873063046",
        "efficiency_global_routed": "0.8030708948227905",
        "efficiency_local_routed": "0.1737332477574565"
    },
    {
        "length": "202694.6510000005",
        "length_lcc": "202694.6510000005",
        "coverage": "99.94561384591591",
        "directness": "0.6753013917110562",
        "directness_lcc": "0.6753013917110562",
        "poi_coverage": "39",
        "components": "1",
        "overlap_biketrack": "0",
        "overlap_bikeable": "16187.565000000008",
        "efficiency_global": "0.6801404030810083",
        "efficiency_local": "0.6755045824814706",
        "efficiency_global_routed": "0.7987715939901243",
        "efficiency_local_routed": "0.1822321599850394"
    },
    {
        "length": "216449.85000000047",
        "length_lcc": "216449.85000000047",
        "coverage": "101.84131989730848",
        "directness": "0.6918773414117513",
        "directness_lcc": "0.6918773414117513",
        "poi_coverage": "40",
        "components": "1",
        "overlap_biketrack": "0",
        "overlap_bikeable": "19922.75899999998",
        "efficiency_global": "0.6837071263014053",
        "efficiency_local": "0.679064699156084",
        "efficiency_global_routed": "0.7962395872739154",
        "efficiency_local_routed": "0.17702472231012373"
    },
    {
        "length": "221532.03200000076",
        "length_lcc": "221532.03200000076",
        "coverage": "104.94958350793375",
        "directness": "0.6946289247328309",
        "directness_lcc": "0.6946289247328309",
        "poi_coverage": "41",
        "components": "1",
        "overlap_biketrack": "0",
        "overlap_bikeable": "19922.75899999998",
        "efficiency_global": "0.6851715374675892",
        "efficiency_local": "0.6795205137002733",
        "efficiency_global_routed": "0.7974175155371852",
        "efficiency_local_routed": "0.17156581016840183"
    },
    {
        "length": "228048.25400000054",
        "length_lcc": "228048.25400000054",
        "coverage": "106.98653467139842",
        "directness": "0.6998639249415965",
        "directness_lcc": "0.6998639249415965",
        "poi_coverage": "42",
        "components": "1",
        "overlap_biketrack": "0",
        "overlap_bikeable": "20038.59699999998",
        "efficiency_global": "0.6844818376477136",
        "efficiency_local": "0.6730204917067942",
        "efficiency_global_routed": "0.794280053025561",
        "efficiency_local_routed": "0.1686476869707733"
    },
    {
        "length": "248211.91000000117",
        "length_lcc": "248211.91000000117",
        "coverage": "109.13806604551165",
        "directness": "0.7131426191818087",
        "directness_lcc": "0.7131426191818087",
        "poi_coverage": "43",
        "components": "1",
        "overlap_biketrack": "0",
        "overlap_bikeable": "20385.977999999985",
        "efficiency_global": "0.6867954015318605",
        "efficiency_local": "0.6766991356952311",
        "efficiency_global_routed": "0.8018103383342036",
        "efficiency_local_routed": "0.18758664755785384"
    },
    {
        "length": "255418.33900000117",
        "length_lcc": "255418.33900000117",
        "coverage": "115.40261201290083",
        "directness": "0.7152105890770021",
        "directness_lcc": "0.7152105890770021",
        "poi_coverage": "45",
        "components": "1",
        "overlap_biketrack": "0",
        "overlap_bikeable": "20385.977999999985",
        "efficiency_global": "0.6823954459190124",
        "efficiency_local": "0.6782883713277518",
        "efficiency_global_routed": "0.8013768340730899",
        "efficiency_local_routed": "0.18487447578337154"
    }
]