[
    {
        "network": "bikeable",
        "length": "396791.3930000003",
        "length_lcc": "25751.998",
        "coverage": "227.8524127684006",
        "directness": "0.6635455213047209",
        "directness_lcc": "0.6149316734949635",
        "poi_coverage": "78",
        "components": "965",
        "efficiency_global": "0.12762224099433825",
        "efficiency_local": "0.04101124573705203",
        "efficiency_global_routed": "0.12795010103910914",
        "efficiency_local_routed": "0.026832311409327604"
    },
    {
        "network": "bikeable_offstreet",
        "length": "52016.475999999966",
        "length_lcc": "3158.771000000002",
        "coverage": "83.50731890542751",
        "directness": "0.7175605224099575",
        "directness_lcc": "0.677398746588016",
        "poi_coverage": "24",
        "components": "126",
        "efficiency_global": "0.17186161365672134",
        "efficiency_local": "0.015248250584225513",
        "efficiency_global_routed": "0.35021039092957945",
        "efficiency_local_routed": "0.048342926748248305"
    },
    {
        "network": "biketrack",
        "length": "40.708",
        "length_lcc": "40.708",
        "coverage": "0.8248446050155013",
        "directness": "0.9999886657859713",
        "directness_lcc": "0.9999886657859713",
        "poi_coverage": "0",
        "components": "1",
        "efficiency_global": "0.9999886657859713",
        "efficiency_local": "0",
        "efficiency_global_routed": "0.9999886657859713",
        "efficiency_local_routed": "0"
    },
    {
        "network": "biketrack_onstreet",
        "length": "0",
        "length_lcc": "0",
        "coverage": "0",
        "directness": "0",
        "directness_lcc": "0",
        "poi_coverage": "0",
        "components": "0",
        "efficiency_global": "0",
        "efficiency_local": "0",
        "efficiency_global_routed": "0",
        "efficiency_local_routed": "0"
    },
    {
        "network": "biketrackcarall",
        "length": "20271674.433000837",
        "length_lcc": "20271674.433000837",
        "coverage": "2217.410506284989",
        "directness": "0.8179494136042641",
        "directness_lcc": "0.8179494136042641",
        "poi_coverage": "628",
        "components": "1",
        "efficiency_global": "0.7853745652614489",
        "efficiency_local": "0.030450229513590464",
        "efficiency_global_routed": "0.7818867515502488",
        "efficiency_local_routed": "0.03768049604146884"
    },
    {
        "network": "carall",
        "length": "20271633.725000836",
        "length_lcc": "20271633.725000836",
        "coverage": "2217.410506284989",
        "directness": "0.8248991428991118",
        "directness_lcc": "0.8248991428991118",
        "poi_coverage": "628",
        "components": "1",
        "efficiency_global": "0.792842639151276",
        "efficiency_local": "0.0323592247495218",
        "efficiency_global_routed": "0.7864908175916832",
        "efficiency_local_routed": "0.038560201315594934"
    }
]