{
    "features": [
        [
            {
                "type": "Feature",
                "properties": {
                    "stage": 11
                },
                "geometry": {
                    "type": "GeometryCollection",
                    "geometries": []
                }
            }
        ],
        [
            {
                "type": "Feature",
                "properties": {
                    "stage": 12
                },
                "geometry": {
                    "type": "GeometryCollection",
                    "geometries": []
                }
            }
        ],
        [
            {
                "type": "Feature",
                "properties": {
                    "stage": 13
                },
                "geometry": {
                    "type": "GeometryCollection",
                    "geometries": []
                }
            }
        ],
        [
            {
                "type": "Feature",
                "properties": {
                    "stage": 14
                },
                "geometry": {
                    "type": "GeometryCollection",
                    "geometries": []
                }
            }
        ],
        [
            {
                "type": "Feature",
                "properties": {
                    "stage": 15
                },
                "geometry": {
                    "type": "GeometryCollection",
                    "geometries": []
                }
            }
        ],
        [
            {
                "type": "Feature",
                "properties": {
                    "stage": 16
                },
                "geometry": {
                    "type": "GeometryCollection",
                    "geometries": []
                }
            }
        ],
        [
            {
                "type": "Feature",
                "properties": {
                    "stage": 17
                },
                "geometry": {
                    "type": "GeometryCollection",
                    "geometries": []
                }
            }
        ],
        [
            {
                "type": "Feature",
                "properties": {
                    "stage": 18
                },
                "geometry": {
                    "type": "GeometryCollection",
                    "geometries": []
                }
            }
        ],
        [
            {
                "type": "Feature",
                "properties": {
                    "stage": 19
                },
                "geometry": {
                    "type": "GeometryCollection",
                    "geometries": []
                }
            }
        ],
        [
            {
                "type": "Feature",
                "properties": {
                    "stage": 20
                },
                "geometry": {
                    "type": "GeometryCollection",
                    "geometries": []
                }
            }
        ]
    ]
}