[
    {
        "length": "0",
        "length_lcc": "0",
        "coverage": "0",
        "directness": "0",
        "directness_lcc": "0",
        "poi_coverage": "0",
        "components": "0",
        "overlap_biketrack": "0",
        "overlap_bikeable": "0",
        "efficiency_global": "0",
        "efficiency_local": "0",
        "efficiency_global_routed": "0",
        "efficiency_local_routed": "0"
    },
    {
        "length": "0",
        "length_lcc": "0",
        "coverage": "0",
        "directness": "0",
        "directness_lcc": "0",
        "poi_coverage": "0",
        "components": "0",
        "overlap_biketrack": "0",
        "overlap_bikeable": "0",
        "efficiency_global": "0",
        "efficiency_local": "0",
        "efficiency_global_routed": "0",
        "efficiency_local_routed": "0"
    },
    {
        "length": "0",
        "length_lcc": "0",
        "coverage": "0",
        "directness": "0",
        "directness_lcc": "0",
        "poi_coverage": "0",
        "components": "0",
        "overlap_biketrack": "0",
        "overlap_bikeable": "0",
        "efficiency_global": "0",
        "efficiency_local": "0",
        "efficiency_global_routed": "0",
        "efficiency_local_routed": "0"
    },
    {
        "length": "2720.082000000001",
        "length_lcc": "2720.082000000001",
        "coverage": "3.0138167104612643",
        "directness": "0.6533990411413172",
        "directness_lcc": "0.6533990411413172",
        "poi_coverage": "2",
        "components": "1",
        "overlap_biketrack": "0",
        "overlap_bikeable": "2284.358",
        "efficiency_global": "0.656780508274371",
        "efficiency_local": "0",
        "efficiency_global_routed": "0.6567805082743712",
        "efficiency_local_routed": "0"
    },
    {
        "length": "2720.082000000001",
        "length_lcc": "2720.082000000001",
        "coverage": "3.0138167104612643",
        "directness": "0.6533990411413183",
        "directness_lcc": "0.6533990411413183",
        "poi_coverage": "2",
        "components": "1",
        "overlap_biketrack": "0",
        "overlap_bikeable": "2284.358",
        "efficiency_global": "0.656780508274371",
        "efficiency_local": "0",
        "efficiency_global_routed": "0.6567805082743712",
        "efficiency_local_routed": "0"
    },
    {
        "length": "2720.082000000001",
        "length_lcc": "2720.082000000001",
        "coverage": "3.0138167104612643",
        "directness": "0.6533990411413217",
        "directness_lcc": "0.6533990411413217",
        "poi_coverage": "2",
        "components": "1",
        "overlap_biketrack": "0",
        "overlap_bikeable": "2284.358",
        "efficiency_global": "0.656780508274371",
        "efficiency_local": "0",
        "efficiency_global_routed": "0.6567805082743712",
        "efficiency_local_routed": "0"
    },
    {
        "length": "2720.082000000001",
        "length_lcc": "2720.082000000001",
        "coverage": "3.0138167104612643",
        "directness": "0.6533990411413207",
        "directness_lcc": "0.6533990411413207",
        "poi_coverage": "2",
        "components": "1",
        "overlap_biketrack": "0",
        "overlap_bikeable": "2284.358",
        "efficiency_global": "0.656780508274371",
        "efficiency_local": "0",
        "efficiency_global_routed": "0.6567805082743712",
        "efficiency_local_routed": "0"
    },
    {
        "length": "4945.940000000003",
        "length_lcc": "4945.940000000003",
        "coverage": "4.9502478760382305",
        "directness": "0.7170954014000906",
        "directness_lcc": "0.7170954014000906",
        "poi_coverage": "3",
        "components": "1",
        "overlap_biketrack": "0",
        "overlap_bikeable": "3478.2890000000016",
        "efficiency_global": "0.7048599353957906",
        "efficiency_local": "0.0",
        "efficiency_global_routed": "0.33605194480444606",
        "efficiency_local_routed": "0.0"
    },
    {
        "length": "4945.940000000003",
        "length_lcc": "4945.940000000003",
        "coverage": "4.9502478760382305",
        "directness": "0.717095401400091",
        "directness_lcc": "0.717095401400091",
        "poi_coverage": "3",
        "components": "1",
        "overlap_biketrack": "0",
        "overlap_bikeable": "3478.2890000000016",
        "efficiency_global": "0.7048599353957906",
        "efficiency_local": "0.0",
        "efficiency_global_routed": "0.33605194480444606",
        "efficiency_local_routed": "0.0"
    },
    {
        "length": "4945.940000000003",
        "length_lcc": "4945.940000000003",
        "coverage": "4.9502478760382305",
        "directness": "0.7170954014000865",
        "directness_lcc": "0.7170954014000865",
        "poi_coverage": "3",
        "components": "1",
        "overlap_biketrack": "0",
        "overlap_bikeable": "3478.2890000000016",
        "efficiency_global": "0.7048599353957906",
        "efficiency_local": "0.0",
        "efficiency_global_routed": "0.33605194480444606",
        "efficiency_local_routed": "0.0"
    },
    {
        "length": "8854.106000000003",
        "length_lcc": "8854.106000000003",
        "coverage": "7.133484815071904",
        "directness": "0.712223134412857",
        "directness_lcc": "0.712223134412857",
        "poi_coverage": "4",
        "components": "1",
        "overlap_biketrack": "0",
        "overlap_bikeable": "4496.604000000005",
        "efficiency_global": "0.6669119576594581",
        "efficiency_local": "0.5894659524429763",
        "efficiency_global_routed": "0.45712100958772933",
        "efficiency_local_routed": "0.27283940507359616"
    },
    {
        "length": "8854.106000000003",
        "length_lcc": "8854.106000000003",
        "coverage": "7.133484815071904",
        "directness": "0.7122231344128577",
        "directness_lcc": "0.7122231344128577",
        "poi_coverage": "4",
        "components": "1",
        "overlap_biketrack": "0",
        "overlap_bikeable": "4496.604000000005",
        "efficiency_global": "0.6669119576594581",
        "efficiency_local": "0.5894659524429763",
        "efficiency_global_routed": "0.45712100958772933",
        "efficiency_local_routed": "0.27283940507359616"
    },
    {
        "length": "8854.106000000003",
        "length_lcc": "8854.106000000003",
        "coverage": "7.133484815071904",
        "directness": "0.7122231344128628",
        "directness_lcc": "0.7122231344128628",
        "poi_coverage": "4",
        "components": "1",
        "overlap_biketrack": "0",
        "overlap_bikeable": "4496.604000000005",
        "efficiency_global": "0.6669119576594581",
        "efficiency_local": "0.5894659524429763",
        "efficiency_global_routed": "0.45712100958772933",
        "efficiency_local_routed": "0.27283940507359616"
    },
    {
        "length": "8854.106000000003",
        "length_lcc": "8854.106000000003",
        "coverage": "7.133484815071904",
        "directness": "0.7122231344128614",
        "directness_lcc": "0.7122231344128614",
        "poi_coverage": "4",
        "components": "1",
        "overlap_biketrack": "0",
        "overlap_bikeable": "4496.604000000005",
        "efficiency_global": "0.6669119576594581",
        "efficiency_local": "0.5894659524429763",
        "efficiency_global_routed": "0.45712100958772933",
        "efficiency_local_routed": "0.27283940507359616"
    },
    {
        "length": "12381.94599999999",
        "length_lcc": "12381.94599999999",
        "coverage": "9.231180766097562",
        "directness": "0.6796823167114527",
        "directness_lcc": "0.6796823167114527",
        "poi_coverage": "5",
        "components": "1",
        "overlap_biketrack": "0",
        "overlap_bikeable": "6246.517000000002",
        "efficiency_global": "0.6756151406942951",
        "efficiency_local": "0.6372370175790613",
        "efficiency_global_routed": "0.6920256581318545",
        "efficiency_local_routed": "0.33868869827073206"
    },
    {
        "length": "12381.94599999999",
        "length_lcc": "12381.94599999999",
        "coverage": "9.231180766097562",
        "directness": "0.6760232090049368",
        "directness_lcc": "0.6760232090049368",
        "poi_coverage": "5",
        "components": "1",
        "overlap_biketrack": "0",
        "overlap_bikeable": "6246.517000000002",
        "efficiency_global": "0.6756151406942951",
        "efficiency_local": "0.6372370175790613",
        "efficiency_global_routed": "0.6920256581318545",
        "efficiency_local_routed": "0.33868869827073206"
    },
    {
        "length": "12381.94599999999",
        "length_lcc": "12381.94599999999",
        "coverage": "9.231180766097562",
        "directness": "0.6753876774305453",
        "directness_lcc": "0.6753876774305453",
        "poi_coverage": "5",
        "components": "1",
        "overlap_biketrack": "0",
        "overlap_bikeable": "6246.517000000002",
        "efficiency_global": "0.6756151406942951",
        "efficiency_local": "0.6372370175790613",
        "efficiency_global_routed": "0.6920256581318545",
        "efficiency_local_routed": "0.33868869827073206"
    },
    {
        "length": "12381.94599999999",
        "length_lcc": "12381.94599999999",
        "coverage": "9.231180766097562",
        "directness": "0.6775855917001932",
        "directness_lcc": "0.6775855917001932",
        "poi_coverage": "5",
        "components": "1",
        "overlap_biketrack": "0",
        "overlap_bikeable": "6246.517000000002",
        "efficiency_global": "0.6756151406942951",
        "efficiency_local": "0.6372370175790613",
        "efficiency_global_routed": "0.6920256581318545",
        "efficiency_local_routed": "0.33868869827073206"
    },
    {
        "length": "16067.406999999987",
        "length_lcc": "16067.406999999987",
        "coverage": "11.02056774890247",
        "directness": "0.6224686964350743",
        "directness_lcc": "0.6224686964350743",
        "poi_coverage": "6",
        "components": "1",
        "overlap_biketrack": "553.131",
        "overlap_bikeable": "8193.537000000002",
        "efficiency_global": "0.6372309047485254",
        "efficiency_local": "0.6327616451114135",
        "efficiency_global_routed": "0.6806017378076071",
        "efficiency_local_routed": "0.12126195781048718"
    },
    {
        "length": "16067.406999999987",
        "length_lcc": "16067.406999999987",
        "coverage": "11.02056774890247",
        "directness": "0.6307635196873885",
        "directness_lcc": "0.6307635196873885",
        "poi_coverage": "6",
        "components": "1",
        "overlap_biketrack": "553.131",
        "overlap_bikeable": "8193.537000000002",
        "efficiency_global": "0.6372309047485254",
        "efficiency_local": "0.6327616451114135",
        "efficiency_global_routed": "0.6806017378076071",
        "efficiency_local_routed": "0.12126195781048718"
    },
    {
        "length": "16067.406999999987",
        "length_lcc": "16067.406999999987",
        "coverage": "11.02056774890247",
        "directness": "0.6287435208649284",
        "directness_lcc": "0.6287435208649284",
        "poi_coverage": "6",
        "components": "1",
        "overlap_biketrack": "553.131",
        "overlap_bikeable": "8193.537000000002",
        "efficiency_global": "0.6372309047485254",
        "efficiency_local": "0.6327616451114135",
        "efficiency_global_routed": "0.6806017378076071",
        "efficiency_local_routed": "0.12126195781048718"
    },
    {
        "length": "23378.435999999994",
        "length_lcc": "23378.435999999994",
        "coverage": "13.852139013381677",
        "directness": "0.6516149629304473",
        "directness_lcc": "0.6516149629304473",
        "poi_coverage": "7",
        "components": "1",
        "overlap_biketrack": "553.131",
        "overlap_bikeable": "9136.458000000004",
        "efficiency_global": "0.6472579214457665",
        "efficiency_local": "0.667466914784753",
        "efficiency_global_routed": "0.8003173120391438",
        "efficiency_local_routed": "0.1840741827952041"
    },
    {
        "length": "23378.435999999994",
        "length_lcc": "23378.435999999994",
        "coverage": "13.852139013381677",
        "directness": "0.6627821564388626",
        "directness_lcc": "0.6627821564388626",
        "poi_coverage": "7",
        "components": "1",
        "overlap_biketrack": "553.131",
        "overlap_bikeable": "9136.458000000004",
        "efficiency_global": "0.6472579214457665",
        "efficiency_local": "0.667466914784753",
        "efficiency_global_routed": "0.8003173120391438",
        "efficiency_local_routed": "0.1840741827952041"
    },
    {
        "length": "23378.435999999994",
        "length_lcc": "23378.435999999994",
        "coverage": "13.852139013381677",
        "directness": "0.658987610947665",
        "directness_lcc": "0.658987610947665",
        "poi_coverage": "7",
        "components": "1",
        "overlap_biketrack": "553.131",
        "overlap_bikeable": "9136.458000000004",
        "efficiency_global": "0.6472579214457665",
        "efficiency_local": "0.667466914784753",
        "efficiency_global_routed": "0.8003173120391438",
        "efficiency_local_routed": "0.1840741827952041"
    },
    {
        "length": "23378.435999999994",
        "length_lcc": "23378.435999999994",
        "coverage": "13.852139013381677",
        "directness": "0.6638894826514695",
        "directness_lcc": "0.6638894826514695",
        "poi_coverage": "7",
        "components": "1",
        "overlap_biketrack": "553.131",
        "overlap_bikeable": "9136.458000000004",
        "efficiency_global": "0.6472579214457665",
        "efficiency_local": "0.667466914784753",
        "efficiency_global_routed": "0.8003173120391438",
        "efficiency_local_routed": "0.1840741827952041"
    },
    {
        "length": "28500.462999999985",
        "length_lcc": "28500.462999999985",
        "coverage": "15.9401621994338",
        "directness": "0.6393283038965257",
        "directness_lcc": "0.6393283038965257",
        "poi_coverage": "8",
        "components": "1",
        "overlap_biketrack": "553.131",
        "overlap_bikeable": "10504.737000000001",
        "efficiency_global": "0.6416548392873003",
        "efficiency_local": "0.6723575493128472",
        "efficiency_global_routed": "0.8611769638975892",
        "efficiency_local_routed": "0.2950649864327286"
    },
    {
        "length": "28500.462999999985",
        "length_lcc": "28500.462999999985",
        "coverage": "15.9401621994338",
        "directness": "0.6460275242014973",
        "directness_lcc": "0.6460275242014973",
        "poi_coverage": "8",
        "components": "1",
        "overlap_biketrack": "553.131",
        "overlap_bikeable": "10504.737000000001",
        "efficiency_global": "0.6416548392873003",
        "efficiency_local": "0.6723575493128472",
        "efficiency_global_routed": "0.8611769638975892",
        "efficiency_local_routed": "0.2950649864327286"
    },
    {
        "length": "28500.462999999985",
        "length_lcc": "28500.462999999985",
        "coverage": "15.9401621994338",
        "directness": "0.6490023771370711",
        "directness_lcc": "0.6490023771370711",
        "poi_coverage": "8",
        "components": "1",
        "overlap_biketrack": "553.131",
        "overlap_bikeable": "10504.737000000001",
        "efficiency_global": "0.6416548392873003",
        "efficiency_local": "0.6723575493128472",
        "efficiency_global_routed": "0.8611769638975892",
        "efficiency_local_routed": "0.2950649864327286"
    },
    {
        "length": "28500.462999999985",
        "length_lcc": "28500.462999999985",
        "coverage": "15.9401621994338",
        "directness": "0.6366992312714977",
        "directness_lcc": "0.6366992312714977",
        "poi_coverage": "8",
        "components": "1",
        "overlap_biketrack": "553.131",
        "overlap_bikeable": "10504.737000000001",
        "efficiency_global": "0.6416548392873003",
        "efficiency_local": "0.6723575493128472",
        "efficiency_global_routed": "0.8611769638975892",
        "efficiency_local_routed": "0.2950649864327286"
    },
    {
        "length": "34257.54599999999",
        "length_lcc": "34257.54599999999",
        "coverage": "17.885234383594206",
        "directness": "0.6655013259932183",
        "directness_lcc": "0.6655013259932183",
        "poi_coverage": "9",
        "components": "1",
        "overlap_biketrack": "553.131",
        "overlap_bikeable": "11289.423999999999",
        "efficiency_global": "0.631799907799853",
        "efficiency_local": "0.6400385062878452",
        "efficiency_global_routed": "0.887033598006402",
        "efficiency_local_routed": "0.25098186796255956"
    },
    {
        "length": "34257.54599999999",
        "length_lcc": "34257.54599999999",
        "coverage": "17.885234383594206",
        "directness": "0.6624735821023254",
        "directness_lcc": "0.6624735821023254",
        "poi_coverage": "9",
        "components": "1",
        "overlap_biketrack": "553.131",
        "overlap_bikeable": "11289.423999999999",
        "efficiency_global": "0.631799907799853",
        "efficiency_local": "0.6400385062878452",
        "efficiency_global_routed": "0.887033598006402",
        "efficiency_local_routed": "0.25098186796255956"
    },
    {
        "length": "34257.54599999999",
        "length_lcc": "34257.54599999999",
        "coverage": "17.885234383594206",
        "directness": "0.6694981940514879",
        "directness_lcc": "0.6694981940514879",
        "poi_coverage": "9",
        "components": "1",
        "overlap_biketrack": "553.131",
        "overlap_bikeable": "11289.423999999999",
        "efficiency_global": "0.631799907799853",
        "efficiency_local": "0.6400385062878452",
        "efficiency_global_routed": "0.887033598006402",
        "efficiency_local_routed": "0.25098186796255956"
    },
    {
        "length": "37232.47099999995",
        "length_lcc": "37232.47099999995",
        "coverage": "19.159363379750552",
        "directness": "0.6546094921792718",
        "directness_lcc": "0.6546094921792718",
        "poi_coverage": "10",
        "components": "1",
        "overlap_biketrack": "553.131",
        "overlap_bikeable": "12619.186999999993",
        "efficiency_global": "0.6112364713264805",
        "efficiency_local": "0.6278530933270738",
        "efficiency_global_routed": "0.8873751160312872",
        "efficiency_local_routed": "0.24786157690421362"
    },
    {
        "length": "37232.47099999995",
        "length_lcc": "37232.47099999995",
        "coverage": "19.159363379750552",
        "directness": "0.6549378935698417",
        "directness_lcc": "0.6549378935698417",
        "poi_coverage": "10",
        "components": "1",
        "overlap_biketrack": "553.131",
        "overlap_bikeable": "12619.186999999993",
        "efficiency_global": "0.6112364713264805",
        "efficiency_local": "0.6278530933270738",
        "efficiency_global_routed": "0.8873751160312872",
        "efficiency_local_routed": "0.24786157690421362"
    },
    {
        "length": "37232.47099999995",
        "length_lcc": "37232.47099999995",
        "coverage": "19.159363379750552",
        "directness": "0.6514645445394679",
        "directness_lcc": "0.6514645445394679",
        "poi_coverage": "10",
        "components": "1",
        "overlap_biketrack": "553.131",
        "overlap_bikeable": "12619.186999999993",
        "efficiency_global": "0.6112364713264805",
        "efficiency_local": "0.6278530933270738",
        "efficiency_global_routed": "0.8873751160312872",
        "efficiency_local_routed": "0.24786157690421362"
    },
    {
        "length": "37232.47099999995",
        "length_lcc": "37232.47099999995",
        "coverage": "19.159363379750552",
        "directness": "0.6543979750969277",
        "directness_lcc": "0.6543979750969277",
        "poi_coverage": "10",
        "components": "1",
        "overlap_biketrack": "553.131",
        "overlap_bikeable": "12619.186999999993",
        "efficiency_global": "0.6112364713264805",
        "efficiency_local": "0.6278530933270738",
        "efficiency_global_routed": "0.8873751160312872",
        "efficiency_local_routed": "0.24786157690421362"
    },
    {
        "length": "41605.082999999955",
        "length_lcc": "41605.082999999955",
        "coverage": "20.99280645454454",
        "directness": "0.642035133503549",
        "directness_lcc": "0.642035133503549",
        "poi_coverage": "11",
        "components": "1",
        "overlap_biketrack": "553.131",
        "overlap_bikeable": "13085.684999999994",
        "efficiency_global": "0.5779644813545123",
        "efficiency_local": "0.6092178287236322",
        "efficiency_global_routed": "0.8664470146466331",
        "efficiency_local_routed": "0.22988129504663793"
    },
    {
        "length": "41605.082999999955",
        "length_lcc": "41605.082999999955",
        "coverage": "20.99280645454454",
        "directness": "0.6410665852158827",
        "directness_lcc": "0.6410665852158827",
        "poi_coverage": "11",
        "components": "1",
        "overlap_biketrack": "553.131",
        "overlap_bikeable": "13085.684999999994",
        "efficiency_global": "0.5779644813545123",
        "efficiency_local": "0.6092178287236322",
        "efficiency_global_routed": "0.8664470146466331",
        "efficiency_local_routed": "0.22988129504663793"
    },
    {
        "length": "41605.082999999955",
        "length_lcc": "41605.082999999955",
        "coverage": "20.99280645454454",
        "directness": "0.6461618309409423",
        "directness_lcc": "0.6461618309409423",
        "poi_coverage": "11",
        "components": "1",
        "overlap_biketrack": "553.131",
        "overlap_bikeable": "13085.684999999994",
        "efficiency_global": "0.5779644813545123",
        "efficiency_local": "0.6092178287236322",
        "efficiency_global_routed": "0.8664470146466331",
        "efficiency_local_routed": "0.22988129504663793"
    },
    {
        "length": "51881.33699999992",
        "length_lcc": "51881.33699999992",
        "coverage": "24.79501185603181",
        "directness": "0.6644303990105527",
        "directness_lcc": "0.6644303990105527",
        "poi_coverage": "12",
        "components": "1",
        "overlap_biketrack": "553.131",
        "overlap_bikeable": "14202.766999999994",
        "efficiency_global": "0.5628916070165051",
        "efficiency_local": "0.5748213239948484",
        "efficiency_global_routed": "0.8639615429250669",
        "efficiency_local_routed": "0.28465287227719543"
    }
]