[
    {
        "length": "16617.427999999996",
        "length_lcc": "4529.080999999998",
        "coverage": "17.667797257044235",
        "directness": "0.6503172354315225",
        "directness_lcc": "0.5272411049744793",
        "poi_coverage": "9",
        "components": "4",
        "overlap_biketrack": "0",
        "overlap_bikeable": "4160.109",
        "efficiency_global": "0.2503994028194413",
        "efficiency_local": "0.0",
        "efficiency_global_routed": "0.8052058421277001",
        "efficiency_local_routed": "0.0"
    },
    {
        "length": "31892.617000000024",
        "length_lcc": "6733.012999999997",
        "coverage": "33.315145676535366",
        "directness": "0.6460872482459906",
        "directness_lcc": "0.5475011830639531",
        "poi_coverage": "16",
        "components": "7",
        "overlap_biketrack": "0",
        "overlap_bikeable": "6192.292000000001",
        "efficiency_global": "0.12097864006324932",
        "efficiency_local": "0.0",
        "efficiency_global_routed": "0.5935036512429079",
        "efficiency_local_routed": "0.0"
    },
    {
        "length": "50529.26799999996",
        "length_lcc": "10638.759000000002",
        "coverage": "50.05740039828843",
        "directness": "0.6131774591755758",
        "directness_lcc": "0.5652826963265745",
        "poi_coverage": "25",
        "components": "9",
        "overlap_biketrack": "167.99699999999996",
        "overlap_bikeable": "8083.401999999997",
        "efficiency_global": "0.10446606048898373",
        "efficiency_local": "0.0",
        "efficiency_global_routed": "0.5696576290276294",
        "efficiency_local_routed": "0.0"
    },
    {
        "length": "66855.16099999993",
        "length_lcc": "17210.154000000006",
        "coverage": "64.61728617294865",
        "directness": "0.5724317017334173",
        "directness_lcc": "0.560761138350061",
        "poi_coverage": "33",
        "components": "11",
        "overlap_biketrack": "167.99699999999996",
        "overlap_bikeable": "9307.565999999992",
        "efficiency_global": "0.08908917376811401",
        "efficiency_local": "0.0",
        "efficiency_global_routed": "0.46830094142137785",
        "efficiency_local_routed": "0.0"
    },
    {
        "length": "80940.58799999995",
        "length_lcc": "22104.448000000033",
        "coverage": "78.15358165583376",
        "directness": "0.6362353347589864",
        "directness_lcc": "0.6350910680233263",
        "poi_coverage": "38",
        "components": "12",
        "overlap_biketrack": "320.9910000000001",
        "overlap_bikeable": "12998.647999999997",
        "efficiency_global": "0.0825265479264449",
        "efficiency_local": "0.0",
        "efficiency_global_routed": "0.3980333696249918",
        "efficiency_local_routed": "0.0"
    },
    {
        "length": "95429.21800000007",
        "length_lcc": "26230.079000000038",
        "coverage": "88.0527492286132",
        "directness": "0.6195930729534648",
        "directness_lcc": "0.6124449175544606",
        "poi_coverage": "45",
        "components": "14",
        "overlap_biketrack": "320.9910000000001",
        "overlap_bikeable": "14861.484999999997",
        "efficiency_global": "0.06652419716143816",
        "efficiency_local": "0.0",
        "efficiency_global_routed": "0.5275779907030892",
        "efficiency_local_routed": "0.0"
    },
    {
        "length": "102529.85900000005",
        "length_lcc": "40978.05699999993",
        "coverage": "91.53467440118649",
        "directness": "0.47656491565454245",
        "directness_lcc": "0.47272992365993155",
        "poi_coverage": "46",
        "components": "12",
        "overlap_biketrack": "320.9910000000001",
        "overlap_bikeable": "15847.065999999999",
        "efficiency_global": "0.0883395300199051",
        "efficiency_local": "0.10882694509596279",
        "efficiency_global_routed": "0.5242186912966061",
        "efficiency_local_routed": "0.0944882820918817"
    },
    {
        "length": "116789.3860000001",
        "length_lcc": "63496.571",
        "coverage": "99.51912070204126",
        "directness": "0.4502942572535071",
        "directness_lcc": "0.4303162677748956",
        "poi_coverage": "49",
        "components": "10",
        "overlap_biketrack": "320.9910000000001",
        "overlap_bikeable": "16143.371999999998",
        "efficiency_global": "0.10652635669590887",
        "efficiency_local": "0.08291576769216212",
        "efficiency_global_routed": "0.6845943432686468",
        "efficiency_local_routed": "0.14776630002787738"
    },
    {
        "length": "131621.31500000015",
        "length_lcc": "64504.43200000001",
        "coverage": "109.72034858640357",
        "directness": "0.46931506185249733",
        "directness_lcc": "0.4705655165802235",
        "poi_coverage": "54",
        "components": "10",
        "overlap_biketrack": "320.9910000000001",
        "overlap_bikeable": "16953.25299999999",
        "efficiency_global": "0.09981755211643378",
        "efficiency_local": "0.07255129673064185",
        "efficiency_global_routed": "0.6644164510417994",
        "efficiency_local_routed": "0.25016984448096014"
    },
    {
        "length": "136626.85099999988",
        "length_lcc": "74672.18100000011",
        "coverage": "112.8991108891689",
        "directness": "0.4590311858267681",
        "directness_lcc": "0.48229715550074187",
        "poi_coverage": "55",
        "components": "9",
        "overlap_biketrack": "320.9910000000001",
        "overlap_bikeable": "17291.17799999999",
        "efficiency_global": "0.12027613275191852",
        "efficiency_local": "0.06964924486141619",
        "efficiency_global_routed": "0.6655528816763325",
        "efficiency_local_routed": "0.2404775746929265"
    },
    {
        "length": "148628.43799999982",
        "length_lcc": "74672.18100000011",
        "coverage": "117.95160416347872",
        "directness": "0.4615673412731803",
        "directness_lcc": "0.4700304177152363",
        "poi_coverage": "55",
        "components": "6",
        "overlap_biketrack": "482.50000000000006",
        "overlap_bikeable": "20457.71600000001",
        "efficiency_global": "0.1450583970218422",
        "efficiency_local": "0.14866690935388804",
        "efficiency_global_routed": "0.6489297849656891",
        "efficiency_local_routed": "0.2680988442428924"
    },
    {
        "length": "156160.33099999983",
        "length_lcc": "76417.3510000001",
        "coverage": "120.05037894995263",
        "directness": "0.49486987408269006",
        "directness_lcc": "0.4919803860433582",
        "poi_coverage": "55",
        "components": "5",
        "overlap_biketrack": "482.50000000000006",
        "overlap_bikeable": "21202.56900000002",
        "efficiency_global": "0.1656199282070269",
        "efficiency_local": "0.14999609212141754",
        "efficiency_global_routed": "0.6947401131820111",
        "efficiency_local_routed": "0.23300885725239967"
    },
    {
        "length": "167425.60300000006",
        "length_lcc": "86819.70700000013",
        "coverage": "125.00644973619694",
        "directness": "0.4922698864958869",
        "directness_lcc": "0.48057568847089616",
        "poi_coverage": "57",
        "components": "5",
        "overlap_biketrack": "482.50000000000006",
        "overlap_bikeable": "21882.692000000025",
        "efficiency_global": "0.17464913758669998",
        "efficiency_local": "0.16340654720184875",
        "efficiency_global_routed": "0.7285212499988659",
        "efficiency_local_routed": "0.2610124845478713"
    },
    {
        "length": "187796.32900000017",
        "length_lcc": "179770.7130000001",
        "coverage": "130.41247958696067",
        "directness": "0.434154750861012",
        "directness_lcc": "0.4396393577314424",
        "poi_coverage": "59",
        "components": "3",
        "overlap_biketrack": "482.50000000000006",
        "overlap_bikeable": "22731.79000000003",
        "efficiency_global": "0.21031560081851688",
        "efficiency_local": "0.13224756679549612",
        "efficiency_global_routed": "0.82538941800841",
        "efficiency_local_routed": "0.2600581709679278"
    },
    {
        "length": "192544.019",
        "length_lcc": "184518.40300000017",
        "coverage": "131.87562366666145",
        "directness": "0.47722584994163125",
        "directness_lcc": "0.4737697481719969",
        "poi_coverage": "60",
        "components": "3",
        "overlap_biketrack": "482.50000000000006",
        "overlap_bikeable": "23649.49800000004",
        "efficiency_global": "0.28088164457711634",
        "efficiency_local": "0.14506728639956476",
        "efficiency_global_routed": "0.8226617240886506",
        "efficiency_local_routed": "0.25930739173479567"
    },
    {
        "length": "198973.78600000023",
        "length_lcc": "190948.17000000016",
        "coverage": "133.70753175022148",
        "directness": "0.5066805787210255",
        "directness_lcc": "0.5242425495257931",
        "poi_coverage": "61",
        "components": "3",
        "overlap_biketrack": "482.50000000000006",
        "overlap_bikeable": "23649.49800000004",
        "efficiency_global": "0.31402051051141194",
        "efficiency_local": "0.14212577245793448",
        "efficiency_global_routed": "0.823687765599475",
        "efficiency_local_routed": "0.24475436618865384"
    },
    {
        "length": "205535.81800000006",
        "length_lcc": "200734.36900000015",
        "coverage": "135.3843028737711",
        "directness": "0.5167839972733579",
        "directness_lcc": "0.5009128944796063",
        "poi_coverage": "61",
        "components": "2",
        "overlap_biketrack": "482.50000000000006",
        "overlap_bikeable": "24775.48700000004",
        "efficiency_global": "0.3486103479990757",
        "efficiency_local": "0.15743295167520768",
        "efficiency_global_routed": "0.8276408048738365",
        "efficiency_local_routed": "0.27177034349757007"
    },
    {
        "length": "213041.72200000013",
        "length_lcc": "213041.72200000013",
        "coverage": "138.546326028369",
        "directness": "0.5196280490687555",
        "directness_lcc": "0.5196280490687555",
        "poi_coverage": "62",
        "components": "1",
        "overlap_biketrack": "482.50000000000006",
        "overlap_bikeable": "27208.746000000017",
        "efficiency_global": "0.39265807730150704",
        "efficiency_local": "0.1501250695459511",
        "efficiency_global_routed": "0.8283355197585118",
        "efficiency_local_routed": "0.2910223505378049"
    },
    {
        "length": "216829.53499999997",
        "length_lcc": "216829.53499999997",
        "coverage": "138.73399570221238",
        "directness": "0.5333040907336224",
        "directness_lcc": "0.5333040907336224",
        "poi_coverage": "62",
        "components": "1",
        "overlap_biketrack": "937.0770000000002",
        "overlap_bikeable": "28298.372000000014",
        "efficiency_global": "0.4122206162473341",
        "efficiency_local": "0.16309431290374113",
        "efficiency_global_routed": "0.8189231726036142",
        "efficiency_local_routed": "0.27207450429919816"
    },
    {
        "length": "225693.97999999984",
        "length_lcc": "225693.97999999984",
        "coverage": "139.70667169743118",
        "directness": "0.5360273038729666",
        "directness_lcc": "0.5360273038729666",
        "poi_coverage": "62",
        "components": "1",
        "overlap_biketrack": "937.0770000000002",
        "overlap_bikeable": "29858.946000000014",
        "efficiency_global": "0.4160109087162071",
        "efficiency_local": "0.20203234805052536",
        "efficiency_global_routed": "0.8207244022389026",
        "efficiency_local_routed": "0.2768771741192447"
    },
    {
        "length": "232155.70400000003",
        "length_lcc": "232155.70400000003",
        "coverage": "140.82075584804758",
        "directness": "0.5418913448250547",
        "directness_lcc": "0.5418913448250547",
        "poi_coverage": "62",
        "components": "1",
        "overlap_biketrack": "942.9870000000002",
        "overlap_bikeable": "31058.82400000002",
        "efficiency_global": "0.4289342436749627",
        "efficiency_local": "0.2624590941686878",
        "efficiency_global_routed": "0.8213367386673721",
        "efficiency_local_routed": "0.2708185920150212"
    },
    {
        "length": "236792.35300000018",
        "length_lcc": "236792.35300000018",
        "coverage": "141.83811468467982",
        "directness": "0.5495287319535598",
        "directness_lcc": "0.5495287319535598",
        "poi_coverage": "62",
        "components": "1",
        "overlap_biketrack": "942.9870000000002",
        "overlap_bikeable": "31390.196000000014",
        "efficiency_global": "0.442498540038944",
        "efficiency_local": "0.2902686630763381",
        "efficiency_global_routed": "0.8182722774703858",
        "efficiency_local_routed": "0.2748973490458514"
    },
    {
        "length": "243992.17500000013",
        "length_lcc": "243992.17500000013",
        "coverage": "144.54902492247447",
        "directness": "0.5569350309308779",
        "directness_lcc": "0.5569350309308779",
        "poi_coverage": "62",
        "components": "1",
        "overlap_biketrack": "942.9870000000002",
        "overlap_bikeable": "31520.04300000002",
        "efficiency_global": "0.45151833695360594",
        "efficiency_local": "0.306228160061671",
        "efficiency_global_routed": "0.8231477445620634",
        "efficiency_local_routed": "0.2786336495645235"
    },
    {
        "length": "253095.43700000033",
        "length_lcc": "253095.43700000033",
        "coverage": "145.457860261386",
        "directness": "0.5633998800532586",
        "directness_lcc": "0.5633998800532586",
        "poi_coverage": "62",
        "components": "1",
        "overlap_biketrack": "942.9870000000002",
        "overlap_bikeable": "32476.753000000004",
        "efficiency_global": "0.4606511033897299",
        "efficiency_local": "0.3239399847947432",
        "efficiency_global_routed": "0.8189033090205536",
        "efficiency_local_routed": "0.2614070004728242"
    },
    {
        "length": "254749.1370000003",
        "length_lcc": "254749.1370000003",
        "coverage": "145.74793536851664",
        "directness": "0.5813517943526725",
        "directness_lcc": "0.5813517943526725",
        "poi_coverage": "62",
        "components": "1",
        "overlap_biketrack": "942.9870000000002",
        "overlap_bikeable": "32476.753000000004",
        "efficiency_global": "0.4723660268270952",
        "efficiency_local": "0.3442841883075267",
        "efficiency_global_routed": "0.8187499097432779",
        "efficiency_local_routed": "0.2704019817726058"
    },
    {
        "length": "257475.44300000026",
        "length_lcc": "257475.44300000026",
        "coverage": "146.60252500879596",
        "directness": "0.5793531592924749",
        "directness_lcc": "0.5793531592924749",
        "poi_coverage": "63",
        "components": "1",
        "overlap_biketrack": "942.9870000000002",
        "overlap_bikeable": "32476.753000000004",
        "efficiency_global": "0.4832056350698193",
        "efficiency_local": "0.3397312664326268",
        "efficiency_global_routed": "0.8165523078354028",
        "efficiency_local_routed": "0.27630012392357634"
    },
    {
        "length": "263163.0280000002",
        "length_lcc": "263163.0280000002",
        "coverage": "147.21491889936667",
        "directness": "0.6026556609973975",
        "directness_lcc": "0.6026556609973975",
        "poi_coverage": "63",
        "components": "1",
        "overlap_biketrack": "942.9870000000002",
        "overlap_bikeable": "32476.753000000004",
        "efficiency_global": "0.5010892734775335",
        "efficiency_local": "0.3483855154931356",
        "efficiency_global_routed": "0.8194565168566709",
        "efficiency_local_routed": "0.25445968000254016"
    },
    {
        "length": "268606.71700000024",
        "length_lcc": "268606.71700000024",
        "coverage": "147.75852048329838",
        "directness": "0.603465026568229",
        "directness_lcc": "0.603465026568229",
        "poi_coverage": "63",
        "components": "1",
        "overlap_biketrack": "942.9870000000002",
        "overlap_bikeable": "32670.960000000006",
        "efficiency_global": "0.5131771123612778",
        "efficiency_local": "0.3813422187511887",
        "efficiency_global_routed": "0.8198959680917438",
        "efficiency_local_routed": "0.25596287383271993"
    },
    {
        "length": "269693.3000000001",
        "length_lcc": "269693.3000000001",
        "coverage": "147.82848198333514",
        "directness": "0.613041158054707",
        "directness_lcc": "0.613041158054707",
        "poi_coverage": "63",
        "components": "1",
        "overlap_biketrack": "942.9870000000002",
        "overlap_bikeable": "33562.843000000015",
        "efficiency_global": "0.5228992626053174",
        "efficiency_local": "0.3885803056057106",
        "efficiency_global_routed": "0.8240686274560125",
        "efficiency_local_routed": "0.2584110178455"
    },
    {
        "length": "272736.0989999999",
        "length_lcc": "272736.0989999999",
        "coverage": "148.48336035167935",
        "directness": "0.6440445757821756",
        "directness_lcc": "0.6440445757821756",
        "poi_coverage": "63",
        "components": "1",
        "overlap_biketrack": "942.9870000000002",
        "overlap_bikeable": "33903.05400000002",
        "efficiency_global": "0.5427738868479459",
        "efficiency_local": "0.3796895943460289",
        "efficiency_global_routed": "0.8268689322198617",
        "efficiency_local_routed": "0.25875544835225384"
    },
    {
        "length": "278053.14000000013",
        "length_lcc": "278053.14000000013",
        "coverage": "148.64505438146037",
        "directness": "0.6540889683508974",
        "directness_lcc": "0.6540889683508974",
        "poi_coverage": "63",
        "components": "1",
        "overlap_biketrack": "942.9870000000002",
        "overlap_bikeable": "34299.89200000002",
        "efficiency_global": "0.5530039598088545",
        "efficiency_local": "0.39644882830605693",
        "efficiency_global_routed": "0.8283016730488416",
        "efficiency_local_routed": "0.24947032420999557"
    },
    {
        "length": "279815.5560000002",
        "length_lcc": "279815.5560000002",
        "coverage": "148.69245564343422",
        "directness": "0.6612170778962798",
        "directness_lcc": "0.6612170778962798",
        "poi_coverage": "63",
        "components": "1",
        "overlap_biketrack": "942.9870000000002",
        "overlap_bikeable": "34299.89200000002",
        "efficiency_global": "0.5622099779264046",
        "efficiency_local": "0.4183774907187542",
        "efficiency_global_routed": "0.8284691132814714",
        "efficiency_local_routed": "0.24598904082579998"
    },
    {
        "length": "282204.17100000003",
        "length_lcc": "282204.17100000003",
        "coverage": "148.80961137275065",
        "directness": "0.655065035867517",
        "directness_lcc": "0.655065035867517",
        "poi_coverage": "63",
        "components": "1",
        "overlap_biketrack": "942.9870000000002",
        "overlap_bikeable": "34299.89200000002",
        "efficiency_global": "0.5635023699509994",
        "efficiency_local": "0.4231331159557565",
        "efficiency_global_routed": "0.8305636296224741",
        "efficiency_local_routed": "0.2570258578956129"
    },
    {
        "length": "286011.93599999935",
        "length_lcc": "286011.93599999935",
        "coverage": "148.87053114196826",
        "directness": "0.6530612941047603",
        "directness_lcc": "0.6530612941047603",
        "poi_coverage": "63",
        "components": "1",
        "overlap_biketrack": "942.9870000000002",
        "overlap_bikeable": "34318.69600000002",
        "efficiency_global": "0.5659871152300007",
        "efficiency_local": "0.4570891011254831",
        "efficiency_global_routed": "0.829375953013392",
        "efficiency_local_routed": "0.24307208282009476"
    },
    {
        "length": "290333.9679999996",
        "length_lcc": "290333.9679999996",
        "coverage": "149.09819160855665",
        "directness": "0.6569360404147628",
        "directness_lcc": "0.6569360404147628",
        "poi_coverage": "63",
        "components": "1",
        "overlap_biketrack": "942.9870000000002",
        "overlap_bikeable": "34402.570000000014",
        "efficiency_global": "0.5716876004450315",
        "efficiency_local": "0.48274916505443494",
        "efficiency_global_routed": "0.8289444657239088",
        "efficiency_local_routed": "0.23193528583065043"
    },
    {
        "length": "296282.5949999991",
        "length_lcc": "296282.5949999991",
        "coverage": "149.25708546524746",
        "directness": "0.6629484828146109",
        "directness_lcc": "0.6629484828146109",
        "poi_coverage": "63",
        "components": "1",
        "overlap_biketrack": "942.9870000000002",
        "overlap_bikeable": "37354.53700000003",
        "efficiency_global": "0.5828899600152526",
        "efficiency_local": "0.504803603943239",
        "efficiency_global_routed": "0.8292988757170954",
        "efficiency_local_routed": "0.2356571358799229"
    },
    {
        "length": "302297.00199999847",
        "length_lcc": "302297.00199999847",
        "coverage": "149.53977455704015",
        "directness": "0.6686146429185027",
        "directness_lcc": "0.6686146429185027",
        "poi_coverage": "63",
        "components": "1",
        "overlap_biketrack": "942.9870000000002",
        "overlap_bikeable": "37354.53700000003",
        "efficiency_global": "0.5850040612595877",
        "efficiency_local": "0.5271672095384596",
        "efficiency_global_routed": "0.8303815699426681",
        "efficiency_local_routed": "0.22931848849056757"
    },
    {
        "length": "309746.1309999989",
        "length_lcc": "309746.1309999989",
        "coverage": "150.00210867194212",
        "directness": "0.6688298922740388",
        "directness_lcc": "0.6688298922740388",
        "poi_coverage": "63",
        "components": "1",
        "overlap_biketrack": "942.9870000000002",
        "overlap_bikeable": "37354.53700000003",
        "efficiency_global": "0.5900476396758512",
        "efficiency_local": "0.5568048249345098",
        "efficiency_global_routed": "0.8290694087643647",
        "efficiency_local_routed": "0.22505385448819012"
    },
    {
        "length": "313523.63299999875",
        "length_lcc": "313523.63299999875",
        "coverage": "150.0411328511704",
        "directness": "0.669850744440925",
        "directness_lcc": "0.669850744440925",
        "poi_coverage": "63",
        "components": "1",
        "overlap_biketrack": "942.9870000000002",
        "overlap_bikeable": "37592.025000000016",
        "efficiency_global": "0.5953827564225986",
        "efficiency_local": "0.5661671559630708",
        "efficiency_global_routed": "0.8283146763857362",
        "efficiency_local_routed": "0.24107660189329141"
    },
    {
        "length": "316710.1689999991",
        "length_lcc": "316710.1689999991",
        "coverage": "150.30683107447524",
        "directness": "0.6770624732255798",
        "directness_lcc": "0.6770624732255798",
        "poi_coverage": "63",
        "components": "1",
        "overlap_biketrack": "942.9870000000002",
        "overlap_bikeable": "38831.42700000002",
        "efficiency_global": "0.5990325239733574",
        "efficiency_local": "0.5894610670853939",
        "efficiency_global_routed": "0.8281881771392349",
        "efficiency_local_routed": "0.23904505749531424"
    }
]