[
    {
        "length": "14762.437",
        "length_lcc": "14762.437",
        "coverage": "14.730385769929358",
        "directness": "0.9183550056010851",
        "directness_lcc": "0.9183550056010851",
        "poi_coverage": "4",
        "components": "1",
        "overlap_biketrack": "0",
        "overlap_bikeable": "0",
        "efficiency_global": "0.7294405081618772",
        "efficiency_local": "0.0",
        "efficiency_global_routed": "0.8860882165352439",
        "efficiency_local_routed": "0"
    },
    {
        "length": "24334.166999999998",
        "length_lcc": "9571.730000000003",
        "coverage": "24.024839623216597",
        "directness": "0.8354668071950861",
        "directness_lcc": "0.6973474189632225",
        "poi_coverage": "7",
        "components": "2",
        "overlap_biketrack": "0",
        "overlap_bikeable": "0",
        "efficiency_global": "0.5662039579509595",
        "efficiency_local": "0.0",
        "efficiency_global_routed": "0.23094212842795922",
        "efficiency_local_routed": "0"
    },
    {
        "length": "24334.166999999998",
        "length_lcc": "9571.730000000003",
        "coverage": "24.024839623216597",
        "directness": "0.8354668071950783",
        "directness_lcc": "0.6973474189632227",
        "poi_coverage": "7",
        "components": "2",
        "overlap_biketrack": "0",
        "overlap_bikeable": "0",
        "efficiency_global": "0.5662039579509595",
        "efficiency_local": "0.0",
        "efficiency_global_routed": "0.23094212842795922",
        "efficiency_local_routed": "0"
    },
    {
        "length": "34947.57799999999",
        "length_lcc": "18782.974999999995",
        "coverage": "33.342180338788175",
        "directness": "0.8068580516863904",
        "directness_lcc": "0.8982539156634489",
        "poi_coverage": "12",
        "components": "2",
        "overlap_biketrack": "0",
        "overlap_bikeable": "0",
        "efficiency_global": "0.5050043823096849",
        "efficiency_local": "0.0",
        "efficiency_global_routed": "0.514280563432245",
        "efficiency_local_routed": "0.0"
    },
    {
        "length": "34947.57799999999",
        "length_lcc": "18782.974999999995",
        "coverage": "33.342180338788175",
        "directness": "0.8000930958989948",
        "directness_lcc": "0.8982539156634423",
        "poi_coverage": "12",
        "components": "2",
        "overlap_biketrack": "0",
        "overlap_bikeable": "0",
        "efficiency_global": "0.5050043823096849",
        "efficiency_local": "0.0",
        "efficiency_global_routed": "0.514280563432245",
        "efficiency_local_routed": "0.0"
    },
    {
        "length": "58860.922",
        "length_lcc": "42696.31900000006",
        "coverage": "55.15254360653999",
        "directness": "0.7039340547869727",
        "directness_lcc": "0.7257865991226523",
        "poi_coverage": "13",
        "components": "2",
        "overlap_biketrack": "0",
        "overlap_bikeable": "750.541",
        "efficiency_global": "0.5063201408288684",
        "efficiency_local": "0.0",
        "efficiency_global_routed": "0.9161276845805593",
        "efficiency_local_routed": "0.2043999290572119"
    },
    {
        "length": "77515.27899999995",
        "length_lcc": "77515.27899999995",
        "coverage": "68.92155950957861",
        "directness": "0.5714386349787529",
        "directness_lcc": "0.5714386349787529",
        "poi_coverage": "15",
        "components": "1",
        "overlap_biketrack": "0",
        "overlap_bikeable": "750.541",
        "efficiency_global": "0.3813750029795205",
        "efficiency_local": "0.0",
        "efficiency_global_routed": "0.9113154949514483",
        "efficiency_local_routed": "0.24232855063560574"
    },
    {
        "length": "77515.27899999995",
        "length_lcc": "77515.27899999995",
        "coverage": "68.92155950957861",
        "directness": "0.5530051181605904",
        "directness_lcc": "0.5530051181605904",
        "poi_coverage": "15",
        "components": "1",
        "overlap_biketrack": "0",
        "overlap_bikeable": "750.541",
        "efficiency_global": "0.3813750029795205",
        "efficiency_local": "0.0",
        "efficiency_global_routed": "0.9113154949514483",
        "efficiency_local_routed": "0.24232855063560574"
    },
    {
        "length": "77515.27899999995",
        "length_lcc": "77515.27899999995",
        "coverage": "68.92155950957861",
        "directness": "0.5475554503627372",
        "directness_lcc": "0.5475554503627372",
        "poi_coverage": "15",
        "components": "1",
        "overlap_biketrack": "0",
        "overlap_bikeable": "750.541",
        "efficiency_global": "0.3813750029795205",
        "efficiency_local": "0.0",
        "efficiency_global_routed": "0.9113154949514483",
        "efficiency_local_routed": "0.24232855063560574"
    },
    {
        "length": "77515.27899999995",
        "length_lcc": "77515.27899999995",
        "coverage": "68.92155950957861",
        "directness": "0.5448353387684042",
        "directness_lcc": "0.5448353387684042",
        "poi_coverage": "15",
        "components": "1",
        "overlap_biketrack": "0",
        "overlap_bikeable": "750.541",
        "efficiency_global": "0.3813750029795205",
        "efficiency_local": "0.0",
        "efficiency_global_routed": "0.9113154949514483",
        "efficiency_local_routed": "0.24232855063560574"
    },
    {
        "length": "98422.3129999999",
        "length_lcc": "79020.26799999995",
        "coverage": "87.75976194430024",
        "directness": "0.578024948684572",
        "directness_lcc": "0.5727175100584095",
        "poi_coverage": "17",
        "components": "2",
        "overlap_biketrack": "0",
        "overlap_bikeable": "905.8660000000001",
        "efficiency_global": "0.36517917262740995",
        "efficiency_local": "0.0",
        "efficiency_global_routed": "0.9017753579364652",
        "efficiency_local_routed": "0.24843907491467354"
    },
    {
        "length": "98422.3129999999",
        "length_lcc": "79020.26799999995",
        "coverage": "87.75976194430024",
        "directness": "0.5764858909622778",
        "directness_lcc": "0.5747713912578049",
        "poi_coverage": "17",
        "components": "2",
        "overlap_biketrack": "0",
        "overlap_bikeable": "905.8660000000001",
        "efficiency_global": "0.36517917262740995",
        "efficiency_local": "0.0",
        "efficiency_global_routed": "0.9017753579364652",
        "efficiency_local_routed": "0.24843907491467354"
    },
    {
        "length": "98422.3129999999",
        "length_lcc": "79020.26799999995",
        "coverage": "87.75976194430024",
        "directness": "0.5807170616549511",
        "directness_lcc": "0.569533182752782",
        "poi_coverage": "17",
        "components": "2",
        "overlap_biketrack": "0",
        "overlap_bikeable": "905.8660000000001",
        "efficiency_global": "0.36517917262740995",
        "efficiency_local": "0.0",
        "efficiency_global_routed": "0.9017753579364652",
        "efficiency_local_routed": "0.24843907491467354"
    },
    {
        "length": "106275.31499999984",
        "length_lcc": "106275.31499999984",
        "coverage": "92.18668790626256",
        "directness": "0.5783248903274578",
        "directness_lcc": "0.5783248903274578",
        "poi_coverage": "18",
        "components": "1",
        "overlap_biketrack": "0",
        "overlap_bikeable": "905.8660000000001",
        "efficiency_global": "0.4091550037970239",
        "efficiency_local": "0.0",
        "efficiency_global_routed": "0.8977185529967888",
        "efficiency_local_routed": "0.27268208662895377"
    },
    {
        "length": "115969.39499999981",
        "length_lcc": "115969.39499999981",
        "coverage": "96.62547734697426",
        "directness": "0.6793668478721115",
        "directness_lcc": "0.6793668478721115",
        "poi_coverage": "18",
        "components": "1",
        "overlap_biketrack": "0",
        "overlap_bikeable": "905.8660000000001",
        "efficiency_global": "0.4734016599219706",
        "efficiency_local": "0.055451605848551015",
        "efficiency_global_routed": "0.8950092503319542",
        "efficiency_local_routed": "0.30571403571646194"
    },
    {
        "length": "115969.39499999981",
        "length_lcc": "115969.39499999981",
        "coverage": "96.62547734697426",
        "directness": "0.6817594325499432",
        "directness_lcc": "0.6817594325499432",
        "poi_coverage": "18",
        "components": "1",
        "overlap_biketrack": "0",
        "overlap_bikeable": "905.8660000000001",
        "efficiency_global": "0.4734016599219706",
        "efficiency_local": "0.055451605848551015",
        "efficiency_global_routed": "0.8950092503319542",
        "efficiency_local_routed": "0.30571403571646194"
    },
    {
        "length": "115969.39499999981",
        "length_lcc": "115969.39499999981",
        "coverage": "96.62547734697426",
        "directness": "0.6605785819150582",
        "directness_lcc": "0.6605785819150582",
        "poi_coverage": "18",
        "components": "1",
        "overlap_biketrack": "0",
        "overlap_bikeable": "905.8660000000001",
        "efficiency_global": "0.4734016599219706",
        "efficiency_local": "0.055451605848551015",
        "efficiency_global_routed": "0.8950092503319542",
        "efficiency_local_routed": "0.30571403571646194"
    },
    {
        "length": "115969.39499999981",
        "length_lcc": "115969.39499999981",
        "coverage": "96.62547734697426",
        "directness": "0.6833032513221161",
        "directness_lcc": "0.6833032513221161",
        "poi_coverage": "18",
        "components": "1",
        "overlap_biketrack": "0",
        "overlap_bikeable": "905.8660000000001",
        "efficiency_global": "0.4734016599219706",
        "efficiency_local": "0.055451605848551015",
        "efficiency_global_routed": "0.8950092503319542",
        "efficiency_local_routed": "0.30571403571646194"
    },
    {
        "length": "116457.6309999998",
        "length_lcc": "116457.6309999998",
        "coverage": "96.62547730829282",
        "directness": "0.7262712949011035",
        "directness_lcc": "0.7262712949011035",
        "poi_coverage": "18",
        "components": "1",
        "overlap_biketrack": "0",
        "overlap_bikeable": "905.8660000000001",
        "efficiency_global": "0.4820342124633201",
        "efficiency_local": "0.05118609770635478",
        "efficiency_global_routed": "0.8951632104176639",
        "efficiency_local_routed": "0.2914947782412777"
    },
    {
        "length": "117316.66099999983",
        "length_lcc": "117316.66099999983",
        "coverage": "96.62547796560854",
        "directness": "0.7336736527952826",
        "directness_lcc": "0.7336736527952826",
        "poi_coverage": "18",
        "components": "1",
        "overlap_biketrack": "0",
        "overlap_bikeable": "905.8660000000001",
        "efficiency_global": "0.521873986262839",
        "efficiency_local": "0.13534489123664026",
        "efficiency_global_routed": "0.8888958341289783",
        "efficiency_local_routed": "0.3149680659593223"
    },
    {
        "length": "137347.81399999984",
        "length_lcc": "137347.81399999984",
        "coverage": "115.17084944526535",
        "directness": "0.8036093072762619",
        "directness_lcc": "0.8036093072762619",
        "poi_coverage": "19",
        "components": "1",
        "overlap_biketrack": "0",
        "overlap_bikeable": "905.8660000000001",
        "efficiency_global": "0.5451457038144956",
        "efficiency_local": "0.3212578363621991",
        "efficiency_global_routed": "0.8912989759280897",
        "efficiency_local_routed": "0.2667229686080941"
    },
    {
        "length": "137347.81399999984",
        "length_lcc": "137347.81399999984",
        "coverage": "115.17084944526535",
        "directness": "0.7971245895037652",
        "directness_lcc": "0.7971245895037652",
        "poi_coverage": "19",
        "components": "1",
        "overlap_biketrack": "0",
        "overlap_bikeable": "905.8660000000001",
        "efficiency_global": "0.5451457038144956",
        "efficiency_local": "0.3212578363621991",
        "efficiency_global_routed": "0.8912989759280897",
        "efficiency_local_routed": "0.2667229686080941"
    },
    {
        "length": "137347.81399999984",
        "length_lcc": "137347.81399999984",
        "coverage": "115.17084944526535",
        "directness": "0.783222415219603",
        "directness_lcc": "0.783222415219603",
        "poi_coverage": "19",
        "components": "1",
        "overlap_biketrack": "0",
        "overlap_bikeable": "905.8660000000001",
        "efficiency_global": "0.5451457038144956",
        "efficiency_local": "0.3212578363621991",
        "efficiency_global_routed": "0.8912989759280897",
        "efficiency_local_routed": "0.2667229686080941"
    },
    {
        "length": "137347.81399999984",
        "length_lcc": "137347.81399999984",
        "coverage": "115.17084944526535",
        "directness": "0.7706995852750805",
        "directness_lcc": "0.7706995852750805",
        "poi_coverage": "19",
        "components": "1",
        "overlap_biketrack": "0",
        "overlap_bikeable": "905.8660000000001",
        "efficiency_global": "0.5451457038144956",
        "efficiency_local": "0.3212578363621991",
        "efficiency_global_routed": "0.8912989759280897",
        "efficiency_local_routed": "0.2667229686080941"
    },
    {
        "length": "173252.66100000046",
        "length_lcc": "173252.66100000046",
        "coverage": "137.68883201906078",
        "directness": "0.8066560925831128",
        "directness_lcc": "0.8066560925831128",
        "poi_coverage": "19",
        "components": "1",
        "overlap_biketrack": "0",
        "overlap_bikeable": "905.8660000000001",
        "efficiency_global": "0.5453528623741939",
        "efficiency_local": "0.35245065016241117",
        "efficiency_global_routed": "0.8937474151038904",
        "efficiency_local_routed": "0.3083332475751194"
    },
    {
        "length": "173252.66100000046",
        "length_lcc": "173252.66100000046",
        "coverage": "137.68883201906078",
        "directness": "0.8025824405907837",
        "directness_lcc": "0.8025824405907837",
        "poi_coverage": "19",
        "components": "1",
        "overlap_biketrack": "0",
        "overlap_bikeable": "905.8660000000001",
        "efficiency_global": "0.5453528623741939",
        "efficiency_local": "0.35245065016241117",
        "efficiency_global_routed": "0.8937474151038904",
        "efficiency_local_routed": "0.3083332475751194"
    },
    {
        "length": "210040.9120000003",
        "length_lcc": "210040.9120000003",
        "coverage": "150.92894310173085",
        "directness": "0.7990741610345801",
        "directness_lcc": "0.7990741610345801",
        "poi_coverage": "19",
        "components": "1",
        "overlap_biketrack": "0",
        "overlap_bikeable": "905.8660000000001",
        "efficiency_global": "0.5820354273609274",
        "efficiency_local": "0.5220462373642901",
        "efficiency_global_routed": "0.9144901102984558",
        "efficiency_local_routed": "0.26777283964071413"
    },
    {
        "length": "210040.9120000003",
        "length_lcc": "210040.9120000003",
        "coverage": "150.92894310173085",
        "directness": "0.8082961344545714",
        "directness_lcc": "0.8082961344545714",
        "poi_coverage": "19",
        "components": "1",
        "overlap_biketrack": "0",
        "overlap_bikeable": "905.8660000000001",
        "efficiency_global": "0.5820354273609274",
        "efficiency_local": "0.5220462373642901",
        "efficiency_global_routed": "0.9144901102984558",
        "efficiency_local_routed": "0.26777283964071413"
    },
    {
        "length": "210040.9120000003",
        "length_lcc": "210040.9120000003",
        "coverage": "150.92894310173085",
        "directness": "0.8096625099284211",
        "directness_lcc": "0.8096625099284211",
        "poi_coverage": "19",
        "components": "1",
        "overlap_biketrack": "0",
        "overlap_bikeable": "905.8660000000001",
        "efficiency_global": "0.5820354273609274",
        "efficiency_local": "0.5220462373642901",
        "efficiency_global_routed": "0.9144901102984558",
        "efficiency_local_routed": "0.26777283964071413"
    },
    {
        "length": "210040.9120000003",
        "length_lcc": "210040.9120000003",
        "coverage": "150.92894310173085",
        "directness": "0.8127885193071692",
        "directness_lcc": "0.8127885193071692",
        "poi_coverage": "19",
        "components": "1",
        "overlap_biketrack": "0",
        "overlap_bikeable": "905.8660000000001",
        "efficiency_global": "0.5820354273609274",
        "efficiency_local": "0.5220462373642901",
        "efficiency_global_routed": "0.9144901102984558",
        "efficiency_local_routed": "0.26777283964071413"
    },
    {
        "length": "210040.9120000003",
        "length_lcc": "210040.9120000003",
        "coverage": "150.92894310173085",
        "directness": "0.8041649603713128",
        "directness_lcc": "0.8041649603713128",
        "poi_coverage": "19",
        "components": "1",
        "overlap_biketrack": "0",
        "overlap_bikeable": "905.8660000000001",
        "efficiency_global": "0.5820354273609274",
        "efficiency_local": "0.5220462373642901",
        "efficiency_global_routed": "0.9144901102984558",
        "efficiency_local_routed": "0.26777283964071413"
    },
    {
        "length": "210040.9120000003",
        "length_lcc": "210040.9120000003",
        "coverage": "150.92894310173085",
        "directness": "0.8124928959158553",
        "directness_lcc": "0.8124928959158553",
        "poi_coverage": "19",
        "components": "1",
        "overlap_biketrack": "0",
        "overlap_bikeable": "905.8660000000001",
        "efficiency_global": "0.5820354273609274",
        "efficiency_local": "0.5220462373642901",
        "efficiency_global_routed": "0.9144901102984558",
        "efficiency_local_routed": "0.26777283964071413"
    },
    {
        "length": "210040.9120000003",
        "length_lcc": "210040.9120000003",
        "coverage": "150.92894310173085",
        "directness": "0.8063445559465929",
        "directness_lcc": "0.8063445559465929",
        "poi_coverage": "19",
        "components": "1",
        "overlap_biketrack": "0",
        "overlap_bikeable": "905.8660000000001",
        "efficiency_global": "0.5820354273609274",
        "efficiency_local": "0.5220462373642901",
        "efficiency_global_routed": "0.9144901102984558",
        "efficiency_local_routed": "0.26777283964071413"
    },
    {
        "length": "210040.9120000003",
        "length_lcc": "210040.9120000003",
        "coverage": "150.92894310173085",
        "directness": "0.8164488943479468",
        "directness_lcc": "0.8164488943479468",
        "poi_coverage": "19",
        "components": "1",
        "overlap_biketrack": "0",
        "overlap_bikeable": "905.8660000000001",
        "efficiency_global": "0.5820354273609274",
        "efficiency_local": "0.5220462373642901",
        "efficiency_global_routed": "0.9144901102984558",
        "efficiency_local_routed": "0.26777283964071413"
    },
    {
        "length": "210040.9120000003",
        "length_lcc": "210040.9120000003",
        "coverage": "150.92894310173085",
        "directness": "0.8191769183011475",
        "directness_lcc": "0.8191769183011475",
        "poi_coverage": "19",
        "components": "1",
        "overlap_biketrack": "0",
        "overlap_bikeable": "905.8660000000001",
        "efficiency_global": "0.5910406060394519",
        "efficiency_local": "0.5525229490987824",
        "efficiency_global_routed": "0.9144901102984558",
        "efficiency_local_routed": "0.26777283964071413"
    },
    {
        "length": "210040.9120000003",
        "length_lcc": "210040.9120000003",
        "coverage": "150.92894310173085",
        "directness": "0.812225588944148",
        "directness_lcc": "0.812225588944148",
        "poi_coverage": "19",
        "components": "1",
        "overlap_biketrack": "0",
        "overlap_bikeable": "905.8660000000001",
        "efficiency_global": "0.6073806936201903",
        "efficiency_local": "0.6221528944448715",
        "efficiency_global_routed": "0.9144901102984558",
        "efficiency_local_routed": "0.26777283964071413"
    },
    {
        "length": "210040.9120000003",
        "length_lcc": "210040.9120000003",
        "coverage": "150.92894310173085",
        "directness": "0.8214190987020538",
        "directness_lcc": "0.8214190987020538",
        "poi_coverage": "19",
        "components": "1",
        "overlap_biketrack": "0",
        "overlap_bikeable": "905.8660000000001",
        "efficiency_global": "0.6073806936201903",
        "efficiency_local": "0.6221528944448715",
        "efficiency_global_routed": "0.9144901102984558",
        "efficiency_local_routed": "0.26777283964071413"
    },
    {
        "length": "210040.9120000003",
        "length_lcc": "210040.9120000003",
        "coverage": "150.92894310173085",
        "directness": "0.8090266160396316",
        "directness_lcc": "0.8090266160396316",
        "poi_coverage": "19",
        "components": "1",
        "overlap_biketrack": "0",
        "overlap_bikeable": "905.8660000000001",
        "efficiency_global": "0.6073806936201903",
        "efficiency_local": "0.6221528944448715",
        "efficiency_global_routed": "0.9144901102984558",
        "efficiency_local_routed": "0.26777283964071413"
    },
    {
        "length": "212054.5050000003",
        "length_lcc": "212054.5050000003",
        "coverage": "151.02467746681566",
        "directness": "0.8210356729057913",
        "directness_lcc": "0.8210356729057913",
        "poi_coverage": "19",
        "components": "1",
        "overlap_biketrack": "0",
        "overlap_bikeable": "905.8660000000001",
        "efficiency_global": "0.6074165048902055",
        "efficiency_local": "0.6725371684634306",
        "efficiency_global_routed": "0.9155215792238441",
        "efficiency_local_routed": "0.236317931409086"
    },
    {
        "length": "212054.5050000003",
        "length_lcc": "212054.5050000003",
        "coverage": "151.02467746681566",
        "directness": "0.8232538015482984",
        "directness_lcc": "0.8232538015482984",
        "poi_coverage": "19",
        "components": "1",
        "overlap_biketrack": "0",
        "overlap_bikeable": "905.8660000000001",
        "efficiency_global": "0.6074165048902055",
        "efficiency_local": "0.6911818564435936",
        "efficiency_global_routed": "0.9155215792238441",
        "efficiency_local_routed": "0.236317931409086"
    }
]