[
    {
        "network": "bikeable",
        "length": "452314.47599999886",
        "length_lcc": "17968.477000000006",
        "coverage": "358.8778773461705",
        "directness": "0.7058072927957181",
        "directness_lcc": "0.6912102284339133",
        "poi_coverage": "117",
        "components": "554",
        "efficiency_global": "0.1929867653896243",
        "efficiency_local": "0.06485619177983465",
        "efficiency_global_routed": "0.23882674866345738",
        "efficiency_local_routed": "0.1476060745289402"
    },
    {
        "network": "bikeable_offstreet",
        "length": "267267.8360000021",
        "length_lcc": "17968.477000000006",
        "coverage": "243.1655737484755",
        "directness": "0.7176638536049069",
        "directness_lcc": "0.698239439840169",
        "poi_coverage": "82",
        "components": "273",
        "efficiency_global": "0.28187605694149237",
        "efficiency_local": "0.11860708471104832",
        "efficiency_global_routed": "0.3936492301253267",
        "efficiency_local_routed": "0.1291748103776863"
    },
    {
        "network": "biketrack",
        "length": "213640.00200000076",
        "length_lcc": "12160.684",
        "coverage": "197.92306421848744",
        "directness": "0.7450575649797526",
        "directness_lcc": "0.7594323517154504",
        "poi_coverage": "70",
        "components": "190",
        "efficiency_global": "0.36211013552879484",
        "efficiency_local": "0.11246002911300444",
        "efficiency_global_routed": "0.4123514342765698",
        "efficiency_local_routed": "0.17382710195552875"
    },
    {
        "network": "biketrack_onstreet",
        "length": "18955.509000000016",
        "length_lcc": "3569.090999999997",
        "coverage": "24.240960118378517",
        "directness": "0.8561493455355539",
        "directness_lcc": "0.8340686006745585",
        "poi_coverage": "13",
        "components": "31",
        "efficiency_global": "0.3645884107049626",
        "efficiency_local": "0.0",
        "efficiency_global_routed": "0.20889791147165584",
        "efficiency_local_routed": "0.0"
    },
    {
        "network": "biketrackcarall",
        "length": "7476292.42700025",
        "length_lcc": "7450421.17100026",
        "coverage": "1174.403975841476",
        "directness": "0.8103974260366399",
        "directness_lcc": "0.8172518070126747",
        "poi_coverage": "365",
        "components": "32",
        "efficiency_global": "0.7761013368011747",
        "efficiency_local": "0.14078978404947318",
        "efficiency_global_routed": "0.7803940855973888",
        "efficiency_local_routed": "0.13037899336699033"
    },
    {
        "network": "carall",
        "length": "7281607.934000248",
        "length_lcc": "7281607.934000248",
        "coverage": "1172.4030494164347",
        "directness": "0.8085237926244212",
        "directness_lcc": "0.8085237926244212",
        "poi_coverage": "365",
        "components": "1",
        "efficiency_global": "0.7748276443256843",
        "efficiency_local": "0.10285184216099179",
        "efficiency_global_routed": "0.7780632268062834",
        "efficiency_local_routed": "0.12793787708581736"
    }
]