{
    "features": [
        [
            {
                "type": "Feature",
                "properties": {
                    "stage": 1
                },
                "geometry": {
                    "type": "GeometryCollection",
                    "geometries": []
                }
            }
        ],
        [
            {
                "type": "Feature",
                "properties": {
                    "stage": 2
                },
                "geometry": {
                    "type": "GeometryCollection",
                    "geometries": []
                }
            }
        ],
        [
            {
                "type": "Feature",
                "properties": {
                    "stage": 3
                },
                "geometry": {
                    "type": "GeometryCollection",
                    "geometries": []
                }
            }
        ],
        [
            {
                "type": "Feature",
                "properties": {
                    "stage": 4
                },
                "geometry": {
                    "type": "GeometryCollection",
                    "geometries": [
                        {
                            "type": "LineString",
                            "coordinates": [
                                [
                                    -70.660698,
                                    -33.446534
                                ],
                                [
                                    -70.660592,
                                    -33.446509
                                ]
                            ]
                        },
                        {
                            "type": "LineString",
                            "coordinates": [
                                [
                                    -70.659339,
                                    -33.451589
                                ],
                                [
                                    -70.659385,
                                    -33.451387
                                ]
                            ]
                        },
                        {
                            "type": "LineString",
                            "coordinates": [
                                [
                                    -70.659643,
                                    -33.450496
                                ],
                                [
                                    -70.659385,
                                    -33.451387
                                ]
                            ]
                        },
                        {
                            "type": "LineString",
                            "coordinates": [
                                [
                                    -70.659023,
                                    -33.452666
                                ],
                                [
                                    -70.659051,
                                    -33.452573
                                ]
                            ]
                        },
                        {
                            "type": "LineString",
                            "coordinates": [
                                [
                                    -70.658225,
                                    -33.455115
                                ],
                                [
                                    -70.658294,
                                    -33.454887
                                ]
                            ]
                        },
                        {
                            "type": "LineString",
                            "coordinates": [
                                [
                                    -70.658648,
                                    -33.454008
                                ],
                                [
                                    -70.658771,
                                    -33.45359
                                ]
                            ]
                        },
                        {
                            "type": "LineString",
                            "coordinates": [
                                [
                                    -70.660698,
                                    -33.446534
                                ],
                                [
                                    -70.660605,
                                    -33.447187
                                ]
                            ]
                        },
                        {
                            "type": "LineString",
                            "coordinates": [
                                [
                                    -70.659339,
                                    -33.451589
                                ],
                                [
                                    -70.659194,
                                    -33.452074
                                ]
                            ]
                        },
                        {
                            "type": "LineString",
                            "coordinates": [
                                [
                                    -70.658771,
                                    -33.45359
                                ],
                                [
                                    -70.658919,
                                    -33.453043
                                ]
                            ]
                        },
                        {
                            "type": "LineString",
                            "coordinates": [
                                [
                                    -70.660208,
                                    -33.443587
                                ],
                                [
                                    -70.660278,
                                    -33.443846
                                ]
                            ]
                        },
                        {
                            "type": "LineString",
                            "coordinates": [
                                [
                                    -70.660315,
                                    -33.443963
                                ],
                                [
                                    -70.660278,
                                    -33.443846
                                ]
                            ]
                        },
                        {
                            "type": "LineString",
                            "coordinates": [
                                [
                                    -70.660315,
                                    -33.443963
                                ],
                                [
                                    -70.660351,
                                    -33.44408
                                ]
                            ]
                        },
                        {
                            "type": "LineString",
                            "coordinates": [
                                [
                                    -70.659643,
                                    -33.450496
                                ],
                                [
                                    -70.659738,
                                    -33.450132
                                ]
                            ]
                        },
                        {
                            "type": "LineString",
                            "coordinates": [
                                [
                                    -70.659867,
                                    -33.4497
                                ],
                                [
                                    -70.659738,
                                    -33.450132
                                ]
                            ]
                        },
                        {
                            "type": "LineString",
                            "coordinates": [
                                [
                                    -70.659023,
                                    -33.452666
                                ],
                                [
                                    -70.659011,
                                    -33.452711
                                ]
                            ]
                        },
                        {
                            "type": "LineString",
                            "coordinates": [
                                [
                                    -70.658919,
                                    -33.453043
                                ],
                                [
                                    -70.659011,
                                    -33.452711
                                ]
                            ]
                        },
                        {
                            "type": "LineString",
                            "coordinates": [
                                [
                                    -70.659051,
                                    -33.452573
                                ],
                                [
                                    -70.659085,
                                    -33.452447
                                ]
                            ]
                        },
                        {
                            "type": "LineString",
                            "coordinates": [
                                [
                                    -70.660605,
                                    -33.447187
                                ],
                                [
                                    -70.660562,
                                    -33.447386
                                ]
                            ]
                        },
                        {
                            "type": "LineString",
                            "coordinates": [
                                [
                                    -70.660503,
                                    -33.447641
                                ],
                                [
                                    -70.660562,
                                    -33.447386
                                ]
                            ]
                        },
                        {
                            "type": "LineString",
                            "coordinates": [
                                [
                                    -70.660632,
                                    -33.444905
                                ],
                                [
                                    -70.660602,
                                    -33.444851
                                ]
                            ]
                        },
                        {
                            "type": "LineString",
                            "coordinates": [
                                [
                                    -70.660699,
                                    -33.445088
                                ],
                                [
                                    -70.660711,
                                    -33.445144
                                ]
                            ]
                        },
                        {
                            "type": "LineString",
                            "coordinates": [
                                [
                                    -70.658648,
                                    -33.454008
                                ],
                                [
                                    -70.65858,
                                    -33.454246
                                ]
                            ]
                        },
                        {
                            "type": "LineString",
                            "coordinates": [
                                [
                                    -70.658425,
                                    -33.454659
                                ],
                                [
                                    -70.658396,
                                    -33.454716
                                ]
                            ]
                        },
                        {
                            "type": "LineString",
                            "coordinates": [
                                [
                                    -70.657862,
                                    -33.456428
                                ],
                                [
                                    -70.657837,
                                    -33.45647
                                ]
                            ]
                        },
                        {
                            "type": "LineString",
                            "coordinates": [
                                [
                                    -70.657837,
                                    -33.45647
                                ],
                                [
                                    -70.657805,
                                    -33.456499
                                ]
                            ]
                        },
                        {
                            "type": "LineString",
                            "coordinates": [
                                [
                                    -70.657805,
                                    -33.456499
                                ],
                                [
                                    -70.657774,
                                    -33.456513
                                ]
                            ]
                        },
                        {
                            "type": "LineString",
                            "coordinates": [
                                [
                                    -70.657774,
                                    -33.456513
                                ],
                                [
                                    -70.657747,
                                    -33.456522
                                ]
                            ]
                        },
                        {
                            "type": "LineString",
                            "coordinates": [
                                [
                                    -70.657747,
                                    -33.456522
                                ],
                                [
                                    -70.657725,
                                    -33.456528
                                ]
                            ]
                        },
                        {
                            "type": "LineString",
                            "coordinates": [
                                [
                                    -70.657725,
                                    -33.456528
                                ],
                                [
                                    -70.657702,
                                    -33.456534
                                ]
                            ]
                        },
                        {
                            "type": "LineString",
                            "coordinates": [
                                [
                                    -70.657582,
                                    -33.456539
                                ],
                                [
                                    -70.657673,
                                    -33.456539
                                ]
                            ]
                        },
                        {
                            "type": "LineString",
                            "coordinates": [
                                [
                                    -70.657702,
                                    -33.456534
                                ],
                                [
                                    -70.657673,
                                    -33.456539
                                ]
                            ]
                        },
                        {
                            "type": "LineString",
                            "coordinates": [
                                [
                                    -70.659981,
                                    -33.449333
                                ],
                                [
                                    -70.660039,
                                    -33.449135
                                ]
                            ]
                        },
                        {
                            "type": "LineString",
                            "coordinates": [
                                [
                                    -70.660503,
                                    -33.447641
                                ],
                                [
                                    -70.660258,
                                    -33.448417
                                ]
                            ]
                        },
                        {
                            "type": "LineString",
                            "coordinates": [
                                [
                                    -70.660039,
                                    -33.449135
                                ],
                                [
                                    -70.660258,
                                    -33.448417
                                ]
                            ]
                        },
                        {
                            "type": "LineString",
                            "coordinates": [
                                [
                                    -70.659194,
                                    -33.452074
                                ],
                                [
                                    -70.659187,
                                    -33.452099
                                ]
                            ]
                        },
                        {
                            "type": "LineString",
                            "coordinates": [
                                [
                                    -70.659085,
                                    -33.452447
                                ],
                                [
                                    -70.659187,
                                    -33.452099
                                ]
                            ]
                        },
                        {
                            "type": "LineString",
                            "coordinates": [
                                [
                                    -70.660208,
                                    -33.443587
                                ],
                                [
                                    -70.660112,
                                    -33.443279
                                ]
                            ]
                        },
                        {
                            "type": "LineString",
                            "coordinates": [
                                [
                                    -70.660112,
                                    -33.443279
                                ],
                                [
                                    -70.659988,
                                    -33.442881
                                ]
                            ]
                        },
                        {
                            "type": "LineString",
                            "coordinates": [
                                [
                                    -70.659867,
                                    -33.4497
                                ],
                                [
                                    -70.65996,
                                    -33.449396
                                ]
                            ]
                        },
                        {
                            "type": "LineString",
                            "coordinates": [
                                [
                                    -70.659981,
                                    -33.449333
                                ],
                                [
                                    -70.65996,
                                    -33.449396
                                ]
                            ]
                        },
                        {
                            "type": "LineString",
                            "coordinates": [
                                [
                                    -70.65977,
                                    -33.441898
                                ],
                                [
                                    -70.659824,
                                    -33.442163
                                ]
                            ]
                        },
                        {
                            "type": "LineString",
                            "coordinates": [
                                [
                                    -70.659988,
                                    -33.442881
                                ],
                                [
                                    -70.659824,
                                    -33.442163
                                ]
                            ]
                        },
                        {
                            "type": "LineString",
                            "coordinates": [
                                [
                                    -70.660411,
                                    -33.444394
                                ],
                                [
                                    -70.660423,
                                    -33.444456
                                ]
                            ]
                        },
                        {
                            "type": "LineString",
                            "coordinates": [
                                [
                                    -70.660435,
                                    -33.444507
                                ],
                                [
                                    -70.660423,
                                    -33.444456
                                ]
                            ]
                        },
                        {
                            "type": "LineString",
                            "coordinates": [
                                [
                                    -70.660492,
                                    -33.444644
                                ],
                                [
                                    -70.660464,
                                    -33.444582
                                ]
                            ]
                        },
                        {
                            "type": "LineString",
                            "coordinates": [
                                [
                                    -70.658294,
                                    -33.454887
                                ],
                                [
                                    -70.658304,
                                    -33.454854
                                ]
                            ]
                        },
                        {
                            "type": "LineString",
                            "coordinates": [
                                [
                                    -70.658337,
                                    -33.45481
                                ],
                                [
                                    -70.658304,
                                    -33.454854
                                ]
                            ]
                        },
                        {
                            "type": "LineString",
                            "coordinates": [
                                [
                                    -70.660351,
                                    -33.44408
                                ],
                                [
                                    -70.66037,
                                    -33.444164
                                ]
                            ]
                        },
                        {
                            "type": "LineString",
                            "coordinates": [
                                [
                                    -70.66037,
                                    -33.444164
                                ],
                                [
                                    -70.660386,
                                    -33.444236
                                ]
                            ]
                        },
                        {
                            "type": "LineString",
                            "coordinates": [
                                [
                                    -70.660411,
                                    -33.444394
                                ],
                                [
                                    -70.660399,
                                    -33.444324
                                ]
                            ]
                        },
                        {
                            "type": "LineString",
                            "coordinates": [
                                [
                                    -70.660386,
                                    -33.444236
                                ],
                                [
                                    -70.660399,
                                    -33.444324
                                ]
                            ]
                        },
                        {
                            "type": "LineString",
                            "coordinates": [
                                [
                                    -70.660435,
                                    -33.444507
                                ],
                                [
                                    -70.66045,
                                    -33.444549
                                ]
                            ]
                        },
                        {
                            "type": "LineString",
                            "coordinates": [
                                [
                                    -70.660464,
                                    -33.444582
                                ],
                                [
                                    -70.66045,
                                    -33.444549
                                ]
                            ]
                        },
                        {
                            "type": "LineString",
                            "coordinates": [
                                [
                                    -70.660492,
                                    -33.444644
                                ],
                                [
                                    -70.660537,
                                    -33.44473
                                ]
                            ]
                        },
                        {
                            "type": "LineString",
                            "coordinates": [
                                [
                                    -70.660602,
                                    -33.444851
                                ],
                                [
                                    -70.660537,
                                    -33.44473
                                ]
                            ]
                        },
                        {
                            "type": "LineString",
                            "coordinates": [
                                [
                                    -70.660632,
                                    -33.444905
                                ],
                                [
                                    -70.660655,
                                    -33.444954
                                ]
                            ]
                        },
                        {
                            "type": "LineString",
                            "coordinates": [
                                [
                                    -70.660672,
                                    -33.444997
                                ],
                                [
                                    -70.660655,
                                    -33.444954
                                ]
                            ]
                        },
                        {
                            "type": "LineString",
                            "coordinates": [
                                [
                                    -70.660699,
                                    -33.445088
                                ],
                                [
                                    -70.660687,
                                    -33.445041
                                ]
                            ]
                        },
                        {
                            "type": "LineString",
                            "coordinates": [
                                [
                                    -70.660672,
                                    -33.444997
                                ],
                                [
                                    -70.660687,
                                    -33.445041
                                ]
                            ]
                        },
                        {
                            "type": "LineString",
                            "coordinates": [
                                [
                                    -70.66072,
                                    -33.445245
                                ],
                                [
                                    -70.660717,
                                    -33.44519
                                ]
                            ]
                        },
                        {
                            "type": "LineString",
                            "coordinates": [
                                [
                                    -70.660711,
                                    -33.445144
                                ],
                                [
                                    -70.660717,
                                    -33.44519
                                ]
                            ]
                        },
                        {
                            "type": "LineString",
                            "coordinates": [
                                [
                                    -70.66072,
                                    -33.445245
                                ],
                                [
                                    -70.66072,
                                    -33.445306
                                ]
                            ]
                        },
                        {
                            "type": "LineString",
                            "coordinates": [
                                [
                                    -70.660715,
                                    -33.445371
                                ],
                                [
                                    -70.66072,
                                    -33.445306
                                ]
                            ]
                        },
                        {
                            "type": "LineString",
                            "coordinates": [
                                [
                                    -70.660715,
                                    -33.445371
                                ],
                                [
                                    -70.660712,
                                    -33.445425
                                ]
                            ]
                        },
                        {
                            "type": "LineString",
                            "coordinates": [
                                [
                                    -70.660646,
                                    -33.44597
                                ],
                                [
                                    -70.660712,
                                    -33.445425
                                ]
                            ]
                        },
                        {
                            "type": "LineString",
                            "coordinates": [
                                [
                                    -70.65858,
                                    -33.454246
                                ],
                                [
                                    -70.658559,
                                    -33.454318
                                ]
                            ]
                        },
                        {
                            "type": "LineString",
                            "coordinates": [
                                [
                                    -70.65854,
                                    -33.454382
                                ],
                                [
                                    -70.658559,
                                    -33.454318
                                ]
                            ]
                        },
                        {
                            "type": "LineString",
                            "coordinates": [
                                [
                                    -70.65854,
                                    -33.454382
                                ],
                                [
                                    -70.658514,
                                    -33.454456
                                ]
                            ]
                        },
                        {
                            "type": "LineString",
                            "coordinates": [
                                [
                                    -70.658488,
                                    -33.454525
                                ],
                                [
                                    -70.658514,
                                    -33.454456
                                ]
                            ]
                        },
                        {
                            "type": "LineString",
                            "coordinates": [
                                [
                                    -70.658425,
                                    -33.454659
                                ],
                                [
                                    -70.658456,
                                    -33.454598
                                ]
                            ]
                        },
                        {
                            "type": "LineString",
                            "coordinates": [
                                [
                                    -70.658488,
                                    -33.454525
                                ],
                                [
                                    -70.658456,
                                    -33.454598
                                ]
                            ]
                        },
                        {
                            "type": "LineString",
                            "coordinates": [
                                [
                                    -70.658396,
                                    -33.454716
                                ],
                                [
                                    -70.65837,
                                    -33.454761
                                ]
                            ]
                        },
                        {
                            "type": "LineString",
                            "coordinates": [
                                [
                                    -70.658337,
                                    -33.45481
                                ],
                                [
                                    -70.65837,
                                    -33.454761
                                ]
                            ]
                        },
                        {
                            "type": "LineString",
                            "coordinates": [
                                [
                                    -70.660592,
                                    -33.446509
                                ],
                                [
                                    -70.660602,
                                    -33.446417
                                ]
                            ]
                        },
                        {
                            "type": "LineString",
                            "coordinates": [
                                [
                                    -70.660646,
                                    -33.44597
                                ],
                                [
                                    -70.660602,
                                    -33.446417
                                ]
                            ]
                        },
                        {
                            "type": "LineString",
                            "coordinates": [
                                [
                                    -70.658225,
                                    -33.455115
                                ],
                                [
                                    -70.658046,
                                    -33.45576
                                ]
                            ]
                        },
                        {
                            "type": "LineString",
                            "coordinates": [
                                [
                                    -70.657862,
                                    -33.456428
                                ],
                                [
                                    -70.658046,
                                    -33.45576
                                ]
                            ]
                        }
                    ]
                }
            }
        ],
        [
            {
                "type": "Feature",
                "properties": {
                    "stage": 5
                },
                "geometry": {
                    "type": "GeometryCollection",
                    "geometries": []
                }
            }
        ],
        [
            {
                "type": "Feature",
                "properties": {
                    "stage": 6
                },
                "geometry": {
                    "type": "GeometryCollection",
                    "geometries": []
                }
            }
        ],
        [
            {
                "type": "Feature",
                "properties": {
                    "stage": 7
                },
                "geometry": {
                    "type": "GeometryCollection",
                    "geometries": []
                }
            }
        ],
        [
            {
                "type": "Feature",
                "properties": {
                    "stage": 8
                },
                "geometry": {
                    "type": "GeometryCollection",
                    "geometries": [
                        {
                            "type": "LineString",
                            "coordinates": [
                                [
                                    -70.668366,
                                    -33.457847
                                ],
                                [
                                    -70.666462,
                                    -33.457498
                                ]
                            ]
                        },
                        {
                            "type": "LineString",
                            "coordinates": [
                                [
                                    -70.659688,
                                    -33.456591
                                ],
                                [
                                    -70.657862,
                                    -33.456428
                                ]
                            ]
                        },
                        {
                            "type": "LineString",
                            "coordinates": [
                                [
                                    -70.668777,
                                    -33.456026
                                ],
                                [
                                    -70.672245,
                                    -33.456719
                                ]
                            ]
                        },
                        {
                            "type": "LineString",
                            "coordinates": [
                                [
                                    -70.672245,
                                    -33.456719
                                ],
                                [
                                    -70.672567,
                                    -33.456782
                                ]
                            ]
                        },
                        {
                            "type": "LineString",
                            "coordinates": [
                                [
                                    -70.672567,
                                    -33.456782
                                ],
                                [
                                    -70.67397,
                                    -33.457029
                                ]
                            ]
                        },
                        {
                            "type": "LineString",
                            "coordinates": [
                                [
                                    -70.661738,
                                    -33.446239
                                ],
                                [
                                    -70.661472,
                                    -33.446175
                                ]
                            ]
                        },
                        {
                            "type": "LineString",
                            "coordinates": [
                                [
                                    -70.663726,
                                    -33.4467
                                ],
                                [
                                    -70.662573,
                                    -33.446441
                                ]
                            ]
                        },
                        {
                            "type": "LineString",
                            "coordinates": [
                                [
                                    -70.661738,
                                    -33.446239
                                ],
                                [
                                    -70.662573,
                                    -33.446441
                                ]
                            ]
                        },
                        {
                            "type": "LineString",
                            "coordinates": [
                                [
                                    -70.664716,
                                    -33.449168
                                ],
                                [
                                    -70.664733,
                                    -33.450307
                                ]
                            ]
                        },
                        {
                            "type": "LineString",
                            "coordinates": [
                                [
                                    -70.665078,
                                    -33.454121
                                ],
                                [
                                    -70.665074,
                                    -33.454374
                                ]
                            ]
                        },
                        {
                            "type": "LineString",
                            "coordinates": [
                                [
                                    -70.659688,
                                    -33.456591
                                ],
                                [
                                    -70.660184,
                                    -33.456634
                                ]
                            ]
                        },
                        {
                            "type": "LineString",
                            "coordinates": [
                                [
                                    -70.668777,
                                    -33.456026
                                ],
                                [
                                    -70.666943,
                                    -33.455671
                                ]
                            ]
                        },
                        {
                            "type": "LineString",
                            "coordinates": [
                                [
                                    -70.666763,
                                    -33.455635
                                ],
                                [
                                    -70.666192,
                                    -33.455518
                                ]
                            ]
                        },
                        {
                            "type": "LineString",
                            "coordinates": [
                                [
                                    -70.673616,
                                    -33.458555
                                ],
                                [
                                    -70.67487,
                                    -33.458642
                                ]
                            ]
                        },
                        {
                            "type": "LineString",
                            "coordinates": [
                                [
                                    -70.674899,
                                    -33.458486
                                ],
                                [
                                    -70.67487,
                                    -33.458642
                                ]
                            ]
                        },
                        {
                            "type": "LineString",
                            "coordinates": [
                                [
                                    -70.675191,
                                    -33.458656
                                ],
                                [
                                    -70.67487,
                                    -33.458642
                                ]
                            ]
                        },
                        {
                            "type": "LineString",
                            "coordinates": [
                                [
                                    -70.660771,
                                    -33.445997
                                ],
                                [
                                    -70.660646,
                                    -33.44597
                                ]
                            ]
                        },
                        {
                            "type": "LineString",
                            "coordinates": [
                                [
                                    -70.664028,
                                    -33.45715
                                ],
                                [
                                    -70.662535,
                                    -33.457025
                                ]
                            ]
                        },
                        {
                            "type": "LineString",
                            "coordinates": [
                                [
                                    -70.661142,
                                    -33.45691
                                ],
                                [
                                    -70.662535,
                                    -33.457025
                                ]
                            ]
                        },
                        {
                            "type": "LineString",
                            "coordinates": [
                                [
                                    -70.664028,
                                    -33.45715
                                ],
                                [
                                    -70.665011,
                                    -33.457234
                                ]
                            ]
                        },
                        {
                            "type": "LineString",
                            "coordinates": [
                                [
                                    -70.666462,
                                    -33.457498
                                ],
                                [
                                    -70.665011,
                                    -33.457234
                                ]
                            ]
                        },
                        {
                            "type": "LineString",
                            "coordinates": [
                                [
                                    -70.673616,
                                    -33.458555
                                ],
                                [
                                    -70.672116,
                                    -33.458479
                                ]
                            ]
                        },
                        {
                            "type": "LineString",
                            "coordinates": [
                                [
                                    -70.660539,
                                    -33.456667
                                ],
                                [
                                    -70.660864,
                                    -33.456696
                                ]
                            ]
                        },
                        {
                            "type": "LineString",
                            "coordinates": [
                                [
                                    -70.661017,
                                    -33.456707
                                ],
                                [
                                    -70.660864,
                                    -33.456696
                                ]
                            ]
                        },
                        {
                            "type": "LineString",
                            "coordinates": [
                                [
                                    -70.661017,
                                    -33.456707
                                ],
                                [
                                    -70.66102,
                                    -33.456766
                                ]
                            ]
                        },
                        {
                            "type": "LineString",
                            "coordinates": [
                                [
                                    -70.66102,
                                    -33.456766
                                ],
                                [
                                    -70.661042,
                                    -33.456813
                                ]
                            ]
                        },
                        {
                            "type": "LineString",
                            "coordinates": [
                                [
                                    -70.661042,
                                    -33.456813
                                ],
                                [
                                    -70.661072,
                                    -33.456847
                                ]
                            ]
                        },
                        {
                            "type": "LineString",
                            "coordinates": [
                                [
                                    -70.661142,
                                    -33.45691
                                ],
                                [
                                    -70.661101,
                                    -33.456877
                                ]
                            ]
                        },
                        {
                            "type": "LineString",
                            "coordinates": [
                                [
                                    -70.661072,
                                    -33.456847
                                ],
                                [
                                    -70.661101,
                                    -33.456877
                                ]
                            ]
                        },
                        {
                            "type": "LineString",
                            "coordinates": [
                                [
                                    -70.664733,
                                    -33.450307
                                ],
                                [
                                    -70.664647,
                                    -33.451242
                                ]
                            ]
                        },
                        {
                            "type": "LineString",
                            "coordinates": [
                                [
                                    -70.664647,
                                    -33.451242
                                ],
                                [
                                    -70.66467,
                                    -33.451344
                                ]
                            ]
                        },
                        {
                            "type": "LineString",
                            "coordinates": [
                                [
                                    -70.66467,
                                    -33.451344
                                ],
                                [
                                    -70.664681,
                                    -33.451383
                                ]
                            ]
                        },
                        {
                            "type": "LineString",
                            "coordinates": [
                                [
                                    -70.664681,
                                    -33.451383
                                ],
                                [
                                    -70.664699,
                                    -33.451431
                                ]
                            ]
                        },
                        {
                            "type": "LineString",
                            "coordinates": [
                                [
                                    -70.664699,
                                    -33.451431
                                ],
                                [
                                    -70.664726,
                                    -33.451483
                                ]
                            ]
                        },
                        {
                            "type": "LineString",
                            "coordinates": [
                                [
                                    -70.664634,
                                    -33.447268
                                ],
                                [
                                    -70.664557,
                                    -33.447011
                                ]
                            ]
                        },
                        {
                            "type": "LineString",
                            "coordinates": [
                                [
                                    -70.664716,
                                    -33.449168
                                ],
                                [
                                    -70.664759,
                                    -33.448158
                                ]
                            ]
                        },
                        {
                            "type": "LineString",
                            "coordinates": [
                                [
                                    -70.660771,
                                    -33.445997
                                ],
                                [
                                    -70.661103,
                                    -33.446084
                                ]
                            ]
                        },
                        {
                            "type": "LineString",
                            "coordinates": [
                                [
                                    -70.661472,
                                    -33.446175
                                ],
                                [
                                    -70.661103,
                                    -33.446084
                                ]
                            ]
                        },
                        {
                            "type": "LineString",
                            "coordinates": [
                                [
                                    -70.668366,
                                    -33.457847
                                ],
                                [
                                    -70.67025,
                                    -33.458178
                                ]
                            ]
                        },
                        {
                            "type": "LineString",
                            "coordinates": [
                                [
                                    -70.672116,
                                    -33.458479
                                ],
                                [
                                    -70.671812,
                                    -33.458452
                                ]
                            ]
                        },
                        {
                            "type": "LineString",
                            "coordinates": [
                                [
                                    -70.67025,
                                    -33.458178
                                ],
                                [
                                    -70.671812,
                                    -33.458452
                                ]
                            ]
                        },
                        {
                            "type": "LineString",
                            "coordinates": [
                                [
                                    -70.664798,
                                    -33.451589
                                ],
                                [
                                    -70.664828,
                                    -33.451636
                                ]
                            ]
                        },
                        {
                            "type": "LineString",
                            "coordinates": [
                                [
                                    -70.665074,
                                    -33.454374
                                ],
                                [
                                    -70.665055,
                                    -33.455065
                                ]
                            ]
                        },
                        {
                            "type": "LineString",
                            "coordinates": [
                                [
                                    -70.66505,
                                    -33.455175
                                ],
                                [
                                    -70.665055,
                                    -33.455065
                                ]
                            ]
                        },
                        {
                            "type": "LineString",
                            "coordinates": [
                                [
                                    -70.660539,
                                    -33.456667
                                ],
                                [
                                    -70.660451,
                                    -33.45666
                                ]
                            ]
                        },
                        {
                            "type": "LineString",
                            "coordinates": [
                                [
                                    -70.660184,
                                    -33.456634
                                ],
                                [
                                    -70.660451,
                                    -33.45666
                                ]
                            ]
                        },
                        {
                            "type": "LineString",
                            "coordinates": [
                                [
                                    -70.665051,
                                    -33.452902
                                ],
                                [
                                    -70.665062,
                                    -33.452957
                                ]
                            ]
                        },
                        {
                            "type": "LineString",
                            "coordinates": [
                                [
                                    -70.665062,
                                    -33.452957
                                ],
                                [
                                    -70.665071,
                                    -33.453008
                                ]
                            ]
                        },
                        {
                            "type": "LineString",
                            "coordinates": [
                                [
                                    -70.66453,
                                    -33.44689
                                ],
                                [
                                    -70.664316,
                                    -33.446839
                                ]
                            ]
                        },
                        {
                            "type": "LineString",
                            "coordinates": [
                                [
                                    -70.675191,
                                    -33.458656
                                ],
                                [
                                    -70.675701,
                                    -33.458736
                                ]
                            ]
                        },
                        {
                            "type": "LineString",
                            "coordinates": [
                                [
                                    -70.676112,
                                    -33.458759
                                ],
                                [
                                    -70.675701,
                                    -33.458736
                                ]
                            ]
                        },
                        {
                            "type": "LineString",
                            "coordinates": [
                                [
                                    -70.665078,
                                    -33.454121
                                ],
                                [
                                    -70.665084,
                                    -33.453215
                                ]
                            ]
                        },
                        {
                            "type": "LineString",
                            "coordinates": [
                                [
                                    -70.665081,
                                    -33.453115
                                ],
                                [
                                    -70.665084,
                                    -33.453215
                                ]
                            ]
                        },
                        {
                            "type": "LineString",
                            "coordinates": [
                                [
                                    -70.664798,
                                    -33.451589
                                ],
                                [
                                    -70.66476,
                                    -33.451531
                                ]
                            ]
                        },
                        {
                            "type": "LineString",
                            "coordinates": [
                                [
                                    -70.664726,
                                    -33.451483
                                ],
                                [
                                    -70.66476,
                                    -33.451531
                                ]
                            ]
                        },
                        {
                            "type": "LineString",
                            "coordinates": [
                                [
                                    -70.666763,
                                    -33.455635
                                ],
                                [
                                    -70.666843,
                                    -33.45565
                                ]
                            ]
                        },
                        {
                            "type": "LineString",
                            "coordinates": [
                                [
                                    -70.666943,
                                    -33.455671
                                ],
                                [
                                    -70.666843,
                                    -33.45565
                                ]
                            ]
                        },
                        {
                            "type": "LineString",
                            "coordinates": [
                                [
                                    -70.666192,
                                    -33.455518
                                ],
                                [
                                    -70.665047,
                                    -33.455282
                                ]
                            ]
                        },
                        {
                            "type": "LineString",
                            "coordinates": [
                                [
                                    -70.66505,
                                    -33.455175
                                ],
                                [
                                    -70.665047,
                                    -33.455282
                                ]
                            ]
                        },
                        {
                            "type": "LineString",
                            "coordinates": [
                                [
                                    -70.674899,
                                    -33.458486
                                ],
                                [
                                    -70.675195,
                                    -33.457271
                                ]
                            ]
                        },
                        {
                            "type": "LineString",
                            "coordinates": [
                                [
                                    -70.67397,
                                    -33.457029
                                ],
                                [
                                    -70.675195,
                                    -33.457271
                                ]
                            ]
                        },
                        {
                            "type": "LineString",
                            "coordinates": [
                                [
                                    -70.664759,
                                    -33.448158
                                ],
                                [
                                    -70.664765,
                                    -33.447674
                                ]
                            ]
                        },
                        {
                            "type": "LineString",
                            "coordinates": [
                                [
                                    -70.664765,
                                    -33.447674
                                ],
                                [
                                    -70.664763,
                                    -33.44756
                                ]
                            ]
                        },
                        {
                            "type": "LineString",
                            "coordinates": [
                                [
                                    -70.664737,
                                    -33.447416
                                ],
                                [
                                    -70.664753,
                                    -33.447484
                                ]
                            ]
                        },
                        {
                            "type": "LineString",
                            "coordinates": [
                                [
                                    -70.664763,
                                    -33.44756
                                ],
                                [
                                    -70.664753,
                                    -33.447484
                                ]
                            ]
                        },
                        {
                            "type": "LineString",
                            "coordinates": [
                                [
                                    -70.665081,
                                    -33.453115
                                ],
                                [
                                    -70.665077,
                                    -33.453064
                                ]
                            ]
                        },
                        {
                            "type": "LineString",
                            "coordinates": [
                                [
                                    -70.665071,
                                    -33.453008
                                ],
                                [
                                    -70.665077,
                                    -33.453064
                                ]
                            ]
                        },
                        {
                            "type": "LineString",
                            "coordinates": [
                                [
                                    -70.657582,
                                    -33.456539
                                ],
                                [
                                    -70.659366,
                                    -33.456707
                                ]
                            ]
                        },
                        {
                            "type": "LineString",
                            "coordinates": [
                                [
                                    -70.659366,
                                    -33.456707
                                ],
                                [
                                    -70.659443,
                                    -33.45669
                                ]
                            ]
                        },
                        {
                            "type": "LineString",
                            "coordinates": [
                                [
                                    -70.659443,
                                    -33.45669
                                ],
                                [
                                    -70.659525,
                                    -33.456665
                                ]
                            ]
                        },
                        {
                            "type": "LineString",
                            "coordinates": [
                                [
                                    -70.659688,
                                    -33.456591
                                ],
                                [
                                    -70.659593,
                                    -33.456637
                                ]
                            ]
                        },
                        {
                            "type": "LineString",
                            "coordinates": [
                                [
                                    -70.659525,
                                    -33.456665
                                ],
                                [
                                    -70.659593,
                                    -33.456637
                                ]
                            ]
                        },
                        {
                            "type": "LineString",
                            "coordinates": [
                                [
                                    -70.663726,
                                    -33.4467
                                ],
                                [
                                    -70.664242,
                                    -33.446821
                                ]
                            ]
                        },
                        {
                            "type": "LineString",
                            "coordinates": [
                                [
                                    -70.664316,
                                    -33.446839
                                ],
                                [
                                    -70.664242,
                                    -33.446821
                                ]
                            ]
                        },
                        {
                            "type": "LineString",
                            "coordinates": [
                                [
                                    -70.66453,
                                    -33.44689
                                ],
                                [
                                    -70.664543,
                                    -33.446953
                                ]
                            ]
                        },
                        {
                            "type": "LineString",
                            "coordinates": [
                                [
                                    -70.664557,
                                    -33.447011
                                ],
                                [
                                    -70.664543,
                                    -33.446953
                                ]
                            ]
                        },
                        {
                            "type": "LineString",
                            "coordinates": [
                                [
                                    -70.664634,
                                    -33.447268
                                ],
                                [
                                    -70.664646,
                                    -33.447309
                                ]
                            ]
                        },
                        {
                            "type": "LineString",
                            "coordinates": [
                                [
                                    -70.664665,
                                    -33.447346
                                ],
                                [
                                    -70.664646,
                                    -33.447309
                                ]
                            ]
                        },
                        {
                            "type": "LineString",
                            "coordinates": [
                                [
                                    -70.664665,
                                    -33.447346
                                ],
                                [
                                    -70.664685,
                                    -33.447372
                                ]
                            ]
                        },
                        {
                            "type": "LineString",
                            "coordinates": [
                                [
                                    -70.664737,
                                    -33.447416
                                ],
                                [
                                    -70.664709,
                                    -33.447395
                                ]
                            ]
                        },
                        {
                            "type": "LineString",
                            "coordinates": [
                                [
                                    -70.664685,
                                    -33.447372
                                ],
                                [
                                    -70.664709,
                                    -33.447395
                                ]
                            ]
                        },
                        {
                            "type": "LineString",
                            "coordinates": [
                                [
                                    -70.665051,
                                    -33.452902
                                ],
                                [
                                    -70.664877,
                                    -33.451751
                                ]
                            ]
                        },
                        {
                            "type": "LineString",
                            "coordinates": [
                                [
                                    -70.664877,
                                    -33.451751
                                ],
                                [
                                    -70.664859,
                                    -33.451701
                                ]
                            ]
                        },
                        {
                            "type": "LineString",
                            "coordinates": [
                                [
                                    -70.664828,
                                    -33.451636
                                ],
                                [
                                    -70.664839,
                                    -33.451659
                                ]
                            ]
                        },
                        {
                            "type": "LineString",
                            "coordinates": [
                                [
                                    -70.664859,
                                    -33.451701
                                ],
                                [
                                    -70.664839,
                                    -33.451659
                                ]
                            ]
                        }
                    ]
                }
            }
        ],
        [
            {
                "type": "Feature",
                "properties": {
                    "stage": 9
                },
                "geometry": {
                    "type": "GeometryCollection",
                    "geometries": []
                }
            }
        ],
        [
            {
                "type": "Feature",
                "properties": {
                    "stage": 10
                },
                "geometry": {
                    "type": "GeometryCollection",
                    "geometries": []
                }
            }
        ]
    ]
}