[
    {
        "length": "72245.66500000004",
        "length_lcc": "52774.012000000104",
        "coverage": "67.9477870642045",
        "directness": "0.7117835847556516",
        "directness_lcc": "0.704206214630906",
        "poi_coverage": "35",
        "components": "5",
        "overlap_biketrack": "0",
        "overlap_bikeable": "3650.2879999999977",
        "efficiency_global": "0.35809721556553814",
        "efficiency_local": "0.0",
        "efficiency_global_routed": "0.8575270822053388",
        "efficiency_local_routed": "0.22387814277959509"
    },
    {
        "length": "144731.91800000073",
        "length_lcc": "118525.40199999984",
        "coverage": "131.22275976818747",
        "directness": "0.6172983361396029",
        "directness_lcc": "0.6244382849938819",
        "poi_coverage": "62",
        "components": "4",
        "overlap_biketrack": "1523.9779999999998",
        "overlap_bikeable": "7163.950999999999",
        "efficiency_global": "0.43619152361748187",
        "efficiency_local": "0.0",
        "efficiency_global_routed": "0.8684052651570076",
        "efficiency_local_routed": "0.2837802164395815"
    },
    {
        "length": "213096.3750000003",
        "length_lcc": "195435.8810000003",
        "coverage": "181.86383885466796",
        "directness": "0.6296848007376805",
        "directness_lcc": "0.6344839409508822",
        "poi_coverage": "81",
        "components": "2",
        "overlap_biketrack": "1523.9779999999998",
        "overlap_bikeable": "8081.728",
        "efficiency_global": "0.5414631084646515",
        "efficiency_local": "0.02242150418081658",
        "efficiency_global_routed": "0.8656291349907012",
        "efficiency_local_routed": "0.2479283660372293"
    },
    {
        "length": "287720.496999998",
        "length_lcc": "281728.9739999991",
        "coverage": "242.59295773042254",
        "directness": "0.6244426979230587",
        "directness_lcc": "0.6187579832279245",
        "poi_coverage": "107",
        "components": "3",
        "overlap_biketrack": "1572.9929999999995",
        "overlap_bikeable": "12901.203000000012",
        "efficiency_global": "0.521145571144361",
        "efficiency_local": "0.02487621588874427",
        "efficiency_global_routed": "0.8079081459293453",
        "efficiency_local_routed": "0.1679159010893902"
    },
    {
        "length": "360581.8669999975",
        "length_lcc": "345940.2939999966",
        "coverage": "301.0341911023535",
        "directness": "0.632962585049028",
        "directness_lcc": "0.6346821068990592",
        "poi_coverage": "133",
        "components": "4",
        "overlap_biketrack": "1739.5199999999995",
        "overlap_bikeable": "13642.706000000011",
        "efficiency_global": "0.5022434979265159",
        "efficiency_local": "0.018090552410786137",
        "efficiency_global_routed": "0.7816887965231312",
        "efficiency_local_routed": "0.22683872574418276"
    },
    {
        "length": "420274.48899999994",
        "length_lcc": "407157.6150000001",
        "coverage": "343.88251514491304",
        "directness": "0.6404039371635164",
        "directness_lcc": "0.6461858138136101",
        "poi_coverage": "152",
        "components": "5",
        "overlap_biketrack": "2216.86",
        "overlap_bikeable": "16184.116000000013",
        "efficiency_global": "0.517731220659078",
        "efficiency_local": "0.0670013907894072",
        "efficiency_global_routed": "0.783962138665904",
        "efficiency_local_routed": "0.2243853807353614"
    },
    {
        "length": "485456.614",
        "length_lcc": "480712.4759999998",
        "coverage": "388.3671424665491",
        "directness": "0.6665661454153559",
        "directness_lcc": "0.6579607213476967",
        "poi_coverage": "170",
        "components": "3",
        "overlap_biketrack": "2216.86",
        "overlap_bikeable": "17796.517999999982",
        "efficiency_global": "0.5579416883790478",
        "efficiency_local": "0.05652854164464771",
        "efficiency_global_routed": "0.7931952248609316",
        "efficiency_local_routed": "0.2325048225439416"
    },
    {
        "length": "559752.3249999991",
        "length_lcc": "559752.3249999991",
        "coverage": "437.9746796387642",
        "directness": "0.671792434241798",
        "directness_lcc": "0.671792434241798",
        "poi_coverage": "186",
        "components": "1",
        "overlap_biketrack": "2216.86",
        "overlap_bikeable": "21299.247999999992",
        "efficiency_global": "0.5839996567091931",
        "efficiency_local": "0.06219032119897899",
        "efficiency_global_routed": "0.787829652565589",
        "efficiency_local_routed": "0.22300941782708222"
    },
    {
        "length": "632783.2350000022",
        "length_lcc": "632783.2350000022",
        "coverage": "487.2623496526507",
        "directness": "0.6821156092465974",
        "directness_lcc": "0.6821156092465974",
        "poi_coverage": "204",
        "components": "1",
        "overlap_biketrack": "2216.86",
        "overlap_bikeable": "22959.482",
        "efficiency_global": "0.5926602450796319",
        "efficiency_local": "0.07135026726885706",
        "efficiency_global_routed": "0.782836229960704",
        "efficiency_local_routed": "0.21492817468868528"
    },
    {
        "length": "699201.168000008",
        "length_lcc": "699201.168000008",
        "coverage": "529.7850366380216",
        "directness": "0.6916795594911411",
        "directness_lcc": "0.6916795594911411",
        "poi_coverage": "216",
        "components": "1",
        "overlap_biketrack": "2433.781000000001",
        "overlap_bikeable": "24500.10000000001",
        "efficiency_global": "0.5968814942401204",
        "efficiency_local": "0.08279896378728868",
        "efficiency_global_routed": "0.7790987994846553",
        "efficiency_local_routed": "0.20896664948669735"
    },
    {
        "length": "758372.9750000065",
        "length_lcc": "758372.9750000065",
        "coverage": "567.0426387045637",
        "directness": "0.6900931825352759",
        "directness_lcc": "0.6900931825352759",
        "poi_coverage": "233",
        "components": "1",
        "overlap_biketrack": "2433.781000000001",
        "overlap_bikeable": "24579.94900000001",
        "efficiency_global": "0.5919432755228167",
        "efficiency_local": "0.09008839600225631",
        "efficiency_global_routed": "0.7810784426852769",
        "efficiency_local_routed": "0.22522659470134845"
    },
    {
        "length": "816522.1140000039",
        "length_lcc": "816522.1140000039",
        "coverage": "598.0824042802363",
        "directness": "0.6926172150890861",
        "directness_lcc": "0.6926172150890861",
        "poi_coverage": "245",
        "components": "1",
        "overlap_biketrack": "2433.781000000001",
        "overlap_bikeable": "25517.032000000017",
        "efficiency_global": "0.5964654656626612",
        "efficiency_local": "0.09759700116939025",
        "efficiency_global_routed": "0.7776736258067529",
        "efficiency_local_routed": "0.20648088680042564"
    },
    {
        "length": "872471.860000004",
        "length_lcc": "872471.860000004",
        "coverage": "633.3447911628182",
        "directness": "0.6956775993561483",
        "directness_lcc": "0.6956775993561483",
        "poi_coverage": "260",
        "components": "1",
        "overlap_biketrack": "2433.781000000001",
        "overlap_bikeable": "25517.032000000017",
        "efficiency_global": "0.592603417263929",
        "efficiency_local": "0.11632647324941289",
        "efficiency_global_routed": "0.7762686517051787",
        "efficiency_local_routed": "0.19473202857694769"
    },
    {
        "length": "945308.1300000028",
        "length_lcc": "945308.1300000028",
        "coverage": "687.8857906363814",
        "directness": "0.6912953614533113",
        "directness_lcc": "0.6912953614533113",
        "poi_coverage": "283",
        "components": "1",
        "overlap_biketrack": "2433.781000000001",
        "overlap_bikeable": "28564.664999999997",
        "efficiency_global": "0.5851210344592845",
        "efficiency_local": "0.10803072507537709",
        "efficiency_global_routed": "0.7677349075391099",
        "efficiency_local_routed": "0.19176151660905494"
    },
    {
        "length": "1011826.4120000018",
        "length_lcc": "1011826.4120000018",
        "coverage": "730.0063289866146",
        "directness": "0.6931670661052475",
        "directness_lcc": "0.6931670661052475",
        "poi_coverage": "301",
        "components": "1",
        "overlap_biketrack": "2488.7820000000006",
        "overlap_bikeable": "28938.84499999999",
        "efficiency_global": "0.5745593010494533",
        "efficiency_local": "0.1172715487214301",
        "efficiency_global_routed": "0.7654544426731286",
        "efficiency_local_routed": "0.1701592354735527"
    },
    {
        "length": "1074646.5450000023",
        "length_lcc": "1074646.5450000023",
        "coverage": "765.3737361494902",
        "directness": "0.6935317453641786",
        "directness_lcc": "0.6935317453641786",
        "poi_coverage": "318",
        "components": "1",
        "overlap_biketrack": "2488.7820000000006",
        "overlap_bikeable": "32743.825999999983",
        "efficiency_global": "0.5707922611263646",
        "efficiency_local": "0.12967423992475569",
        "efficiency_global_routed": "0.7486826363068974",
        "efficiency_local_routed": "0.18260367666510594"
    },
    {
        "length": "1131877.8730000036",
        "length_lcc": "1131877.8730000036",
        "coverage": "794.603442389052",
        "directness": "0.6972297813058016",
        "directness_lcc": "0.6972297813058016",
        "poi_coverage": "334",
        "components": "1",
        "overlap_biketrack": "2488.7820000000006",
        "overlap_bikeable": "35752.29400000004",
        "efficiency_global": "0.5646225165201957",
        "efficiency_local": "0.13068694435635728",
        "efficiency_global_routed": "0.7570990559996469",
        "efficiency_local_routed": "0.186702967278171"
    },
    {
        "length": "1181709.582999993",
        "length_lcc": "1181709.582999993",
        "coverage": "820.4183771761966",
        "directness": "0.69764944080909",
        "directness_lcc": "0.69764944080909",
        "poi_coverage": "344",
        "components": "1",
        "overlap_biketrack": "2488.7820000000006",
        "overlap_bikeable": "37263.36300000008",
        "efficiency_global": "0.5645743308956171",
        "efficiency_local": "0.15688334823496314",
        "efficiency_global_routed": "0.752692882465687",
        "efficiency_local_routed": "0.19762882092671297"
    },
    {
        "length": "1227326.9869999907",
        "length_lcc": "1227326.9869999907",
        "coverage": "839.806139661534",
        "directness": "0.6969835691660033",
        "directness_lcc": "0.6969835691660033",
        "poi_coverage": "352",
        "components": "1",
        "overlap_biketrack": "2488.7820000000006",
        "overlap_bikeable": "40237.410000000025",
        "efficiency_global": "0.5633924995642501",
        "efficiency_local": "0.16704644454750314",
        "efficiency_global_routed": "0.7414693732550438",
        "efficiency_local_routed": "0.18304977665806232"
    },
    {
        "length": "1264256.6279999965",
        "length_lcc": "1264256.6279999965",
        "coverage": "857.6052520727997",
        "directness": "0.6944758320034998",
        "directness_lcc": "0.6944758320034998",
        "poi_coverage": "360",
        "components": "1",
        "overlap_biketrack": "2488.7820000000006",
        "overlap_bikeable": "42927.741",
        "efficiency_global": "0.5641268125595537",
        "efficiency_local": "0.1971836301218063",
        "efficiency_global_routed": "0.7453638612811132",
        "efficiency_local_routed": "0.19339337072849053"
    },
    {
        "length": "1300952.7560000014",
        "length_lcc": "1300952.7560000014",
        "coverage": "868.3814884134634",
        "directness": "0.7025447969904539",
        "directness_lcc": "0.7025447969904539",
        "poi_coverage": "363",
        "components": "1",
        "overlap_biketrack": "2488.7820000000006",
        "overlap_bikeable": "43570.16399999997",
        "efficiency_global": "0.567296344581406",
        "efficiency_local": "0.22065034365945094",
        "efficiency_global_routed": "0.746688316168041",
        "efficiency_local_routed": "0.1853100267291454"
    },
    {
        "length": "1349749.752000004",
        "length_lcc": "1349749.752000004",
        "coverage": "881.729134441662",
        "directness": "0.7047248327625365",
        "directness_lcc": "0.7047248327625365",
        "poi_coverage": "365",
        "components": "1",
        "overlap_biketrack": "2488.7820000000006",
        "overlap_bikeable": "44469.65599999996",
        "efficiency_global": "0.5692986446382232",
        "efficiency_local": "0.25030185683682576",
        "efficiency_global_routed": "0.7556394643002325",
        "efficiency_local_routed": "0.18296391605297643"
    },
    {
        "length": "1396690.4690000005",
        "length_lcc": "1396690.4690000005",
        "coverage": "891.3257545763053",
        "directness": "0.7067681042399145",
        "directness_lcc": "0.7067681042399145",
        "poi_coverage": "365",
        "components": "1",
        "overlap_biketrack": "2488.7820000000006",
        "overlap_bikeable": "46473.275999999954",
        "efficiency_global": "0.5731094586978295",
        "efficiency_local": "0.2797899523026668",
        "efficiency_global_routed": "0.734227138491777",
        "efficiency_local_routed": "0.1589831948975126"
    },
    {
        "length": "1425342.623000005",
        "length_lcc": "1425342.623000005",
        "coverage": "895.8643833533271",
        "directness": "0.7090378138337418",
        "directness_lcc": "0.7090378138337418",
        "poi_coverage": "365",
        "components": "1",
        "overlap_biketrack": "2488.7820000000006",
        "overlap_bikeable": "46473.275999999954",
        "efficiency_global": "0.5758124024088503",
        "efficiency_local": "0.30926072808376387",
        "efficiency_global_routed": "0.7374616824049223",
        "efficiency_local_routed": "0.2035125603789869"
    },
    {
        "length": "1455154.1830000018",
        "length_lcc": "1455154.1830000018",
        "coverage": "901.1070018182322",
        "directness": "0.7096978397859213",
        "directness_lcc": "0.7096978397859213",
        "poi_coverage": "365",
        "components": "1",
        "overlap_biketrack": "2516.3340000000007",
        "overlap_bikeable": "46738.040999999954",
        "efficiency_global": "0.5789490711643145",
        "efficiency_local": "0.32511526715596095",
        "efficiency_global_routed": "0.7488901468681224",
        "efficiency_local_routed": "0.19605693368822985"
    },
    {
        "length": "1490688.2390000038",
        "length_lcc": "1490688.2390000038",
        "coverage": "904.0816682086061",
        "directness": "0.7103509504034862",
        "directness_lcc": "0.7103509504034862",
        "poi_coverage": "365",
        "components": "1",
        "overlap_biketrack": "2516.3340000000007",
        "overlap_bikeable": "46738.040999999954",
        "efficiency_global": "0.5816080266406145",
        "efficiency_local": "0.3552822164273478",
        "efficiency_global_routed": "0.7553830773781781",
        "efficiency_local_routed": "0.19570072500148958"
    },
    {
        "length": "1534190.5479999976",
        "length_lcc": "1534190.5479999976",
        "coverage": "907.4403699378564",
        "directness": "0.7124684849973357",
        "directness_lcc": "0.7124684849973357",
        "poi_coverage": "365",
        "components": "1",
        "overlap_biketrack": "2516.3340000000007",
        "overlap_bikeable": "48133.36399999998",
        "efficiency_global": "0.58415323255815",
        "efficiency_local": "0.3864595281528731",
        "efficiency_global_routed": "0.7536018100581398",
        "efficiency_local_routed": "0.19349564008138212"
    },
    {
        "length": "1556111.4159999976",
        "length_lcc": "1556111.4159999976",
        "coverage": "909.3365399337125",
        "directness": "0.7162387954267947",
        "directness_lcc": "0.7162387954267947",
        "poi_coverage": "365",
        "components": "1",
        "overlap_biketrack": "2516.3340000000007",
        "overlap_bikeable": "49358.62099999997",
        "efficiency_global": "0.5870352365811558",
        "efficiency_local": "0.4049385456588614",
        "efficiency_global_routed": "0.7532870832803245",
        "efficiency_local_routed": "0.16899107546771033"
    },
    {
        "length": "1585185.940999999",
        "length_lcc": "1585185.940999999",
        "coverage": "913.7217705746892",
        "directness": "0.7154627483732587",
        "directness_lcc": "0.7154627483732587",
        "poi_coverage": "365",
        "components": "1",
        "overlap_biketrack": "2516.3340000000007",
        "overlap_bikeable": "49899.109999999986",
        "efficiency_global": "0.5889099517879549",
        "efficiency_local": "0.42247604914156905",
        "efficiency_global_routed": "0.7462366574199181",
        "efficiency_local_routed": "0.18110877487635596"
    },
    {
        "length": "1600844.181000001",
        "length_lcc": "1600844.181000001",
        "coverage": "919.3680801828616",
        "directness": "0.717875809414818",
        "directness_lcc": "0.717875809414818",
        "poi_coverage": "365",
        "components": "1",
        "overlap_biketrack": "2516.3340000000007",
        "overlap_bikeable": "49899.109999999986",
        "efficiency_global": "0.5912133695647636",
        "efficiency_local": "0.43490397375247764",
        "efficiency_global_routed": "0.7540784770145358",
        "efficiency_local_routed": "0.21356113417904102"
    },
    {
        "length": "1628545.5659999955",
        "length_lcc": "1628545.5659999955",
        "coverage": "925.8254582422381",
        "directness": "0.7166698791700936",
        "directness_lcc": "0.7166698791700936",
        "poi_coverage": "365",
        "components": "1",
        "overlap_biketrack": "2516.3340000000007",
        "overlap_bikeable": "50109.19999999998",
        "efficiency_global": "0.5931239436642948",
        "efficiency_local": "0.45901780038831874",
        "efficiency_global_routed": "0.7520683883004936",
        "efficiency_local_routed": "0.21776898558799693"
    },
    {
        "length": "1648422.8969999969",
        "length_lcc": "1648422.8969999969",
        "coverage": "929.7227387137906",
        "directness": "0.718487712783794",
        "directness_lcc": "0.718487712783794",
        "poi_coverage": "365",
        "components": "1",
        "overlap_biketrack": "2516.3340000000007",
        "overlap_bikeable": "50502.247999999956",
        "efficiency_global": "0.594731414530895",
        "efficiency_local": "0.48163959953796714",
        "efficiency_global_routed": "0.7563953925295325",
        "efficiency_local_routed": "0.19757613052683165"
    },
    {
        "length": "1677435.163999994",
        "length_lcc": "1677435.163999994",
        "coverage": "938.5316427379365",
        "directness": "0.7158473690105067",
        "directness_lcc": "0.7158473690105067",
        "poi_coverage": "365",
        "components": "1",
        "overlap_biketrack": "2516.3340000000007",
        "overlap_bikeable": "51077.77999999997",
        "efficiency_global": "0.5955767584616997",
        "efficiency_local": "0.500428818427413",
        "efficiency_global_routed": "0.7480110356259396",
        "efficiency_local_routed": "0.21185113221197613"
    },
    {
        "length": "1720653.725999991",
        "length_lcc": "1720653.725999991",
        "coverage": "942.0324482934499",
        "directness": "0.7230565306364382",
        "directness_lcc": "0.7230565306364382",
        "poi_coverage": "365",
        "components": "1",
        "overlap_biketrack": "2516.3340000000007",
        "overlap_bikeable": "51077.77999999997",
        "efficiency_global": "0.5962983342817944",
        "efficiency_local": "0.5081513830990967",
        "efficiency_global_routed": "0.7578546000241448",
        "efficiency_local_routed": "0.2100751455900099"
    },
    {
        "length": "1762415.9869999893",
        "length_lcc": "1762415.9869999893",
        "coverage": "945.6037025285053",
        "directness": "0.730728489203287",
        "directness_lcc": "0.730728489203287",
        "poi_coverage": "365",
        "components": "1",
        "overlap_biketrack": "2516.3340000000007",
        "overlap_bikeable": "51077.77999999997",
        "efficiency_global": "0.5967775668885684",
        "efficiency_local": "0.519284840805907",
        "efficiency_global_routed": "0.7633674909023016",
        "efficiency_local_routed": "0.22460882086673928"
    },
    {
        "length": "1785371.42499999",
        "length_lcc": "1785371.42499999",
        "coverage": "952.408644239852",
        "directness": "0.7267920426257027",
        "directness_lcc": "0.7267920426257027",
        "poi_coverage": "365",
        "components": "1",
        "overlap_biketrack": "2516.3340000000007",
        "overlap_bikeable": "52426.31099999996",
        "efficiency_global": "0.5974067524614813",
        "efficiency_local": "0.5383298076974781",
        "efficiency_global_routed": "0.7599278844069052",
        "efficiency_local_routed": "0.21759393560035428"
    },
    {
        "length": "1785371.42499999",
        "length_lcc": "1785371.42499999",
        "coverage": "952.408644239852",
        "directness": "0.7295435197946487",
        "directness_lcc": "0.7295435197946487",
        "poi_coverage": "365",
        "components": "1",
        "overlap_biketrack": "2516.3340000000007",
        "overlap_bikeable": "52426.31099999996",
        "efficiency_global": "0.5974089018581318",
        "efficiency_local": "0.5400866708548897",
        "efficiency_global_routed": "0.7562716684797713",
        "efficiency_local_routed": "0.22430299276444093"
    },
    {
        "length": "1817030.250999989",
        "length_lcc": "1817030.250999989",
        "coverage": "957.5699709229228",
        "directness": "0.730334328580464",
        "directness_lcc": "0.730334328580464",
        "poi_coverage": "365",
        "components": "1",
        "overlap_biketrack": "2516.3340000000007",
        "overlap_bikeable": "54465.86899999996",
        "efficiency_global": "0.5978735080595412",
        "efficiency_local": "0.554762545330841",
        "efficiency_global_routed": "0.7594122061277249",
        "efficiency_local_routed": "0.2087655087716675"
    },
    {
        "length": "1817030.250999989",
        "length_lcc": "1817030.250999989",
        "coverage": "957.5699709229228",
        "directness": "0.7310385614461345",
        "directness_lcc": "0.7310385614461345",
        "poi_coverage": "365",
        "components": "1",
        "overlap_biketrack": "2516.3340000000007",
        "overlap_bikeable": "54465.86899999996",
        "efficiency_global": "0.5978735080595412",
        "efficiency_local": "0.554762545330841",
        "efficiency_global_routed": "0.7609886765782311",
        "efficiency_local_routed": "0.21266464386014697"
    },
    {
        "length": "1817030.250999989",
        "length_lcc": "1817030.250999989",
        "coverage": "957.5699709229228",
        "directness": "0.7238245261469897",
        "directness_lcc": "0.7238245261469897",
        "poi_coverage": "365",
        "components": "1",
        "overlap_biketrack": "2516.3340000000007",
        "overlap_bikeable": "54465.86899999996",
        "efficiency_global": "0.5978735080595412",
        "efficiency_local": "0.5634449839532472",
        "efficiency_global_routed": "0.7725569704302389",
        "efficiency_local_routed": "0.20552165672993242"
    }
]