{
    "features": [
        [
            {
                "type": "Feature",
                "properties": {
                    "stage": 31
                },
                "geometry": {
                    "type": "GeometryCollection",
                    "geometries": []
                }
            }
        ],
        [
            {
                "type": "Feature",
                "properties": {
                    "stage": 32
                },
                "geometry": {
                    "type": "GeometryCollection",
                    "geometries": []
                }
            }
        ],
        [
            {
                "type": "Feature",
                "properties": {
                    "stage": 33
                },
                "geometry": {
                    "type": "GeometryCollection",
                    "geometries": []
                }
            }
        ],
        [
            {
                "type": "Feature",
                "properties": {
                    "stage": 34
                },
                "geometry": {
                    "type": "GeometryCollection",
                    "geometries": []
                }
            }
        ],
        [
            {
                "type": "Feature",
                "properties": {
                    "stage": 35
                },
                "geometry": {
                    "type": "GeometryCollection",
                    "geometries": []
                }
            }
        ],
        [
            {
                "type": "Feature",
                "properties": {
                    "stage": 36
                },
                "geometry": {
                    "type": "GeometryCollection",
                    "geometries": []
                }
            }
        ],
        [
            {
                "type": "Feature",
                "properties": {
                    "stage": 37
                },
                "geometry": {
                    "type": "GeometryCollection",
                    "geometries": []
                }
            }
        ],
        [
            {
                "type": "Feature",
                "properties": {
                    "stage": 38
                },
                "geometry": {
                    "type": "GeometryCollection",
                    "geometries": []
                }
            }
        ],
        [
            {
                "type": "Feature",
                "properties": {
                    "stage": 39
                },
                "geometry": {
                    "type": "GeometryCollection",
                    "geometries": []
                }
            }
        ],
        [
            {
                "type": "Feature",
                "properties": {
                    "stage": 40
                },
                "geometry": {
                    "type": "GeometryCollection",
                    "geometries": []
                }
            }
        ]
    ]
}