[
    {
        "network": "bikeable",
        "length": "437639.7659999994",
        "length_lcc": "248822.55999999942",
        "coverage": "208.94014554714894",
        "directness": "0.655668003653647",
        "directness_lcc": "0.6521887055348776",
        "poi_coverage": "74",
        "components": "704",
        "efficiency_global": "0.15563070030754764",
        "efficiency_local": "0.023329033411313024",
        "efficiency_global_routed": "0.13523288564137256",
        "efficiency_local_routed": "0.06378192060084359"
    },
    {
        "network": "bikeable_offstreet",
        "length": "66254.21399999988",
        "length_lcc": "12848.059000000007",
        "coverage": "69.4228106012955",
        "directness": "0.8116222793108447",
        "directness_lcc": "0.8296061920286005",
        "poi_coverage": "24",
        "components": "80",
        "efficiency_global": "0.09074044879270765",
        "efficiency_local": "0.04042731786723368",
        "efficiency_global_routed": "0.3522320433716086",
        "efficiency_local_routed": "0.11172478980601665"
    },
    {
        "network": "biketrack",
        "length": "257168.47300000035",
        "length_lcc": "140568.43199999956",
        "coverage": "151.20181708232633",
        "directness": "0.6470987870377898",
        "directness_lcc": "0.6686531298111869",
        "poi_coverage": "55",
        "components": "57",
        "efficiency_global": "0.31804103214801477",
        "efficiency_local": "0.010291636863192195",
        "efficiency_global_routed": "0.2964308973450792",
        "efficiency_local_routed": "0.021421475296698415"
    },
    {
        "network": "biketrack_onstreet",
        "length": "197297.9580000005",
        "length_lcc": "130152.21099999997",
        "coverage": "123.6124567458837",
        "directness": "0.6522581855323143",
        "directness_lcc": "0.6351072415693078",
        "poi_coverage": "44",
        "components": "41",
        "efficiency_global": "0.4215461487955132",
        "efficiency_local": "0.0",
        "efficiency_global_routed": "0.3152197603191596",
        "efficiency_local_routed": "0.02712315854387172"
    },
    {
        "network": "biketrackcarall",
        "length": "3458725.5720000267",
        "length_lcc": "3448838.2090000287",
        "coverage": "228.32915471610937",
        "directness": "0.8703984751372932",
        "directness_lcc": "0.871436966306191",
        "poi_coverage": "78",
        "components": "14",
        "efficiency_global": "0.8458835763345486",
        "efficiency_local": "0.06983757640808542",
        "efficiency_global_routed": "0.8462926904869251",
        "efficiency_local_routed": "0.06895950674574028"
    },
    {
        "network": "carall",
        "length": "3398855.057000023",
        "length_lcc": "3398855.057000023",
        "coverage": "227.20889358830948",
        "directness": "0.8732153352845036",
        "directness_lcc": "0.8732153352845036",
        "poi_coverage": "78",
        "components": "1",
        "efficiency_global": "0.8496638813079967",
        "efficiency_local": "0.07405273948978001",
        "efficiency_global_routed": "0.8504334536208749",
        "efficiency_local_routed": "0.066461636869302"
    }
]