[
    {
        "length": "6009.478000000001",
        "length_lcc": "4115.691999999999",
        "coverage": "6.99219240134476",
        "directness": "0.7054768728103789",
        "directness_lcc": "0.6874417721668895",
        "poi_coverage": "5",
        "components": "2",
        "overlap_biketrack": "449.213",
        "overlap_bikeable": "449.213",
        "efficiency_global": "0.3796007924476593",
        "efficiency_local": "0.0",
        "efficiency_global_routed": "0.6100839405174652",
        "efficiency_local_routed": "0.0"
    },
    {
        "length": "13226.819999999989",
        "length_lcc": "13226.819999999989",
        "coverage": "12.74401471444247",
        "directness": "0.6672315766336243",
        "directness_lcc": "0.6672315766336243",
        "poi_coverage": "7",
        "components": "1",
        "overlap_biketrack": "457.627",
        "overlap_bikeable": "457.627",
        "efficiency_global": "0.7029298779709773",
        "efficiency_local": "0.0",
        "efficiency_global_routed": "0.8291962312967188",
        "efficiency_local_routed": "0.0"
    },
    {
        "length": "22495.800999999992",
        "length_lcc": "15164.339999999986",
        "coverage": "23.128190299666894",
        "directness": "0.6386358295923413",
        "directness_lcc": "0.6283446935526266",
        "poi_coverage": "12",
        "components": "3",
        "overlap_biketrack": "457.627",
        "overlap_bikeable": "457.627",
        "efficiency_global": "0.41989737502221597",
        "efficiency_local": "0.0",
        "efficiency_global_routed": "0.5307476099871219",
        "efficiency_local_routed": "0.0"
    },
    {
        "length": "33307.27699999999",
        "length_lcc": "33307.27699999999",
        "coverage": "30.72344540803513",
        "directness": "0.6763678375193061",
        "directness_lcc": "0.6763678375193061",
        "poi_coverage": "15",
        "components": "1",
        "overlap_biketrack": "871.2079999999997",
        "overlap_bikeable": "871.2079999999997",
        "efficiency_global": "0.643882984250086",
        "efficiency_local": "0.0",
        "efficiency_global_routed": "0.9762048584469539",
        "efficiency_local_routed": "0.0"
    },
    {
        "length": "35365.800999999985",
        "length_lcc": "35365.800999999985",
        "coverage": "32.57563730900536",
        "directness": "0.6609381478818122",
        "directness_lcc": "0.6609381478818122",
        "poi_coverage": "16",
        "components": "1",
        "overlap_biketrack": "871.2079999999997",
        "overlap_bikeable": "871.2079999999997",
        "efficiency_global": "0.6270168145191797",
        "efficiency_local": "0.0",
        "efficiency_global_routed": "0.9669808778937161",
        "efficiency_local_routed": "0.0"
    },
    {
        "length": "44764.96899999995",
        "length_lcc": "44764.96899999995",
        "coverage": "39.10636513272364",
        "directness": "0.666805345026751",
        "directness_lcc": "0.666805345026751",
        "poi_coverage": "19",
        "components": "1",
        "overlap_biketrack": "871.2079999999997",
        "overlap_bikeable": "871.2079999999997",
        "efficiency_global": "0.6224766319470126",
        "efficiency_local": "0.0",
        "efficiency_global_routed": "0.9620249433435637",
        "efficiency_local_routed": "0.0"
    },
    {
        "length": "51836.1519999999",
        "length_lcc": "51836.1519999999",
        "coverage": "43.9815192410549",
        "directness": "0.684770429930338",
        "directness_lcc": "0.684770429930338",
        "poi_coverage": "21",
        "components": "1",
        "overlap_biketrack": "871.2079999999997",
        "overlap_bikeable": "871.2079999999997",
        "efficiency_global": "0.6692534232103191",
        "efficiency_local": "0.0",
        "efficiency_global_routed": "0.962619446202545",
        "efficiency_local_routed": "0.0"
    },
    {
        "length": "61224.43799999982",
        "length_lcc": "61224.43799999982",
        "coverage": "48.9128904595654",
        "directness": "0.6972565822147108",
        "directness_lcc": "0.6972565822147108",
        "poi_coverage": "23",
        "components": "1",
        "overlap_biketrack": "871.2079999999997",
        "overlap_bikeable": "871.2079999999997",
        "efficiency_global": "0.7027208756115473",
        "efficiency_local": "0.12582548936733276",
        "efficiency_global_routed": "0.945116010625945",
        "efficiency_local_routed": "0.05760462705093825"
    },
    {
        "length": "61224.43799999982",
        "length_lcc": "61224.43799999982",
        "coverage": "48.9128904595654",
        "directness": "0.6949879236946206",
        "directness_lcc": "0.6949879236946206",
        "poi_coverage": "23",
        "components": "1",
        "overlap_biketrack": "871.2079999999997",
        "overlap_bikeable": "871.2079999999997",
        "efficiency_global": "0.7027208756115473",
        "efficiency_local": "0.12582548936733276",
        "efficiency_global_routed": "0.945116010625945",
        "efficiency_local_routed": "0.05760462705093825"
    },
    {
        "length": "72809.74399999995",
        "length_lcc": "72809.74399999995",
        "coverage": "55.080038449444636",
        "directness": "0.6957449454377956",
        "directness_lcc": "0.6957449454377956",
        "poi_coverage": "25",
        "components": "1",
        "overlap_biketrack": "1152.026",
        "overlap_bikeable": "1152.026",
        "efficiency_global": "0.7213211512523542",
        "efficiency_local": "0.15282524281309456",
        "efficiency_global_routed": "0.937448354951249",
        "efficiency_local_routed": "0.0"
    },
    {
        "length": "81770.91799999996",
        "length_lcc": "81770.91799999996",
        "coverage": "60.82755144000036",
        "directness": "0.6908777794014085",
        "directness_lcc": "0.6908777794014085",
        "poi_coverage": "27",
        "components": "1",
        "overlap_biketrack": "1152.026",
        "overlap_bikeable": "1152.026",
        "efficiency_global": "0.7099929847328368",
        "efficiency_local": "0.18840380492420958",
        "efficiency_global_routed": "0.9424924586396195",
        "efficiency_local_routed": "0.03900198862525004"
    },
    {
        "length": "83468.30299999993",
        "length_lcc": "83468.30299999993",
        "coverage": "61.84864100319277",
        "directness": "0.6884139727325831",
        "directness_lcc": "0.6884139727325831",
        "poi_coverage": "28",
        "components": "1",
        "overlap_biketrack": "1152.026",
        "overlap_bikeable": "1152.026",
        "efficiency_global": "0.7092724307122541",
        "efficiency_local": "0.18840380492420958",
        "efficiency_global_routed": "0.9410740978451195",
        "efficiency_local_routed": "0.03900198862525004"
    },
    {
        "length": "90529.077",
        "length_lcc": "90529.077",
        "coverage": "64.8508779411935",
        "directness": "0.6870119690834109",
        "directness_lcc": "0.6870119690834109",
        "poi_coverage": "29",
        "components": "1",
        "overlap_biketrack": "1429.2760000000003",
        "overlap_bikeable": "1429.2760000000003",
        "efficiency_global": "0.7067104447813981",
        "efficiency_local": "0.2705969313033908",
        "efficiency_global_routed": "0.9330729553394627",
        "efficiency_local_routed": "0.03422623491603575"
    },
    {
        "length": "100161.00700000032",
        "length_lcc": "100161.00700000032",
        "coverage": "71.55770620377791",
        "directness": "0.7024823769767012",
        "directness_lcc": "0.7024823769767012",
        "poi_coverage": "32",
        "components": "1",
        "overlap_biketrack": "1534.1370000000006",
        "overlap_bikeable": "1534.1370000000004",
        "efficiency_global": "0.7150576425629664",
        "efficiency_local": "0.26709226399460434",
        "efficiency_global_routed": "0.9267307203398416",
        "efficiency_local_routed": "0.031643122846900976"
    },
    {
        "length": "102228.48200000027",
        "length_lcc": "102228.48200000027",
        "coverage": "71.97901311466694",
        "directness": "0.6938065415278329",
        "directness_lcc": "0.6938065415278329",
        "poi_coverage": "32",
        "components": "1",
        "overlap_biketrack": "1534.1370000000006",
        "overlap_bikeable": "1534.1370000000004",
        "efficiency_global": "0.7202275107732033",
        "efficiency_local": "0.2932594317669547",
        "efficiency_global_routed": "0.9273338499855511",
        "efficiency_local_routed": "0.07494776031870203"
    },
    {
        "length": "111515.60200000025",
        "length_lcc": "111515.60200000025",
        "coverage": "78.33230199414382",
        "directness": "0.6953799949465587",
        "directness_lcc": "0.6953799949465587",
        "poi_coverage": "35",
        "components": "1",
        "overlap_biketrack": "1575.0810000000004",
        "overlap_bikeable": "1575.0810000000004",
        "efficiency_global": "0.7025243607920779",
        "efficiency_local": "0.26789531415525486",
        "efficiency_global_routed": "0.9182507225112156",
        "efficiency_local_routed": "0.07085354505302667"
    },
    {
        "length": "116759.53400000019",
        "length_lcc": "116759.53400000019",
        "coverage": "79.98111020662873",
        "directness": "0.7148635771575242",
        "directness_lcc": "0.7148635771575242",
        "poi_coverage": "36",
        "components": "1",
        "overlap_biketrack": "1575.0810000000004",
        "overlap_bikeable": "1575.0810000000004",
        "efficiency_global": "0.7082721128254928",
        "efficiency_local": "0.3087918275011546",
        "efficiency_global_routed": "0.9095869285730622",
        "efficiency_local_routed": "0.13597937405449892"
    },
    {
        "length": "118758.28600000027",
        "length_lcc": "118758.28600000027",
        "coverage": "80.90391473614137",
        "directness": "0.7164833411573963",
        "directness_lcc": "0.7164833411573963",
        "poi_coverage": "36",
        "components": "1",
        "overlap_biketrack": "1575.0810000000004",
        "overlap_bikeable": "1575.0810000000004",
        "efficiency_global": "0.715533058207471",
        "efficiency_local": "0.28408848130106223",
        "efficiency_global_routed": "0.910144894191233",
        "efficiency_local_routed": "0.13235325741304563"
    },
    {
        "length": "127875.80100000018",
        "length_lcc": "127875.80100000018",
        "coverage": "87.5755243904987",
        "directness": "0.7135378987467474",
        "directness_lcc": "0.7135378987467474",
        "poi_coverage": "39",
        "components": "1",
        "overlap_biketrack": "1575.0810000000004",
        "overlap_bikeable": "1728.3440000000003",
        "efficiency_global": "0.7099070359292098",
        "efficiency_local": "0.23848629684903025",
        "efficiency_global_routed": "0.9080607680192251",
        "efficiency_local_routed": "0.12726274751254385"
    },
    {
        "length": "132218.96100000024",
        "length_lcc": "132218.96100000024",
        "coverage": "89.43780529861104",
        "directness": "0.7116403992925341",
        "directness_lcc": "0.7116403992925341",
        "poi_coverage": "40",
        "components": "1",
        "overlap_biketrack": "1575.0810000000004",
        "overlap_bikeable": "1728.3440000000003",
        "efficiency_global": "0.7065161442480582",
        "efficiency_local": "0.27873883420356993",
        "efficiency_global_routed": "0.8949815401084199",
        "efficiency_local_routed": "0.14660863494692922"
    },
    {
        "length": "136464.70699999997",
        "length_lcc": "136464.70699999997",
        "coverage": "91.8645382162745",
        "directness": "0.7105333365734536",
        "directness_lcc": "0.7105333365734536",
        "poi_coverage": "41",
        "components": "1",
        "overlap_biketrack": "1909.0590000000004",
        "overlap_bikeable": "2062.3220000000006",
        "efficiency_global": "0.7027685560611294",
        "efficiency_local": "0.32019457067542484",
        "efficiency_global_routed": "0.8939049853732748",
        "efficiency_local_routed": "0.13682390910535797"
    },
    {
        "length": "147434.55300000045",
        "length_lcc": "147434.55300000045",
        "coverage": "98.50136914479319",
        "directness": "0.7172712868354713",
        "directness_lcc": "0.7172712868354713",
        "poi_coverage": "44",
        "components": "1",
        "overlap_biketrack": "2320.3129999999996",
        "overlap_bikeable": "2473.576000000001",
        "efficiency_global": "0.6903925114846381",
        "efficiency_local": "0.30713943752754946",
        "efficiency_global_routed": "0.8800637040241808",
        "efficiency_local_routed": "0.14145381650382308"
    },
    {
        "length": "157025.39700000055",
        "length_lcc": "157025.39700000055",
        "coverage": "100.06336715478842",
        "directness": "0.7089132797351912",
        "directness_lcc": "0.7089132797351912",
        "poi_coverage": "44",
        "components": "1",
        "overlap_biketrack": "2320.3129999999996",
        "overlap_bikeable": "2473.576000000001",
        "efficiency_global": "0.6967944408632678",
        "efficiency_local": "0.42459794930455436",
        "efficiency_global_routed": "0.8708630512559822",
        "efficiency_local_routed": "0.15368001276163482"
    },
    {
        "length": "157025.39700000055",
        "length_lcc": "157025.39700000055",
        "coverage": "100.06336715478842",
        "directness": "0.7124366652466231",
        "directness_lcc": "0.7124366652466231",
        "poi_coverage": "44",
        "components": "1",
        "overlap_biketrack": "2320.3129999999996",
        "overlap_bikeable": "2473.576000000001",
        "efficiency_global": "0.6967944408632678",
        "efficiency_local": "0.42459794930455436",
        "efficiency_global_routed": "0.8708630512559822",
        "efficiency_local_routed": "0.15368001276163482"
    },
    {
        "length": "161855.1630000005",
        "length_lcc": "161855.1630000005",
        "coverage": "101.21211993029765",
        "directness": "0.7179053552370823",
        "directness_lcc": "0.7179053552370823",
        "poi_coverage": "44",
        "components": "1",
        "overlap_biketrack": "2320.3129999999996",
        "overlap_bikeable": "2473.576000000001",
        "efficiency_global": "0.7067841956909425",
        "efficiency_local": "0.42883704701579334",
        "efficiency_global_routed": "0.8681071126576895",
        "efficiency_local_routed": "0.17320546812414678"
    },
    {
        "length": "168912.78600000052",
        "length_lcc": "168912.78600000052",
        "coverage": "102.29077234307279",
        "directness": "0.7206756278015395",
        "directness_lcc": "0.7206756278015395",
        "poi_coverage": "44",
        "components": "1",
        "overlap_biketrack": "2350.7499999999995",
        "overlap_bikeable": "2504.013000000001",
        "efficiency_global": "0.711695301281739",
        "efficiency_local": "0.4512713006512268",
        "efficiency_global_routed": "0.8673158133606306",
        "efficiency_local_routed": "0.19944727540236448"
    },
    {
        "length": "171574.12300000028",
        "length_lcc": "171574.12300000028",
        "coverage": "102.91278487811617",
        "directness": "0.7180701047131632",
        "directness_lcc": "0.7180701047131632",
        "poi_coverage": "44",
        "components": "1",
        "overlap_biketrack": "2350.7499999999995",
        "overlap_bikeable": "2504.013000000001",
        "efficiency_global": "0.7164225411381787",
        "efficiency_local": "0.495880003084974",
        "efficiency_global_routed": "0.8645981989738636",
        "efficiency_local_routed": "0.18833552820769134"
    },
    {
        "length": "180234.77800000025",
        "length_lcc": "180234.77800000025",
        "coverage": "104.84794984613194",
        "directness": "0.7213377980932413",
        "directness_lcc": "0.7213377980932413",
        "poi_coverage": "44",
        "components": "1",
        "overlap_biketrack": "2350.7499999999995",
        "overlap_bikeable": "2504.013000000001",
        "efficiency_global": "0.722238694451401",
        "efficiency_local": "0.5149047583625734",
        "efficiency_global_routed": "0.8650218619320784",
        "efficiency_local_routed": "0.17648325353960329"
    },
    {
        "length": "187663.28799999988",
        "length_lcc": "187663.28799999988",
        "coverage": "106.6929350139888",
        "directness": "0.7175777629436634",
        "directness_lcc": "0.7175777629436634",
        "poi_coverage": "44",
        "components": "1",
        "overlap_biketrack": "2350.7499999999995",
        "overlap_bikeable": "2504.013000000001",
        "efficiency_global": "0.7275573310246816",
        "efficiency_local": "0.5329333145189263",
        "efficiency_global_routed": "0.8656019101013057",
        "efficiency_local_routed": "0.17413574521285835"
    },
    {
        "length": "191737.53399999964",
        "length_lcc": "191737.53399999964",
        "coverage": "107.45444226774029",
        "directness": "0.7202636203062406",
        "directness_lcc": "0.7202636203062406",
        "poi_coverage": "44",
        "components": "1",
        "overlap_biketrack": "2350.7499999999995",
        "overlap_bikeable": "2504.013000000001",
        "efficiency_global": "0.7341464279011588",
        "efficiency_local": "0.5490505491259033",
        "efficiency_global_routed": "0.863752195302421",
        "efficiency_local_routed": "0.1800003805782312"
    },
    {
        "length": "197872.02499999953",
        "length_lcc": "197872.02499999953",
        "coverage": "109.26188699424566",
        "directness": "0.7192231489953017",
        "directness_lcc": "0.7192231489953017",
        "poi_coverage": "44",
        "components": "1",
        "overlap_biketrack": "3455.6809999999996",
        "overlap_bikeable": "3608.944000000001",
        "efficiency_global": "0.7377131806586043",
        "efficiency_local": "0.5354408186249132",
        "efficiency_global_routed": "0.8595762766145261",
        "efficiency_local_routed": "0.19228220101348506"
    },
    {
        "length": "207344.5699999998",
        "length_lcc": "207344.5699999998",
        "coverage": "111.68343258238593",
        "directness": "0.7195330834159718",
        "directness_lcc": "0.7195330834159718",
        "poi_coverage": "44",
        "components": "1",
        "overlap_biketrack": "3455.6809999999996",
        "overlap_bikeable": "3608.944000000001",
        "efficiency_global": "0.7448759786009582",
        "efficiency_local": "0.5781590966460518",
        "efficiency_global_routed": "0.8619331306327045",
        "efficiency_local_routed": "0.20818426767831302"
    },
    {
        "length": "207344.5699999998",
        "length_lcc": "207344.5699999998",
        "coverage": "111.68343258238593",
        "directness": "0.7136648494037411",
        "directness_lcc": "0.7136648494037411",
        "poi_coverage": "44",
        "components": "1",
        "overlap_biketrack": "3455.6809999999996",
        "overlap_bikeable": "3608.944000000001",
        "efficiency_global": "0.7448759786009582",
        "efficiency_local": "0.5781590966460518",
        "efficiency_global_routed": "0.8619331306327045",
        "efficiency_local_routed": "0.20818426767831302"
    },
    {
        "length": "213063.34699999986",
        "length_lcc": "213063.34699999986",
        "coverage": "113.81239577982383",
        "directness": "0.7199031644887666",
        "directness_lcc": "0.7199031644887666",
        "poi_coverage": "44",
        "components": "1",
        "overlap_biketrack": "3455.6809999999996",
        "overlap_bikeable": "3608.944000000001",
        "efficiency_global": "0.7503623983988987",
        "efficiency_local": "0.6290252217598259",
        "efficiency_global_routed": "0.8579954629813654",
        "efficiency_local_routed": "0.20561610592045065"
    },
    {
        "length": "221416.80799999973",
        "length_lcc": "221416.80799999973",
        "coverage": "114.6591656528045",
        "directness": "0.7252345475040751",
        "directness_lcc": "0.7252345475040751",
        "poi_coverage": "44",
        "components": "1",
        "overlap_biketrack": "3455.6809999999996",
        "overlap_bikeable": "3787.215000000001",
        "efficiency_global": "0.7516461322959438",
        "efficiency_local": "0.6788552319264808",
        "efficiency_global_routed": "0.851484789535557",
        "efficiency_local_routed": "0.2074024802627433"
    },
    {
        "length": "228270.88099999964",
        "length_lcc": "228270.88099999964",
        "coverage": "116.50555230720651",
        "directness": "0.7175283054079022",
        "directness_lcc": "0.7175283054079022",
        "poi_coverage": "44",
        "components": "1",
        "overlap_biketrack": "3455.6809999999996",
        "overlap_bikeable": "3787.215000000001",
        "efficiency_global": "0.7527023638507315",
        "efficiency_local": "0.6755812092448096",
        "efficiency_global_routed": "0.8506151863113807",
        "efficiency_local_routed": "0.1983376852304075"
    },
    {
        "length": "241442.78599999935",
        "length_lcc": "241442.78599999935",
        "coverage": "117.44932264105847",
        "directness": "0.7194794897098737",
        "directness_lcc": "0.7194794897098737",
        "poi_coverage": "44",
        "components": "1",
        "overlap_biketrack": "3455.6809999999996",
        "overlap_bikeable": "3812.080000000001",
        "efficiency_global": "0.7558577616557572",
        "efficiency_local": "0.698650712453733",
        "efficiency_global_routed": "0.8496118832453249",
        "efficiency_local_routed": "0.2177533071327711"
    },
    {
        "length": "241442.78599999935",
        "length_lcc": "241442.78599999935",
        "coverage": "117.44932264105847",
        "directness": "0.7184995103688622",
        "directness_lcc": "0.7184995103688622",
        "poi_coverage": "44",
        "components": "1",
        "overlap_biketrack": "3455.6809999999996",
        "overlap_bikeable": "3812.080000000001",
        "efficiency_global": "0.7558577616557572",
        "efficiency_local": "0.698650712453733",
        "efficiency_global_routed": "0.8496118832453249",
        "efficiency_local_routed": "0.2177533071327711"
    },
    {
        "length": "247600.41299999953",
        "length_lcc": "247600.41299999953",
        "coverage": "117.9977399336117",
        "directness": "0.7199427871416314",
        "directness_lcc": "0.7199427871416314",
        "poi_coverage": "44",
        "components": "1",
        "overlap_biketrack": "3455.6809999999996",
        "overlap_bikeable": "3812.080000000001",
        "efficiency_global": "0.7560578189736848",
        "efficiency_local": "0.7092990484873156",
        "efficiency_global_routed": "0.8469951466788739",
        "efficiency_local_routed": "0.2128384753377624"
    },
    {
        "length": "247600.41299999953",
        "length_lcc": "247600.41299999953",
        "coverage": "117.9977399336117",
        "directness": "0.7237301964085591",
        "directness_lcc": "0.7237301964085591",
        "poi_coverage": "44",
        "components": "1",
        "overlap_biketrack": "3455.6809999999996",
        "overlap_bikeable": "3812.080000000001",
        "efficiency_global": "0.7560578189736848",
        "efficiency_local": "0.729362499580294",
        "efficiency_global_routed": "0.8469951466788739",
        "efficiency_local_routed": "0.2128384753377624"
    }
]