[
    {
        "length": "16408.823000000004",
        "length_lcc": "16408.823000000004",
        "coverage": "11.7204802322032",
        "directness": "0.6602452194813414",
        "directness_lcc": "0.6602452194813414",
        "poi_coverage": "5",
        "components": "1",
        "overlap_biketrack": "0",
        "overlap_bikeable": "0",
        "efficiency_global": "0.6558867448255395",
        "efficiency_local": "0.6546324698334245",
        "efficiency_global_routed": "0.89587190057603",
        "efficiency_local_routed": "0.2857533748982885"
    },
    {
        "length": "45109.15100000001",
        "length_lcc": "45109.15100000001",
        "coverage": "24.96334468035809",
        "directness": "0.665320582233095",
        "directness_lcc": "0.665320582233095",
        "poi_coverage": "10",
        "components": "1",
        "overlap_biketrack": "0",
        "overlap_bikeable": "0",
        "efficiency_global": "0.647153484543329",
        "efficiency_local": "0.6004339978558058",
        "efficiency_global_routed": "0.8601945401988689",
        "efficiency_local_routed": "0.2680228111581236"
    },
    {
        "length": "75115.26500000019",
        "length_lcc": "75115.26500000019",
        "coverage": "42.01746215825157",
        "directness": "0.653861626351583",
        "directness_lcc": "0.653861626351583",
        "poi_coverage": "15",
        "components": "1",
        "overlap_biketrack": "0",
        "overlap_bikeable": "70.89299999999999",
        "efficiency_global": "0.6603749352284938",
        "efficiency_local": "0.6360771642308805",
        "efficiency_global_routed": "0.8701164453060882",
        "efficiency_local_routed": "0.24521202796232897"
    },
    {
        "length": "92705.35900000027",
        "length_lcc": "92705.35900000027",
        "coverage": "52.63575146032007",
        "directness": "0.6861109842896999",
        "directness_lcc": "0.6861109842896999",
        "poi_coverage": "19",
        "components": "1",
        "overlap_biketrack": "0",
        "overlap_bikeable": "70.89299999999999",
        "efficiency_global": "0.6681388919080851",
        "efficiency_local": "0.6441517275477252",
        "efficiency_global_routed": "0.8670615301340701",
        "efficiency_local_routed": "0.22021263183875955"
    },
    {
        "length": "119458.07000000023",
        "length_lcc": "119458.07000000023",
        "coverage": "64.012423545619",
        "directness": "0.6676312855658104",
        "directness_lcc": "0.6676312855658104",
        "poi_coverage": "24",
        "components": "1",
        "overlap_biketrack": "172.712",
        "overlap_bikeable": "243.605",
        "efficiency_global": "0.6543284130356677",
        "efficiency_local": "0.6329297415857649",
        "efficiency_global_routed": "0.8745764314124848",
        "efficiency_local_routed": "0.21687477145337625"
    },
    {
        "length": "141125.79300000073",
        "length_lcc": "141125.79300000073",
        "coverage": "75.15690660426166",
        "directness": "0.6748852715973193",
        "directness_lcc": "0.6748852715973193",
        "poi_coverage": "29",
        "components": "1",
        "overlap_biketrack": "172.712",
        "overlap_bikeable": "243.605",
        "efficiency_global": "0.652472077575898",
        "efficiency_local": "0.640171179761103",
        "efficiency_global_routed": "0.8705599341571357",
        "efficiency_local_routed": "0.22837187857696575"
    },
    {
        "length": "159793.48500000057",
        "length_lcc": "159793.48500000057",
        "coverage": "86.64723458169964",
        "directness": "0.6777532040238765",
        "directness_lcc": "0.6777532040238765",
        "poi_coverage": "33",
        "components": "1",
        "overlap_biketrack": "172.712",
        "overlap_bikeable": "243.605",
        "efficiency_global": "0.6613125672460721",
        "efficiency_local": "0.6373449012931016",
        "efficiency_global_routed": "0.8675819771083004",
        "efficiency_local_routed": "0.21946791857365658"
    },
    {
        "length": "198899.36700000043",
        "length_lcc": "198899.36700000043",
        "coverage": "104.43647067919889",
        "directness": "0.6856734305634729",
        "directness_lcc": "0.6856734305634729",
        "poi_coverage": "40",
        "components": "1",
        "overlap_biketrack": "172.712",
        "overlap_bikeable": "243.605",
        "efficiency_global": "0.6639323612777245",
        "efficiency_local": "0.626620825827798",
        "efficiency_global_routed": "0.8691186725295245",
        "efficiency_local_routed": "0.20381114455470045"
    },
    {
        "length": "223245.33300000062",
        "length_lcc": "223245.33300000062",
        "coverage": "111.8163255843257",
        "directness": "0.6882889967234418",
        "directness_lcc": "0.6882889967234418",
        "poi_coverage": "43",
        "components": "1",
        "overlap_biketrack": "172.712",
        "overlap_bikeable": "368.12600000000003",
        "efficiency_global": "0.6655087937097235",
        "efficiency_local": "0.6470320484306423",
        "efficiency_global_routed": "0.8640769166803801",
        "efficiency_local_routed": "0.22209871045225188"
    },
    {
        "length": "246679.11400000058",
        "length_lcc": "246679.11400000058",
        "coverage": "122.0034789343224",
        "directness": "0.6899299754416546",
        "directness_lcc": "0.6899299754416546",
        "poi_coverage": "48",
        "components": "1",
        "overlap_biketrack": "172.712",
        "overlap_bikeable": "400.82300000000004",
        "efficiency_global": "0.6686289244699443",
        "efficiency_local": "0.65512112325823",
        "efficiency_global_routed": "0.8613717810433306",
        "efficiency_local_routed": "0.21662976006316537"
    },
    {
        "length": "273143.6089999997",
        "length_lcc": "273143.6089999997",
        "coverage": "135.4717244158202",
        "directness": "0.6950781547099513",
        "directness_lcc": "0.6950781547099513",
        "poi_coverage": "52",
        "components": "1",
        "overlap_biketrack": "172.712",
        "overlap_bikeable": "400.82300000000004",
        "efficiency_global": "0.6685300250395672",
        "efficiency_local": "0.6528741120824381",
        "efficiency_global_routed": "0.8600492136968103",
        "efficiency_local_routed": "0.23526108967280235"
    },
    {
        "length": "301653.9639999998",
        "length_lcc": "301653.9639999998",
        "coverage": "151.98535510713637",
        "directness": "0.6985495027642357",
        "directness_lcc": "0.6985495027642357",
        "poi_coverage": "58",
        "components": "1",
        "overlap_biketrack": "172.712",
        "overlap_bikeable": "400.82300000000004",
        "efficiency_global": "0.6691043082421613",
        "efficiency_local": "0.6592252456886569",
        "efficiency_global_routed": "0.8563520667432004",
        "efficiency_local_routed": "0.23038759904333916"
    },
    {
        "length": "329892.4609999997",
        "length_lcc": "329892.4609999997",
        "coverage": "163.11520899374696",
        "directness": "0.707111232785578",
        "directness_lcc": "0.707111232785578",
        "poi_coverage": "64",
        "components": "1",
        "overlap_biketrack": "172.712",
        "overlap_bikeable": "400.82300000000004",
        "efficiency_global": "0.6658519494436133",
        "efficiency_local": "0.6530208181359538",
        "efficiency_global_routed": "0.8518505835921463",
        "efficiency_local_routed": "0.23503514346091864"
    },
    {
        "length": "338846.09200000006",
        "length_lcc": "338846.09200000006",
        "coverage": "166.46571860337085",
        "directness": "0.7027638298837621",
        "directness_lcc": "0.7027638298837621",
        "poi_coverage": "66",
        "components": "1",
        "overlap_biketrack": "172.712",
        "overlap_bikeable": "400.82300000000004",
        "efficiency_global": "0.666059307338661",
        "efficiency_local": "0.6537534644472385",
        "efficiency_global_routed": "0.8509842293312178",
        "efficiency_local_routed": "0.23828320382091261"
    },
    {
        "length": "365378.75599999964",
        "length_lcc": "365378.75599999964",
        "coverage": "177.7431897456647",
        "directness": "0.70704540563508",
        "directness_lcc": "0.70704540563508",
        "poi_coverage": "71",
        "components": "1",
        "overlap_biketrack": "172.712",
        "overlap_bikeable": "942.6329999999999",
        "efficiency_global": "0.6678238634998501",
        "efficiency_local": "0.6562813825668852",
        "efficiency_global_routed": "0.8472381586729291",
        "efficiency_local_routed": "0.23148599934106046"
    },
    {
        "length": "397769.74499999924",
        "length_lcc": "397769.74499999924",
        "coverage": "194.11280118404193",
        "directness": "0.6996224954118234",
        "directness_lcc": "0.6996224954118234",
        "poi_coverage": "76",
        "components": "1",
        "overlap_biketrack": "172.712",
        "overlap_bikeable": "942.6329999999999",
        "efficiency_global": "0.6634482370842438",
        "efficiency_local": "0.6540513990603266",
        "efficiency_global_routed": "0.8452680217852182",
        "efficiency_local_routed": "0.23369408465628716"
    },
    {
        "length": "424501.5759999989",
        "length_lcc": "424501.5759999989",
        "coverage": "205.56833722922107",
        "directness": "0.7010501340497821",
        "directness_lcc": "0.7010501340497821",
        "poi_coverage": "80",
        "components": "1",
        "overlap_biketrack": "172.712",
        "overlap_bikeable": "942.6329999999999",
        "efficiency_global": "0.6623008943146257",
        "efficiency_local": "0.6488844876955027",
        "efficiency_global_routed": "0.8410595108954488",
        "efficiency_local_routed": "0.22722069488768226"
    },
    {
        "length": "453122.76599999866",
        "length_lcc": "453122.76599999866",
        "coverage": "218.34642029407146",
        "directness": "0.7023438370908242",
        "directness_lcc": "0.7023438370908242",
        "poi_coverage": "85",
        "components": "1",
        "overlap_biketrack": "172.712",
        "overlap_bikeable": "942.6329999999999",
        "efficiency_global": "0.6611377248400138",
        "efficiency_local": "0.6421364132945928",
        "efficiency_global_routed": "0.8392631948117697",
        "efficiency_local_routed": "0.23284945785269245"
    },
    {
        "length": "485510.042999998",
        "length_lcc": "485510.042999998",
        "coverage": "232.46477742277804",
        "directness": "0.7054706667286645",
        "directness_lcc": "0.7054706667286645",
        "poi_coverage": "90",
        "components": "1",
        "overlap_biketrack": "172.712",
        "overlap_bikeable": "942.6329999999999",
        "efficiency_global": "0.6620507846135223",
        "efficiency_local": "0.6420647320172445",
        "efficiency_global_routed": "0.8379157708500408",
        "efficiency_local_routed": "0.230720985280349"
    },
    {
        "length": "518329.13999999745",
        "length_lcc": "518329.13999999745",
        "coverage": "250.00799024505167",
        "directness": "0.7076851603262584",
        "directness_lcc": "0.7076851603262584",
        "poi_coverage": "95",
        "components": "1",
        "overlap_biketrack": "172.712",
        "overlap_bikeable": "942.6329999999999",
        "efficiency_global": "0.6617990401505706",
        "efficiency_local": "0.642702691259313",
        "efficiency_global_routed": "0.835004883400447",
        "efficiency_local_routed": "0.2266843148410445"
    },
    {
        "length": "537607.2209999976",
        "length_lcc": "537607.2209999976",
        "coverage": "259.4486286816885",
        "directness": "0.704197727931432",
        "directness_lcc": "0.704197727931432",
        "poi_coverage": "99",
        "components": "1",
        "overlap_biketrack": "172.712",
        "overlap_bikeable": "942.6329999999999",
        "efficiency_global": "0.6602956152641226",
        "efficiency_local": "0.6463148722013332",
        "efficiency_global_routed": "0.8304712539347144",
        "efficiency_local_routed": "0.23319934399374193"
    },
    {
        "length": "565707.834000001",
        "length_lcc": "565707.834000001",
        "coverage": "274.0505969251752",
        "directness": "0.7080288086219415",
        "directness_lcc": "0.7080288086219415",
        "poi_coverage": "104",
        "components": "1",
        "overlap_biketrack": "172.71200000000002",
        "overlap_bikeable": "942.6329999999999",
        "efficiency_global": "0.6588947170768562",
        "efficiency_local": "0.6468953626777848",
        "efficiency_global_routed": "0.8325255756682232",
        "efficiency_local_routed": "0.2159250332234123"
    },
    {
        "length": "600771.1119999985",
        "length_lcc": "600771.1119999985",
        "coverage": "287.00633193302025",
        "directness": "0.710162245622635",
        "directness_lcc": "0.710162245622635",
        "poi_coverage": "109",
        "components": "1",
        "overlap_biketrack": "172.71200000000002",
        "overlap_bikeable": "942.6329999999999",
        "efficiency_global": "0.6600971705277103",
        "efficiency_local": "0.6484759506156285",
        "efficiency_global_routed": "0.8255318504491357",
        "efficiency_local_routed": "0.210853439272495"
    },
    {
        "length": "624127.016",
        "length_lcc": "624127.016",
        "coverage": "297.99919982492025",
        "directness": "0.7090249674911153",
        "directness_lcc": "0.7090249674911153",
        "poi_coverage": "113",
        "components": "1",
        "overlap_biketrack": "172.71200000000002",
        "overlap_bikeable": "942.6329999999999",
        "efficiency_global": "0.6601230069235496",
        "efficiency_local": "0.6505238595721089",
        "efficiency_global_routed": "0.8222878557030427",
        "efficiency_local_routed": "0.21853808042019895"
    },
    {
        "length": "661229.198999999",
        "length_lcc": "661229.198999999",
        "coverage": "313.37583313212684",
        "directness": "0.7069123745095935",
        "directness_lcc": "0.7069123745095935",
        "poi_coverage": "118",
        "components": "1",
        "overlap_biketrack": "172.71200000000002",
        "overlap_bikeable": "942.6329999999999",
        "efficiency_global": "0.659906224254295",
        "efficiency_local": "0.6504215901905626",
        "efficiency_global_routed": "0.822578058124476",
        "efficiency_local_routed": "0.2293404616304074"
    },
    {
        "length": "696900.0660000015",
        "length_lcc": "696900.0660000015",
        "coverage": "334.34920978854836",
        "directness": "0.7073036170782884",
        "directness_lcc": "0.7073036170782884",
        "poi_coverage": "123",
        "components": "1",
        "overlap_biketrack": "172.71200000000002",
        "overlap_bikeable": "942.6329999999999",
        "efficiency_global": "0.6589972314535122",
        "efficiency_local": "0.6460049258034322",
        "efficiency_global_routed": "0.8204033240542343",
        "efficiency_local_routed": "0.22651162732364205"
    },
    {
        "length": "721184.3510000029",
        "length_lcc": "721184.3510000029",
        "coverage": "346.41636188607595",
        "directness": "0.7117724258037905",
        "directness_lcc": "0.7117724258037905",
        "poi_coverage": "127",
        "components": "1",
        "overlap_biketrack": "172.71200000000002",
        "overlap_bikeable": "942.6329999999999",
        "efficiency_global": "0.6597688719334369",
        "efficiency_local": "0.6486204988417875",
        "efficiency_global_routed": "0.8209096837849416",
        "efficiency_local_routed": "0.20706192664314574"
    },
    {
        "length": "743377.1840000021",
        "length_lcc": "743377.1840000021",
        "coverage": "357.1258444197758",
        "directness": "0.7123220393353495",
        "directness_lcc": "0.7123220393353495",
        "poi_coverage": "132",
        "components": "1",
        "overlap_biketrack": "172.71200000000002",
        "overlap_bikeable": "942.6329999999999",
        "efficiency_global": "0.658351779761158",
        "efficiency_local": "0.6438077212462029",
        "efficiency_global_routed": "0.8241618731446835",
        "efficiency_local_routed": "0.2029234020208558"
    },
    {
        "length": "778615.8560000021",
        "length_lcc": "778615.8560000021",
        "coverage": "370.51528734862865",
        "directness": "0.7146921947911339",
        "directness_lcc": "0.7146921947911339",
        "poi_coverage": "137",
        "components": "1",
        "overlap_biketrack": "598.0999999999999",
        "overlap_bikeable": "1368.021",
        "efficiency_global": "0.6587563961107582",
        "efficiency_local": "0.6436512156890066",
        "efficiency_global_routed": "0.8222613867374307",
        "efficiency_local_routed": "0.18244180262684917"
    },
    {
        "length": "801016.986000003",
        "length_lcc": "801016.986000003",
        "coverage": "378.7036353512356",
        "directness": "0.7141263493630037",
        "directness_lcc": "0.7141263493630037",
        "poi_coverage": "142",
        "components": "1",
        "overlap_biketrack": "598.0999999999999",
        "overlap_bikeable": "1368.021",
        "efficiency_global": "0.6589428122181045",
        "efficiency_local": "0.6480377805795504",
        "efficiency_global_routed": "0.82262895235908",
        "efficiency_local_routed": "0.19650128834165867"
    },
    {
        "length": "821489.3390000022",
        "length_lcc": "821489.3390000022",
        "coverage": "389.96893275043243",
        "directness": "0.7169713156265557",
        "directness_lcc": "0.7169713156265557",
        "poi_coverage": "146",
        "components": "1",
        "overlap_biketrack": "598.0999999999999",
        "overlap_bikeable": "1368.021",
        "efficiency_global": "0.659318327046684",
        "efficiency_local": "0.6470912257906692",
        "efficiency_global_routed": "0.8291698224507462",
        "efficiency_local_routed": "0.20272049149000232"
    },
    {
        "length": "855618.9260000021",
        "length_lcc": "855618.9260000021",
        "coverage": "401.8338361235019",
        "directness": "0.7190194043057019",
        "directness_lcc": "0.7190194043057019",
        "poi_coverage": "151",
        "components": "1",
        "overlap_biketrack": "598.0999999999999",
        "overlap_bikeable": "1368.021",
        "efficiency_global": "0.6554860332861288",
        "efficiency_local": "0.6432169891554012",
        "efficiency_global_routed": "0.818418938037806",
        "efficiency_local_routed": "0.20265155458367348"
    },
    {
        "length": "885792.755000003",
        "length_lcc": "885792.755000003",
        "coverage": "414.8977674779569",
        "directness": "0.716232246655573",
        "directness_lcc": "0.716232246655573",
        "poi_coverage": "156",
        "components": "1",
        "overlap_biketrack": "598.0999999999999",
        "overlap_bikeable": "1368.021",
        "efficiency_global": "0.6566716690410526",
        "efficiency_local": "0.6435044695904718",
        "efficiency_global_routed": "0.8254147788016856",
        "efficiency_local_routed": "0.19686787795134983"
    },
    {
        "length": "912623.825000004",
        "length_lcc": "912623.825000004",
        "coverage": "427.5085187563202",
        "directness": "0.7249315853064899",
        "directness_lcc": "0.7249315853064899",
        "poi_coverage": "160",
        "components": "1",
        "overlap_biketrack": "598.0999999999999",
        "overlap_bikeable": "1368.021",
        "efficiency_global": "0.6570145831315372",
        "efficiency_local": "0.6405341153997572",
        "efficiency_global_routed": "0.8123176796193041",
        "efficiency_local_routed": "0.20543703516495335"
    },
    {
        "length": "931743.8310000048",
        "length_lcc": "931743.8310000048",
        "coverage": "436.0649998958673",
        "directness": "0.7196502508203503",
        "directness_lcc": "0.7196502508203503",
        "poi_coverage": "165",
        "components": "1",
        "overlap_biketrack": "598.0999999999999",
        "overlap_bikeable": "1368.021",
        "efficiency_global": "0.6553158691925469",
        "efficiency_local": "0.6390441674258918",
        "efficiency_global_routed": "0.8169694657804802",
        "efficiency_local_routed": "0.2035487554547287"
    },
    {
        "length": "962541.2750000027",
        "length_lcc": "962541.2750000027",
        "coverage": "449.9224020927992",
        "directness": "0.730162688903518",
        "directness_lcc": "0.730162688903518",
        "poi_coverage": "170",
        "components": "1",
        "overlap_biketrack": "598.0999999999999",
        "overlap_bikeable": "1368.021",
        "efficiency_global": "0.6562069787589587",
        "efficiency_local": "0.6395971742944826",
        "efficiency_global_routed": "0.8404017710092188",
        "efficiency_local_routed": "0.21660357453047793"
    },
    {
        "length": "987340.2640000045",
        "length_lcc": "987340.2640000045",
        "coverage": "459.4188654078577",
        "directness": "0.7259377669198916",
        "directness_lcc": "0.7259377669198916",
        "poi_coverage": "174",
        "components": "1",
        "overlap_biketrack": "598.0999999999999",
        "overlap_bikeable": "1368.021",
        "efficiency_global": "0.6571989145010139",
        "efficiency_local": "0.6417200044126822",
        "efficiency_global_routed": "0.8216976580064348",
        "efficiency_local_routed": "0.2030602053657892"
    },
    {
        "length": "1023710.2950000046",
        "length_lcc": "1023710.2950000046",
        "coverage": "470.49660697930454",
        "directness": "0.7293966479301975",
        "directness_lcc": "0.7293966479301975",
        "poi_coverage": "179",
        "components": "1",
        "overlap_biketrack": "598.0999999999999",
        "overlap_bikeable": "1422.972",
        "efficiency_global": "0.6576951718622052",
        "efficiency_local": "0.6415193657016385",
        "efficiency_global_routed": "0.8260824673861263",
        "efficiency_local_routed": "0.2026004968011015"
    },
    {
        "length": "1049160.299000005",
        "length_lcc": "1049160.299000005",
        "coverage": "483.2438062699262",
        "directness": "0.7306221381170004",
        "directness_lcc": "0.7306221381170004",
        "poi_coverage": "184",
        "components": "1",
        "overlap_biketrack": "598.0999999999999",
        "overlap_bikeable": "1422.972",
        "efficiency_global": "0.6568464454606374",
        "efficiency_local": "0.6410831062203666",
        "efficiency_global_routed": "0.8251222843037503",
        "efficiency_local_routed": "0.2087001808915656"
    },
    {
        "length": "1087620.184000007",
        "length_lcc": "1087620.184000007",
        "coverage": "504.8859869964424",
        "directness": "0.731366427913448",
        "directness_lcc": "0.731366427913448",
        "poi_coverage": "189",
        "components": "1",
        "overlap_biketrack": "598.0999999999999",
        "overlap_bikeable": "1422.972",
        "efficiency_global": "0.6549019736782004",
        "efficiency_local": "0.6360559324673355",
        "efficiency_global_routed": "0.8209008267465523",
        "efficiency_local_routed": "0.19641764620884883"
    }
]