[
    {
        "length": "31540.790999999957",
        "length_lcc": "7021.6309999999985",
        "coverage": "30.08371822886791",
        "directness": "0.6890901522550756",
        "directness_lcc": "0.7619589836411745",
        "poi_coverage": "16",
        "components": "6",
        "overlap_biketrack": "0",
        "overlap_bikeable": "131.865",
        "efficiency_global": "0.14438719567099054",
        "efficiency_local": "0.0",
        "efficiency_global_routed": "0.28824305117232946",
        "efficiency_local_routed": "0.0"
    },
    {
        "length": "83536.83200000011",
        "length_lcc": "17483.213000000025",
        "coverage": "80.5289246114922",
        "directness": "0.5567832314866397",
        "directness_lcc": "0.5343757727881461",
        "poi_coverage": "43",
        "components": "10",
        "overlap_biketrack": "0",
        "overlap_bikeable": "131.865",
        "efficiency_global": "0.1106992458422939",
        "efficiency_local": "0.0",
        "efficiency_global_routed": "0.8244767955421667",
        "efficiency_local_routed": "0.11737432808607844"
    },
    {
        "length": "105776.9760000002",
        "length_lcc": "21069.08200000002",
        "coverage": "99.00060290637589",
        "directness": "0.5513683138425095",
        "directness_lcc": "0.5025022157070768",
        "poi_coverage": "54",
        "components": "14",
        "overlap_biketrack": "0",
        "overlap_bikeable": "131.865",
        "efficiency_global": "0.07496025727526988",
        "efficiency_local": "0.0",
        "efficiency_global_routed": "0.8203671907850005",
        "efficiency_local_routed": "0.18137874731288406"
    },
    {
        "length": "145014.95599999977",
        "length_lcc": "22948.579999999998",
        "coverage": "130.3411566419057",
        "directness": "0.564740214443826",
        "directness_lcc": "0.49764974772406706",
        "poi_coverage": "68",
        "components": "16",
        "overlap_biketrack": "0",
        "overlap_bikeable": "879.9480000000001",
        "efficiency_global": "0.05349897048213886",
        "efficiency_local": "0.0",
        "efficiency_global_routed": "0.7701265409265348",
        "efficiency_local_routed": "0.26717741556365"
    },
    {
        "length": "167930.5419999995",
        "length_lcc": "36585.562",
        "coverage": "140.24391105604738",
        "directness": "0.6007934607299577",
        "directness_lcc": "0.5542800097001188",
        "poi_coverage": "73",
        "components": "13",
        "overlap_biketrack": "0",
        "overlap_bikeable": "879.9480000000001",
        "efficiency_global": "0.05903016186937391",
        "efficiency_local": "0.051351094202828594",
        "efficiency_global_routed": "0.7716233456365903",
        "efficiency_local_routed": "0.22679876651066724"
    },
    {
        "length": "186454.09099999926",
        "length_lcc": "40977.51900000003",
        "coverage": "151.36208282585136",
        "directness": "0.5937920126218575",
        "directness_lcc": "0.5474043607129301",
        "poi_coverage": "79",
        "components": "14",
        "overlap_biketrack": "0",
        "overlap_bikeable": "892.0830000000001",
        "efficiency_global": "0.06430959806423779",
        "efficiency_local": "0.020687374471146883",
        "efficiency_global_routed": "0.7790061703194402",
        "efficiency_local_routed": "0.19528918560167063"
    },
    {
        "length": "201410.40199999927",
        "length_lcc": "40977.51900000003",
        "coverage": "162.08600167834786",
        "directness": "0.5905167073952309",
        "directness_lcc": "0.5386911566833671",
        "poi_coverage": "83",
        "components": "16",
        "overlap_biketrack": "0",
        "overlap_bikeable": "892.0830000000001",
        "efficiency_global": "0.061573220448890284",
        "efficiency_local": "0.017120585769225007",
        "efficiency_global_routed": "0.754112174665162",
        "efficiency_local_routed": "0.21461521837933703"
    },
    {
        "length": "226198.23299999972",
        "length_lcc": "40977.51900000003",
        "coverage": "176.31916409779575",
        "directness": "0.5828314849856109",
        "directness_lcc": "0.5382751650583406",
        "poi_coverage": "89",
        "components": "13",
        "overlap_biketrack": "0",
        "overlap_bikeable": "892.0830000000001",
        "efficiency_global": "0.06713727900450249",
        "efficiency_local": "0.04306823271893581",
        "efficiency_global_routed": "0.7266747724055324",
        "efficiency_local_routed": "0.26684538835844906"
    },
    {
        "length": "249450.49099999966",
        "length_lcc": "74904.10799999985",
        "coverage": "187.95222935568012",
        "directness": "0.5544624150912646",
        "directness_lcc": "0.5771508843472947",
        "poi_coverage": "94",
        "components": "9",
        "overlap_biketrack": "0",
        "overlap_bikeable": "892.0830000000001",
        "efficiency_global": "0.08000648532723072",
        "efficiency_local": "0.02759061588078888",
        "efficiency_global_routed": "0.7266811123949068",
        "efficiency_local_routed": "0.2903129146641103"
    },
    {
        "length": "276232.96499999997",
        "length_lcc": "81915.60999999975",
        "coverage": "204.75795361722277",
        "directness": "0.5323668901828361",
        "directness_lcc": "0.5823024117747755",
        "poi_coverage": "102",
        "components": "9",
        "overlap_biketrack": "0",
        "overlap_bikeable": "892.0830000000001",
        "efficiency_global": "0.08086872641486667",
        "efficiency_local": "0.05247896300718983",
        "efficiency_global_routed": "0.7049407202359534",
        "efficiency_local_routed": "0.28517091558627705"
    },
    {
        "length": "287493.40900000045",
        "length_lcc": "83489.2039999998",
        "coverage": "209.40190079952563",
        "directness": "0.47747427243253654",
        "directness_lcc": "0.5894465162596618",
        "poi_coverage": "105",
        "components": "8",
        "overlap_biketrack": "0",
        "overlap_bikeable": "892.0830000000001",
        "efficiency_global": "0.09659669971027676",
        "efficiency_local": "0.09445695457415307",
        "efficiency_global_routed": "0.6907646552446789",
        "efficiency_local_routed": "0.28546335915604526"
    },
    {
        "length": "318057.4010000001",
        "length_lcc": "199988.4460000001",
        "coverage": "217.50471331206407",
        "directness": "0.46552093169584574",
        "directness_lcc": "0.5321806379418705",
        "poi_coverage": "107",
        "components": "5",
        "overlap_biketrack": "0",
        "overlap_bikeable": "892.0830000000001",
        "efficiency_global": "0.10773075058250021",
        "efficiency_local": "0.09919010470736794",
        "efficiency_global_routed": "0.7144334134333021",
        "efficiency_local_routed": "0.24751706243751975"
    },
    {
        "length": "327257.5980000001",
        "length_lcc": "215742.41399999944",
        "coverage": "220.5889220647006",
        "directness": "0.46969753860179836",
        "directness_lcc": "0.5081850024632577",
        "poi_coverage": "108",
        "components": "3",
        "overlap_biketrack": "0",
        "overlap_bikeable": "892.0830000000001",
        "efficiency_global": "0.1220699836103376",
        "efficiency_local": "0.12902849932463348",
        "efficiency_global_routed": "0.7137793071408141",
        "efficiency_local_routed": "0.2314135509349847"
    },
    {
        "length": "336590.6630000005",
        "length_lcc": "218012.52599999937",
        "coverage": "224.53558971440242",
        "directness": "0.4720117509941299",
        "directness_lcc": "0.4961711527791168",
        "poi_coverage": "110",
        "components": "3",
        "overlap_biketrack": "0",
        "overlap_bikeable": "892.0830000000001",
        "efficiency_global": "0.1289968832824831",
        "efficiency_local": "0.1435665687133285",
        "efficiency_global_routed": "0.7020315997087845",
        "efficiency_local_routed": "0.24598393575190938"
    },
    {
        "length": "355899.7660000008",
        "length_lcc": "355899.7660000008",
        "coverage": "230.36294109512684",
        "directness": "0.3749899722519295",
        "directness_lcc": "0.3749899722519295",
        "poi_coverage": "111",
        "components": "1",
        "overlap_biketrack": "0",
        "overlap_bikeable": "892.0830000000001",
        "efficiency_global": "0.13811060522202812",
        "efficiency_local": "0.14039239652767688",
        "efficiency_global_routed": "0.7464361957826798",
        "efficiency_local_routed": "0.24989019237547275"
    },
    {
        "length": "366990.645000001",
        "length_lcc": "366990.645000001",
        "coverage": "233.32170466254857",
        "directness": "0.49338806735905266",
        "directness_lcc": "0.49338806735905266",
        "poi_coverage": "111",
        "components": "1",
        "overlap_biketrack": "0",
        "overlap_bikeable": "892.0830000000001",
        "efficiency_global": "0.18687699626981844",
        "efficiency_local": "0.1612604597408342",
        "efficiency_global_routed": "0.7644910425714414",
        "efficiency_local_routed": "0.2580943612846914"
    },
    {
        "length": "374856.64100000117",
        "length_lcc": "374856.64100000117",
        "coverage": "234.68216221893627",
        "directness": "0.5122386682064015",
        "directness_lcc": "0.5122386682064015",
        "poi_coverage": "111",
        "components": "1",
        "overlap_biketrack": "0",
        "overlap_bikeable": "916.8090000000002",
        "efficiency_global": "0.2185193617101873",
        "efficiency_local": "0.17978225173506365",
        "efficiency_global_routed": "0.764871474856188",
        "efficiency_local_routed": "0.2718173799762363"
    },
    {
        "length": "386338.2940000009",
        "length_lcc": "386338.2940000009",
        "coverage": "237.03132319128096",
        "directness": "0.5334645520823275",
        "directness_lcc": "0.5334645520823275",
        "poi_coverage": "111",
        "components": "1",
        "overlap_biketrack": "0",
        "overlap_bikeable": "916.8090000000002",
        "efficiency_global": "0.24019431777155473",
        "efficiency_local": "0.17118127925164875",
        "efficiency_global_routed": "0.7700301356277937",
        "efficiency_local_routed": "0.2822685950549798"
    },
    {
        "length": "395710.7090000012",
        "length_lcc": "395710.7090000012",
        "coverage": "237.85937621095357",
        "directness": "0.5564864234224746",
        "directness_lcc": "0.5564864234224746",
        "poi_coverage": "111",
        "components": "1",
        "overlap_biketrack": "0",
        "overlap_bikeable": "934.7890000000001",
        "efficiency_global": "0.2912377120383321",
        "efficiency_local": "0.16949968498717738",
        "efficiency_global_routed": "0.7762331257430509",
        "efficiency_local_routed": "0.27036469188861373"
    },
    {
        "length": "407689.7640000017",
        "length_lcc": "407689.7640000017",
        "coverage": "240.29797423940204",
        "directness": "0.5620605459840636",
        "directness_lcc": "0.5620605459840636",
        "poi_coverage": "112",
        "components": "1",
        "overlap_biketrack": "0",
        "overlap_bikeable": "934.7890000000001",
        "efficiency_global": "0.2924031636882275",
        "efficiency_local": "0.17019771680233803",
        "efficiency_global_routed": "0.7689780467184714",
        "efficiency_local_routed": "0.26074590553447374"
    },
    {
        "length": "416705.58700000134",
        "length_lcc": "416705.58700000134",
        "coverage": "241.54967499587116",
        "directness": "0.5611398011014075",
        "directness_lcc": "0.5611398011014075",
        "poi_coverage": "112",
        "components": "1",
        "overlap_biketrack": "0",
        "overlap_bikeable": "934.7890000000001",
        "efficiency_global": "0.30546566817554893",
        "efficiency_local": "0.15739316421571198",
        "efficiency_global_routed": "0.7706714738309072",
        "efficiency_local_routed": "0.2597875128238747"
    },
    {
        "length": "424173.24500000186",
        "length_lcc": "424173.24500000186",
        "coverage": "242.74619787216554",
        "directness": "0.6019444473547565",
        "directness_lcc": "0.6019444473547565",
        "poi_coverage": "112",
        "components": "1",
        "overlap_biketrack": "0",
        "overlap_bikeable": "934.7890000000001",
        "efficiency_global": "0.32296103335089654",
        "efficiency_local": "0.17068472083370312",
        "efficiency_global_routed": "0.7754253057572754",
        "efficiency_local_routed": "0.27633901573578873"
    },
    {
        "length": "431630.16500000184",
        "length_lcc": "431630.16500000184",
        "coverage": "244.34971047465964",
        "directness": "0.5981822810788703",
        "directness_lcc": "0.5981822810788703",
        "poi_coverage": "112",
        "components": "1",
        "overlap_biketrack": "0",
        "overlap_bikeable": "934.7890000000001",
        "efficiency_global": "0.33734900888331376",
        "efficiency_local": "0.1800665448663534",
        "efficiency_global_routed": "0.7773244074408817",
        "efficiency_local_routed": "0.266533032754161"
    },
    {
        "length": "438132.7250000018",
        "length_lcc": "438132.7250000018",
        "coverage": "244.834116062257",
        "directness": "0.6143331882673363",
        "directness_lcc": "0.6143331882673363",
        "poi_coverage": "112",
        "components": "1",
        "overlap_biketrack": "0",
        "overlap_bikeable": "934.7890000000001",
        "efficiency_global": "0.35302979012537555",
        "efficiency_local": "0.1858404976796958",
        "efficiency_global_routed": "0.7803960558527331",
        "efficiency_local_routed": "0.2676515288118524"
    },
    {
        "length": "441265.6440000018",
        "length_lcc": "441265.6440000018",
        "coverage": "245.07176419291264",
        "directness": "0.6066496971367616",
        "directness_lcc": "0.6066496971367616",
        "poi_coverage": "112",
        "components": "1",
        "overlap_biketrack": "0",
        "overlap_bikeable": "934.7890000000001",
        "efficiency_global": "0.3642560698618941",
        "efficiency_local": "0.20615067682998758",
        "efficiency_global_routed": "0.7724023790619741",
        "efficiency_local_routed": "0.2694495219621313"
    },
    {
        "length": "447893.8690000021",
        "length_lcc": "447893.8690000021",
        "coverage": "245.26360037651045",
        "directness": "0.6228274921545934",
        "directness_lcc": "0.6228274921545934",
        "poi_coverage": "112",
        "components": "1",
        "overlap_biketrack": "0",
        "overlap_bikeable": "934.7890000000001",
        "efficiency_global": "0.3730965742167579",
        "efficiency_local": "0.24431336957436975",
        "efficiency_global_routed": "0.7804291059085984",
        "efficiency_local_routed": "0.2857495549566682"
    },
    {
        "length": "451521.35000000236",
        "length_lcc": "451521.35000000236",
        "coverage": "246.33356634490627",
        "directness": "0.6354119214993588",
        "directness_lcc": "0.6354119214993588",
        "poi_coverage": "112",
        "components": "1",
        "overlap_biketrack": "0",
        "overlap_bikeable": "934.7890000000001",
        "efficiency_global": "0.4029353761853457",
        "efficiency_local": "0.2594214388943065",
        "efficiency_global_routed": "0.768522875171872",
        "efficiency_local_routed": "0.2726414160916996"
    },
    {
        "length": "457865.73400000256",
        "length_lcc": "457865.73400000256",
        "coverage": "246.50632471411993",
        "directness": "0.6329251323571876",
        "directness_lcc": "0.6329251323571876",
        "poi_coverage": "112",
        "components": "1",
        "overlap_biketrack": "0",
        "overlap_bikeable": "934.7890000000001",
        "efficiency_global": "0.41505442643168605",
        "efficiency_local": "0.26444576103496786",
        "efficiency_global_routed": "0.7879498017906121",
        "efficiency_local_routed": "0.2693980960453613"
    },
    {
        "length": "462475.80500000285",
        "length_lcc": "462475.80500000285",
        "coverage": "246.96328336669308",
        "directness": "0.626810251563457",
        "directness_lcc": "0.626810251563457",
        "poi_coverage": "112",
        "components": "1",
        "overlap_biketrack": "0",
        "overlap_bikeable": "934.7890000000001",
        "efficiency_global": "0.43146037236800916",
        "efficiency_local": "0.27511345691540684",
        "efficiency_global_routed": "0.7875944554181922",
        "efficiency_local_routed": "0.2895634271156777"
    },
    {
        "length": "468477.9530000032",
        "length_lcc": "468477.9530000032",
        "coverage": "247.31571656680825",
        "directness": "0.635886698469731",
        "directness_lcc": "0.635886698469731",
        "poi_coverage": "112",
        "components": "1",
        "overlap_biketrack": "0",
        "overlap_bikeable": "934.7890000000001",
        "efficiency_global": "0.4407338905152874",
        "efficiency_local": "0.29799717197122677",
        "efficiency_global_routed": "0.7744928371729564",
        "efficiency_local_routed": "0.2711402578955179"
    },
    {
        "length": "475868.67000000324",
        "length_lcc": "475868.67000000324",
        "coverage": "247.7965132911031",
        "directness": "0.6343164059618419",
        "directness_lcc": "0.6343164059618419",
        "poi_coverage": "112",
        "components": "1",
        "overlap_biketrack": "0",
        "overlap_bikeable": "934.7890000000001",
        "efficiency_global": "0.4511722645258766",
        "efficiency_local": "0.3115393378545832",
        "efficiency_global_routed": "0.7824635553276267",
        "efficiency_local_routed": "0.26797944139417473"
    },
    {
        "length": "481548.4260000032",
        "length_lcc": "481548.4260000032",
        "coverage": "248.01273321001642",
        "directness": "0.6351290438514982",
        "directness_lcc": "0.6351290438514982",
        "poi_coverage": "112",
        "components": "1",
        "overlap_biketrack": "0",
        "overlap_bikeable": "934.7890000000001",
        "efficiency_global": "0.4593779528464924",
        "efficiency_local": "0.3400264727297841",
        "efficiency_global_routed": "0.7806846107640739",
        "efficiency_local_routed": "0.2741689522710202"
    },
    {
        "length": "489456.0460000032",
        "length_lcc": "489456.0460000032",
        "coverage": "248.5221134462304",
        "directness": "0.6392143855738719",
        "directness_lcc": "0.6392143855738719",
        "poi_coverage": "112",
        "components": "1",
        "overlap_biketrack": "0",
        "overlap_bikeable": "981.621",
        "efficiency_global": "0.4718229807465239",
        "efficiency_local": "0.3662338427605581",
        "efficiency_global_routed": "0.777881873151964",
        "efficiency_local_routed": "0.2765273475345772"
    },
    {
        "length": "494450.9110000028",
        "length_lcc": "494450.9110000028",
        "coverage": "248.76579974948174",
        "directness": "0.6477420819237876",
        "directness_lcc": "0.6477420819237876",
        "poi_coverage": "112",
        "components": "1",
        "overlap_biketrack": "0",
        "overlap_bikeable": "981.621",
        "efficiency_global": "0.47623814541431186",
        "efficiency_local": "0.3969695853269009",
        "efficiency_global_routed": "0.7797850622958066",
        "efficiency_local_routed": "0.26155058706058326"
    },
    {
        "length": "509562.24600000284",
        "length_lcc": "509562.24600000284",
        "coverage": "251.3078721982067",
        "directness": "0.6404105406325068",
        "directness_lcc": "0.6404105406325068",
        "poi_coverage": "112",
        "components": "1",
        "overlap_biketrack": "0",
        "overlap_bikeable": "981.621",
        "efficiency_global": "0.4824595802015228",
        "efficiency_local": "0.43172206304412597",
        "efficiency_global_routed": "0.7760566094401778",
        "efficiency_local_routed": "0.28138894479558596"
    },
    {
        "length": "515086.8780000034",
        "length_lcc": "515086.8780000034",
        "coverage": "251.34514960582217",
        "directness": "0.6316791590411233",
        "directness_lcc": "0.6316791590411233",
        "poi_coverage": "112",
        "components": "1",
        "overlap_biketrack": "0",
        "overlap_bikeable": "981.621",
        "efficiency_global": "0.49065200891786254",
        "efficiency_local": "0.45981555361813137",
        "efficiency_global_routed": "0.7794631717534526",
        "efficiency_local_routed": "0.28798969797304774"
    },
    {
        "length": "517267.63300000335",
        "length_lcc": "517267.63300000335",
        "coverage": "251.37847653168527",
        "directness": "0.6538378328053179",
        "directness_lcc": "0.6538378328053179",
        "poi_coverage": "112",
        "components": "1",
        "overlap_biketrack": "0",
        "overlap_bikeable": "981.621",
        "efficiency_global": "0.49496453210389374",
        "efficiency_local": "0.480142848326749",
        "efficiency_global_routed": "0.7653285210850773",
        "efficiency_local_routed": "0.25677356307981575"
    },
    {
        "length": "520181.63500000344",
        "length_lcc": "520181.63500000344",
        "coverage": "251.3985798500003",
        "directness": "0.6536333079276755",
        "directness_lcc": "0.6536333079276755",
        "poi_coverage": "112",
        "components": "1",
        "overlap_biketrack": "0",
        "overlap_bikeable": "981.621",
        "efficiency_global": "0.4992933548922401",
        "efficiency_local": "0.4965183831635125",
        "efficiency_global_routed": "0.7794097180164358",
        "efficiency_local_routed": "0.2806420993596848"
    },
    {
        "length": "525269.4910000036",
        "length_lcc": "525269.4910000036",
        "coverage": "252.5330375840822",
        "directness": "0.6433388124911611",
        "directness_lcc": "0.6433388124911611",
        "poi_coverage": "112",
        "components": "1",
        "overlap_biketrack": "0",
        "overlap_bikeable": "981.621",
        "efficiency_global": "0.5048454164910765",
        "efficiency_local": "0.5040807170183743",
        "efficiency_global_routed": "0.7948100012903069",
        "efficiency_local_routed": "0.24294651650628113"
    },
    {
        "length": "532633.9980000043",
        "length_lcc": "532633.9980000043",
        "coverage": "253.63112311174572",
        "directness": "0.6502521901996172",
        "directness_lcc": "0.6502521901996172",
        "poi_coverage": "112",
        "components": "1",
        "overlap_biketrack": "0",
        "overlap_bikeable": "981.621",
        "efficiency_global": "0.5140310568060212",
        "efficiency_local": "0.5228044199682482",
        "efficiency_global_routed": "0.7802561581115511",
        "efficiency_local_routed": "0.2858960253542244"
    }
]