[
    {
        "length": "1514.9669999999999",
        "length_lcc": "1514.9669999999999",
        "coverage": "1.715373704555797",
        "directness": "0.8155375545152299",
        "directness_lcc": "0.8155375545152299",
        "poi_coverage": "5",
        "components": "1",
        "overlap_biketrack": "465.8500000000001",
        "overlap_bikeable": "465.8500000000001",
        "efficiency_global": "0.9659680615588191",
        "efficiency_local": "0.9603833204137345",
        "efficiency_global_routed": "0.9998381432393358",
        "efficiency_local_routed": "0.9998381432393358"
    },
    {
        "length": "2867.4029999999993",
        "length_lcc": "2867.4029999999993",
        "coverage": "2.412143475827353",
        "directness": "0.7988207242516693",
        "directness_lcc": "0.7988207242516693",
        "poi_coverage": "6",
        "components": "1",
        "overlap_biketrack": "465.8500000000001",
        "overlap_bikeable": "465.8500000000001",
        "efficiency_global": "0.8008539210198602",
        "efficiency_local": "0.772661916168317",
        "efficiency_global_routed": "0.9309307916676214",
        "efficiency_local_routed": "0.5641684174888479"
    },
    {
        "length": "6171.186",
        "length_lcc": "6171.186",
        "coverage": "3.7782933706902817",
        "directness": "0.7586224522972783",
        "directness_lcc": "0.7586224522972783",
        "poi_coverage": "10",
        "components": "1",
        "overlap_biketrack": "465.8500000000001",
        "overlap_bikeable": "465.8500000000001",
        "efficiency_global": "0.8422207469406419",
        "efficiency_local": "0.8718545117359042",
        "efficiency_global_routed": "0.9412690068564311",
        "efficiency_local_routed": "0.49581657013550623"
    },
    {
        "length": "10727.145000000011",
        "length_lcc": "10727.145000000011",
        "coverage": "5.641692159162627",
        "directness": "0.7619670227622934",
        "directness_lcc": "0.7619670227622934",
        "poi_coverage": "15",
        "components": "1",
        "overlap_biketrack": "561.851",
        "overlap_bikeable": "561.851",
        "efficiency_global": "0.825078648694212",
        "efficiency_local": "0.8032351759192793",
        "efficiency_global_routed": "0.9314302587238329",
        "efficiency_local_routed": "0.06815805188607385"
    },
    {
        "length": "15272.955000000005",
        "length_lcc": "15272.955000000005",
        "coverage": "6.763700833316188",
        "directness": "0.7389110047185207",
        "directness_lcc": "0.7389110047185207",
        "poi_coverage": "17",
        "components": "1",
        "overlap_biketrack": "808.1240000000004",
        "overlap_bikeable": "974.9240000000005",
        "efficiency_global": "0.8393688781405269",
        "efficiency_local": "0.8051596450979538",
        "efficiency_global_routed": "0.895899875215328",
        "efficiency_local_routed": "0.14384232916190312"
    },
    {
        "length": "16466.33800000001",
        "length_lcc": "16466.33800000001",
        "coverage": "7.084873398028704",
        "directness": "0.743481606620655",
        "directness_lcc": "0.743481606620655",
        "poi_coverage": "18",
        "components": "1",
        "overlap_biketrack": "808.1240000000004",
        "overlap_bikeable": "974.9240000000005",
        "efficiency_global": "0.800599801085464",
        "efficiency_local": "0.766429629618716",
        "efficiency_global_routed": "0.8939354249923909",
        "efficiency_local_routed": "0.11347201394325687"
    },
    {
        "length": "22580.238999999983",
        "length_lcc": "22580.238999999983",
        "coverage": "8.25758813624037",
        "directness": "0.7534063883115173",
        "directness_lcc": "0.7534063883115173",
        "poi_coverage": "20",
        "components": "1",
        "overlap_biketrack": "1889.1900000000003",
        "overlap_bikeable": "2055.9900000000007",
        "efficiency_global": "0.7879232864078123",
        "efficiency_local": "0.7335801175584387",
        "efficiency_global_routed": "0.8816936816525482",
        "efficiency_local_routed": "0.13636187538264555"
    },
    {
        "length": "25647.856999999964",
        "length_lcc": "25647.856999999964",
        "coverage": "9.46637137681173",
        "directness": "0.7711606189181028",
        "directness_lcc": "0.7711606189181028",
        "poi_coverage": "25",
        "components": "1",
        "overlap_biketrack": "2256.726000000001",
        "overlap_bikeable": "2423.5260000000007",
        "efficiency_global": "0.7864040906072517",
        "efficiency_local": "0.7374844075371395",
        "efficiency_global_routed": "0.8794871207425681",
        "efficiency_local_routed": "0.14974428488018154"
    },
    {
        "length": "26899.61399999996",
        "length_lcc": "26899.61399999996",
        "coverage": "9.840397733695927",
        "directness": "0.7695252017464407",
        "directness_lcc": "0.7695252017464407",
        "poi_coverage": "26",
        "components": "1",
        "overlap_biketrack": "2256.726000000001",
        "overlap_bikeable": "2423.5260000000007",
        "efficiency_global": "0.7924074285399154",
        "efficiency_local": "0.7449135523606268",
        "efficiency_global_routed": "0.8760559202790126",
        "efficiency_local_routed": "0.14051599434835604"
    },
    {
        "length": "30290.30399999994",
        "length_lcc": "30290.30399999994",
        "coverage": "10.846218717967574",
        "directness": "0.7938702927834524",
        "directness_lcc": "0.7938702927834524",
        "poi_coverage": "29",
        "components": "1",
        "overlap_biketrack": "2256.726000000001",
        "overlap_bikeable": "2423.5260000000007",
        "efficiency_global": "0.8058364436463843",
        "efficiency_local": "0.7758572573168615",
        "efficiency_global_routed": "0.8716223077052685",
        "efficiency_local_routed": "0.10228488504155965"
    },
    {
        "length": "30534.54699999994",
        "length_lcc": "30534.54699999994",
        "coverage": "11.029319116135063",
        "directness": "0.7979140600503195",
        "directness_lcc": "0.7979140600503195",
        "poi_coverage": "29",
        "components": "1",
        "overlap_biketrack": "2256.726000000001",
        "overlap_bikeable": "2423.5260000000007",
        "efficiency_global": "0.8116199258389428",
        "efficiency_local": "0.7850625217667051",
        "efficiency_global_routed": "0.8723232116910464",
        "efficiency_local_routed": "0.10228488504155965"
    },
    {
        "length": "33228.97099999993",
        "length_lcc": "33228.97099999993",
        "coverage": "12.277833122261407",
        "directness": "0.7895498802356274",
        "directness_lcc": "0.7895498802356274",
        "poi_coverage": "32",
        "components": "1",
        "overlap_biketrack": "2795.341000000001",
        "overlap_bikeable": "2962.1410000000005",
        "efficiency_global": "0.8213036604977203",
        "efficiency_local": "0.7945288417373337",
        "efficiency_global_routed": "0.8673390119196414",
        "efficiency_local_routed": "0.13030896899411681"
    },
    {
        "length": "38498.93599999999",
        "length_lcc": "38498.93599999999",
        "coverage": "13.891054244373887",
        "directness": "0.7937990194719068",
        "directness_lcc": "0.7937990194719068",
        "poi_coverage": "35",
        "components": "1",
        "overlap_biketrack": "3081.3820000000005",
        "overlap_bikeable": "3367.2490000000016",
        "efficiency_global": "0.8190747899352167",
        "efficiency_local": "0.7912427936554702",
        "efficiency_global_routed": "0.8581140933163386",
        "efficiency_local_routed": "0.1281882481550919"
    },
    {
        "length": "41605.237",
        "length_lcc": "41605.237",
        "coverage": "14.755199200298714",
        "directness": "0.7893842466102277",
        "directness_lcc": "0.7893842466102277",
        "poi_coverage": "35",
        "components": "1",
        "overlap_biketrack": "3081.3820000000005",
        "overlap_bikeable": "3367.2490000000016",
        "efficiency_global": "0.8204962068241987",
        "efficiency_local": "0.7910243550229047",
        "efficiency_global_routed": "0.8524691649443048",
        "efficiency_local_routed": "0.12195059748606402"
    },
    {
        "length": "47342.204000000034",
        "length_lcc": "47342.204000000034",
        "coverage": "16.309078991046576",
        "directness": "0.7870117648220752",
        "directness_lcc": "0.7870117648220752",
        "poi_coverage": "37",
        "components": "1",
        "overlap_biketrack": "3922.273000000002",
        "overlap_bikeable": "4387.983000000002",
        "efficiency_global": "0.8130242653838947",
        "efficiency_local": "0.7877502915788124",
        "efficiency_global_routed": "0.8484903331325819",
        "efficiency_local_routed": "0.12515704878100237"
    },
    {
        "length": "48422.213000000054",
        "length_lcc": "48422.213000000054",
        "coverage": "17.06606482400904",
        "directness": "0.7862213049893495",
        "directness_lcc": "0.7862213049893495",
        "poi_coverage": "41",
        "components": "1",
        "overlap_biketrack": "4315.688000000002",
        "overlap_bikeable": "4781.397999999998",
        "efficiency_global": "0.8155967972530811",
        "efficiency_local": "0.7896552858651132",
        "efficiency_global_routed": "0.8477233151690516",
        "efficiency_local_routed": "0.12329128421865478"
    },
    {
        "length": "54355.00700000007",
        "length_lcc": "54355.00700000007",
        "coverage": "20.270272481790283",
        "directness": "0.78443376005354",
        "directness_lcc": "0.78443376005354",
        "poi_coverage": "43",
        "components": "1",
        "overlap_biketrack": "4367.087",
        "overlap_bikeable": "4832.796999999997",
        "efficiency_global": "0.817769179103046",
        "efficiency_local": "0.7973243011935639",
        "efficiency_global_routed": "0.846462768986406",
        "efficiency_local_routed": "0.1338490737971821"
    },
    {
        "length": "54728.68100000007",
        "length_lcc": "54728.68100000007",
        "coverage": "20.48399430512915",
        "directness": "0.785202892058434",
        "directness_lcc": "0.785202892058434",
        "poi_coverage": "43",
        "components": "1",
        "overlap_biketrack": "4367.087",
        "overlap_bikeable": "4832.796999999997",
        "efficiency_global": "0.8178263986802721",
        "efficiency_local": "0.7857973098017224",
        "efficiency_global_routed": "0.8450842783674452",
        "efficiency_local_routed": "0.13058446224115328"
    },
    {
        "length": "59756.5160000001",
        "length_lcc": "59756.5160000001",
        "coverage": "21.646772156229634",
        "directness": "0.7896444020618454",
        "directness_lcc": "0.7896444020618454",
        "poi_coverage": "45",
        "components": "1",
        "overlap_biketrack": "4860.938999999996",
        "overlap_bikeable": "5326.648999999994",
        "efficiency_global": "0.820878730418876",
        "efficiency_local": "0.8013432427779138",
        "efficiency_global_routed": "0.841468077525958",
        "efficiency_local_routed": "0.10993276860881714"
    },
    {
        "length": "73008.95200000014",
        "length_lcc": "73008.95200000014",
        "coverage": "27.080730171416",
        "directness": "0.765795401968703",
        "directness_lcc": "0.765795401968703",
        "poi_coverage": "48",
        "components": "1",
        "overlap_biketrack": "4860.938999999996",
        "overlap_bikeable": "5326.648999999994",
        "efficiency_global": "0.8181298578363989",
        "efficiency_local": "0.8031448102901402",
        "efficiency_global_routed": "0.8340584368117284",
        "efficiency_local_routed": "0.14040087623740274"
    },
    {
        "length": "75421.28300000017",
        "length_lcc": "75421.28300000017",
        "coverage": "28.02613377771614",
        "directness": "0.7787559855691528",
        "directness_lcc": "0.7787559855691528",
        "poi_coverage": "51",
        "components": "1",
        "overlap_biketrack": "4860.938999999996",
        "overlap_bikeable": "5326.648999999994",
        "efficiency_global": "0.8188743305729899",
        "efficiency_local": "0.807619883848835",
        "efficiency_global_routed": "0.8380683057709911",
        "efficiency_local_routed": "0.1533611611657229"
    },
    {
        "length": "77153.5750000001",
        "length_lcc": "77153.5750000001",
        "coverage": "28.42349005368496",
        "directness": "0.7801795337912425",
        "directness_lcc": "0.7801795337912425",
        "poi_coverage": "51",
        "components": "1",
        "overlap_biketrack": "4860.938999999996",
        "overlap_bikeable": "5326.648999999994",
        "efficiency_global": "0.818368005182551",
        "efficiency_local": "0.8023730952711179",
        "efficiency_global_routed": "0.8398317150554514",
        "efficiency_local_routed": "0.12380120781335266"
    },
    {
        "length": "80349.18700000005",
        "length_lcc": "80349.18700000005",
        "coverage": "30.03687396911237",
        "directness": "0.7741854363962585",
        "directness_lcc": "0.7741854363962585",
        "poi_coverage": "54",
        "components": "1",
        "overlap_biketrack": "4860.938999999996",
        "overlap_bikeable": "5326.648999999994",
        "efficiency_global": "0.8173952031683844",
        "efficiency_local": "0.8037664920467444",
        "efficiency_global_routed": "0.8437730832116848",
        "efficiency_local_routed": "0.14692573387201105"
    },
    {
        "length": "86078.11600000018",
        "length_lcc": "86078.11600000018",
        "coverage": "31.779619590083847",
        "directness": "0.7802915944221809",
        "directness_lcc": "0.7802915944221809",
        "poi_coverage": "56",
        "components": "1",
        "overlap_biketrack": "4860.938999999996",
        "overlap_bikeable": "5326.648999999994",
        "efficiency_global": "0.8183938754450932",
        "efficiency_local": "0.8067699688623533",
        "efficiency_global_routed": "0.8418249319554297",
        "efficiency_local_routed": "0.15297426930209468"
    },
    {
        "length": "94534.69900000012",
        "length_lcc": "94534.69900000012",
        "coverage": "35.44895841798324",
        "directness": "0.7649354617860579",
        "directness_lcc": "0.7649354617860579",
        "poi_coverage": "59",
        "components": "1",
        "overlap_biketrack": "4860.938999999996",
        "overlap_bikeable": "5385.433999999995",
        "efficiency_global": "0.8178390578384143",
        "efficiency_local": "0.8072970420800558",
        "efficiency_global_routed": "0.8415601401496421",
        "efficiency_local_routed": "0.16965546659722935"
    },
    {
        "length": "103545.59300000011",
        "length_lcc": "103545.59300000011",
        "coverage": "39.937216677438734",
        "directness": "0.7682167179137113",
        "directness_lcc": "0.7682167179137113",
        "poi_coverage": "62",
        "components": "1",
        "overlap_biketrack": "4860.938999999996",
        "overlap_bikeable": "5385.433999999995",
        "efficiency_global": "0.8167990725820575",
        "efficiency_local": "0.8051681411510994",
        "efficiency_global_routed": "0.839874169705713",
        "efficiency_local_routed": "0.16867156274062592"
    },
    {
        "length": "107493.79000000005",
        "length_lcc": "107493.79000000005",
        "coverage": "42.36815741090008",
        "directness": "0.758281461051659",
        "directness_lcc": "0.758281461051659",
        "poi_coverage": "62",
        "components": "1",
        "overlap_biketrack": "4860.938999999996",
        "overlap_bikeable": "5385.433999999995",
        "efficiency_global": "0.8205079521845361",
        "efficiency_local": "0.7950059623763018",
        "efficiency_global_routed": "0.8400452998812251",
        "efficiency_local_routed": "0.16647146310076225"
    },
    {
        "length": "110811.82299999995",
        "length_lcc": "110811.82299999995",
        "coverage": "43.708232740139046",
        "directness": "0.7620111595873029",
        "directness_lcc": "0.7620111595873029",
        "poi_coverage": "63",
        "components": "1",
        "overlap_biketrack": "4860.938999999996",
        "overlap_bikeable": "5385.433999999995",
        "efficiency_global": "0.8180935905668419",
        "efficiency_local": "0.800085939086124",
        "efficiency_global_routed": "0.8399888712689398",
        "efficiency_local_routed": "0.16547907811190174"
    },
    {
        "length": "119006.93999999992",
        "length_lcc": "119006.93999999992",
        "coverage": "46.8152171639443",
        "directness": "0.755482681598699",
        "directness_lcc": "0.755482681598699",
        "poi_coverage": "67",
        "components": "1",
        "overlap_biketrack": "4860.938999999996",
        "overlap_bikeable": "5385.433999999995",
        "efficiency_global": "0.8154515472309528",
        "efficiency_local": "0.8004239804014435",
        "efficiency_global_routed": "0.8481340092426403",
        "efficiency_local_routed": "0.1312252150133073"
    },
    {
        "length": "120720.74499999995",
        "length_lcc": "120720.74499999995",
        "coverage": "47.618648589536946",
        "directness": "0.7543057553311011",
        "directness_lcc": "0.7543057553311011",
        "poi_coverage": "70",
        "components": "1",
        "overlap_biketrack": "4860.938999999996",
        "overlap_bikeable": "5385.433999999995",
        "efficiency_global": "0.8143934510806675",
        "efficiency_local": "0.8033216397819348",
        "efficiency_global_routed": "0.8505237532704455",
        "efficiency_local_routed": "0.1265141991172289"
    },
    {
        "length": "124440.76899999993",
        "length_lcc": "124440.76899999993",
        "coverage": "50.18248365276159",
        "directness": "0.7578532963210929",
        "directness_lcc": "0.7578532963210929",
        "poi_coverage": "72",
        "components": "1",
        "overlap_biketrack": "4860.938999999996",
        "overlap_bikeable": "5385.433999999995",
        "efficiency_global": "0.8103689646885138",
        "efficiency_local": "0.7949226442601344",
        "efficiency_global_routed": "0.8490584906358369",
        "efficiency_local_routed": "0.137897139117899"
    },
    {
        "length": "128934.88999999987",
        "length_lcc": "128934.88999999987",
        "coverage": "52.12971112999835",
        "directness": "0.7658783379299589",
        "directness_lcc": "0.7658783379299589",
        "poi_coverage": "74",
        "components": "1",
        "overlap_biketrack": "4860.938999999996",
        "overlap_bikeable": "5385.433999999995",
        "efficiency_global": "0.806478011470386",
        "efficiency_local": "0.786499501843249",
        "efficiency_global_routed": "0.8537551321412287",
        "efficiency_local_routed": "0.15439369244087806"
    },
    {
        "length": "138176.1499999997",
        "length_lcc": "138176.1499999997",
        "coverage": "58.01252001012484",
        "directness": "0.7472890957046184",
        "directness_lcc": "0.7472890957046184",
        "poi_coverage": "76",
        "components": "1",
        "overlap_biketrack": "4860.938999999996",
        "overlap_bikeable": "5385.433999999995",
        "efficiency_global": "0.8054377923979594",
        "efficiency_local": "0.7878181213537009",
        "efficiency_global_routed": "0.8518598796692094",
        "efficiency_local_routed": "0.15562064839314374"
    },
    {
        "length": "145885.51899999945",
        "length_lcc": "145885.51899999945",
        "coverage": "60.10573824178446",
        "directness": "0.7587373920345223",
        "directness_lcc": "0.7587373920345223",
        "poi_coverage": "77",
        "components": "1",
        "overlap_biketrack": "6516.578999999999",
        "overlap_bikeable": "7041.073999999996",
        "efficiency_global": "0.8033899925671371",
        "efficiency_local": "0.7864915718004531",
        "efficiency_global_routed": "0.8541435573304809",
        "efficiency_local_routed": "0.1388957428115015"
    },
    {
        "length": "156019.51999999938",
        "length_lcc": "156019.51999999938",
        "coverage": "65.08572692843421",
        "directness": "0.7507794673355803",
        "directness_lcc": "0.7507794673355803",
        "poi_coverage": "80",
        "components": "1",
        "overlap_biketrack": "6516.578999999999",
        "overlap_bikeable": "7041.073999999996",
        "efficiency_global": "0.8023687874813898",
        "efficiency_local": "0.7859353605948614",
        "efficiency_global_routed": "0.8527844534481162",
        "efficiency_local_routed": "0.13873006098712587"
    },
    {
        "length": "163522.2129999995",
        "length_lcc": "163522.2129999995",
        "coverage": "67.60788993120839",
        "directness": "0.7569121591536958",
        "directness_lcc": "0.7569121591536958",
        "poi_coverage": "82",
        "components": "1",
        "overlap_biketrack": "6516.578999999999",
        "overlap_bikeable": "7211.597999999995",
        "efficiency_global": "0.8003532651371722",
        "efficiency_local": "0.7880426577431513",
        "efficiency_global_routed": "0.8496262686598506",
        "efficiency_local_routed": "0.14494156579815495"
    },
    {
        "length": "180241.7779999993",
        "length_lcc": "180241.7779999993",
        "coverage": "77.7665242090032",
        "directness": "0.7518812716621291",
        "directness_lcc": "0.7518812716621291",
        "poi_coverage": "84",
        "components": "1",
        "overlap_biketrack": "8036.990999999997",
        "overlap_bikeable": "8732.009999999995",
        "efficiency_global": "0.7998406177300499",
        "efficiency_local": "0.7858622150805743",
        "efficiency_global_routed": "0.8502188975337303",
        "efficiency_local_routed": "0.1366717389016791"
    },
    {
        "length": "188902.55699999942",
        "length_lcc": "188902.55699999942",
        "coverage": "81.4107020292511",
        "directness": "0.7586133654569228",
        "directness_lcc": "0.7586133654569228",
        "poi_coverage": "86",
        "components": "1",
        "overlap_biketrack": "8036.991000000001",
        "overlap_bikeable": "8732.009999999995",
        "efficiency_global": "0.7988766550772303",
        "efficiency_local": "0.7855073720353092",
        "efficiency_global_routed": "0.8481720460333124",
        "efficiency_local_routed": "0.14352883449368564"
    },
    {
        "length": "203420.09399999955",
        "length_lcc": "203420.09399999955",
        "coverage": "87.53962609613569",
        "directness": "0.7748472812486282",
        "directness_lcc": "0.7748472812486282",
        "poi_coverage": "88",
        "components": "1",
        "overlap_biketrack": "8036.991000000001",
        "overlap_bikeable": "8798.328999999996",
        "efficiency_global": "0.7993310499266278",
        "efficiency_local": "0.788214960656068",
        "efficiency_global_routed": "0.876263561348077",
        "efficiency_local_routed": "0.1309771410302949"
    },
    {
        "length": "221270.3249999998",
        "length_lcc": "221270.3249999998",
        "coverage": "99.20192051596794",
        "directness": "0.7649061585809067",
        "directness_lcc": "0.7649061585809067",
        "poi_coverage": "91",
        "components": "1",
        "overlap_biketrack": "8036.991000000001",
        "overlap_bikeable": "8798.328999999996",
        "efficiency_global": "0.7981444099596324",
        "efficiency_local": "0.7875422234156441",
        "efficiency_global_routed": "0.8755290364928179",
        "efficiency_local_routed": "0.13338010738268308"
    }
]