[
    {
        "length": "46965.97500000001",
        "length_lcc": "46965.97500000001",
        "coverage": "27.845714338655252",
        "directness": "0.7095436813361514",
        "directness_lcc": "0.7095436813361514",
        "poi_coverage": "12",
        "components": "1",
        "overlap_biketrack": "179.79",
        "overlap_bikeable": "179.79",
        "efficiency_global": "0.8078332818484999",
        "efficiency_local": "0.7835289504043932",
        "efficiency_global_routed": "0.927576558117968",
        "efficiency_local_routed": "0.27319013514179546"
    },
    {
        "length": "112175.24000000006",
        "length_lcc": "112175.24000000006",
        "coverage": "60.38915966686269",
        "directness": "0.7255947032541126",
        "directness_lcc": "0.7255947032541126",
        "poi_coverage": "24",
        "components": "1",
        "overlap_biketrack": "179.79",
        "overlap_bikeable": "196.737",
        "efficiency_global": "0.7742201840983266",
        "efficiency_local": "0.7315463166517849",
        "efficiency_global_routed": "0.8913747791792797",
        "efficiency_local_routed": "0.2901013470834334"
    },
    {
        "length": "178946.65500000006",
        "length_lcc": "178946.65500000006",
        "coverage": "94.11851158758053",
        "directness": "0.732291402978734",
        "directness_lcc": "0.732291402978734",
        "poi_coverage": "36",
        "components": "1",
        "overlap_biketrack": "179.79",
        "overlap_bikeable": "196.737",
        "efficiency_global": "0.767221169580845",
        "efficiency_local": "0.7286703855110748",
        "efficiency_global_routed": "0.8885832629542604",
        "efficiency_local_routed": "0.220377379373157"
    },
    {
        "length": "246781.29600000047",
        "length_lcc": "246781.29600000047",
        "coverage": "127.09990070947876",
        "directness": "0.7375426241070207",
        "directness_lcc": "0.7375426241070207",
        "poi_coverage": "49",
        "components": "1",
        "overlap_biketrack": "179.79",
        "overlap_bikeable": "365.843",
        "efficiency_global": "0.7656275862154155",
        "efficiency_local": "0.7384725049747599",
        "efficiency_global_routed": "0.8796674491161477",
        "efficiency_local_routed": "0.21398939905996203"
    },
    {
        "length": "310242.30900000123",
        "length_lcc": "310242.30900000123",
        "coverage": "158.319396988777",
        "directness": "0.7376301833840984",
        "directness_lcc": "0.7376301833840984",
        "poi_coverage": "60",
        "components": "1",
        "overlap_biketrack": "179.79",
        "overlap_bikeable": "407.18",
        "efficiency_global": "0.7558111870551524",
        "efficiency_local": "0.7303544538354465",
        "efficiency_global_routed": "0.865572977072504",
        "efficiency_local_routed": "0.20695125497850703"
    },
    {
        "length": "376755.9980000013",
        "length_lcc": "376755.9980000013",
        "coverage": "193.52341659381162",
        "directness": "0.741464072514343",
        "directness_lcc": "0.741464072514343",
        "poi_coverage": "71",
        "components": "1",
        "overlap_biketrack": "179.79",
        "overlap_bikeable": "407.18",
        "efficiency_global": "0.754185095803647",
        "efficiency_local": "0.722864844699479",
        "efficiency_global_routed": "0.8548364593051654",
        "efficiency_local_routed": "0.18497856048028324"
    },
    {
        "length": "442018.2150000011",
        "length_lcc": "442018.2150000011",
        "coverage": "223.9947643237241",
        "directness": "0.7434702645411522",
        "directness_lcc": "0.7434702645411522",
        "poi_coverage": "83",
        "components": "1",
        "overlap_biketrack": "179.79",
        "overlap_bikeable": "407.18",
        "efficiency_global": "0.7464744694310782",
        "efficiency_local": "0.7123523572428645",
        "efficiency_global_routed": "0.8441104314680761",
        "efficiency_local_routed": "0.20131524500985556"
    },
    {
        "length": "506725.66800000134",
        "length_lcc": "506725.66800000134",
        "coverage": "255.91442886938233",
        "directness": "0.7509759613712303",
        "directness_lcc": "0.7509759613712303",
        "poi_coverage": "95",
        "components": "1",
        "overlap_biketrack": "179.79",
        "overlap_bikeable": "407.18",
        "efficiency_global": "0.7460051573219493",
        "efficiency_local": "0.7169042625770295",
        "efficiency_global_routed": "0.841903410722482",
        "efficiency_local_routed": "0.19840957176182647"
    },
    {
        "length": "573156.1819999983",
        "length_lcc": "573156.1819999983",
        "coverage": "288.0772654675975",
        "directness": "0.7529698609768539",
        "directness_lcc": "0.7529698609768539",
        "poi_coverage": "107",
        "components": "1",
        "overlap_biketrack": "179.79",
        "overlap_bikeable": "407.18",
        "efficiency_global": "0.7409825279274764",
        "efficiency_local": "0.7064219000928694",
        "efficiency_global_routed": "0.8342962133425812",
        "efficiency_local_routed": "0.2197621558859191"
    },
    {
        "length": "636883.5039999968",
        "length_lcc": "636883.5039999968",
        "coverage": "318.05461828791",
        "directness": "0.7508522848205167",
        "directness_lcc": "0.7508522848205167",
        "poi_coverage": "120",
        "components": "1",
        "overlap_biketrack": "179.79",
        "overlap_bikeable": "407.18",
        "efficiency_global": "0.7404267548449716",
        "efficiency_local": "0.7049662995926287",
        "efficiency_global_routed": "0.8380742746227561",
        "efficiency_local_routed": "0.19906351813785012"
    },
    {
        "length": "704154.6159999975",
        "length_lcc": "704154.6159999975",
        "coverage": "346.28518277945255",
        "directness": "0.7558535701172131",
        "directness_lcc": "0.7558535701172131",
        "poi_coverage": "130",
        "components": "1",
        "overlap_biketrack": "179.79",
        "overlap_bikeable": "407.17999999999995",
        "efficiency_global": "0.736800064888153",
        "efficiency_local": "0.6992225719533025",
        "efficiency_global_routed": "0.8331744674154674",
        "efficiency_local_routed": "0.19433927681616023"
    },
    {
        "length": "776137.3229999996",
        "length_lcc": "776137.3229999996",
        "coverage": "384.6906336103827",
        "directness": "0.7570667899250213",
        "directness_lcc": "0.7570667899250213",
        "poi_coverage": "143",
        "components": "1",
        "overlap_biketrack": "179.79",
        "overlap_bikeable": "407.17999999999995",
        "efficiency_global": "0.7332716949189301",
        "efficiency_local": "0.6960709401611941",
        "efficiency_global_routed": "0.8278592630995028",
        "efficiency_local_routed": "0.20259126679876133"
    },
    {
        "length": "850034.224000001",
        "length_lcc": "850034.224000001",
        "coverage": "421.07841693750987",
        "directness": "0.7563447394846248",
        "directness_lcc": "0.7563447394846248",
        "poi_coverage": "155",
        "components": "1",
        "overlap_biketrack": "179.79",
        "overlap_bikeable": "407.17999999999995",
        "efficiency_global": "0.7305864361358225",
        "efficiency_local": "0.6920027137668411",
        "efficiency_global_routed": "0.8283102270860132",
        "efficiency_local_routed": "0.19051410348094763"
    },
    {
        "length": "897211.5400000028",
        "length_lcc": "897211.5400000028",
        "coverage": "444.6623662320744",
        "directness": "0.7579389603664973",
        "directness_lcc": "0.7579389603664973",
        "poi_coverage": "166",
        "components": "1",
        "overlap_biketrack": "179.79",
        "overlap_bikeable": "407.17999999999995",
        "efficiency_global": "0.729462619767076",
        "efficiency_local": "0.6878794830936199",
        "efficiency_global_routed": "0.8196578505237507",
        "efficiency_local_routed": "0.2066479395367515"
    },
    {
        "length": "952384.3100000026",
        "length_lcc": "952384.3100000026",
        "coverage": "472.74661726233563",
        "directness": "0.7606493556326344",
        "directness_lcc": "0.7606493556326344",
        "poi_coverage": "178",
        "components": "1",
        "overlap_biketrack": "179.79",
        "overlap_bikeable": "407.17999999999995",
        "efficiency_global": "0.7273726137216543",
        "efficiency_local": "0.6849200776523265",
        "efficiency_global_routed": "0.8365374493626881",
        "efficiency_local_routed": "0.18862523885040142"
    },
    {
        "length": "1013547.9540000029",
        "length_lcc": "1013547.9540000029",
        "coverage": "500.24183274228255",
        "directness": "0.7597768225994392",
        "directness_lcc": "0.7597768225994392",
        "poi_coverage": "189",
        "components": "1",
        "overlap_biketrack": "179.79",
        "overlap_bikeable": "407.17999999999995",
        "efficiency_global": "0.7260447983631252",
        "efficiency_local": "0.6875742104066678",
        "efficiency_global_routed": "0.8329301952060464",
        "efficiency_local_routed": "0.19188241429114455"
    },
    {
        "length": "1092952.121000011",
        "length_lcc": "1092952.121000011",
        "coverage": "538.7522183513869",
        "directness": "0.7624941235565829",
        "directness_lcc": "0.7624941235565829",
        "poi_coverage": "201",
        "components": "1",
        "overlap_biketrack": "179.79",
        "overlap_bikeable": "407.17999999999995",
        "efficiency_global": "0.7240815865044192",
        "efficiency_local": "0.6882568228790148",
        "efficiency_global_routed": "0.8231832652254882",
        "efficiency_local_routed": "0.18835179657167636"
    },
    {
        "length": "1165080.936000012",
        "length_lcc": "1165080.936000012",
        "coverage": "571.8402970008377",
        "directness": "0.7610808658441418",
        "directness_lcc": "0.7610808658441418",
        "poi_coverage": "213",
        "components": "1",
        "overlap_biketrack": "179.79",
        "overlap_bikeable": "407.17999999999995",
        "efficiency_global": "0.7225163773987813",
        "efficiency_local": "0.684705271443153",
        "efficiency_global_routed": "0.8224434546746995",
        "efficiency_local_routed": "0.189502854982754"
    },
    {
        "length": "1228191.2540000123",
        "length_lcc": "1228191.2540000123",
        "coverage": "602.5754676164712",
        "directness": "0.7611957953380166",
        "directness_lcc": "0.7611957953380166",
        "poi_coverage": "225",
        "components": "1",
        "overlap_biketrack": "179.79",
        "overlap_bikeable": "407.17999999999995",
        "efficiency_global": "0.7215848321516335",
        "efficiency_local": "0.6847351038101263",
        "efficiency_global_routed": "0.8165828935643443",
        "efficiency_local_routed": "0.17407671719392787"
    },
    {
        "length": "1295174.92700001",
        "length_lcc": "1295174.92700001",
        "coverage": "636.6370241956058",
        "directness": "0.7622664881283742",
        "directness_lcc": "0.7622664881283742",
        "poi_coverage": "237",
        "components": "1",
        "overlap_biketrack": "179.79",
        "overlap_bikeable": "407.17999999999995",
        "efficiency_global": "0.71947999616818",
        "efficiency_local": "0.6831269612787796",
        "efficiency_global_routed": "0.8189986582336737",
        "efficiency_local_routed": "0.18914572695849705"
    },
    {
        "length": "1363859.4070000148",
        "length_lcc": "1363859.4070000148",
        "coverage": "672.4076376119056",
        "directness": "0.7629440620058965",
        "directness_lcc": "0.7629440620058965",
        "poi_coverage": "249",
        "components": "1",
        "overlap_biketrack": "179.79",
        "overlap_bikeable": "407.17999999999995",
        "efficiency_global": "0.718082396314085",
        "efficiency_local": "0.6824004995084326",
        "efficiency_global_routed": "0.8151198605066009",
        "efficiency_local_routed": "0.15270894288726766"
    },
    {
        "length": "1439274.7960000176",
        "length_lcc": "1439274.7960000176",
        "coverage": "705.6864214368675",
        "directness": "0.7632274005039105",
        "directness_lcc": "0.7632274005039105",
        "poi_coverage": "261",
        "components": "1",
        "overlap_biketrack": "179.79",
        "overlap_bikeable": "407.17999999999995",
        "efficiency_global": "0.7169661774791253",
        "efficiency_local": "0.6813726029097992",
        "efficiency_global_routed": "0.8228695302063732",
        "efficiency_local_routed": "0.19439424802347122"
    },
    {
        "length": "1502382.9240000157",
        "length_lcc": "1502382.9240000157",
        "coverage": "734.7918694916348",
        "directness": "0.7639873077169673",
        "directness_lcc": "0.7639873077169673",
        "poi_coverage": "273",
        "components": "1",
        "overlap_biketrack": "179.79",
        "overlap_bikeable": "407.17999999999995",
        "efficiency_global": "0.715542770410477",
        "efficiency_local": "0.6789559634419181",
        "efficiency_global_routed": "0.8191195063752693",
        "efficiency_local_routed": "0.15750334095156007"
    },
    {
        "length": "1558805.1710000185",
        "length_lcc": "1558805.1710000185",
        "coverage": "761.5282218374308",
        "directness": "0.7636571099257577",
        "directness_lcc": "0.7636571099257577",
        "poi_coverage": "285",
        "components": "1",
        "overlap_biketrack": "179.79",
        "overlap_bikeable": "407.17999999999995",
        "efficiency_global": "0.7146934394752066",
        "efficiency_local": "0.6766836787532854",
        "efficiency_global_routed": "0.8171554467986037",
        "efficiency_local_routed": "0.1733631997056325"
    },
    {
        "length": "1607039.2130000235",
        "length_lcc": "1607039.2130000235",
        "coverage": "784.8398846950888",
        "directness": "0.7628344758341553",
        "directness_lcc": "0.7628344758341553",
        "poi_coverage": "296",
        "components": "1",
        "overlap_biketrack": "179.79",
        "overlap_bikeable": "407.17999999999995",
        "efficiency_global": "0.7141752046122094",
        "efficiency_local": "0.6763284476104231",
        "efficiency_global_routed": "0.81381917961204",
        "efficiency_local_routed": "0.1574880089792489"
    },
    {
        "length": "1671055.4520000236",
        "length_lcc": "1671055.4520000236",
        "coverage": "815.8538788652801",
        "directness": "0.7638124809827547",
        "directness_lcc": "0.7638124809827547",
        "poi_coverage": "307",
        "components": "1",
        "overlap_biketrack": "179.79",
        "overlap_bikeable": "407.17999999999995",
        "efficiency_global": "0.7126776279349953",
        "efficiency_local": "0.6747921732863731",
        "efficiency_global_routed": "0.8214052378544588",
        "efficiency_local_routed": "0.16440197061629566"
    },
    {
        "length": "1744339.5700000226",
        "length_lcc": "1744339.5700000226",
        "coverage": "852.0674135917255",
        "directness": "0.7669049815421274",
        "directness_lcc": "0.7669049815421274",
        "poi_coverage": "319",
        "components": "1",
        "overlap_biketrack": "179.79",
        "overlap_bikeable": "407.17999999999995",
        "efficiency_global": "0.7113509907808889",
        "efficiency_local": "0.6709677021152008",
        "efficiency_global_routed": "0.8192288129675996",
        "efficiency_local_routed": "0.2013803090585704"
    },
    {
        "length": "1807140.1870000202",
        "length_lcc": "1807140.1870000202",
        "coverage": "880.0762601363687",
        "directness": "0.7635863385006084",
        "directness_lcc": "0.7635863385006084",
        "poi_coverage": "331",
        "components": "1",
        "overlap_biketrack": "179.79",
        "overlap_bikeable": "407.17999999999995",
        "efficiency_global": "0.7098808410437645",
        "efficiency_local": "0.6690922625163236",
        "efficiency_global_routed": "0.8193329615569417",
        "efficiency_local_routed": "0.2023198863736576"
    },
    {
        "length": "1890152.2370000165",
        "length_lcc": "1890152.2370000165",
        "coverage": "917.3229399260463",
        "directness": "0.7634717796121349",
        "directness_lcc": "0.7634717796121349",
        "poi_coverage": "343",
        "components": "1",
        "overlap_biketrack": "179.79",
        "overlap_bikeable": "407.17999999999995",
        "efficiency_global": "0.7091531804041092",
        "efficiency_local": "0.6677539505733289",
        "efficiency_global_routed": "0.8182105711656091",
        "efficiency_local_routed": "0.16159280728561715"
    },
    {
        "length": "1955056.1900000193",
        "length_lcc": "1955056.1900000193",
        "coverage": "948.7734486049333",
        "directness": "0.7681408210040984",
        "directness_lcc": "0.7681408210040984",
        "poi_coverage": "356",
        "components": "1",
        "overlap_biketrack": "179.79",
        "overlap_bikeable": "407.17999999999995",
        "efficiency_global": "0.7081806216773785",
        "efficiency_local": "0.6684482457961508",
        "efficiency_global_routed": "0.8062359375762241",
        "efficiency_local_routed": "0.18830981096628138"
    },
    {
        "length": "2020698.517000019",
        "length_lcc": "2020698.517000019",
        "coverage": "976.5752625825797",
        "directness": "0.7667883146893281",
        "directness_lcc": "0.7667883146893281",
        "poi_coverage": "367",
        "components": "1",
        "overlap_biketrack": "179.79",
        "overlap_bikeable": "407.17999999999995",
        "efficiency_global": "0.7070422796573937",
        "efficiency_local": "0.6662376167813989",
        "efficiency_global_routed": "0.8191331793935585",
        "efficiency_local_routed": "0.16058750488501003"
    },
    {
        "length": "2077851.528000018",
        "length_lcc": "2077851.528000018",
        "coverage": "1003.6889807055752",
        "directness": "0.7651648850629831",
        "directness_lcc": "0.7651648850629831",
        "poi_coverage": "378",
        "components": "1",
        "overlap_biketrack": "179.79",
        "overlap_bikeable": "407.17999999999995",
        "efficiency_global": "0.7061530426857313",
        "efficiency_local": "0.6623602949785509",
        "efficiency_global_routed": "0.8152446865220095",
        "efficiency_local_routed": "0.15334753981739058"
    },
    {
        "length": "2144847.4610000122",
        "length_lcc": "2144847.4610000122",
        "coverage": "1030.4765586439437",
        "directness": "0.7676487597085507",
        "directness_lcc": "0.7676487597085507",
        "poi_coverage": "390",
        "components": "1",
        "overlap_biketrack": "179.79",
        "overlap_bikeable": "407.17999999999995",
        "efficiency_global": "0.7048044357378407",
        "efficiency_local": "0.6634194385641143",
        "efficiency_global_routed": "0.8115287130869252",
        "efficiency_local_routed": "0.17951643358103692"
    },
    {
        "length": "2209916.4450000185",
        "length_lcc": "2209916.4450000185",
        "coverage": "1063.5008540537744",
        "directness": "0.7662794351118523",
        "directness_lcc": "0.7662794351118523",
        "poi_coverage": "403",
        "components": "1",
        "overlap_biketrack": "179.79",
        "overlap_bikeable": "407.17999999999995",
        "efficiency_global": "0.7039727129002625",
        "efficiency_local": "0.6634838047649506",
        "efficiency_global_routed": "0.805516223782287",
        "efficiency_local_routed": "0.15442764381286095"
    },
    {
        "length": "2265860.2620000155",
        "length_lcc": "2265860.2620000155",
        "coverage": "1083.7304666024436",
        "directness": "0.7669021411328175",
        "directness_lcc": "0.7669021411328175",
        "poi_coverage": "414",
        "components": "1",
        "overlap_biketrack": "179.79",
        "overlap_bikeable": "407.17999999999995",
        "efficiency_global": "0.7019646524432042",
        "efficiency_local": "0.6576553571316874",
        "efficiency_global_routed": "0.8120417411866899",
        "efficiency_local_routed": "0.20150383835284208"
    },
    {
        "length": "2334522.9070000187",
        "length_lcc": "2334522.9070000187",
        "coverage": "1115.8009640502346",
        "directness": "0.7691859804511468",
        "directness_lcc": "0.7691859804511468",
        "poi_coverage": "426",
        "components": "1",
        "overlap_biketrack": "179.79",
        "overlap_bikeable": "407.17999999999995",
        "efficiency_global": "0.7002778991887879",
        "efficiency_local": "0.6571818491933976",
        "efficiency_global_routed": "0.8061834404517025",
        "efficiency_local_routed": "0.1625096822990518"
    },
    {
        "length": "2402278.3210000307",
        "length_lcc": "2402278.3210000307",
        "coverage": "1139.0420659118572",
        "directness": "0.7679948682430499",
        "directness_lcc": "0.7679948682430499",
        "poi_coverage": "437",
        "components": "1",
        "overlap_biketrack": "179.79",
        "overlap_bikeable": "407.17999999999995",
        "efficiency_global": "0.6988036702154075",
        "efficiency_local": "0.6546325160507269",
        "efficiency_global_routed": "0.8069938994613443",
        "efficiency_local_routed": "0.17324454442397322"
    },
    {
        "length": "2476966.4140000283",
        "length_lcc": "2476966.4140000283",
        "coverage": "1170.3269409958034",
        "directness": "0.7706595538299311",
        "directness_lcc": "0.7706595538299311",
        "poi_coverage": "449",
        "components": "1",
        "overlap_biketrack": "179.79",
        "overlap_bikeable": "407.17999999999995",
        "efficiency_global": "0.6981592140408331",
        "efficiency_local": "0.6554803818344894",
        "efficiency_global_routed": "0.8183405066492102",
        "efficiency_local_routed": "0.16907390639501566"
    },
    {
        "length": "2548443.665000029",
        "length_lcc": "2548443.665000029",
        "coverage": "1198.7624670611262",
        "directness": "0.7746432708013316",
        "directness_lcc": "0.7746432708013316",
        "poi_coverage": "461",
        "components": "1",
        "overlap_biketrack": "179.79",
        "overlap_bikeable": "407.17999999999995",
        "efficiency_global": "0.6970227655508754",
        "efficiency_local": "0.6546187399377706",
        "efficiency_global_routed": "0.8179849396990383",
        "efficiency_local_routed": "0.17960465446628676"
    },
    {
        "length": "2632926.5670000296",
        "length_lcc": "2632926.5670000296",
        "coverage": "1230.7068286790002",
        "directness": "0.7819844058069336",
        "directness_lcc": "0.7819844058069336",
        "poi_coverage": "473",
        "components": "1",
        "overlap_biketrack": "1387.156",
        "overlap_bikeable": "1614.546",
        "efficiency_global": "0.6962002787160467",
        "efficiency_local": "0.6542326444085497",
        "efficiency_global_routed": "0.8179187016947065",
        "efficiency_local_routed": "0.19696615615590007"
    }
]