[
    {
        "length": "9279.424",
        "length_lcc": "4985.129999999998",
        "coverage": "12.277487009379023",
        "directness": "0.8491192067323542",
        "directness_lcc": "0.8449733456228934",
        "poi_coverage": "23",
        "components": "5",
        "overlap_biketrack": "28.38",
        "overlap_bikeable": "662.59",
        "efficiency_global": "0.33882056237341707",
        "efficiency_local": "0.0",
        "efficiency_global_routed": "0.23685678722042475",
        "efficiency_local_routed": "0.0"
    },
    {
        "length": "20484.71299999996",
        "length_lcc": "11435.97700000001",
        "coverage": "23.288827144341255",
        "directness": "0.730100855375084",
        "directness_lcc": "0.7198626466352092",
        "poi_coverage": "39",
        "components": "7",
        "overlap_biketrack": "402.974",
        "overlap_bikeable": "3528.5399999999995",
        "efficiency_global": "0.30477548303639534",
        "efficiency_local": "0.0",
        "efficiency_global_routed": "0.24164568735629122",
        "efficiency_local_routed": "0.0"
    },
    {
        "length": "34805.83499999996",
        "length_lcc": "18124.779999999995",
        "coverage": "36.58458305278367",
        "directness": "0.6622462550603677",
        "directness_lcc": "0.6675830392469201",
        "poi_coverage": "54",
        "components": "8",
        "overlap_biketrack": "1153.6679999999997",
        "overlap_bikeable": "6247.234000000004",
        "efficiency_global": "0.2978123925860367",
        "efficiency_local": "0.0",
        "efficiency_global_routed": "0.30108615250149046",
        "efficiency_local_routed": "0.0"
    },
    {
        "length": "44400.03800000009",
        "length_lcc": "26709.682999999946",
        "coverage": "44.4258473834752",
        "directness": "0.6927291503799743",
        "directness_lcc": "0.6781905923799992",
        "poi_coverage": "63",
        "components": "7",
        "overlap_biketrack": "2339.5139999999997",
        "overlap_bikeable": "10074.08500000001",
        "efficiency_global": "0.38530104366139206",
        "efficiency_local": "0.025778690205134982",
        "efficiency_global_routed": "0.6219610700278846",
        "efficiency_local_routed": "0.0"
    },
    {
        "length": "53958.23300000008",
        "length_lcc": "42279.37200000008",
        "coverage": "49.55650478385682",
        "directness": "0.636587145167224",
        "directness_lcc": "0.6100105409858243",
        "poi_coverage": "69",
        "components": "6",
        "overlap_biketrack": "2339.5139999999997",
        "overlap_bikeable": "11566.182000000004",
        "efficiency_global": "0.4548604707462406",
        "efficiency_local": "0.020310483191924533",
        "efficiency_global_routed": "0.6915262615594131",
        "efficiency_local_routed": "0.0"
    },
    {
        "length": "68578.61400000012",
        "length_lcc": "56950.874000000025",
        "coverage": "59.768337754894496",
        "directness": "0.6554129487307543",
        "directness_lcc": "0.6587922058531279",
        "poi_coverage": "74",
        "components": "4",
        "overlap_biketrack": "2339.5139999999997",
        "overlap_bikeable": "15501.554000000006",
        "efficiency_global": "0.5398902997270506",
        "efficiency_local": "0.015232862393943399",
        "efficiency_global_routed": "0.7679004170138815",
        "efficiency_local_routed": "0.0"
    },
    {
        "length": "84193.59199999989",
        "length_lcc": "82175.33300000001",
        "coverage": "70.24955637779694",
        "directness": "0.6683294610486766",
        "directness_lcc": "0.6747298083336443",
        "poi_coverage": "81",
        "components": "3",
        "overlap_biketrack": "4011.5950000000003",
        "overlap_bikeable": "21349.171000000002",
        "efficiency_global": "0.6062482041295442",
        "efficiency_local": "0.031196922827834615",
        "efficiency_global_routed": "0.7911959391144945",
        "efficiency_local_routed": "0.14526259140627099"
    },
    {
        "length": "98346.97599999997",
        "length_lcc": "95952.66600000003",
        "coverage": "80.27746297787117",
        "directness": "0.6997032432434103",
        "directness_lcc": "0.6970134380042935",
        "poi_coverage": "90",
        "components": "3",
        "overlap_biketrack": "4011.5950000000003",
        "overlap_bikeable": "27132.57599999995",
        "efficiency_global": "0.6256383244162054",
        "efficiency_local": "0.08090390734468962",
        "efficiency_global_routed": "0.8180815426869774",
        "efficiency_local_routed": "0.1431609363463279"
    },
    {
        "length": "109431.16499999992",
        "length_lcc": "106129.41600000004",
        "coverage": "85.51432661967785",
        "directness": "0.7206560449678534",
        "directness_lcc": "0.7247131953510068",
        "poi_coverage": "94",
        "components": "3",
        "overlap_biketrack": "4011.5950000000003",
        "overlap_bikeable": "30794.291999999936",
        "efficiency_global": "0.6527170622613567",
        "efficiency_local": "0.11234364914423392",
        "efficiency_global_routed": "0.8281431412242592",
        "efficiency_local_routed": "0.1979121729190597"
    },
    {
        "length": "124689.31399999998",
        "length_lcc": "124689.31399999998",
        "coverage": "91.17247910772797",
        "directness": "0.7312142480054258",
        "directness_lcc": "0.7312142480054258",
        "poi_coverage": "97",
        "components": "1",
        "overlap_biketrack": "4455.961000000001",
        "overlap_bikeable": "32237.028999999933",
        "efficiency_global": "0.7050186683732128",
        "efficiency_local": "0.10022588640712396",
        "efficiency_global_routed": "0.8624709950789077",
        "efficiency_local_routed": "0.22040398155392418"
    },
    {
        "length": "137401.5629999995",
        "length_lcc": "137401.5629999995",
        "coverage": "99.27338474116921",
        "directness": "0.7296706015487947",
        "directness_lcc": "0.7296706015487947",
        "poi_coverage": "105",
        "components": "1",
        "overlap_biketrack": "4941.984000000002",
        "overlap_bikeable": "37597.72999999992",
        "efficiency_global": "0.6924921124395244",
        "efficiency_local": "0.127689120309694",
        "efficiency_global_routed": "0.8557470962262295",
        "efficiency_local_routed": "0.23514567684674764"
    },
    {
        "length": "150996.8749999995",
        "length_lcc": "150996.8749999995",
        "coverage": "105.34467669417886",
        "directness": "0.7322229010889738",
        "directness_lcc": "0.7322229010889738",
        "poi_coverage": "108",
        "components": "1",
        "overlap_biketrack": "4941.984000000002",
        "overlap_bikeable": "41542.73199999998",
        "efficiency_global": "0.6957715890947599",
        "efficiency_local": "0.14589756037437906",
        "efficiency_global_routed": "0.8441974235482446",
        "efficiency_local_routed": "0.23214224793076368"
    },
    {
        "length": "162700.46599999978",
        "length_lcc": "162700.46599999978",
        "coverage": "109.59177560079162",
        "directness": "0.7363098115262496",
        "directness_lcc": "0.7363098115262496",
        "poi_coverage": "113",
        "components": "1",
        "overlap_biketrack": "4941.984000000002",
        "overlap_bikeable": "46488.99499999998",
        "efficiency_global": "0.6993255149504076",
        "efficiency_local": "0.17174279938974454",
        "efficiency_global_routed": "0.835672515257472",
        "efficiency_local_routed": "0.20180309657619044"
    },
    {
        "length": "170566.36700000006",
        "length_lcc": "170566.36700000006",
        "coverage": "114.60401785754543",
        "directness": "0.7353064849158744",
        "directness_lcc": "0.7353064849158744",
        "poi_coverage": "117",
        "components": "1",
        "overlap_biketrack": "5105.643000000003",
        "overlap_bikeable": "50579.965000000004",
        "efficiency_global": "0.7161659768190294",
        "efficiency_local": "0.19568861370501642",
        "efficiency_global_routed": "0.8289066574087924",
        "efficiency_local_routed": "0.18787138294853473"
    },
    {
        "length": "185577.84800000052",
        "length_lcc": "185577.84800000052",
        "coverage": "123.61182117517573",
        "directness": "0.7391840929006589",
        "directness_lcc": "0.7391840929006589",
        "poi_coverage": "123",
        "components": "1",
        "overlap_biketrack": "5105.643000000003",
        "overlap_bikeable": "54962.37899999997",
        "efficiency_global": "0.715470742230212",
        "efficiency_local": "0.17935100046086483",
        "efficiency_global_routed": "0.8290808924536665",
        "efficiency_local_routed": "0.19627839788271845"
    },
    {
        "length": "200356.71100000013",
        "length_lcc": "200356.71100000013",
        "coverage": "128.91405055891866",
        "directness": "0.7420490081555449",
        "directness_lcc": "0.7420490081555449",
        "poi_coverage": "128",
        "components": "1",
        "overlap_biketrack": "5388.901000000001",
        "overlap_bikeable": "60125.208",
        "efficiency_global": "0.7167399584888664",
        "efficiency_local": "0.1847257112540187",
        "efficiency_global_routed": "0.8321102454340447",
        "efficiency_local_routed": "0.19732326463001437"
    },
    {
        "length": "218578.9720000002",
        "length_lcc": "218578.9720000002",
        "coverage": "142.73446072326797",
        "directness": "0.7363987197424251",
        "directness_lcc": "0.7363987197424251",
        "poi_coverage": "133",
        "components": "1",
        "overlap_biketrack": "5388.901000000001",
        "overlap_bikeable": "64523.27699999999",
        "efficiency_global": "0.7172664470199746",
        "efficiency_local": "0.2247063836974952",
        "efficiency_global_routed": "0.8377297218849736",
        "efficiency_local_routed": "0.17801835427184026"
    },
    {
        "length": "233256.14100000015",
        "length_lcc": "233256.14100000015",
        "coverage": "150.65650215121408",
        "directness": "0.7399724517415378",
        "directness_lcc": "0.7399724517415378",
        "poi_coverage": "137",
        "components": "1",
        "overlap_biketrack": "5405.543000000001",
        "overlap_bikeable": "70989.779",
        "efficiency_global": "0.7113813934515848",
        "efficiency_local": "0.23086957100563826",
        "efficiency_global_routed": "0.836177783896915",
        "efficiency_local_routed": "0.16206935242179069"
    },
    {
        "length": "248136.7750000003",
        "length_lcc": "248136.7750000003",
        "coverage": "157.20895178458932",
        "directness": "0.7449874912589989",
        "directness_lcc": "0.7449874912589989",
        "poi_coverage": "139",
        "components": "1",
        "overlap_biketrack": "7121.908000000001",
        "overlap_bikeable": "75334.12199999984",
        "efficiency_global": "0.7050018591527558",
        "efficiency_local": "0.2314185546078348",
        "efficiency_global_routed": "0.8340867778074147",
        "efficiency_local_routed": "0.1570505797811905"
    },
    {
        "length": "259919.7820000007",
        "length_lcc": "259919.7820000007",
        "coverage": "160.79914760782367",
        "directness": "0.7458060956377529",
        "directness_lcc": "0.7458060956377529",
        "poi_coverage": "139",
        "components": "1",
        "overlap_biketrack": "7121.908000000001",
        "overlap_bikeable": "77511.68499999984",
        "efficiency_global": "0.7108721874965084",
        "efficiency_local": "0.25059414601075497",
        "efficiency_global_routed": "0.8325240114311102",
        "efficiency_local_routed": "0.15794042372268322"
    },
    {
        "length": "273761.1360000008",
        "length_lcc": "273761.1360000008",
        "coverage": "164.54054862315175",
        "directness": "0.7559275432022777",
        "directness_lcc": "0.7559275432022777",
        "poi_coverage": "140",
        "components": "1",
        "overlap_biketrack": "7803.062000000002",
        "overlap_bikeable": "85750.60899999975",
        "efficiency_global": "0.7124022525787044",
        "efficiency_local": "0.2684876328529747",
        "efficiency_global_routed": "0.8348499647315676",
        "efficiency_local_routed": "0.1606624604491744"
    },
    {
        "length": "290738.28800000204",
        "length_lcc": "290738.28800000204",
        "coverage": "171.5463576146494",
        "directness": "0.7528965378005179",
        "directness_lcc": "0.7528965378005179",
        "poi_coverage": "140",
        "components": "1",
        "overlap_biketrack": "8403.952999999998",
        "overlap_bikeable": "91647.66499999966",
        "efficiency_global": "0.7093276651022971",
        "efficiency_local": "0.27056660393745185",
        "efficiency_global_routed": "0.8317580805516253",
        "efficiency_local_routed": "0.16003716729387624"
    },
    {
        "length": "301834.123000002",
        "length_lcc": "301834.123000002",
        "coverage": "172.81468660810805",
        "directness": "0.7531808768183761",
        "directness_lcc": "0.7531808768183761",
        "poi_coverage": "140",
        "components": "1",
        "overlap_biketrack": "8934.219999999996",
        "overlap_bikeable": "94772.79199999972",
        "efficiency_global": "0.715237165897101",
        "efficiency_local": "0.3072085352557871",
        "efficiency_global_routed": "0.8339342038461883",
        "efficiency_local_routed": "0.17607296584232746"
    },
    {
        "length": "309699.6320000024",
        "length_lcc": "309699.6320000024",
        "coverage": "174.14055207166763",
        "directness": "0.7543564882021849",
        "directness_lcc": "0.7543564882021849",
        "poi_coverage": "140",
        "components": "1",
        "overlap_biketrack": "9125.250999999995",
        "overlap_bikeable": "97913.51799999965",
        "efficiency_global": "0.7153837685375898",
        "efficiency_local": "0.3099368984689917",
        "efficiency_global_routed": "0.8305028038186243",
        "efficiency_local_routed": "0.1652162590748299"
    },
    {
        "length": "326605.78500000265",
        "length_lcc": "326605.78500000265",
        "coverage": "179.939858930803",
        "directness": "0.7587727948400753",
        "directness_lcc": "0.7587727948400753",
        "poi_coverage": "140",
        "components": "1",
        "overlap_biketrack": "9155.501999999993",
        "overlap_bikeable": "103733.36599999978",
        "efficiency_global": "0.7245170913503782",
        "efficiency_local": "0.3415369993638077",
        "efficiency_global_routed": "0.8359942697516427",
        "efficiency_local_routed": "0.18446763684846054"
    },
    {
        "length": "337487.2480000029",
        "length_lcc": "337487.2480000029",
        "coverage": "182.83621996357658",
        "directness": "0.7606642250120119",
        "directness_lcc": "0.7606642250120119",
        "poi_coverage": "140",
        "components": "1",
        "overlap_biketrack": "9337.585999999992",
        "overlap_bikeable": "105807.19899999979",
        "efficiency_global": "0.7294237101724576",
        "efficiency_local": "0.3594172096769491",
        "efficiency_global_routed": "0.834738031844257",
        "efficiency_local_routed": "0.17774671165826428"
    },
    {
        "length": "341413.7840000026",
        "length_lcc": "341413.7840000026",
        "coverage": "182.8469512227623",
        "directness": "0.7620232541246899",
        "directness_lcc": "0.7620232541246899",
        "poi_coverage": "140",
        "components": "1",
        "overlap_biketrack": "9337.585999999992",
        "overlap_bikeable": "106849.2679999998",
        "efficiency_global": "0.7347277368548906",
        "efficiency_local": "0.38757469853244425",
        "efficiency_global_routed": "0.8340200649345382",
        "efficiency_local_routed": "0.18176604318975223"
    },
    {
        "length": "350616.0570000032",
        "length_lcc": "350616.0570000032",
        "coverage": "183.05422895418647",
        "directness": "0.7588005212136023",
        "directness_lcc": "0.7588005212136023",
        "poi_coverage": "140",
        "components": "1",
        "overlap_biketrack": "9586.411999999993",
        "overlap_bikeable": "111022.18299999982",
        "efficiency_global": "0.7385845556593982",
        "efficiency_local": "0.4444075960722412",
        "efficiency_global_routed": "0.8311777508726798",
        "efficiency_local_routed": "0.17090579827129107"
    },
    {
        "length": "356718.4420000031",
        "length_lcc": "356718.4420000031",
        "coverage": "183.65683170200356",
        "directness": "0.7631238897013931",
        "directness_lcc": "0.7631238897013931",
        "poi_coverage": "140",
        "components": "1",
        "overlap_biketrack": "9586.411999999993",
        "overlap_bikeable": "112762.20699999985",
        "efficiency_global": "0.7416365607435463",
        "efficiency_local": "0.47327398142577287",
        "efficiency_global_routed": "0.8296798337389056",
        "efficiency_local_routed": "0.1704695247202321"
    },
    {
        "length": "370740.68000000267",
        "length_lcc": "370740.68000000267",
        "coverage": "187.40820650948496",
        "directness": "0.7636765316658746",
        "directness_lcc": "0.7636765316658746",
        "poi_coverage": "140",
        "components": "1",
        "overlap_biketrack": "9586.411999999993",
        "overlap_bikeable": "115771.05199999979",
        "efficiency_global": "0.7434904569293976",
        "efficiency_local": "0.47744706645443813",
        "efficiency_global_routed": "0.8297940022410983",
        "efficiency_local_routed": "0.17736371796849565"
    },
    {
        "length": "382944.5400000032",
        "length_lcc": "382944.5400000032",
        "coverage": "190.8604693353939",
        "directness": "0.7664924837404148",
        "directness_lcc": "0.7664924837404148",
        "poi_coverage": "140",
        "components": "1",
        "overlap_biketrack": "9586.411999999993",
        "overlap_bikeable": "119612.03599999983",
        "efficiency_global": "0.7462566938522294",
        "efficiency_local": "0.5160133739242656",
        "efficiency_global_routed": "0.8307435255825134",
        "efficiency_local_routed": "0.1730605977772856"
    },
    {
        "length": "398589.9100000028",
        "length_lcc": "398589.9100000028",
        "coverage": "198.21012987863153",
        "directness": "0.7604263320765687",
        "directness_lcc": "0.7604263320765687",
        "poi_coverage": "140",
        "components": "1",
        "overlap_biketrack": "9586.411999999993",
        "overlap_bikeable": "124977.75699999975",
        "efficiency_global": "0.7486354458514366",
        "efficiency_local": "0.5361567610343809",
        "efficiency_global_routed": "0.8306394021079121",
        "efficiency_local_routed": "0.17628096716839747"
    },
    {
        "length": "409771.87400000315",
        "length_lcc": "409771.87400000315",
        "coverage": "201.78089525064976",
        "directness": "0.7632670504226886",
        "directness_lcc": "0.7632670504226886",
        "poi_coverage": "140",
        "components": "1",
        "overlap_biketrack": "9960.423999999995",
        "overlap_bikeable": "129932.78099999968",
        "efficiency_global": "0.7501744300488679",
        "efficiency_local": "0.5873907028823144",
        "efficiency_global_routed": "0.8305359529102072",
        "efficiency_local_routed": "0.1681968559885985"
    },
    {
        "length": "416310.10900000343",
        "length_lcc": "416310.10900000343",
        "coverage": "203.03375840208057",
        "directness": "0.7625168745254378",
        "directness_lcc": "0.7625168745254378",
        "poi_coverage": "140",
        "components": "1",
        "overlap_biketrack": "9960.423999999995",
        "overlap_bikeable": "133266.9469999997",
        "efficiency_global": "0.7509267445904744",
        "efficiency_local": "0.6165262626987902",
        "efficiency_global_routed": "0.8291091530134479",
        "efficiency_local_routed": "0.16469695429600342"
    },
    {
        "length": "425532.1240000038",
        "length_lcc": "425532.1240000038",
        "coverage": "204.68417568476048",
        "directness": "0.7619881210502549",
        "directness_lcc": "0.7619881210502549",
        "poi_coverage": "140",
        "components": "1",
        "overlap_biketrack": "9960.423999999995",
        "overlap_bikeable": "135550.21399999986",
        "efficiency_global": "0.7517948944688249",
        "efficiency_local": "0.6342777480047389",
        "efficiency_global_routed": "0.8305920206471314",
        "efficiency_local_routed": "0.1596372148440382"
    },
    {
        "length": "444790.7380000034",
        "length_lcc": "444790.7380000034",
        "coverage": "210.8244700360283",
        "directness": "0.7592969122970215",
        "directness_lcc": "0.7592969122970215",
        "poi_coverage": "140",
        "components": "1",
        "overlap_biketrack": "11345.494999999997",
        "overlap_bikeable": "147696.32699999982",
        "efficiency_global": "0.7532298169866186",
        "efficiency_local": "0.6724012405531603",
        "efficiency_global_routed": "0.8309427324539915",
        "efficiency_local_routed": "0.16164012706492104"
    },
    {
        "length": "448190.8960000036",
        "length_lcc": "448190.8960000036",
        "coverage": "210.9775866845244",
        "directness": "0.762175694552457",
        "directness_lcc": "0.762175694552457",
        "poi_coverage": "140",
        "components": "1",
        "overlap_biketrack": "11345.494999999997",
        "overlap_bikeable": "148972.73699999976",
        "efficiency_global": "0.7533551402852597",
        "efficiency_local": "0.6861210502410674",
        "efficiency_global_routed": "0.8312229397548407",
        "efficiency_local_routed": "0.156099181868719"
    },
    {
        "length": "460436.5030000027",
        "length_lcc": "460436.5030000027",
        "coverage": "214.38233402463507",
        "directness": "0.7594019133836882",
        "directness_lcc": "0.7594019133836882",
        "poi_coverage": "140",
        "components": "1",
        "overlap_biketrack": "11383.863999999998",
        "overlap_bikeable": "154946.35699999979",
        "efficiency_global": "0.7539996864106776",
        "efficiency_local": "0.7144968784131843",
        "efficiency_global_routed": "0.8297660864590471",
        "efficiency_local_routed": "0.1671761848206588"
    },
    {
        "length": "475572.5490000035",
        "length_lcc": "475572.5490000035",
        "coverage": "217.75867437143958",
        "directness": "0.7675431602769386",
        "directness_lcc": "0.7675431602769386",
        "poi_coverage": "140",
        "components": "1",
        "overlap_biketrack": "11418.753",
        "overlap_bikeable": "158434.7289999998",
        "efficiency_global": "0.7547745039035367",
        "efficiency_local": "0.727371191063183",
        "efficiency_global_routed": "0.826413335422839",
        "efficiency_local_routed": "0.16505590939393794"
    },
    {
        "length": "475572.5490000035",
        "length_lcc": "475572.5490000035",
        "coverage": "217.75867437143958",
        "directness": "0.7661754435031557",
        "directness_lcc": "0.7661754435031557",
        "poi_coverage": "140",
        "components": "1",
        "overlap_biketrack": "11418.753",
        "overlap_bikeable": "158434.7289999998",
        "efficiency_global": "0.7547745039035367",
        "efficiency_local": "0.7324124209348157",
        "efficiency_global_routed": "0.8279975527733557",
        "efficiency_local_routed": "0.16458680468824405"
    }
]