[
    {
        "length": "26895.30699999999",
        "length_lcc": "18733.074999999997",
        "coverage": "28.019092349001703",
        "directness": "0.8922393976482927",
        "directness_lcc": "0.885370666335042",
        "poi_coverage": "11",
        "components": "3",
        "overlap_biketrack": "0",
        "overlap_bikeable": "0",
        "efficiency_global": "0.29201524531246525",
        "efficiency_local": "0",
        "efficiency_global_routed": "0.29201524531246525",
        "efficiency_local_routed": "0"
    },
    {
        "length": "28621.575999999997",
        "length_lcc": "18733.074999999997",
        "coverage": "29.40081338952254",
        "directness": "0.887133921700447",
        "directness_lcc": "0.885404028529132",
        "poi_coverage": "13",
        "components": "2",
        "overlap_biketrack": "0",
        "overlap_bikeable": "0",
        "efficiency_global": "0.7491749314799274",
        "efficiency_local": "0.0",
        "efficiency_global_routed": "0.3093793012391968",
        "efficiency_local_routed": "0"
    },
    {
        "length": "37861.46100000001",
        "length_lcc": "37861.46100000001",
        "coverage": "37.80022173426011",
        "directness": "0.877984968429619",
        "directness_lcc": "0.877984968429619",
        "poi_coverage": "18",
        "components": "1",
        "overlap_biketrack": "0",
        "overlap_bikeable": "0",
        "efficiency_global": "0.8680969424221741",
        "efficiency_local": "0.0",
        "efficiency_global_routed": "0.7950109996380519",
        "efficiency_local_routed": "0"
    },
    {
        "length": "42775.77499999998",
        "length_lcc": "42775.77499999998",
        "coverage": "41.687670785641004",
        "directness": "0.8463811686315514",
        "directness_lcc": "0.8463811686315514",
        "poi_coverage": "20",
        "components": "1",
        "overlap_biketrack": "0",
        "overlap_bikeable": "0",
        "efficiency_global": "0.7094679953005857",
        "efficiency_local": "0.0",
        "efficiency_global_routed": "0.823827737937468",
        "efficiency_local_routed": "0.0"
    },
    {
        "length": "47108.17200000006",
        "length_lcc": "47108.17200000006",
        "coverage": "44.4947204172337",
        "directness": "0.8332014374803564",
        "directness_lcc": "0.8332014374803564",
        "poi_coverage": "21",
        "components": "1",
        "overlap_biketrack": "0",
        "overlap_bikeable": "0",
        "efficiency_global": "0.6879855227910214",
        "efficiency_local": "0.0",
        "efficiency_global_routed": "0.8265813868374713",
        "efficiency_local_routed": "0.0"
    },
    {
        "length": "50930.86999999998",
        "length_lcc": "50930.86999999998",
        "coverage": "47.03568219603955",
        "directness": "0.7882812754485603",
        "directness_lcc": "0.7882812754485603",
        "poi_coverage": "24",
        "components": "1",
        "overlap_biketrack": "0",
        "overlap_bikeable": "0",
        "efficiency_global": "0.5874254802908232",
        "efficiency_local": "0.0",
        "efficiency_global_routed": "0.7033060154629479",
        "efficiency_local_routed": "0.0"
    },
    {
        "length": "52110.52899999998",
        "length_lcc": "52110.52899999998",
        "coverage": "47.0562236262269",
        "directness": "0.7995318276994916",
        "directness_lcc": "0.7995318276994916",
        "poi_coverage": "24",
        "components": "1",
        "overlap_biketrack": "0",
        "overlap_bikeable": "0",
        "efficiency_global": "0.7284937965706378",
        "efficiency_local": "0.0",
        "efficiency_global_routed": "0.9614610012757361",
        "efficiency_local_routed": "0.7375425167193881"
    },
    {
        "length": "60777.812",
        "length_lcc": "53949.81",
        "coverage": "52.16267978934463",
        "directness": "0.797944113739602",
        "directness_lcc": "0.7873236784453272",
        "poi_coverage": "26",
        "components": "2",
        "overlap_biketrack": "0",
        "overlap_bikeable": "0",
        "efficiency_global": "0.5388375817696257",
        "efficiency_local": "0.0",
        "efficiency_global_routed": "0.9123193475929792",
        "efficiency_local_routed": "0.7375425167193881"
    },
    {
        "length": "62301.83999999999",
        "length_lcc": "62301.83999999999",
        "coverage": "52.52763149842644",
        "directness": "0.7522467659543907",
        "directness_lcc": "0.7522467659543907",
        "poi_coverage": "27",
        "components": "1",
        "overlap_biketrack": "0",
        "overlap_bikeable": "0",
        "efficiency_global": "0.5348571316971846",
        "efficiency_local": "0.0",
        "efficiency_global_routed": "0.9299927027058464",
        "efficiency_local_routed": "0.6142826824662481"
    },
    {
        "length": "65717.461",
        "length_lcc": "65717.461",
        "coverage": "54.132432337498194",
        "directness": "0.720990878807715",
        "directness_lcc": "0.720990878807715",
        "poi_coverage": "30",
        "components": "1",
        "overlap_biketrack": "0",
        "overlap_bikeable": "0",
        "efficiency_global": "0.4573184504809516",
        "efficiency_local": "0.0",
        "efficiency_global_routed": "0.9093698908946559",
        "efficiency_local_routed": "0.6142826824662481"
    },
    {
        "length": "69391.49800000014",
        "length_lcc": "69391.49800000014",
        "coverage": "55.07642829325658",
        "directness": "0.7725880672623617",
        "directness_lcc": "0.7725880672623617",
        "poi_coverage": "30",
        "components": "1",
        "overlap_biketrack": "0",
        "overlap_bikeable": "0",
        "efficiency_global": "0.4715985986250187",
        "efficiency_local": "0.0",
        "efficiency_global_routed": "0.8657790560820414",
        "efficiency_local_routed": "0.460712011849686"
    },
    {
        "length": "72261.67500000016",
        "length_lcc": "72261.67500000016",
        "coverage": "55.1169670575426",
        "directness": "0.808548115336602",
        "directness_lcc": "0.808548115336602",
        "poi_coverage": "30",
        "components": "1",
        "overlap_biketrack": "0",
        "overlap_bikeable": "0",
        "efficiency_global": "0.6216425697956612",
        "efficiency_local": "0.0",
        "efficiency_global_routed": "0.8786436778181507",
        "efficiency_local_routed": "0.30714134123312403"
    },
    {
        "length": "73255.9500000002",
        "length_lcc": "73255.9500000002",
        "coverage": "55.872129268615524",
        "directness": "0.8016364304426671",
        "directness_lcc": "0.8016364304426671",
        "poi_coverage": "31",
        "components": "1",
        "overlap_biketrack": "0",
        "overlap_bikeable": "0",
        "efficiency_global": "0.6526701124385536",
        "efficiency_local": "0.0",
        "efficiency_global_routed": "0.8880892942864499",
        "efficiency_local_routed": "0.24571247161570037"
    },
    {
        "length": "93934.77500000026",
        "length_lcc": "93934.77500000026",
        "coverage": "70.60155251234409",
        "directness": "0.7801109474449399",
        "directness_lcc": "0.7801109474449399",
        "poi_coverage": "32",
        "components": "1",
        "overlap_biketrack": "0",
        "overlap_bikeable": "0",
        "efficiency_global": "0.640463905739805",
        "efficiency_local": "0.0",
        "efficiency_global_routed": "0.9359378814062462",
        "efficiency_local_routed": "0.0636606198019369"
    },
    {
        "length": "100574.39000000022",
        "length_lcc": "100574.39000000022",
        "coverage": "74.72140030585656",
        "directness": "0.7825192684647819",
        "directness_lcc": "0.7825192684647819",
        "poi_coverage": "34",
        "components": "1",
        "overlap_biketrack": "0",
        "overlap_bikeable": "0",
        "efficiency_global": "0.623669742543826",
        "efficiency_local": "0.02962933082349368",
        "efficiency_global_routed": "0.9094460163476671",
        "efficiency_local_routed": "0.1312594739982215"
    },
    {
        "length": "101492.5690000002",
        "length_lcc": "101492.5690000002",
        "coverage": "74.7417304436181",
        "directness": "0.7908228990325334",
        "directness_lcc": "0.7908228990325334",
        "poi_coverage": "34",
        "components": "1",
        "overlap_biketrack": "0",
        "overlap_bikeable": "0",
        "efficiency_global": "0.673381035279596",
        "efficiency_local": "0.023750440973654845",
        "efficiency_global_routed": "0.9414375516900653",
        "efficiency_local_routed": "0.21653624357847612"
    },
    {
        "length": "102545.69800000025",
        "length_lcc": "102545.69800000025",
        "coverage": "75.58022711451599",
        "directness": "0.7898615976797153",
        "directness_lcc": "0.7898615976797153",
        "poi_coverage": "35",
        "components": "1",
        "overlap_biketrack": "0",
        "overlap_bikeable": "0",
        "efficiency_global": "0.686041700855843",
        "efficiency_local": "0.02280042333470865",
        "efficiency_global_routed": "0.9390968006079942",
        "efficiency_local_routed": "0.2089529592569954"
    },
    {
        "length": "103901.36300000024",
        "length_lcc": "103901.36300000024",
        "coverage": "76.13622466277751",
        "directness": "0.7872785909843989",
        "directness_lcc": "0.7872785909843989",
        "poi_coverage": "36",
        "components": "1",
        "overlap_biketrack": "0",
        "overlap_bikeable": "0",
        "efficiency_global": "0.6812179703827909",
        "efficiency_local": "0.1038682146167989",
        "efficiency_global_routed": "0.9372656256138768",
        "efficiency_local_routed": "0.2089529592569954"
    },
    {
        "length": "103921.54500000023",
        "length_lcc": "103921.54500000023",
        "coverage": "76.13622466731056",
        "directness": "0.7882718596712781",
        "directness_lcc": "0.7882718596712781",
        "poi_coverage": "36",
        "components": "1",
        "overlap_biketrack": "0",
        "overlap_bikeable": "0",
        "efficiency_global": "0.6871334863857766",
        "efficiency_local": "0.13812440499999187",
        "efficiency_global_routed": "0.9397544933624624",
        "efficiency_local_routed": "0.25136724296917456"
    },
    {
        "length": "106203.94200000027",
        "length_lcc": "106203.94200000027",
        "coverage": "76.18773991505564",
        "directness": "0.7933504030462118",
        "directness_lcc": "0.7933504030462118",
        "poi_coverage": "36",
        "components": "1",
        "overlap_biketrack": "0",
        "overlap_bikeable": "0",
        "efficiency_global": "0.7062365874558874",
        "efficiency_local": "0.2475714145759493",
        "efficiency_global_routed": "0.9374015710099329",
        "efficiency_local_routed": "0.32813339536877567"
    },
    {
        "length": "108795.13100000028",
        "length_lcc": "108795.13100000028",
        "coverage": "76.32395762742001",
        "directness": "0.7944019558811575",
        "directness_lcc": "0.7944019558811575",
        "poi_coverage": "36",
        "components": "1",
        "overlap_biketrack": "0",
        "overlap_bikeable": "0",
        "efficiency_global": "0.7417430349935318",
        "efficiency_local": "0.3753086934540345",
        "efficiency_global_routed": "0.9342938440567947",
        "efficiency_local_routed": "0.31388393139739934"
    },
    {
        "length": "108795.13100000028",
        "length_lcc": "108795.13100000028",
        "coverage": "76.32395762742001",
        "directness": "0.7868949462679152",
        "directness_lcc": "0.7868949462679152",
        "poi_coverage": "36",
        "components": "1",
        "overlap_biketrack": "0",
        "overlap_bikeable": "0",
        "efficiency_global": "0.7417430349935318",
        "efficiency_local": "0.3753086934540345",
        "efficiency_global_routed": "0.9342938440567947",
        "efficiency_local_routed": "0.31388393139739934"
    },
    {
        "length": "108795.13100000028",
        "length_lcc": "108795.13100000028",
        "coverage": "76.32395762742001",
        "directness": "0.7965816205626716",
        "directness_lcc": "0.7965816205626716",
        "poi_coverage": "36",
        "components": "1",
        "overlap_biketrack": "0",
        "overlap_bikeable": "0",
        "efficiency_global": "0.7417430349935318",
        "efficiency_local": "0.4073215200288072",
        "efficiency_global_routed": "0.9342938440567947",
        "efficiency_local_routed": "0.31388393139739934"
    },
    {
        "length": "109816.56800000028",
        "length_lcc": "109816.56800000028",
        "coverage": "76.34584486072242",
        "directness": "0.7984644806350623",
        "directness_lcc": "0.7984644806350623",
        "poi_coverage": "36",
        "components": "1",
        "overlap_biketrack": "0",
        "overlap_bikeable": "0",
        "efficiency_global": "0.7534315396712739",
        "efficiency_local": "0.4755550330729057",
        "efficiency_global_routed": "0.9201094584976525",
        "efficiency_local_routed": "0.318146210431749"
    },
    {
        "length": "110032.88200000029",
        "length_lcc": "110032.88200000029",
        "coverage": "76.34584490661058",
        "directness": "0.7937338231266363",
        "directness_lcc": "0.7937338231266363",
        "poi_coverage": "36",
        "components": "1",
        "overlap_biketrack": "0",
        "overlap_bikeable": "0",
        "efficiency_global": "0.7768808792067816",
        "efficiency_local": "0.5107531945792005",
        "efficiency_global_routed": "0.9210931649293659",
        "efficiency_local_routed": "0.26315819648682776"
    },
    {
        "length": "112527.00800000032",
        "length_lcc": "112527.00800000032",
        "coverage": "76.72132036087034",
        "directness": "0.7994452213156097",
        "directness_lcc": "0.7994452213156097",
        "poi_coverage": "36",
        "components": "1",
        "overlap_biketrack": "0",
        "overlap_bikeable": "0",
        "efficiency_global": "0.7884448980926293",
        "efficiency_local": "0.5566564763954314",
        "efficiency_global_routed": "0.921312851360241",
        "efficiency_local_routed": "0.2810178784359306"
    },
    {
        "length": "112527.00800000032",
        "length_lcc": "112527.00800000032",
        "coverage": "76.72132036087034",
        "directness": "0.8029119829725524",
        "directness_lcc": "0.8029119829725524",
        "poi_coverage": "36",
        "components": "1",
        "overlap_biketrack": "0",
        "overlap_bikeable": "0",
        "efficiency_global": "0.7884448980926293",
        "efficiency_local": "0.5566564763954314",
        "efficiency_global_routed": "0.921312851360241",
        "efficiency_local_routed": "0.2810178784359306"
    },
    {
        "length": "139815.6260000002",
        "length_lcc": "139815.6260000002",
        "coverage": "94.84441362337493",
        "directness": "0.7725142959933514",
        "directness_lcc": "0.7725142959933514",
        "poi_coverage": "36",
        "components": "1",
        "overlap_biketrack": "0",
        "overlap_bikeable": "0",
        "efficiency_global": "0.797725362932856",
        "efficiency_local": "0.5589664647675754",
        "efficiency_global_routed": "0.9187936885984466",
        "efficiency_local_routed": "0.2843803108929123"
    },
    {
        "length": "139815.6260000002",
        "length_lcc": "139815.6260000002",
        "coverage": "94.84441362337493",
        "directness": "0.7807148285273208",
        "directness_lcc": "0.7807148285273208",
        "poi_coverage": "36",
        "components": "1",
        "overlap_biketrack": "0",
        "overlap_bikeable": "0",
        "efficiency_global": "0.797725362932856",
        "efficiency_local": "0.5589664647675754",
        "efficiency_global_routed": "0.9187936885984466",
        "efficiency_local_routed": "0.2843803108929123"
    },
    {
        "length": "155996.86700000017",
        "length_lcc": "155996.86700000017",
        "coverage": "105.083766904219",
        "directness": "0.7591929278163345",
        "directness_lcc": "0.7591929278163345",
        "poi_coverage": "36",
        "components": "1",
        "overlap_biketrack": "0",
        "overlap_bikeable": "0",
        "efficiency_global": "0.8058347185251409",
        "efficiency_local": "0.6223374319247784",
        "efficiency_global_routed": "0.895606246365509",
        "efficiency_local_routed": "0.296900402362549"
    },
    {
        "length": "155996.86700000017",
        "length_lcc": "155996.86700000017",
        "coverage": "105.083766904219",
        "directness": "0.7635018620612796",
        "directness_lcc": "0.7635018620612796",
        "poi_coverage": "36",
        "components": "1",
        "overlap_biketrack": "0",
        "overlap_bikeable": "0",
        "efficiency_global": "0.8058347185251409",
        "efficiency_local": "0.6223374319247784",
        "efficiency_global_routed": "0.895606246365509",
        "efficiency_local_routed": "0.296900402362549"
    },
    {
        "length": "158985.3260000003",
        "length_lcc": "158985.3260000003",
        "coverage": "105.2716380670977",
        "directness": "0.7542449416350926",
        "directness_lcc": "0.7542449416350926",
        "poi_coverage": "36",
        "components": "1",
        "overlap_biketrack": "0",
        "overlap_bikeable": "0",
        "efficiency_global": "0.8141818523017978",
        "efficiency_local": "0.6542214602704058",
        "efficiency_global_routed": "0.8975367334883385",
        "efficiency_local_routed": "0.27433233154216563"
    },
    {
        "length": "162343.45000000013",
        "length_lcc": "162343.45000000013",
        "coverage": "105.76747509479713",
        "directness": "0.7653593686727943",
        "directness_lcc": "0.7653593686727943",
        "poi_coverage": "36",
        "components": "1",
        "overlap_biketrack": "0",
        "overlap_bikeable": "0",
        "efficiency_global": "0.843456579205808",
        "efficiency_local": "0.7074249714179709",
        "efficiency_global_routed": "0.8979415348835739",
        "efficiency_local_routed": "0.28997166418026205"
    },
    {
        "length": "162343.45000000013",
        "length_lcc": "162343.45000000013",
        "coverage": "105.76747509479713",
        "directness": "0.7549333003664125",
        "directness_lcc": "0.7549333003664125",
        "poi_coverage": "36",
        "components": "1",
        "overlap_biketrack": "0",
        "overlap_bikeable": "0",
        "efficiency_global": "0.843456579205808",
        "efficiency_local": "0.7089632578716191",
        "efficiency_global_routed": "0.8979415348835739",
        "efficiency_local_routed": "0.28997166418026205"
    },
    {
        "length": "163221.07900000009",
        "length_lcc": "163221.07900000009",
        "coverage": "105.76747519844014",
        "directness": "0.7660502779622562",
        "directness_lcc": "0.7660502779622562",
        "poi_coverage": "36",
        "components": "1",
        "overlap_biketrack": "0",
        "overlap_bikeable": "0",
        "efficiency_global": "0.8575111016756692",
        "efficiency_local": "0.7813213403687553",
        "efficiency_global_routed": "0.893556294101422",
        "efficiency_local_routed": "0.2619473370243651"
    },
    {
        "length": "163221.07900000009",
        "length_lcc": "163221.07900000009",
        "coverage": "105.76747519844014",
        "directness": "0.7589299767671196",
        "directness_lcc": "0.7589299767671196",
        "poi_coverage": "36",
        "components": "1",
        "overlap_biketrack": "0",
        "overlap_bikeable": "0",
        "efficiency_global": "0.8575111016756692",
        "efficiency_local": "0.7813213403687553",
        "efficiency_global_routed": "0.893556294101422",
        "efficiency_local_routed": "0.2619473370243651"
    },
    {
        "length": "163221.07900000009",
        "length_lcc": "163221.07900000009",
        "coverage": "105.76747519844014",
        "directness": "0.7572869420637014",
        "directness_lcc": "0.7572869420637014",
        "poi_coverage": "36",
        "components": "1",
        "overlap_biketrack": "0",
        "overlap_bikeable": "0",
        "efficiency_global": "0.8575111016756692",
        "efficiency_local": "0.8115769348880634",
        "efficiency_global_routed": "0.893556294101422",
        "efficiency_local_routed": "0.2619473370243651"
    },
    {
        "length": "166352.357",
        "length_lcc": "166352.357",
        "coverage": "106.01343596069017",
        "directness": "0.7750987829987633",
        "directness_lcc": "0.7750987829987633",
        "poi_coverage": "36",
        "components": "1",
        "overlap_biketrack": "0",
        "overlap_bikeable": "0",
        "efficiency_global": "0.8603059079427254",
        "efficiency_local": "0.8348929653958183",
        "efficiency_global_routed": "0.8940539691628381",
        "efficiency_local_routed": "0.23429215422872135"
    },
    {
        "length": "166352.357",
        "length_lcc": "166352.357",
        "coverage": "106.01343596069017",
        "directness": "0.7674661803995817",
        "directness_lcc": "0.7674661803995817",
        "poi_coverage": "36",
        "components": "1",
        "overlap_biketrack": "0",
        "overlap_bikeable": "0",
        "efficiency_global": "0.8603059079427254",
        "efficiency_local": "0.8480435080361113",
        "efficiency_global_routed": "0.8940539691628381",
        "efficiency_local_routed": "0.23429215422872135"
    },
    {
        "length": "166352.357",
        "length_lcc": "166352.357",
        "coverage": "106.01343596069017",
        "directness": "0.7767537348473598",
        "directness_lcc": "0.7767537348473598",
        "poi_coverage": "36",
        "components": "1",
        "overlap_biketrack": "0",
        "overlap_bikeable": "0",
        "efficiency_global": "0.8603059079427254",
        "efficiency_local": "0.8555226419417571",
        "efficiency_global_routed": "0.8940539691628381",
        "efficiency_local_routed": "0.23429215422872135"
    }
]