[
    {
        "length": "7011.115",
        "length_lcc": "6029.7069999999985",
        "coverage": "8.04768584207739",
        "directness": "0.6577670648946188",
        "directness_lcc": "0.6555548889207065",
        "poi_coverage": "13",
        "components": "2",
        "overlap_biketrack": "5813.233000000001",
        "overlap_bikeable": "5813.233000000001",
        "efficiency_global": "0.5369422617118287",
        "efficiency_local": "0.0",
        "efficiency_global_routed": "0.37542454496480393",
        "efficiency_local_routed": "0"
    },
    {
        "length": "10075.821000000005",
        "length_lcc": "6715.513999999999",
        "coverage": "12.054429812805111",
        "directness": "0.6352821160169247",
        "directness_lcc": "0.6312859365769194",
        "poi_coverage": "18",
        "components": "4",
        "overlap_biketrack": "8249.570999999994",
        "overlap_bikeable": "8249.570999999994",
        "efficiency_global": "0.43181962419510267",
        "efficiency_local": "0.0",
        "efficiency_global_routed": "0.7272810598178985",
        "efficiency_local_routed": "0.0"
    },
    {
        "length": "16962.73700000002",
        "length_lcc": "14583.838",
        "coverage": "16.899517539150356",
        "directness": "0.6619354360730704",
        "directness_lcc": "0.6562043112578337",
        "poi_coverage": "24",
        "components": "3",
        "overlap_biketrack": "12621.858000000007",
        "overlap_bikeable": "12755.981000000003",
        "efficiency_global": "0.505628576545002",
        "efficiency_local": "0.0",
        "efficiency_global_routed": "0.5789662205872057",
        "efficiency_local_routed": "0.0"
    },
    {
        "length": "26227.783999999985",
        "length_lcc": "24215.648999999994",
        "coverage": "22.643443121672668",
        "directness": "0.542860309902236",
        "directness_lcc": "0.5356416323679053",
        "poi_coverage": "31",
        "components": "2",
        "overlap_biketrack": "16361.518000000007",
        "overlap_bikeable": "16539.713000000003",
        "efficiency_global": "0.5383718899430847",
        "efficiency_local": "0.0",
        "efficiency_global_routed": "0.8504836439703667",
        "efficiency_local_routed": "0.3506458764644101"
    },
    {
        "length": "33013.664000000026",
        "length_lcc": "32311.585",
        "coverage": "28.758140780548473",
        "directness": "0.5598942835910518",
        "directness_lcc": "0.56498357730149",
        "poi_coverage": "37",
        "components": "2",
        "overlap_biketrack": "21893.083000000017",
        "overlap_bikeable": "22071.278000000013",
        "efficiency_global": "0.5143736640570078",
        "efficiency_local": "0.0",
        "efficiency_global_routed": "0.8165767736781779",
        "efficiency_local_routed": "0.30713011308230603"
    },
    {
        "length": "39570.698000000026",
        "length_lcc": "39570.698000000026",
        "coverage": "30.628915817175542",
        "directness": "0.649340522040004",
        "directness_lcc": "0.649340522040004",
        "poi_coverage": "40",
        "components": "1",
        "overlap_biketrack": "26763.04399999998",
        "overlap_bikeable": "26941.238999999987",
        "efficiency_global": "0.5988156812744231",
        "efficiency_local": "0.0",
        "efficiency_global_routed": "0.8970309860959338",
        "efficiency_local_routed": "0.3647390494404215"
    },
    {
        "length": "44260.08400000002",
        "length_lcc": "44260.08400000002",
        "coverage": "33.50590955199788",
        "directness": "0.6602340206686219",
        "directness_lcc": "0.6602340206686219",
        "poi_coverage": "44",
        "components": "1",
        "overlap_biketrack": "29869.815999999984",
        "overlap_bikeable": "30048.010999999988",
        "efficiency_global": "0.615623503259513",
        "efficiency_local": "0.0",
        "efficiency_global_routed": "0.8951681338885336",
        "efficiency_local_routed": "0.32873613179081224"
    },
    {
        "length": "51262.78899999999",
        "length_lcc": "51262.78899999999",
        "coverage": "37.19582976482616",
        "directness": "0.672465187124378",
        "directness_lcc": "0.672465187124378",
        "poi_coverage": "50",
        "components": "1",
        "overlap_biketrack": "35270.63199999999",
        "overlap_bikeable": "35448.827",
        "efficiency_global": "0.6198572169063561",
        "efficiency_local": "0.0",
        "efficiency_global_routed": "0.8818238156594428",
        "efficiency_local_routed": "0.27994939217130943"
    },
    {
        "length": "55807.89899999998",
        "length_lcc": "55584.84199999998",
        "coverage": "40.29871956118025",
        "directness": "0.6880113411281473",
        "directness_lcc": "0.6867803057775022",
        "poi_coverage": "54",
        "components": "2",
        "overlap_biketrack": "37801.46500000001",
        "overlap_bikeable": "37979.659999999996",
        "efficiency_global": "0.5752712747732744",
        "efficiency_local": "0.0",
        "efficiency_global_routed": "0.8493329883681014",
        "efficiency_local_routed": "0.272584386384412"
    },
    {
        "length": "59337.34399999999",
        "length_lcc": "59114.28699999999",
        "coverage": "40.763244609644076",
        "directness": "0.701064934517477",
        "directness_lcc": "0.6975558823423522",
        "poi_coverage": "54",
        "components": "2",
        "overlap_biketrack": "39694.24899999999",
        "overlap_bikeable": "39872.44399999999",
        "efficiency_global": "0.5917595748858152",
        "efficiency_local": "0.09570895394522246",
        "efficiency_global_routed": "0.8439674007048503",
        "efficiency_local_routed": "0.2651880233363694"
    },
    {
        "length": "66374.47999999994",
        "length_lcc": "66374.47999999994",
        "coverage": "44.169768974766086",
        "directness": "0.7138276956555507",
        "directness_lcc": "0.7138276956555507",
        "poi_coverage": "58",
        "components": "1",
        "overlap_biketrack": "43803.51799999997",
        "overlap_bikeable": "44102.39999999999",
        "efficiency_global": "0.6287175699634882",
        "efficiency_local": "0.06244499684073154",
        "efficiency_global_routed": "0.8507942282904432",
        "efficiency_local_routed": "0.2506735717549562"
    },
    {
        "length": "72972.37300000004",
        "length_lcc": "72972.37300000004",
        "coverage": "44.92604858809653",
        "directness": "0.7228172282155928",
        "directness_lcc": "0.7228172282155928",
        "poi_coverage": "58",
        "components": "1",
        "overlap_biketrack": "48017.037999999986",
        "overlap_bikeable": "48315.919999999984",
        "efficiency_global": "0.6254464711141187",
        "efficiency_local": "0.13574968706162036",
        "efficiency_global_routed": "0.8468227967415365",
        "efficiency_local_routed": "0.25488067005207216"
    },
    {
        "length": "81658.97500000012",
        "length_lcc": "81658.97500000012",
        "coverage": "51.35425297971323",
        "directness": "0.731076721282951",
        "directness_lcc": "0.731076721282951",
        "poi_coverage": "62",
        "components": "1",
        "overlap_biketrack": "51699.760000000024",
        "overlap_bikeable": "51998.64200000001",
        "efficiency_global": "0.630503423151814",
        "efficiency_local": "0.12927175692715204",
        "efficiency_global_routed": "0.8425803705573491",
        "efficiency_local_routed": "0.2507225444876147"
    },
    {
        "length": "87339.40100000023",
        "length_lcc": "87339.40100000023",
        "coverage": "53.06759818558778",
        "directness": "0.7321641956513681",
        "directness_lcc": "0.7321641956513681",
        "poi_coverage": "63",
        "components": "1",
        "overlap_biketrack": "55484.07200000005",
        "overlap_bikeable": "55859.24300000005",
        "efficiency_global": "0.633978211189543",
        "efficiency_local": "0.11676968113794375",
        "efficiency_global_routed": "0.843454703325993",
        "efficiency_local_routed": "0.2365067237983268"
    },
    {
        "length": "96507.15500000013",
        "length_lcc": "96507.15500000013",
        "coverage": "56.44084767185642",
        "directness": "0.7428593252094267",
        "directness_lcc": "0.7428593252094267",
        "poi_coverage": "67",
        "components": "1",
        "overlap_biketrack": "58706.82700000007",
        "overlap_bikeable": "59081.99800000005",
        "efficiency_global": "0.6372265540797875",
        "efficiency_local": "0.13699632132250145",
        "efficiency_global_routed": "0.842293505799603",
        "efficiency_local_routed": "0.24705804462383937"
    },
    {
        "length": "98617.06100000015",
        "length_lcc": "98617.06100000015",
        "coverage": "56.848316051947386",
        "directness": "0.7407389171171033",
        "directness_lcc": "0.7407389171171033",
        "poi_coverage": "68",
        "components": "1",
        "overlap_biketrack": "59161.33600000007",
        "overlap_bikeable": "59536.50700000006",
        "efficiency_global": "0.6376124287620494",
        "efficiency_local": "0.1859013325324733",
        "efficiency_global_routed": "0.8384614676390016",
        "efficiency_local_routed": "0.2323264078425937"
    },
    {
        "length": "105217.41500000026",
        "length_lcc": "105217.41500000026",
        "coverage": "59.71947970537392",
        "directness": "0.7387952866925944",
        "directness_lcc": "0.7387952866925944",
        "poi_coverage": "70",
        "components": "1",
        "overlap_biketrack": "63319.58900000014",
        "overlap_bikeable": "63694.760000000126",
        "efficiency_global": "0.6357440221125702",
        "efficiency_local": "0.193199413239244",
        "efficiency_global_routed": "0.8353015087953353",
        "efficiency_local_routed": "0.2455476717062827"
    },
    {
        "length": "113478.51600000016",
        "length_lcc": "113478.51600000016",
        "coverage": "65.01295348767422",
        "directness": "0.7397509448088636",
        "directness_lcc": "0.7397509448088636",
        "poi_coverage": "72",
        "components": "1",
        "overlap_biketrack": "67394.7330000002",
        "overlap_bikeable": "68065.09800000019",
        "efficiency_global": "0.6183346656925901",
        "efficiency_local": "0.18528854469420114",
        "efficiency_global_routed": "0.8306682842650763",
        "efficiency_local_routed": "0.2595505751628979"
    },
    {
        "length": "118415.70500000003",
        "length_lcc": "118415.70500000003",
        "coverage": "65.27547290814842",
        "directness": "0.7395816749227957",
        "directness_lcc": "0.7395816749227957",
        "poi_coverage": "72",
        "components": "1",
        "overlap_biketrack": "68533.64200000021",
        "overlap_bikeable": "69204.00700000013",
        "efficiency_global": "0.6219001749087865",
        "efficiency_local": "0.17985998109602877",
        "efficiency_global_routed": "0.8322666744088696",
        "efficiency_local_routed": "0.2538630458397463"
    },
    {
        "length": "127571.64699999995",
        "length_lcc": "127571.64699999995",
        "coverage": "67.15434828275049",
        "directness": "0.7363489323452842",
        "directness_lcc": "0.7363489323452842",
        "poi_coverage": "74",
        "components": "1",
        "overlap_biketrack": "72095.70000000008",
        "overlap_bikeable": "73405.41500000012",
        "efficiency_global": "0.6140330523750214",
        "efficiency_local": "0.1872267472758016",
        "efficiency_global_routed": "0.835718277306477",
        "efficiency_local_routed": "0.28749750306956123"
    },
    {
        "length": "128885.174",
        "length_lcc": "128885.174",
        "coverage": "67.15434828264154",
        "directness": "0.7350259522005206",
        "directness_lcc": "0.7350259522005206",
        "poi_coverage": "74",
        "components": "1",
        "overlap_biketrack": "73027.45200000014",
        "overlap_bikeable": "74337.16700000013",
        "efficiency_global": "0.6156903422288742",
        "efficiency_local": "0.209124781094273",
        "efficiency_global_routed": "0.8335618292168198",
        "efficiency_local_routed": "0.2738937639881912"
    },
    {
        "length": "132520.52500000014",
        "length_lcc": "132520.52500000014",
        "coverage": "67.15434828247652",
        "directness": "0.7369251806080714",
        "directness_lcc": "0.7369251806080714",
        "poi_coverage": "74",
        "components": "1",
        "overlap_biketrack": "74224.02900000011",
        "overlap_bikeable": "75533.74400000011",
        "efficiency_global": "0.6358937698339242",
        "efficiency_local": "0.25723767832917194",
        "efficiency_global_routed": "0.8309697933573699",
        "efficiency_local_routed": "0.27425393127641673"
    },
    {
        "length": "135628.83800000008",
        "length_lcc": "135628.83800000008",
        "coverage": "67.38441523208996",
        "directness": "0.745571939293207",
        "directness_lcc": "0.745571939293207",
        "poi_coverage": "74",
        "components": "1",
        "overlap_biketrack": "75411.7350000001",
        "overlap_bikeable": "76721.4500000001",
        "efficiency_global": "0.642466189443791",
        "efficiency_local": "0.29663400354932545",
        "efficiency_global_routed": "0.8286525563953395",
        "efficiency_local_routed": "0.2599074624584597"
    },
    {
        "length": "139193.3929999999",
        "length_lcc": "139193.3929999999",
        "coverage": "67.60153098893485",
        "directness": "0.7428457995911724",
        "directness_lcc": "0.7428457995911724",
        "poi_coverage": "74",
        "components": "1",
        "overlap_biketrack": "76393.03900000012",
        "overlap_bikeable": "77980.55400000005",
        "efficiency_global": "0.6488095377680653",
        "efficiency_local": "0.31010231955948886",
        "efficiency_global_routed": "0.8247470598295746",
        "efficiency_local_routed": "0.2604903876996908"
    },
    {
        "length": "143929.3809999999",
        "length_lcc": "143929.3809999999",
        "coverage": "69.98846748718537",
        "directness": "0.7446408675205888",
        "directness_lcc": "0.7446408675205888",
        "poi_coverage": "75",
        "components": "1",
        "overlap_biketrack": "79513.15600000005",
        "overlap_bikeable": "81100.67099999999",
        "efficiency_global": "0.6559134642989484",
        "efficiency_local": "0.309990067397308",
        "efficiency_global_routed": "0.8253329928709795",
        "efficiency_local_routed": "0.2547910718022119"
    },
    {
        "length": "148831.45199999984",
        "length_lcc": "148831.45199999984",
        "coverage": "70.64212025535254",
        "directness": "0.7422019173839502",
        "directness_lcc": "0.7422019173839502",
        "poi_coverage": "75",
        "components": "1",
        "overlap_biketrack": "82512.84000000003",
        "overlap_bikeable": "84111.39500000002",
        "efficiency_global": "0.6586546366724363",
        "efficiency_local": "0.35202961849093406",
        "efficiency_global_routed": "0.8252529557648417",
        "efficiency_local_routed": "0.2490738057284902"
    },
    {
        "length": "156068.82000000004",
        "length_lcc": "156068.82000000004",
        "coverage": "71.28351580744537",
        "directness": "0.7436006636144088",
        "directness_lcc": "0.7436006636144088",
        "poi_coverage": "75",
        "components": "1",
        "overlap_biketrack": "84358.37100000003",
        "overlap_bikeable": "86292.69999999995",
        "efficiency_global": "0.6641026942931882",
        "efficiency_local": "0.41376411969963484",
        "efficiency_global_routed": "0.8221850991840259",
        "efficiency_local_routed": "0.2371830116270737"
    },
    {
        "length": "156988.15499999997",
        "length_lcc": "156988.15499999997",
        "coverage": "71.32387280006327",
        "directness": "0.7474181609094951",
        "directness_lcc": "0.7474181609094951",
        "poi_coverage": "75",
        "components": "1",
        "overlap_biketrack": "85277.70599999996",
        "overlap_bikeable": "87212.03499999996",
        "efficiency_global": "0.6660757357133602",
        "efficiency_local": "0.4302070931878549",
        "efficiency_global_routed": "0.8218041892614603",
        "efficiency_local_routed": "0.24168262206771401"
    },
    {
        "length": "158258.196",
        "length_lcc": "158258.196",
        "coverage": "71.3238728007438",
        "directness": "0.753054081726304",
        "directness_lcc": "0.753054081726304",
        "poi_coverage": "75",
        "components": "1",
        "overlap_biketrack": "86037.59799999995",
        "overlap_bikeable": "88042.42299999998",
        "efficiency_global": "0.6690793249196394",
        "efficiency_local": "0.4460153629709266",
        "efficiency_global_routed": "0.8226639853342269",
        "efficiency_local_routed": "0.24776444147731758"
    },
    {
        "length": "166239.69700000013",
        "length_lcc": "166239.69700000013",
        "coverage": "73.54754212668571",
        "directness": "0.7521459484675257",
        "directness_lcc": "0.7521459484675257",
        "poi_coverage": "75",
        "components": "1",
        "overlap_biketrack": "90060.97999999992",
        "overlap_bikeable": "92065.80499999988",
        "efficiency_global": "0.6753028694392262",
        "efficiency_local": "0.4815000398003328",
        "efficiency_global_routed": "0.8305248393891347",
        "efficiency_local_routed": "0.2712292323001861"
    },
    {
        "length": "169075.89500000005",
        "length_lcc": "169075.89500000005",
        "coverage": "73.61980785377787",
        "directness": "0.7567540852507674",
        "directness_lcc": "0.7567540852507674",
        "poi_coverage": "75",
        "components": "1",
        "overlap_biketrack": "91441.96099999991",
        "overlap_bikeable": "93446.78599999992",
        "efficiency_global": "0.676659048587905",
        "efficiency_local": "0.4828553948634592",
        "efficiency_global_routed": "0.8332528491719072",
        "efficiency_local_routed": "0.28729840190161815"
    },
    {
        "length": "177432.60899999985",
        "length_lcc": "177432.60899999985",
        "coverage": "77.2244655030021",
        "directness": "0.7507295235432518",
        "directness_lcc": "0.7507295235432518",
        "poi_coverage": "75",
        "components": "1",
        "overlap_biketrack": "93908.59799999994",
        "overlap_bikeable": "95963.81199999987",
        "efficiency_global": "0.6788850198415073",
        "efficiency_local": "0.5244752523900982",
        "efficiency_global_routed": "0.832449654456844",
        "efficiency_local_routed": "0.2821481953476763"
    },
    {
        "length": "181114.37299999988",
        "length_lcc": "181114.37299999988",
        "coverage": "77.79253042286915",
        "directness": "0.7481109494316036",
        "directness_lcc": "0.7481109494316036",
        "poi_coverage": "75",
        "components": "1",
        "overlap_biketrack": "95674.46099999985",
        "overlap_bikeable": "97823.22899999992",
        "efficiency_global": "0.6803055410366975",
        "efficiency_local": "0.5453086479897125",
        "efficiency_global_routed": "0.8318729835759077",
        "efficiency_local_routed": "0.2736092544984774"
    },
    {
        "length": "181114.37299999988",
        "length_lcc": "181114.37299999988",
        "coverage": "77.79253042286915",
        "directness": "0.752400138344789",
        "directness_lcc": "0.752400138344789",
        "poi_coverage": "75",
        "components": "1",
        "overlap_biketrack": "95674.46099999985",
        "overlap_bikeable": "97823.22899999992",
        "efficiency_global": "0.6810350990163319",
        "efficiency_local": "0.545373682068009",
        "efficiency_global_routed": "0.8318729835759077",
        "efficiency_local_routed": "0.2736092544984774"
    },
    {
        "length": "184063.53200000004",
        "length_lcc": "184063.53200000004",
        "coverage": "77.94529515205433",
        "directness": "0.7511560195788518",
        "directness_lcc": "0.7511560195788518",
        "poi_coverage": "75",
        "components": "1",
        "overlap_biketrack": "98149.84499999994",
        "overlap_bikeable": "100298.61299999998",
        "efficiency_global": "0.6818707804970834",
        "efficiency_local": "0.5624337343460178",
        "efficiency_global_routed": "0.8354496060059933",
        "efficiency_local_routed": "0.27365209578273886"
    },
    {
        "length": "186139.36600000024",
        "length_lcc": "186139.36600000024",
        "coverage": "78.17424722108323",
        "directness": "0.7537820157841493",
        "directness_lcc": "0.7537820157841493",
        "poi_coverage": "75",
        "components": "1",
        "overlap_biketrack": "100213.68099999997",
        "overlap_bikeable": "102362.44899999994",
        "efficiency_global": "0.6843969396514437",
        "efficiency_local": "0.5948326455025178",
        "efficiency_global_routed": "0.8361979156313604",
        "efficiency_local_routed": "0.2783713957947287"
    },
    {
        "length": "191001.24000000014",
        "length_lcc": "191001.24000000014",
        "coverage": "78.27289957793593",
        "directness": "0.7579510948270715",
        "directness_lcc": "0.7579510948270715",
        "poi_coverage": "75",
        "components": "1",
        "overlap_biketrack": "102976.14099999993",
        "overlap_bikeable": "105124.90899999994",
        "efficiency_global": "0.6861108119900466",
        "efficiency_local": "0.6141369324189527",
        "efficiency_global_routed": "0.8377551435811073",
        "efficiency_local_routed": "0.2606620994992245"
    },
    {
        "length": "191001.24000000014",
        "length_lcc": "191001.24000000014",
        "coverage": "78.27289957793593",
        "directness": "0.7549141869405108",
        "directness_lcc": "0.7549141869405108",
        "poi_coverage": "75",
        "components": "1",
        "overlap_biketrack": "102976.14099999993",
        "overlap_bikeable": "105124.90899999994",
        "efficiency_global": "0.6861108119900466",
        "efficiency_local": "0.6141369324189527",
        "efficiency_global_routed": "0.8377551435811073",
        "efficiency_local_routed": "0.2606620994992245"
    },
    {
        "length": "198409.11500000005",
        "length_lcc": "198409.11500000005",
        "coverage": "79.87312913990472",
        "directness": "0.7530738455395021",
        "directness_lcc": "0.7530738455395021",
        "poi_coverage": "75",
        "components": "1",
        "overlap_biketrack": "106945.09900000002",
        "overlap_bikeable": "109093.86699999994",
        "efficiency_global": "0.687154217300541",
        "efficiency_local": "0.6538861573712048",
        "efficiency_global_routed": "0.8382697845700835",
        "efficiency_local_routed": "0.27679341056493006"
    },
    {
        "length": "198409.11500000005",
        "length_lcc": "198409.11500000005",
        "coverage": "79.87312913990472",
        "directness": "0.757147120873913",
        "directness_lcc": "0.757147120873913",
        "poi_coverage": "75",
        "components": "1",
        "overlap_biketrack": "106945.09900000002",
        "overlap_bikeable": "109093.86699999994",
        "efficiency_global": "0.687154217300541",
        "efficiency_local": "0.6549254158449164",
        "efficiency_global_routed": "0.8382697845700835",
        "efficiency_local_routed": "0.27679341056493006"
    }
]