[
    {
        "length": "3697.2980000000016",
        "length_lcc": "3697.2980000000016",
        "coverage": "3.998102249232776",
        "directness": "0.8179379811648628",
        "directness_lcc": "0.8179379811648628",
        "poi_coverage": "5",
        "components": "1",
        "overlap_biketrack": "0",
        "overlap_bikeable": "1884.1480000000006",
        "efficiency_global": "0.5549610323415103",
        "efficiency_local": "0",
        "efficiency_global_routed": "0.5549610323415103",
        "efficiency_local_routed": "0"
    },
    {
        "length": "7982.959999999999",
        "length_lcc": "4285.662000000001",
        "coverage": "8.840340908035342",
        "directness": "0.8405328585034332",
        "directness_lcc": "0.856160412823231",
        "poi_coverage": "10",
        "components": "2",
        "overlap_biketrack": "0",
        "overlap_bikeable": "2467.812000000001",
        "efficiency_global": "0.2790672270140546",
        "efficiency_local": "0",
        "efficiency_global_routed": "0.2790672270140546",
        "efficiency_local_routed": "0"
    },
    {
        "length": "9185.706999999999",
        "length_lcc": "4285.662000000001",
        "coverage": "9.872965762431305",
        "directness": "0.8375035905576148",
        "directness_lcc": "0.8561604128232232",
        "poi_coverage": "11",
        "components": "3",
        "overlap_biketrack": "0",
        "overlap_bikeable": "3463.5800000000004",
        "efficiency_global": "0.14971163163595758",
        "efficiency_local": "0",
        "efficiency_global_routed": "0.14971163163595758",
        "efficiency_local_routed": "0"
    },
    {
        "length": "10110.271000000004",
        "length_lcc": "4285.662000000001",
        "coverage": "10.306821904646323",
        "directness": "0.8333950794710262",
        "directness_lcc": "0.8561604128232275",
        "poi_coverage": "11",
        "components": "3",
        "overlap_biketrack": "0",
        "overlap_bikeable": "3463.5800000000004",
        "efficiency_global": "0.12572868949323862",
        "efficiency_local": "0.0",
        "efficiency_global_routed": "0.26004973496993167",
        "efficiency_local_routed": "0.0"
    },
    {
        "length": "11549.672999999997",
        "length_lcc": "5136.700000000003",
        "coverage": "10.672478167909246",
        "directness": "0.7310158961081937",
        "directness_lcc": "0.6332143179687749",
        "poi_coverage": "11",
        "components": "3",
        "overlap_biketrack": "0",
        "overlap_bikeable": "4402.135000000003",
        "efficiency_global": "0.12147309054376396",
        "efficiency_local": "0.0",
        "efficiency_global_routed": "0.24513767807084264",
        "efficiency_local_routed": "0.0"
    },
    {
        "length": "11549.672999999997",
        "length_lcc": "5136.700000000003",
        "coverage": "10.672478167909246",
        "directness": "0.7202653201035324",
        "directness_lcc": "0.6332143179687747",
        "poi_coverage": "11",
        "components": "3",
        "overlap_biketrack": "0",
        "overlap_bikeable": "4402.135000000003",
        "efficiency_global": "0.12147309054376396",
        "efficiency_local": "0.0",
        "efficiency_global_routed": "0.24513767807084264",
        "efficiency_local_routed": "0.0"
    },
    {
        "length": "13926.654999999993",
        "length_lcc": "6662.643999999998",
        "coverage": "11.626979433046257",
        "directness": "0.662796054726179",
        "directness_lcc": "0.6792139167565165",
        "poi_coverage": "11",
        "components": "3",
        "overlap_biketrack": "0",
        "overlap_bikeable": "5097.421000000002",
        "efficiency_global": "0.10298301771612284",
        "efficiency_local": "0.0",
        "efficiency_global_routed": "0.3003355512281979",
        "efficiency_local_routed": "0.0"
    },
    {
        "length": "14659.889999999994",
        "length_lcc": "7395.879000000001",
        "coverage": "11.629788035074707",
        "directness": "0.6988080206089765",
        "directness_lcc": "0.7077310049435455",
        "poi_coverage": "11",
        "components": "3",
        "overlap_biketrack": "0",
        "overlap_bikeable": "5639.185999999999",
        "efficiency_global": "0.1323615039031374",
        "efficiency_local": "0.0",
        "efficiency_global_routed": "0.36252516375813415",
        "efficiency_local_routed": "0.16031997662574918"
    },
    {
        "length": "18666.272999999983",
        "length_lcc": "11402.261999999993",
        "coverage": "15.063878209284399",
        "directness": "0.5841266898553945",
        "directness_lcc": "0.5673327822096292",
        "poi_coverage": "12",
        "components": "3",
        "overlap_biketrack": "345.74600000000004",
        "overlap_bikeable": "7684.746999999991",
        "efficiency_global": "0.14111245069584544",
        "efficiency_local": "0.0",
        "efficiency_global_routed": "0.41346518799561227",
        "efficiency_local_routed": "0.1388075860223867"
    },
    {
        "length": "19281.92199999998",
        "length_lcc": "12017.910999999996",
        "coverage": "15.063878209784798",
        "directness": "0.5674577145539916",
        "directness_lcc": "0.5708124904278021",
        "poi_coverage": "12",
        "components": "3",
        "overlap_biketrack": "345.74600000000004",
        "overlap_bikeable": "8124.078999999993",
        "efficiency_global": "0.12685009584022996",
        "efficiency_local": "0.0",
        "efficiency_global_routed": "0.448646595086879",
        "efficiency_local_routed": "0.0"
    },
    {
        "length": "22538.41499999999",
        "length_lcc": "15274.403999999991",
        "coverage": "16.657453099206048",
        "directness": "0.6099694270234358",
        "directness_lcc": "0.615233820770627",
        "poi_coverage": "13",
        "components": "3",
        "overlap_biketrack": "345.74600000000004",
        "overlap_bikeable": "9184.635999999993",
        "efficiency_global": "0.1263225502866833",
        "efficiency_local": "0.0",
        "efficiency_global_routed": "0.45683248112785396",
        "efficiency_local_routed": "0.0"
    },
    {
        "length": "22538.41499999999",
        "length_lcc": "15274.403999999991",
        "coverage": "16.657453099206048",
        "directness": "0.6139689668713865",
        "directness_lcc": "0.6016164240911855",
        "poi_coverage": "13",
        "components": "3",
        "overlap_biketrack": "345.74600000000004",
        "overlap_bikeable": "9184.635999999993",
        "efficiency_global": "0.1263225502866833",
        "efficiency_local": "0.0",
        "efficiency_global_routed": "0.45683248112785396",
        "efficiency_local_routed": "0.0"
    },
    {
        "length": "24456.320999999993",
        "length_lcc": "19319.621",
        "coverage": "17.460099018555493",
        "directness": "0.6295468611016519",
        "directness_lcc": "0.6320948054020804",
        "poi_coverage": "13",
        "components": "2",
        "overlap_biketrack": "345.74600000000004",
        "overlap_bikeable": "9951.58499999999",
        "efficiency_global": "0.1841922532308634",
        "efficiency_local": "0.0",
        "efficiency_global_routed": "0.506533217156063",
        "efficiency_local_routed": "0.0"
    },
    {
        "length": "24764.89699999999",
        "length_lcc": "19628.196999999993",
        "coverage": "17.460099018455345",
        "directness": "0.6508140372189208",
        "directness_lcc": "0.6437315861609867",
        "poi_coverage": "13",
        "components": "2",
        "overlap_biketrack": "345.74600000000004",
        "overlap_bikeable": "10158.052999999987",
        "efficiency_global": "0.18835987537840215",
        "efficiency_local": "0.12943257201537284",
        "efficiency_global_routed": "0.5483246479316299",
        "efficiency_local_routed": "0.0"
    },
    {
        "length": "24764.89699999999",
        "length_lcc": "19628.196999999993",
        "coverage": "17.460099018455345",
        "directness": "0.6401614326353606",
        "directness_lcc": "0.6397126983174882",
        "poi_coverage": "13",
        "components": "2",
        "overlap_biketrack": "345.74600000000004",
        "overlap_bikeable": "10158.052999999987",
        "efficiency_global": "0.1984677529501657",
        "efficiency_local": "0.2691493635213321",
        "efficiency_global_routed": "0.5483246479316299",
        "efficiency_local_routed": "0.0"
    },
    {
        "length": "29733.187999999995",
        "length_lcc": "29733.187999999995",
        "coverage": "20.570445504007314",
        "directness": "0.46821308173388343",
        "directness_lcc": "0.46821308173388343",
        "poi_coverage": "13",
        "components": "1",
        "overlap_biketrack": "345.74600000000004",
        "overlap_bikeable": "10278.765999999989",
        "efficiency_global": "0.23590590445179885",
        "efficiency_local": "0.2153194908170657",
        "efficiency_global_routed": "0.5858058007546844",
        "efficiency_local_routed": "0.0"
    },
    {
        "length": "30815.83499999999",
        "length_lcc": "30815.83499999999",
        "coverage": "20.660735071661847",
        "directness": "0.5737069200226402",
        "directness_lcc": "0.5737069200226402",
        "poi_coverage": "13",
        "components": "1",
        "overlap_biketrack": "345.74600000000004",
        "overlap_bikeable": "10977.621999999996",
        "efficiency_global": "0.28473902446317473",
        "efficiency_local": "0.19318592466011983",
        "efficiency_global_routed": "0.6454781352639598",
        "efficiency_local_routed": "0.0"
    },
    {
        "length": "30815.83499999999",
        "length_lcc": "30815.83499999999",
        "coverage": "20.660735071661847",
        "directness": "0.5654908694766981",
        "directness_lcc": "0.5654908694766981",
        "poi_coverage": "13",
        "components": "1",
        "overlap_biketrack": "345.74600000000004",
        "overlap_bikeable": "10977.621999999996",
        "efficiency_global": "0.28473902446317473",
        "efficiency_local": "0.19318592466011983",
        "efficiency_global_routed": "0.6454781352639598",
        "efficiency_local_routed": "0.0"
    },
    {
        "length": "36124.73300000001",
        "length_lcc": "36124.73300000001",
        "coverage": "24.730012146374737",
        "directness": "0.6177809727928966",
        "directness_lcc": "0.6177809727928966",
        "poi_coverage": "14",
        "components": "1",
        "overlap_biketrack": "345.74600000000004",
        "overlap_bikeable": "10977.621999999996",
        "efficiency_global": "0.2923255553601947",
        "efficiency_local": "0.19318592466011983",
        "efficiency_global_routed": "0.7293023997264106",
        "efficiency_local_routed": "0.10982823120064572"
    },
    {
        "length": "36124.73300000001",
        "length_lcc": "36124.73300000001",
        "coverage": "24.730012146374737",
        "directness": "0.6089478761031095",
        "directness_lcc": "0.6089478761031095",
        "poi_coverage": "14",
        "components": "1",
        "overlap_biketrack": "345.74600000000004",
        "overlap_bikeable": "10977.621999999996",
        "efficiency_global": "0.29446278950608334",
        "efficiency_local": "0.23603880856787018",
        "efficiency_global_routed": "0.7293023997264106",
        "efficiency_local_routed": "0.10982823120064572"
    },
    {
        "length": "36851.71899999999",
        "length_lcc": "36851.71899999999",
        "coverage": "24.73001214521482",
        "directness": "0.6756712635051604",
        "directness_lcc": "0.6756712635051604",
        "poi_coverage": "14",
        "components": "1",
        "overlap_biketrack": "345.74600000000004",
        "overlap_bikeable": "11704.607999999998",
        "efficiency_global": "0.3269866048421239",
        "efficiency_local": "0.23181198165083217",
        "efficiency_global_routed": "0.7851217083343858",
        "efficiency_local_routed": "0.09293158024670022"
    },
    {
        "length": "36851.71899999999",
        "length_lcc": "36851.71899999999",
        "coverage": "24.73001214521482",
        "directness": "0.6810176161562145",
        "directness_lcc": "0.6810176161562145",
        "poi_coverage": "14",
        "components": "1",
        "overlap_biketrack": "345.74600000000004",
        "overlap_bikeable": "11704.607999999998",
        "efficiency_global": "0.33234866437240196",
        "efficiency_local": "0.2124943165132628",
        "efficiency_global_routed": "0.7851217083343858",
        "efficiency_local_routed": "0.09293158024670022"
    },
    {
        "length": "36851.71899999999",
        "length_lcc": "36851.71899999999",
        "coverage": "24.73001214521482",
        "directness": "0.6863327560647293",
        "directness_lcc": "0.6863327560647293",
        "poi_coverage": "14",
        "components": "1",
        "overlap_biketrack": "345.74600000000004",
        "overlap_bikeable": "11704.607999999998",
        "efficiency_global": "0.33234866437240196",
        "efficiency_local": "0.2124943165132628",
        "efficiency_global_routed": "0.7851217083343858",
        "efficiency_local_routed": "0.09293158024670022"
    },
    {
        "length": "36851.71899999999",
        "length_lcc": "36851.71899999999",
        "coverage": "24.73001214521482",
        "directness": "0.6859252797531734",
        "directness_lcc": "0.6859252797531734",
        "poi_coverage": "14",
        "components": "1",
        "overlap_biketrack": "345.74600000000004",
        "overlap_bikeable": "11704.607999999998",
        "efficiency_global": "0.3444362953517988",
        "efficiency_local": "0.21887424440183567",
        "efficiency_global_routed": "0.7851217083343858",
        "efficiency_local_routed": "0.09293158024670022"
    },
    {
        "length": "47982.185999999994",
        "length_lcc": "47982.185999999994",
        "coverage": "28.088040279846",
        "directness": "0.6701598786287004",
        "directness_lcc": "0.6701598786287004",
        "poi_coverage": "14",
        "components": "1",
        "overlap_biketrack": "345.74600000000004",
        "overlap_bikeable": "12431.612",
        "efficiency_global": "0.34506206985560534",
        "efficiency_local": "0.20203776406323293",
        "efficiency_global_routed": "0.8176643404586376",
        "efficiency_local_routed": "0.15727063585686052"
    },
    {
        "length": "48016.92399999999",
        "length_lcc": "48016.92399999999",
        "coverage": "28.088040279404378",
        "directness": "0.6757864472630533",
        "directness_lcc": "0.6757864472630533",
        "poi_coverage": "14",
        "components": "1",
        "overlap_biketrack": "345.74600000000004",
        "overlap_bikeable": "12431.612",
        "efficiency_global": "0.34937978413135046",
        "efficiency_local": "0.23684984327714367",
        "efficiency_global_routed": "0.820191837271365",
        "efficiency_local_routed": "0.20691391708239548"
    },
    {
        "length": "48383.18299999998",
        "length_lcc": "48383.18299999998",
        "coverage": "28.08804027999511",
        "directness": "0.6836536037121304",
        "directness_lcc": "0.6836536037121304",
        "poi_coverage": "14",
        "components": "1",
        "overlap_biketrack": "345.74600000000004",
        "overlap_bikeable": "12431.612",
        "efficiency_global": "0.36041432843028065",
        "efficiency_local": "0.2770900612961048",
        "efficiency_global_routed": "0.817930031200289",
        "efficiency_local_routed": "0.19572938102388762"
    },
    {
        "length": "48383.18299999998",
        "length_lcc": "48383.18299999998",
        "coverage": "28.08804027999511",
        "directness": "0.6796622630410586",
        "directness_lcc": "0.6796622630410586",
        "poi_coverage": "14",
        "components": "1",
        "overlap_biketrack": "345.74600000000004",
        "overlap_bikeable": "12431.612",
        "efficiency_global": "0.36302707190336164",
        "efficiency_local": "0.2709447514276788",
        "efficiency_global_routed": "0.817930031200289",
        "efficiency_local_routed": "0.19572938102388762"
    },
    {
        "length": "48383.18299999998",
        "length_lcc": "48383.18299999998",
        "coverage": "28.08804027999511",
        "directness": "0.6803164004875842",
        "directness_lcc": "0.6803164004875842",
        "poi_coverage": "14",
        "components": "1",
        "overlap_biketrack": "345.74600000000004",
        "overlap_bikeable": "12431.612",
        "efficiency_global": "0.36302707190336164",
        "efficiency_local": "0.2709447514276788",
        "efficiency_global_routed": "0.817930031200289",
        "efficiency_local_routed": "0.19572938102388762"
    },
    {
        "length": "49096.402999999955",
        "length_lcc": "49096.402999999955",
        "coverage": "28.088040278868156",
        "directness": "0.6896152997389662",
        "directness_lcc": "0.6896152997389662",
        "poi_coverage": "14",
        "components": "1",
        "overlap_biketrack": "345.74600000000004",
        "overlap_bikeable": "12530.011000000004",
        "efficiency_global": "0.3674214231831159",
        "efficiency_local": "0.37185569799036694",
        "efficiency_global_routed": "0.827946241517114",
        "efficiency_local_routed": "0.19573209006643286"
    },
    {
        "length": "49096.402999999955",
        "length_lcc": "49096.402999999955",
        "coverage": "28.088040278868156",
        "directness": "0.7022522663958913",
        "directness_lcc": "0.7022522663958913",
        "poi_coverage": "14",
        "components": "1",
        "overlap_biketrack": "345.74600000000004",
        "overlap_bikeable": "12530.011000000004",
        "efficiency_global": "0.38647044628220273",
        "efficiency_local": "0.4022422884618998",
        "efficiency_global_routed": "0.827946241517114",
        "efficiency_local_routed": "0.19573209006643286"
    },
    {
        "length": "49096.402999999955",
        "length_lcc": "49096.402999999955",
        "coverage": "28.088040278868156",
        "directness": "0.698959728308209",
        "directness_lcc": "0.698959728308209",
        "poi_coverage": "14",
        "components": "1",
        "overlap_biketrack": "345.74600000000004",
        "overlap_bikeable": "12530.011000000004",
        "efficiency_global": "0.3921620286729999",
        "efficiency_local": "0.4668474006711219",
        "efficiency_global_routed": "0.827946241517114",
        "efficiency_local_routed": "0.19573209006643286"
    },
    {
        "length": "49096.402999999955",
        "length_lcc": "49096.402999999955",
        "coverage": "28.088040278868156",
        "directness": "0.67645050949779",
        "directness_lcc": "0.67645050949779",
        "poi_coverage": "14",
        "components": "1",
        "overlap_biketrack": "345.74600000000004",
        "overlap_bikeable": "12530.011000000004",
        "efficiency_global": "0.3970187804989715",
        "efficiency_local": "0.48012155598979595",
        "efficiency_global_routed": "0.827946241517114",
        "efficiency_local_routed": "0.19573209006643286"
    },
    {
        "length": "49896.69499999995",
        "length_lcc": "49896.69499999995",
        "coverage": "28.088040277446467",
        "directness": "0.6795382634783841",
        "directness_lcc": "0.6795382634783841",
        "poi_coverage": "14",
        "components": "1",
        "overlap_biketrack": "345.74600000000004",
        "overlap_bikeable": "13303.829999999998",
        "efficiency_global": "0.4035040855620246",
        "efficiency_local": "0.4981125970706691",
        "efficiency_global_routed": "0.8269043159595528",
        "efficiency_local_routed": "0.21208146674429762"
    },
    {
        "length": "49896.69499999995",
        "length_lcc": "49896.69499999995",
        "coverage": "28.088040277446467",
        "directness": "0.6785509859581261",
        "directness_lcc": "0.6785509859581261",
        "poi_coverage": "14",
        "components": "1",
        "overlap_biketrack": "345.74600000000004",
        "overlap_bikeable": "13303.829999999998",
        "efficiency_global": "0.4035040855620246",
        "efficiency_local": "0.4981125970706691",
        "efficiency_global_routed": "0.8269043159595528",
        "efficiency_local_routed": "0.21208146674429762"
    },
    {
        "length": "49896.69499999995",
        "length_lcc": "49896.69499999995",
        "coverage": "28.088040277446467",
        "directness": "0.6810939548594227",
        "directness_lcc": "0.6810939548594227",
        "poi_coverage": "14",
        "components": "1",
        "overlap_biketrack": "345.74600000000004",
        "overlap_bikeable": "13303.829999999998",
        "efficiency_global": "0.4156133009028009",
        "efficiency_local": "0.515557379952792",
        "efficiency_global_routed": "0.8269043159595528",
        "efficiency_local_routed": "0.21208146674429762"
    },
    {
        "length": "50082.63299999994",
        "length_lcc": "50082.63299999994",
        "coverage": "28.08804027729959",
        "directness": "0.6883884538220767",
        "directness_lcc": "0.6883884538220767",
        "poi_coverage": "14",
        "components": "1",
        "overlap_biketrack": "345.74600000000004",
        "overlap_bikeable": "13489.767999999996",
        "efficiency_global": "0.41979549887111445",
        "efficiency_local": "0.5683679207441422",
        "efficiency_global_routed": "0.8263779782806264",
        "efficiency_local_routed": "0.20244140007410227"
    },
    {
        "length": "50082.63299999994",
        "length_lcc": "50082.63299999994",
        "coverage": "28.08804027729959",
        "directness": "0.6921146751613346",
        "directness_lcc": "0.6921146751613346",
        "poi_coverage": "14",
        "components": "1",
        "overlap_biketrack": "345.74600000000004",
        "overlap_bikeable": "13489.767999999996",
        "efficiency_global": "0.4216432909015468",
        "efficiency_local": "0.577620766714977",
        "efficiency_global_routed": "0.8263779782806264",
        "efficiency_local_routed": "0.20244140007410227"
    },
    {
        "length": "50279.05899999995",
        "length_lcc": "50279.05899999995",
        "coverage": "28.088040277219232",
        "directness": "0.6960445069402159",
        "directness_lcc": "0.6960445069402159",
        "poi_coverage": "14",
        "components": "1",
        "overlap_biketrack": "345.74600000000004",
        "overlap_bikeable": "13686.193999999994",
        "efficiency_global": "0.4460354225146506",
        "efficiency_local": "0.5767919182358019",
        "efficiency_global_routed": "0.8233776169767331",
        "efficiency_local_routed": "0.22254533489190506"
    },
    {
        "length": "50790.23299999995",
        "length_lcc": "50790.23299999995",
        "coverage": "28.088040278268526",
        "directness": "0.6815187472331291",
        "directness_lcc": "0.6815187472331291",
        "poi_coverage": "14",
        "components": "1",
        "overlap_biketrack": "345.74600000000004",
        "overlap_bikeable": "13984.643999999997",
        "efficiency_global": "0.45647698836769335",
        "efficiency_local": "0.5486095371506501",
        "efficiency_global_routed": "0.8169437735667147",
        "efficiency_local_routed": "0.21327261260474237"
    }
]