[
    {
        "length": "27699.867000000006",
        "length_lcc": "6824.768999999999",
        "coverage": "30.754660701057514",
        "directness": "0.7644164157295281",
        "directness_lcc": "0.7947796812702616",
        "poi_coverage": "26",
        "components": "7",
        "overlap_biketrack": "0",
        "overlap_bikeable": "262.095",
        "efficiency_global": "0.1801972552514171",
        "efficiency_local": "0.0",
        "efficiency_global_routed": "0.246712535264522",
        "efficiency_local_routed": "0.0"
    },
    {
        "length": "70202.4359999998",
        "length_lcc": "14884.206000000007",
        "coverage": "73.95167667518345",
        "directness": "0.7910169915983121",
        "directness_lcc": "0.8086321735686116",
        "poi_coverage": "49",
        "components": "13",
        "overlap_biketrack": "0",
        "overlap_bikeable": "383.32800000000003",
        "efficiency_global": "0.12327608112109929",
        "efficiency_local": "0.0",
        "efficiency_global_routed": "0.26542073827620655",
        "efficiency_local_routed": "0.0"
    },
    {
        "length": "93738.3900000001",
        "length_lcc": "14884.206000000007",
        "coverage": "97.03126796404425",
        "directness": "0.7732531683818022",
        "directness_lcc": "0.8067755937324224",
        "poi_coverage": "62",
        "components": "17",
        "overlap_biketrack": "0",
        "overlap_bikeable": "1352.464",
        "efficiency_global": "0.10994852869889939",
        "efficiency_local": "0.0",
        "efficiency_global_routed": "0.21971923534784846",
        "efficiency_local_routed": "0.0"
    },
    {
        "length": "136692.27600000027",
        "length_lcc": "34592.67600000001",
        "coverage": "131.27170694153153",
        "directness": "0.7096806741879204",
        "directness_lcc": "0.6803634967000624",
        "poi_coverage": "72",
        "components": "17",
        "overlap_biketrack": "0",
        "overlap_bikeable": "1352.464",
        "efficiency_global": "0.12028281364222745",
        "efficiency_local": "0.0",
        "efficiency_global_routed": "0.22507572785360763",
        "efficiency_local_routed": "0.0"
    },
    {
        "length": "152550.50400000042",
        "length_lcc": "45392.217",
        "coverage": "143.23178258731247",
        "directness": "0.6668385732682685",
        "directness_lcc": "0.6519527549424666",
        "poi_coverage": "79",
        "components": "18",
        "overlap_biketrack": "281.384",
        "overlap_bikeable": "3035.7670000000003",
        "efficiency_global": "0.19271714730583142",
        "efficiency_local": "0.06811878867752139",
        "efficiency_global_routed": "0.24556937190283376",
        "efficiency_local_routed": "0.040458823568353654"
    },
    {
        "length": "172266.54200000028",
        "length_lcc": "76553.48500000004",
        "coverage": "157.97729253871836",
        "directness": "0.5366470887429398",
        "directness_lcc": "0.5174639181180067",
        "poi_coverage": "88",
        "components": "17",
        "overlap_biketrack": "281.384",
        "overlap_bikeable": "3480.344000000001",
        "efficiency_global": "0.19645495997004234",
        "efficiency_local": "0.05676565723126783",
        "efficiency_global_routed": "0.6937254195190968",
        "efficiency_local_routed": "0.05480623086894993"
    },
    {
        "length": "192793.2180000007",
        "length_lcc": "87775.7060000001",
        "coverage": "173.8452493039631",
        "directness": "0.5360259035819617",
        "directness_lcc": "0.5141960209057809",
        "poi_coverage": "96",
        "components": "16",
        "overlap_biketrack": "351.791",
        "overlap_bikeable": "4330.7649999999985",
        "efficiency_global": "0.19494278825880298",
        "efficiency_local": "0.12207332945273895",
        "efficiency_global_routed": "0.6737764797133028",
        "efficiency_local_routed": "0.10070505188431175"
    },
    {
        "length": "228004.5430000008",
        "length_lcc": "99180.12600000018",
        "coverage": "200.0160673345987",
        "directness": "0.5502016803836409",
        "directness_lcc": "0.52769662331759",
        "poi_coverage": "99",
        "components": "14",
        "overlap_biketrack": "823.5469999999998",
        "overlap_bikeable": "4985.845999999999",
        "efficiency_global": "0.2110605476837657",
        "efficiency_local": "0.11902440804885447",
        "efficiency_global_routed": "0.6637170574992672",
        "efficiency_local_routed": "0.12311752328258488"
    },
    {
        "length": "289010.6349999997",
        "length_lcc": "195644.80100000018",
        "coverage": "247.340782225558",
        "directness": "0.458530282106882",
        "directness_lcc": "0.43608661179254804",
        "poi_coverage": "106",
        "components": "10",
        "overlap_biketrack": "1222.3370000000004",
        "overlap_bikeable": "5473.762000000001",
        "efficiency_global": "0.22672692950191983",
        "efficiency_local": "0.09918700670737873",
        "efficiency_global_routed": "0.6769735204223644",
        "efficiency_local_routed": "0.14201254016101372"
    },
    {
        "length": "305546.7750000001",
        "length_lcc": "208305.56800000003",
        "coverage": "257.5159615834535",
        "directness": "0.4219951453901711",
        "directness_lcc": "0.46021467013100814",
        "poi_coverage": "110",
        "components": "11",
        "overlap_biketrack": "1222.3370000000004",
        "overlap_bikeable": "5991.515000000002",
        "efficiency_global": "0.22875991593410744",
        "efficiency_local": "0.154376875631727",
        "efficiency_global_routed": "0.7208049712816649",
        "efficiency_local_routed": "0.1772001627203779"
    },
    {
        "length": "330263.2389999996",
        "length_lcc": "218609.834",
        "coverage": "268.6477651229471",
        "directness": "0.4233184193230259",
        "directness_lcc": "0.44307916956257326",
        "poi_coverage": "112",
        "components": "8",
        "overlap_biketrack": "1222.3370000000004",
        "overlap_bikeable": "5991.515000000002",
        "efficiency_global": "0.22138443955805187",
        "efficiency_local": "0.12544221749376738",
        "efficiency_global_routed": "0.7745232657797534",
        "efficiency_local_routed": "0.1606988141694699"
    },
    {
        "length": "339043.41699999967",
        "length_lcc": "245419.59800000003",
        "coverage": "272.55950653027554",
        "directness": "0.39901189187915764",
        "directness_lcc": "0.3858289640785045",
        "poi_coverage": "115",
        "components": "7",
        "overlap_biketrack": "1222.3370000000004",
        "overlap_bikeable": "6676.924000000002",
        "efficiency_global": "0.25663910320077404",
        "efficiency_local": "0.12729173206501582",
        "efficiency_global_routed": "0.7625717447487493",
        "efficiency_local_routed": "0.16619574654354874"
    },
    {
        "length": "373943.71099999984",
        "length_lcc": "330590.35700000013",
        "coverage": "293.2989091014424",
        "directness": "0.42430694090515275",
        "directness_lcc": "0.4302278562194528",
        "poi_coverage": "115",
        "components": "5",
        "overlap_biketrack": "1222.3370000000004",
        "overlap_bikeable": "7076.282000000001",
        "efficiency_global": "0.3007774846747958",
        "efficiency_local": "0.1180676935095799",
        "efficiency_global_routed": "0.7836988420867735",
        "efficiency_local_routed": "0.14558474635360205"
    },
    {
        "length": "392170.28799999936",
        "length_lcc": "387045.02799999923",
        "coverage": "298.4803042243607",
        "directness": "0.43292955794488525",
        "directness_lcc": "0.4372140328962565",
        "poi_coverage": "117",
        "components": "2",
        "overlap_biketrack": "1222.3370000000004",
        "overlap_bikeable": "7076.282000000001",
        "efficiency_global": "0.34307155775751424",
        "efficiency_local": "0.0998166370106761",
        "efficiency_global_routed": "0.8043090700711443",
        "efficiency_local_routed": "0.17489555461231052"
    },
    {
        "length": "413764.5439999997",
        "length_lcc": "408639.2839999994",
        "coverage": "309.18036307925223",
        "directness": "0.5123301586818708",
        "directness_lcc": "0.5122257729137271",
        "poi_coverage": "119",
        "components": "2",
        "overlap_biketrack": "1222.3370000000004",
        "overlap_bikeable": "7192.059000000001",
        "efficiency_global": "0.43010856803559133",
        "efficiency_local": "0.14553500014247547",
        "efficiency_global_routed": "0.8066194003851143",
        "efficiency_local_routed": "0.1860773027738048"
    },
    {
        "length": "438881.79599999834",
        "length_lcc": "438881.79599999834",
        "coverage": "319.0367426664385",
        "directness": "0.523004330352661",
        "directness_lcc": "0.523004330352661",
        "poi_coverage": "119",
        "components": "1",
        "overlap_biketrack": "1222.3370000000004",
        "overlap_bikeable": "7919.974000000002",
        "efficiency_global": "0.46455394825450885",
        "efficiency_local": "0.1407283776782566",
        "efficiency_global_routed": "0.8118834415710035",
        "efficiency_local_routed": "0.17020707837960178"
    },
    {
        "length": "479645.6459999973",
        "length_lcc": "479645.6459999973",
        "coverage": "345.04990304515087",
        "directness": "0.6093985889444427",
        "directness_lcc": "0.6093985889444427",
        "poi_coverage": "119",
        "components": "1",
        "overlap_biketrack": "1222.3370000000004",
        "overlap_bikeable": "8105.197000000001",
        "efficiency_global": "0.4909581957885295",
        "efficiency_local": "0.1926387485876884",
        "efficiency_global_routed": "0.8206670699451647",
        "efficiency_local_routed": "0.1826823988367066"
    },
    {
        "length": "485228.0949999976",
        "length_lcc": "485228.0949999976",
        "coverage": "345.08976745695094",
        "directness": "0.6323449668373767",
        "directness_lcc": "0.6323449668373767",
        "poi_coverage": "119",
        "components": "1",
        "overlap_biketrack": "1222.3370000000004",
        "overlap_bikeable": "8105.197000000001",
        "efficiency_global": "0.5104321981294972",
        "efficiency_local": "0.21147976395911686",
        "efficiency_global_routed": "0.8306134837547062",
        "efficiency_local_routed": "0.1752633986125319"
    },
    {
        "length": "525050.7199999967",
        "length_lcc": "525050.7199999967",
        "coverage": "369.1763744649596",
        "directness": "0.6530389870035462",
        "directness_lcc": "0.6530389870035462",
        "poi_coverage": "119",
        "components": "1",
        "overlap_biketrack": "1267.6070000000004",
        "overlap_bikeable": "9459.437999999996",
        "efficiency_global": "0.5454631280361218",
        "efficiency_local": "0.20284847591845936",
        "efficiency_global_routed": "0.8379664163802358",
        "efficiency_local_routed": "0.18496734248625624"
    },
    {
        "length": "549825.506999998",
        "length_lcc": "549825.506999998",
        "coverage": "382.29458625062097",
        "directness": "0.6579770637749044",
        "directness_lcc": "0.6579770637749044",
        "poi_coverage": "121",
        "components": "1",
        "overlap_biketrack": "1267.6070000000004",
        "overlap_bikeable": "9459.437999999996",
        "efficiency_global": "0.5739430606247986",
        "efficiency_local": "0.21291849238952149",
        "efficiency_global_routed": "0.8368868564781314",
        "efficiency_local_routed": "0.19741773079022035"
    },
    {
        "length": "571275.8049999992",
        "length_lcc": "571275.8049999992",
        "coverage": "390.1131954005377",
        "directness": "0.6749922369183659",
        "directness_lcc": "0.6749922369183659",
        "poi_coverage": "121",
        "components": "1",
        "overlap_biketrack": "1267.6070000000004",
        "overlap_bikeable": "9590.066999999995",
        "efficiency_global": "0.5894941400150278",
        "efficiency_local": "0.22157528887117173",
        "efficiency_global_routed": "0.8443244131884593",
        "efficiency_local_routed": "0.18702411274015504"
    },
    {
        "length": "588032.4309999995",
        "length_lcc": "588032.4309999995",
        "coverage": "396.1481356631992",
        "directness": "0.7003913972995539",
        "directness_lcc": "0.7003913972995539",
        "poi_coverage": "121",
        "components": "1",
        "overlap_biketrack": "1267.6070000000004",
        "overlap_bikeable": "9590.066999999995",
        "efficiency_global": "0.5965543919653011",
        "efficiency_local": "0.23549279310561025",
        "efficiency_global_routed": "0.8452031188274067",
        "efficiency_local_routed": "0.17631630268247928"
    },
    {
        "length": "602413.5350000003",
        "length_lcc": "602413.5350000003",
        "coverage": "402.5702001306863",
        "directness": "0.7122120208362142",
        "directness_lcc": "0.7122120208362142",
        "poi_coverage": "121",
        "components": "1",
        "overlap_biketrack": "1267.6070000000004",
        "overlap_bikeable": "10006.674999999994",
        "efficiency_global": "0.6060649903437875",
        "efficiency_local": "0.27119147336348426",
        "efficiency_global_routed": "0.85088467202832",
        "efficiency_local_routed": "0.17603828352793438"
    },
    {
        "length": "614194.4559999999",
        "length_lcc": "614194.4559999999",
        "coverage": "406.7041392781325",
        "directness": "0.7097288160978882",
        "directness_lcc": "0.7097288160978882",
        "poi_coverage": "121",
        "components": "1",
        "overlap_biketrack": "1267.6070000000004",
        "overlap_bikeable": "10006.674999999994",
        "efficiency_global": "0.6187840106990049",
        "efficiency_local": "0.3132017344688482",
        "efficiency_global_routed": "0.8548313191670236",
        "efficiency_local_routed": "0.1703102032718679"
    },
    {
        "length": "643294.9100000015",
        "length_lcc": "643294.9100000015",
        "coverage": "419.663804547295",
        "directness": "0.7190060568822162",
        "directness_lcc": "0.7190060568822162",
        "poi_coverage": "121",
        "components": "1",
        "overlap_biketrack": "1267.6070000000004",
        "overlap_bikeable": "11748.33099999999",
        "efficiency_global": "0.6284364042836702",
        "efficiency_local": "0.34310703000238413",
        "efficiency_global_routed": "0.8525830204963508",
        "efficiency_local_routed": "0.18214539821939868"
    },
    {
        "length": "653615.9480000016",
        "length_lcc": "653615.9480000016",
        "coverage": "421.0255361631986",
        "directness": "0.7222420069422494",
        "directness_lcc": "0.7222420069422494",
        "poi_coverage": "121",
        "components": "1",
        "overlap_biketrack": "1267.6070000000004",
        "overlap_bikeable": "11748.33099999999",
        "efficiency_global": "0.6442447273839729",
        "efficiency_local": "0.39006447888534906",
        "efficiency_global_routed": "0.850750898762485",
        "efficiency_local_routed": "0.19288195316847795"
    },
    {
        "length": "668310.1860000028",
        "length_lcc": "668310.1860000028",
        "coverage": "425.4046011567822",
        "directness": "0.7194982008150796",
        "directness_lcc": "0.7194982008150796",
        "poi_coverage": "121",
        "components": "1",
        "overlap_biketrack": "1267.6070000000004",
        "overlap_bikeable": "12406.499999999993",
        "efficiency_global": "0.6543754767829267",
        "efficiency_local": "0.4091304703159554",
        "efficiency_global_routed": "0.8499653843303266",
        "efficiency_local_routed": "0.20085691231534605"
    },
    {
        "length": "681380.6500000037",
        "length_lcc": "681380.6500000037",
        "coverage": "429.91494934434604",
        "directness": "0.7263043301116129",
        "directness_lcc": "0.7263043301116129",
        "poi_coverage": "121",
        "components": "1",
        "overlap_biketrack": "1267.6070000000004",
        "overlap_bikeable": "12511.440999999993",
        "efficiency_global": "0.6748714262977665",
        "efficiency_local": "0.4122038451875544",
        "efficiency_global_routed": "0.8505227667112891",
        "efficiency_local_routed": "0.19247242709141724"
    },
    {
        "length": "695418.4450000051",
        "length_lcc": "695418.4450000051",
        "coverage": "434.38415370539377",
        "directness": "0.7421867591672636",
        "directness_lcc": "0.7421867591672636",
        "poi_coverage": "121",
        "components": "1",
        "overlap_biketrack": "1267.6070000000004",
        "overlap_bikeable": "12511.440999999993",
        "efficiency_global": "0.6933960663660007",
        "efficiency_local": "0.42553521180278137",
        "efficiency_global_routed": "0.8528348451849729",
        "efficiency_local_routed": "0.18634321761576994"
    },
    {
        "length": "707141.0610000066",
        "length_lcc": "707141.0610000066",
        "coverage": "437.5560886395754",
        "directness": "0.7377168769112923",
        "directness_lcc": "0.7377168769112923",
        "poi_coverage": "121",
        "components": "1",
        "overlap_biketrack": "1267.6070000000004",
        "overlap_bikeable": "12996.673999999995",
        "efficiency_global": "0.7031908632151976",
        "efficiency_local": "0.4482938927204912",
        "efficiency_global_routed": "0.8534830150643478",
        "efficiency_local_routed": "0.179438266298314"
    },
    {
        "length": "714661.2600000063",
        "length_lcc": "714661.2600000063",
        "coverage": "438.4184405085228",
        "directness": "0.7441030241007959",
        "directness_lcc": "0.7441030241007959",
        "poi_coverage": "121",
        "components": "1",
        "overlap_biketrack": "1364.457",
        "overlap_bikeable": "13093.523999999994",
        "efficiency_global": "0.7196661405472876",
        "efficiency_local": "0.4595571069521577",
        "efficiency_global_routed": "0.8545938157710442",
        "efficiency_local_routed": "0.18200395404675196"
    },
    {
        "length": "719489.0540000056",
        "length_lcc": "719489.0540000056",
        "coverage": "438.5492445634611",
        "directness": "0.736599140143828",
        "directness_lcc": "0.736599140143828",
        "poi_coverage": "121",
        "components": "1",
        "overlap_biketrack": "1364.457",
        "overlap_bikeable": "13093.523999999994",
        "efficiency_global": "0.7440114650821293",
        "efficiency_local": "0.5112385214315899",
        "efficiency_global_routed": "0.854572674195802",
        "efficiency_local_routed": "0.1772409739216653"
    },
    {
        "length": "727786.1150000063",
        "length_lcc": "727786.1150000063",
        "coverage": "441.7413437916047",
        "directness": "0.7418395235689668",
        "directness_lcc": "0.7418395235689668",
        "poi_coverage": "121",
        "components": "1",
        "overlap_biketrack": "1364.457",
        "overlap_bikeable": "13093.523999999994",
        "efficiency_global": "0.7530036826310021",
        "efficiency_local": "0.5410383527241979",
        "efficiency_global_routed": "0.8591352110972743",
        "efficiency_local_routed": "0.18806466845806108"
    },
    {
        "length": "742364.5380000056",
        "length_lcc": "742364.5380000056",
        "coverage": "445.292541327493",
        "directness": "0.7436403594682466",
        "directness_lcc": "0.7436403594682466",
        "poi_coverage": "121",
        "components": "1",
        "overlap_biketrack": "1364.457",
        "overlap_bikeable": "13498.832999999997",
        "efficiency_global": "0.7608530779811384",
        "efficiency_local": "0.5695961881384172",
        "efficiency_global_routed": "0.8618720310196663",
        "efficiency_local_routed": "0.1838104938857934"
    },
    {
        "length": "753411.1470000055",
        "length_lcc": "753411.1470000055",
        "coverage": "446.48001809476744",
        "directness": "0.748703897479727",
        "directness_lcc": "0.748703897479727",
        "poi_coverage": "121",
        "components": "1",
        "overlap_biketrack": "1364.457",
        "overlap_bikeable": "13498.832999999997",
        "efficiency_global": "0.7670186264249184",
        "efficiency_local": "0.6157472669521198",
        "efficiency_global_routed": "0.8591507833036022",
        "efficiency_local_routed": "0.19192697435493228"
    },
    {
        "length": "771903.5780000059",
        "length_lcc": "771903.5780000059",
        "coverage": "450.4440000504079",
        "directness": "0.7500165258842392",
        "directness_lcc": "0.7500165258842392",
        "poi_coverage": "121",
        "components": "1",
        "overlap_biketrack": "1364.457",
        "overlap_bikeable": "14793.154999999997",
        "efficiency_global": "0.7818325040684763",
        "efficiency_local": "0.6496835647089834",
        "efficiency_global_routed": "0.8561745908272964",
        "efficiency_local_routed": "0.18956508063688274"
    },
    {
        "length": "782226.0850000064",
        "length_lcc": "782226.0850000064",
        "coverage": "452.7063095879067",
        "directness": "0.7534723260320039",
        "directness_lcc": "0.7534723260320039",
        "poi_coverage": "121",
        "components": "1",
        "overlap_biketrack": "1364.457",
        "overlap_bikeable": "14793.154999999997",
        "efficiency_global": "0.7929164000674559",
        "efficiency_local": "0.6845942940778758",
        "efficiency_global_routed": "0.8567000077277435",
        "efficiency_local_routed": "0.17069352167137256"
    },
    {
        "length": "800761.8280000065",
        "length_lcc": "800761.8280000065",
        "coverage": "461.3834804178482",
        "directness": "0.751609692796821",
        "directness_lcc": "0.751609692796821",
        "poi_coverage": "121",
        "components": "1",
        "overlap_biketrack": "1364.457",
        "overlap_bikeable": "15383.702000000001",
        "efficiency_global": "0.7940315739453011",
        "efficiency_local": "0.7099935752886642",
        "efficiency_global_routed": "0.8512504091803994",
        "efficiency_local_routed": "0.183094380103057"
    },
    {
        "length": "820982.1130000064",
        "length_lcc": "820982.1130000064",
        "coverage": "468.09220255345394",
        "directness": "0.7605496220404139",
        "directness_lcc": "0.7605496220404139",
        "poi_coverage": "121",
        "components": "1",
        "overlap_biketrack": "1364.457",
        "overlap_bikeable": "15383.702000000001",
        "efficiency_global": "0.7981750554810384",
        "efficiency_local": "0.7269054336542936",
        "efficiency_global_routed": "0.8552201851601561",
        "efficiency_local_routed": "0.1783193935686559"
    },
    {
        "length": "826412.1680000059",
        "length_lcc": "826412.1680000059",
        "coverage": "468.1584995079202",
        "directness": "0.7592749290217199",
        "directness_lcc": "0.7592749290217199",
        "poi_coverage": "121",
        "components": "1",
        "overlap_biketrack": "1364.457",
        "overlap_bikeable": "15383.702000000001",
        "efficiency_global": "0.802949278822557",
        "efficiency_local": "0.7618051349323661",
        "efficiency_global_routed": "0.8588313015665611",
        "efficiency_local_routed": "0.18577423940287224"
    }
]