[
    {
        "length": "90461.00100000013",
        "length_lcc": "61714.78400000001",
        "coverage": "88.30205325213423",
        "directness": "0.8445406305147182",
        "directness_lcc": "0.8467364611416256",
        "poi_coverage": "41",
        "components": "4",
        "overlap_biketrack": "0",
        "overlap_bikeable": "556.0659999999999",
        "efficiency_global": "0.4234765242403168",
        "efficiency_local": "0.0",
        "efficiency_global_routed": "0.8025489187644947",
        "efficiency_local_routed": "0.21778045188934583"
    },
    {
        "length": "187014.898",
        "length_lcc": "164948.9950000001",
        "coverage": "175.95766675109383",
        "directness": "0.5796309227821164",
        "directness_lcc": "0.5730720037400323",
        "poi_coverage": "76",
        "components": "4",
        "overlap_biketrack": "0",
        "overlap_bikeable": "556.066",
        "efficiency_global": "0.45513963955677345",
        "efficiency_local": "0.0",
        "efficiency_global_routed": "0.7788340311495704",
        "efficiency_local_routed": "0.10862245144146054"
    },
    {
        "length": "282876.53999999905",
        "length_lcc": "266612.3219999994",
        "coverage": "251.07025902342914",
        "directness": "0.6674902815472132",
        "directness_lcc": "0.660529411081155",
        "poi_coverage": "105",
        "components": "4",
        "overlap_biketrack": "0",
        "overlap_bikeable": "556.066",
        "efficiency_global": "0.49054899225448423",
        "efficiency_local": "0.011408762130514536",
        "efficiency_global_routed": "0.7926441512318173",
        "efficiency_local_routed": "0.06986934762984805"
    },
    {
        "length": "409040.78899999906",
        "length_lcc": "409040.78899999906",
        "coverage": "357.03879184234154",
        "directness": "0.686253988667577",
        "directness_lcc": "0.686253988667577",
        "poi_coverage": "135",
        "components": "1",
        "overlap_biketrack": "0",
        "overlap_bikeable": "556.066",
        "efficiency_global": "0.5824852379415205",
        "efficiency_local": "0.04277347027084407",
        "efficiency_global_routed": "0.8215104342383726",
        "efficiency_local_routed": "0.09223863845941957"
    },
    {
        "length": "486764.2779999979",
        "length_lcc": "483333.70999999746",
        "coverage": "405.3257598042092",
        "directness": "0.7345603477825434",
        "directness_lcc": "0.7387661511912874",
        "poi_coverage": "156",
        "components": "2",
        "overlap_biketrack": "0",
        "overlap_bikeable": "835.1949999999999",
        "efficiency_global": "0.5996620277341349",
        "efficiency_local": "0.08174916580958214",
        "efficiency_global_routed": "0.8364967034090116",
        "efficiency_local_routed": "0.13563321980001578"
    },
    {
        "length": "580903.529",
        "length_lcc": "577930.7699999996",
        "coverage": "484.8068141237378",
        "directness": "0.7267556895411329",
        "directness_lcc": "0.7268627827394796",
        "poi_coverage": "184",
        "components": "2",
        "overlap_biketrack": "0",
        "overlap_bikeable": "835.1949999999999",
        "efficiency_global": "0.5837431891868216",
        "efficiency_local": "0.0895465644989901",
        "efficiency_global_routed": "0.8224335408924299",
        "efficiency_local_routed": "0.19222544273963066"
    },
    {
        "length": "685820.0509999997",
        "length_lcc": "678340.2249999988",
        "coverage": "559.9150250071606",
        "directness": "0.7313496373638121",
        "directness_lcc": "0.7344737810940303",
        "poi_coverage": "211",
        "components": "2",
        "overlap_biketrack": "0",
        "overlap_bikeable": "835.1949999999999",
        "efficiency_global": "0.5833891935196417",
        "efficiency_local": "0.09275805205873522",
        "efficiency_global_routed": "0.8230563124267708",
        "efficiency_local_routed": "0.16233301396993768"
    },
    {
        "length": "759558.5109999976",
        "length_lcc": "759558.5109999976",
        "coverage": "615.4180438144313",
        "directness": "0.7260824672835773",
        "directness_lcc": "0.7260824672835773",
        "poi_coverage": "228",
        "components": "1",
        "overlap_biketrack": "0",
        "overlap_bikeable": "835.1949999999999",
        "efficiency_global": "0.5906781549230427",
        "efficiency_local": "0.10620887518854215",
        "efficiency_global_routed": "0.8163710727829653",
        "efficiency_local_routed": "0.15035117499856954"
    },
    {
        "length": "839312.4409999993",
        "length_lcc": "839312.4409999993",
        "coverage": "671.8977084354922",
        "directness": "0.7274159281902536",
        "directness_lcc": "0.7274159281902536",
        "poi_coverage": "248",
        "components": "1",
        "overlap_biketrack": "0",
        "overlap_bikeable": "963.917",
        "efficiency_global": "0.6004872121456492",
        "efficiency_local": "0.10156843192470703",
        "efficiency_global_routed": "0.8035369585678502",
        "efficiency_local_routed": "0.15277145917428425"
    },
    {
        "length": "904983.5929999991",
        "length_lcc": "900770.9359999993",
        "coverage": "715.3699664783954",
        "directness": "0.7315582785919308",
        "directness_lcc": "0.728931367054262",
        "poi_coverage": "264",
        "components": "2",
        "overlap_biketrack": "0",
        "overlap_bikeable": "963.917",
        "efficiency_global": "0.5873664223221784",
        "efficiency_local": "0.13673841211504043",
        "efficiency_global_routed": "0.7900032452709033",
        "efficiency_local_routed": "0.15546904583327217"
    },
    {
        "length": "995298.4829999997",
        "length_lcc": "991085.8259999994",
        "coverage": "781.8257514939053",
        "directness": "0.7306636372742136",
        "directness_lcc": "0.7342795590262755",
        "poi_coverage": "283",
        "components": "2",
        "overlap_biketrack": "0",
        "overlap_bikeable": "1084.13",
        "efficiency_global": "0.5840669666678003",
        "efficiency_local": "0.14229102009991076",
        "efficiency_global_routed": "0.7908450749992569",
        "efficiency_local_routed": "0.1581135828887406"
    },
    {
        "length": "1064925.1309999998",
        "length_lcc": "1064925.1309999998",
        "coverage": "834.1392786235444",
        "directness": "0.7334984930918312",
        "directness_lcc": "0.7334984930918312",
        "poi_coverage": "309",
        "components": "1",
        "overlap_biketrack": "0",
        "overlap_bikeable": "1084.13",
        "efficiency_global": "0.5822604493818385",
        "efficiency_local": "0.13780287772921831",
        "efficiency_global_routed": "0.7862331768385808",
        "efficiency_local_routed": "0.1444756257932032"
    },
    {
        "length": "1148956.3160000003",
        "length_lcc": "1148956.3160000003",
        "coverage": "900.2884704558926",
        "directness": "0.7252589617937497",
        "directness_lcc": "0.7252589617937497",
        "poi_coverage": "341",
        "components": "1",
        "overlap_biketrack": "0",
        "overlap_bikeable": "1084.13",
        "efficiency_global": "0.571509982707901",
        "efficiency_local": "0.13261271142431327",
        "efficiency_global_routed": "0.7997901874782234",
        "efficiency_local_routed": "0.14558581006292817"
    },
    {
        "length": "1206033.0479999962",
        "length_lcc": "1206033.0479999962",
        "coverage": "944.9581307702899",
        "directness": "0.7194099319598009",
        "directness_lcc": "0.7194099319598009",
        "poi_coverage": "363",
        "components": "1",
        "overlap_biketrack": "0",
        "overlap_bikeable": "1084.13",
        "efficiency_global": "0.5685347479210242",
        "efficiency_local": "0.14481094735891362",
        "efficiency_global_routed": "0.7742981302632104",
        "efficiency_local_routed": "0.13242135880216202"
    },
    {
        "length": "1292900.4330000042",
        "length_lcc": "1292900.4330000042",
        "coverage": "1007.5473373019109",
        "directness": "0.7259965922846227",
        "directness_lcc": "0.7259965922846227",
        "poi_coverage": "382",
        "components": "1",
        "overlap_biketrack": "0",
        "overlap_bikeable": "1084.13",
        "efficiency_global": "0.5638691284585842",
        "efficiency_local": "0.14765750447653028",
        "efficiency_global_routed": "0.8067035678690873",
        "efficiency_local_routed": "0.13651988746851815"
    },
    {
        "length": "1347605.1620000058",
        "length_lcc": "1347605.1620000058",
        "coverage": "1035.1217294250116",
        "directness": "0.7231393721703615",
        "directness_lcc": "0.7231393721703615",
        "poi_coverage": "393",
        "components": "1",
        "overlap_biketrack": "0",
        "overlap_bikeable": "1084.13",
        "efficiency_global": "0.5641123466308771",
        "efficiency_local": "0.15987767680356743",
        "efficiency_global_routed": "0.7745330642429956",
        "efficiency_local_routed": "0.13542247950025466"
    },
    {
        "length": "1432773.2820000055",
        "length_lcc": "1432773.2820000055",
        "coverage": "1080.1404162910494",
        "directness": "0.7257179940004445",
        "directness_lcc": "0.7257179940004445",
        "poi_coverage": "412",
        "components": "1",
        "overlap_biketrack": "0",
        "overlap_bikeable": "1122.192",
        "efficiency_global": "0.558576808254018",
        "efficiency_local": "0.15909901464658918",
        "efficiency_global_routed": "0.7698662055340345",
        "efficiency_local_routed": "0.13076214777214284"
    },
    {
        "length": "1497199.3840000061",
        "length_lcc": "1497199.3840000061",
        "coverage": "1121.1411214825955",
        "directness": "0.7295793632665178",
        "directness_lcc": "0.7295793632665178",
        "poi_coverage": "422",
        "components": "1",
        "overlap_biketrack": "0",
        "overlap_bikeable": "1122.192",
        "efficiency_global": "0.5595396699375865",
        "efficiency_local": "0.1759154757622117",
        "efficiency_global_routed": "0.7670479401692682",
        "efficiency_local_routed": "0.14801690084590943"
    },
    {
        "length": "1546384.105000004",
        "length_lcc": "1546384.105000004",
        "coverage": "1149.6137261551544",
        "directness": "0.7251469896146798",
        "directness_lcc": "0.7251469896146798",
        "poi_coverage": "433",
        "components": "1",
        "overlap_biketrack": "0",
        "overlap_bikeable": "1122.192",
        "efficiency_global": "0.5613713166137703",
        "efficiency_local": "0.1918723642941242",
        "efficiency_global_routed": "0.7656903738100571",
        "efficiency_local_routed": "0.14643112486940782"
    },
    {
        "length": "1565859.5510000037",
        "length_lcc": "1565859.5510000037",
        "coverage": "1156.1170277594172",
        "directness": "0.7197008777773443",
        "directness_lcc": "0.7197008777773443",
        "poi_coverage": "436",
        "components": "1",
        "overlap_biketrack": "0",
        "overlap_bikeable": "1122.192",
        "efficiency_global": "0.5666213638140192",
        "efficiency_local": "0.22897088359704892",
        "efficiency_global_routed": "0.7770997338110232",
        "efficiency_local_routed": "0.14263579364113937"
    },
    {
        "length": "1595453.9630000037",
        "length_lcc": "1595453.9630000037",
        "coverage": "1167.849799565481",
        "directness": "0.731122324168581",
        "directness_lcc": "0.731122324168581",
        "poi_coverage": "436",
        "components": "1",
        "overlap_biketrack": "0",
        "overlap_bikeable": "1134.886",
        "efficiency_global": "0.5702067422181781",
        "efficiency_local": "0.25106615507132946",
        "efficiency_global_routed": "0.7596136444573939",
        "efficiency_local_routed": "0.13678060028774452"
    },
    {
        "length": "1613976.4110000043",
        "length_lcc": "1613976.4110000043",
        "coverage": "1170.55296328284",
        "directness": "0.7289064197837596",
        "directness_lcc": "0.7289064197837596",
        "poi_coverage": "436",
        "components": "1",
        "overlap_biketrack": "0",
        "overlap_bikeable": "1134.886",
        "efficiency_global": "0.5750293049014257",
        "efficiency_local": "0.2763937935036732",
        "efficiency_global_routed": "0.7720206611888715",
        "efficiency_local_routed": "0.17576063293564642"
    },
    {
        "length": "1632154.2010000036",
        "length_lcc": "1632154.2010000036",
        "coverage": "1173.250180454229",
        "directness": "0.7353065618612695",
        "directness_lcc": "0.7353065618612695",
        "poi_coverage": "436",
        "components": "1",
        "overlap_biketrack": "0",
        "overlap_bikeable": "1134.886",
        "efficiency_global": "0.5774007585851908",
        "efficiency_local": "0.31017583922350656",
        "efficiency_global_routed": "0.7696657267900749",
        "efficiency_local_routed": "0.15807716235731092"
    },
    {
        "length": "1684480.276000003",
        "length_lcc": "1684480.276000003",
        "coverage": "1194.622876403498",
        "directness": "0.7398977488908052",
        "directness_lcc": "0.7398977488908052",
        "poi_coverage": "436",
        "components": "1",
        "overlap_biketrack": "0",
        "overlap_bikeable": "1134.886",
        "efficiency_global": "0.5804485853306288",
        "efficiency_local": "0.3254322333637921",
        "efficiency_global_routed": "0.7863429146781648",
        "efficiency_local_routed": "0.1716071115431389"
    },
    {
        "length": "1701229.2910000035",
        "length_lcc": "1701229.2910000035",
        "coverage": "1196.8492041122522",
        "directness": "0.737771629985883",
        "directness_lcc": "0.737771629985883",
        "poi_coverage": "436",
        "components": "1",
        "overlap_biketrack": "0",
        "overlap_bikeable": "1134.886",
        "efficiency_global": "0.5826713099077778",
        "efficiency_local": "0.3441211894872214",
        "efficiency_global_routed": "0.7812096885939093",
        "efficiency_local_routed": "0.16903065643047888"
    },
    {
        "length": "1719292.1100000057",
        "length_lcc": "1719292.1100000057",
        "coverage": "1198.9858839662136",
        "directness": "0.7350397711694645",
        "directness_lcc": "0.7350397711694645",
        "poi_coverage": "436",
        "components": "1",
        "overlap_biketrack": "0",
        "overlap_bikeable": "1134.886",
        "efficiency_global": "0.5847981812068729",
        "efficiency_local": "0.36850262840660475",
        "efficiency_global_routed": "0.7737163074455508",
        "efficiency_local_routed": "0.15383781597917326"
    },
    {
        "length": "1738216.8440000066",
        "length_lcc": "1738216.8440000066",
        "coverage": "1206.2530792398968",
        "directness": "0.7336582049880315",
        "directness_lcc": "0.7336582049880315",
        "poi_coverage": "436",
        "components": "1",
        "overlap_biketrack": "0",
        "overlap_bikeable": "1256.048",
        "efficiency_global": "0.5868947081373507",
        "efficiency_local": "0.3771239748068335",
        "efficiency_global_routed": "0.7697886008153425",
        "efficiency_local_routed": "0.17074454507240966"
    },
    {
        "length": "1774153.9790000066",
        "length_lcc": "1774153.9790000066",
        "coverage": "1219.853392612157",
        "directness": "0.7385012277042542",
        "directness_lcc": "0.7385012277042542",
        "poi_coverage": "436",
        "components": "1",
        "overlap_biketrack": "0",
        "overlap_bikeable": "1256.048",
        "efficiency_global": "0.5881292725524484",
        "efficiency_local": "0.38691854216480603",
        "efficiency_global_routed": "0.791334132043151",
        "efficiency_local_routed": "0.18413677529444725"
    },
    {
        "length": "1790770.0040000088",
        "length_lcc": "1790770.0040000088",
        "coverage": "1220.969128093652",
        "directness": "0.7346710231809592",
        "directness_lcc": "0.7346710231809592",
        "poi_coverage": "436",
        "components": "1",
        "overlap_biketrack": "0",
        "overlap_bikeable": "1454.883",
        "efficiency_global": "0.5894609317661665",
        "efficiency_local": "0.41159790138039143",
        "efficiency_global_routed": "0.7843528715981706",
        "efficiency_local_routed": "0.1759482872736999"
    },
    {
        "length": "1807253.314000009",
        "length_lcc": "1807253.314000009",
        "coverage": "1224.8918275973908",
        "directness": "0.7470447579070781",
        "directness_lcc": "0.7470447579070781",
        "poi_coverage": "436",
        "components": "1",
        "overlap_biketrack": "0",
        "overlap_bikeable": "1454.883",
        "efficiency_global": "0.5910440663783656",
        "efficiency_local": "0.435445543771282",
        "efficiency_global_routed": "0.7731401363638241",
        "efficiency_local_routed": "0.1882650916167448"
    },
    {
        "length": "1848089.789000008",
        "length_lcc": "1848089.789000008",
        "coverage": "1257.0159447511187",
        "directness": "0.7398927700640445",
        "directness_lcc": "0.7398927700640445",
        "poi_coverage": "436",
        "components": "1",
        "overlap_biketrack": "0",
        "overlap_bikeable": "1454.883",
        "efficiency_global": "0.592391483108597",
        "efficiency_local": "0.4452636266720646",
        "efficiency_global_routed": "0.76965526467077",
        "efficiency_local_routed": "0.18488151255580645"
    },
    {
        "length": "1854231.4110000085",
        "length_lcc": "1854231.4110000085",
        "coverage": "1257.309786322887",
        "directness": "0.7423825283242745",
        "directness_lcc": "0.7423825283242745",
        "poi_coverage": "436",
        "components": "1",
        "overlap_biketrack": "0",
        "overlap_bikeable": "1454.883",
        "efficiency_global": "0.5935313968642835",
        "efficiency_local": "0.4652479737870103",
        "efficiency_global_routed": "0.7892988150952378",
        "efficiency_local_routed": "0.1705489687870789"
    },
    {
        "length": "1868198.1170000082",
        "length_lcc": "1868198.1170000082",
        "coverage": "1259.16574305673",
        "directness": "0.7405489320581965",
        "directness_lcc": "0.7405489320581965",
        "poi_coverage": "436",
        "components": "1",
        "overlap_biketrack": "0",
        "overlap_bikeable": "1454.883",
        "efficiency_global": "0.594785582976822",
        "efficiency_local": "0.4946380242664766",
        "efficiency_global_routed": "0.7883219509235878",
        "efficiency_local_routed": "0.2131055192347001"
    },
    {
        "length": "1870502.2500000088",
        "length_lcc": "1870502.2500000088",
        "coverage": "1259.1657431706503",
        "directness": "0.7406082690529858",
        "directness_lcc": "0.7406082690529858",
        "poi_coverage": "436",
        "components": "1",
        "overlap_biketrack": "0",
        "overlap_bikeable": "1454.883",
        "efficiency_global": "0.5952768374873226",
        "efficiency_local": "0.5155402984926168",
        "efficiency_global_routed": "0.7894616334331417",
        "efficiency_local_routed": "0.19496727424912916"
    },
    {
        "length": "1885971.3290000083",
        "length_lcc": "1885971.3290000083",
        "coverage": "1264.0514295405853",
        "directness": "0.7488234841864956",
        "directness_lcc": "0.7488234841864956",
        "poi_coverage": "436",
        "components": "1",
        "overlap_biketrack": "0",
        "overlap_bikeable": "1454.883",
        "efficiency_global": "0.5963725946266044",
        "efficiency_local": "0.5427605409853022",
        "efficiency_global_routed": "0.7927713566037402",
        "efficiency_local_routed": "0.1945834742061268"
    },
    {
        "length": "1900734.2060000065",
        "length_lcc": "1900734.2060000065",
        "coverage": "1268.3133976808822",
        "directness": "0.7429618627473028",
        "directness_lcc": "0.7429618627473028",
        "poi_coverage": "436",
        "components": "1",
        "overlap_biketrack": "0",
        "overlap_bikeable": "1454.883",
        "efficiency_global": "0.5968739503181978",
        "efficiency_local": "0.5740714162079869",
        "efficiency_global_routed": "0.7899716893269433",
        "efficiency_local_routed": "0.19430117265975277"
    },
    {
        "length": "1900734.2060000065",
        "length_lcc": "1900734.2060000065",
        "coverage": "1268.3133976808822",
        "directness": "0.7472959582990397",
        "directness_lcc": "0.7472959582990397",
        "poi_coverage": "436",
        "components": "1",
        "overlap_biketrack": "0",
        "overlap_bikeable": "1454.883",
        "efficiency_global": "0.5968739503181978",
        "efficiency_local": "0.5740714162079869",
        "efficiency_global_routed": "0.7926114053058394",
        "efficiency_local_routed": "0.20099996778940166"
    },
    {
        "length": "1900734.2060000065",
        "length_lcc": "1900734.2060000065",
        "coverage": "1268.3133976808822",
        "directness": "0.7426318893351956",
        "directness_lcc": "0.7426318893351956",
        "poi_coverage": "436",
        "components": "1",
        "overlap_biketrack": "0",
        "overlap_bikeable": "1454.883",
        "efficiency_global": "0.5968739503181978",
        "efficiency_local": "0.5740714162079869",
        "efficiency_global_routed": "0.767167494713899",
        "efficiency_local_routed": "0.19465447193592691"
    },
    {
        "length": "1900734.2060000065",
        "length_lcc": "1900734.2060000065",
        "coverage": "1268.3133976808822",
        "directness": "0.7416259457800628",
        "directness_lcc": "0.7416259457800628",
        "poi_coverage": "436",
        "components": "1",
        "overlap_biketrack": "0",
        "overlap_bikeable": "1454.883",
        "efficiency_global": "0.5968739503181978",
        "efficiency_local": "0.5784436529353352",
        "efficiency_global_routed": "0.7911975436634251",
        "efficiency_local_routed": "0.22634217130501366"
    },
    {
        "length": "1900734.2060000065",
        "length_lcc": "1900734.2060000065",
        "coverage": "1268.3133976808822",
        "directness": "0.7468212295169455",
        "directness_lcc": "0.7468212295169455",
        "poi_coverage": "436",
        "components": "1",
        "overlap_biketrack": "0",
        "overlap_bikeable": "1454.883",
        "efficiency_global": "0.5968739503181978",
        "efficiency_local": "0.5814419162977885",
        "efficiency_global_routed": "0.7778537443204785",
        "efficiency_local_routed": "0.21680724225493866"
    }
]