{
    "features": [
        [
            {
                "type": "Feature",
                "properties": {
                    "stage": 31
                },
                "geometry": {
                    "type": "GeometryCollection",
                    "geometries": []
                }
            }
        ],
        [
            {
                "type": "Feature",
                "properties": {
                    "stage": 32
                },
                "geometry": {
                    "type": "GeometryCollection",
                    "geometries": []
                }
            }
        ],
        [
            {
                "type": "Feature",
                "properties": {
                    "stage": 33
                },
                "geometry": {
                    "type": "GeometryCollection",
                    "geometries": []
                }
            }
        ],
        [
            {
                "type": "Feature",
                "properties": {
                    "stage": 34
                },
                "geometry": {
                    "type": "GeometryCollection",
                    "geometries": [
                        {
                            "type": "LineString",
                            "coordinates": [
                                [
                                    7.394857,
                                    46.94617
                                ],
                                [
                                    7.394218,
                                    46.946143
                                ]
                            ]
                        },
                        {
                            "type": "LineString",
                            "coordinates": [
                                [
                                    7.394857,
                                    46.94617
                                ],
                                [
                                    7.395452,
                                    46.946193
                                ]
                            ]
                        },
                        {
                            "type": "LineString",
                            "coordinates": [
                                [
                                    7.390406,
                                    46.94559
                                ],
                                [
                                    7.390732,
                                    46.94563
                                ]
                            ]
                        },
                        {
                            "type": "LineString",
                            "coordinates": [
                                [
                                    7.392677,
                                    46.945528
                                ],
                                [
                                    7.392511,
                                    46.945559
                                ]
                            ]
                        },
                        {
                            "type": "LineString",
                            "coordinates": [
                                [
                                    7.392154,
                                    46.945586
                                ],
                                [
                                    7.39215,
                                    46.945608
                                ]
                            ]
                        },
                        {
                            "type": "LineString",
                            "coordinates": [
                                [
                                    7.392007,
                                    46.945662
                                ],
                                [
                                    7.392155,
                                    46.94563
                                ]
                            ]
                        },
                        {
                            "type": "LineString",
                            "coordinates": [
                                [
                                    7.39215,
                                    46.945608
                                ],
                                [
                                    7.392155,
                                    46.94563
                                ]
                            ]
                        },
                        {
                            "type": "LineString",
                            "coordinates": [
                                [
                                    7.392511,
                                    46.945559
                                ],
                                [
                                    7.39237,
                                    46.945581
                                ]
                            ]
                        },
                        {
                            "type": "LineString",
                            "coordinates": [
                                [
                                    7.392307,
                                    46.945536
                                ],
                                [
                                    7.392334,
                                    46.945547
                                ]
                            ]
                        },
                        {
                            "type": "LineString",
                            "coordinates": [
                                [
                                    7.39237,
                                    46.945581
                                ],
                                [
                                    7.392356,
                                    46.945562
                                ]
                            ]
                        },
                        {
                            "type": "LineString",
                            "coordinates": [
                                [
                                    7.392334,
                                    46.945547
                                ],
                                [
                                    7.392356,
                                    46.945562
                                ]
                            ]
                        },
                        {
                            "type": "LineString",
                            "coordinates": [
                                [
                                    7.392154,
                                    46.945586
                                ],
                                [
                                    7.392167,
                                    46.945566
                                ]
                            ]
                        },
                        {
                            "type": "LineString",
                            "coordinates": [
                                [
                                    7.392007,
                                    46.945662
                                ],
                                [
                                    7.39193,
                                    46.945676
                                ]
                            ]
                        },
                        {
                            "type": "LineString",
                            "coordinates": [
                                [
                                    7.39193,
                                    46.945676
                                ],
                                [
                                    7.391776,
                                    46.9457
                                ]
                            ]
                        },
                        {
                            "type": "LineString",
                            "coordinates": [
                                [
                                    7.391587,
                                    46.945714
                                ],
                                [
                                    7.391476,
                                    46.945715
                                ]
                            ]
                        },
                        {
                            "type": "LineString",
                            "coordinates": [
                                [
                                    7.389133,
                                    46.94543
                                ],
                                [
                                    7.389076,
                                    46.945417
                                ]
                            ]
                        },
                        {
                            "type": "LineString",
                            "coordinates": [
                                [
                                    7.389015,
                                    46.9454
                                ],
                                [
                                    7.389076,
                                    46.945417
                                ]
                            ]
                        },
                        {
                            "type": "LineString",
                            "coordinates": [
                                [
                                    7.388879,
                                    46.945349
                                ],
                                [
                                    7.388948,
                                    46.945378
                                ]
                            ]
                        },
                        {
                            "type": "LineString",
                            "coordinates": [
                                [
                                    7.389015,
                                    46.9454
                                ],
                                [
                                    7.388948,
                                    46.945378
                                ]
                            ]
                        },
                        {
                            "type": "LineString",
                            "coordinates": [
                                [
                                    7.389133,
                                    46.94543
                                ],
                                [
                                    7.389199,
                                    46.945441
                                ]
                            ]
                        },
                        {
                            "type": "LineString",
                            "coordinates": [
                                [
                                    7.389249,
                                    46.945448
                                ],
                                [
                                    7.389199,
                                    46.945441
                                ]
                            ]
                        },
                        {
                            "type": "LineString",
                            "coordinates": [
                                [
                                    7.391111,
                                    46.945678
                                ],
                                [
                                    7.391096,
                                    46.945676
                                ]
                            ]
                        },
                        {
                            "type": "LineString",
                            "coordinates": [
                                [
                                    7.390732,
                                    46.94563
                                ],
                                [
                                    7.391096,
                                    46.945676
                                ]
                            ]
                        },
                        {
                            "type": "LineString",
                            "coordinates": [
                                [
                                    7.394218,
                                    46.946143
                                ],
                                [
                                    7.393265,
                                    46.946097
                                ]
                            ]
                        },
                        {
                            "type": "LineString",
                            "coordinates": [
                                [
                                    7.393156,
                                    46.946084
                                ],
                                [
                                    7.393092,
                                    46.946067
                                ]
                            ]
                        },
                        {
                            "type": "LineString",
                            "coordinates": [
                                [
                                    7.38866,
                                    46.94523
                                ],
                                [
                                    7.388762,
                                    46.94529
                                ]
                            ]
                        },
                        {
                            "type": "LineString",
                            "coordinates": [
                                [
                                    7.388879,
                                    46.945349
                                ],
                                [
                                    7.388853,
                                    46.945337
                                ]
                            ]
                        },
                        {
                            "type": "LineString",
                            "coordinates": [
                                [
                                    7.388762,
                                    46.94529
                                ],
                                [
                                    7.388853,
                                    46.945337
                                ]
                            ]
                        },
                        {
                            "type": "LineString",
                            "coordinates": [
                                [
                                    7.38866,
                                    46.94523
                                ],
                                [
                                    7.388552,
                                    46.94517
                                ]
                            ]
                        },
                        {
                            "type": "LineString",
                            "coordinates": [
                                [
                                    7.396281,
                                    46.946219
                                ],
                                [
                                    7.396192,
                                    46.946225
                                ]
                            ]
                        },
                        {
                            "type": "LineString",
                            "coordinates": [
                                [
                                    7.396458,
                                    46.946186
                                ],
                                [
                                    7.396507,
                                    46.946172
                                ]
                            ]
                        },
                        {
                            "type": "LineString",
                            "coordinates": [
                                [
                                    7.397589,
                                    46.94564
                                ],
                                [
                                    7.397696,
                                    46.945696
                                ]
                            ]
                        },
                        {
                            "type": "LineString",
                            "coordinates": [
                                [
                                    7.392167,
                                    46.945566
                                ],
                                [
                                    7.392188,
                                    46.94555
                                ]
                            ]
                        },
                        {
                            "type": "LineString",
                            "coordinates": [
                                [
                                    7.391776,
                                    46.9457
                                ],
                                [
                                    7.391696,
                                    46.945708
                                ]
                            ]
                        },
                        {
                            "type": "LineString",
                            "coordinates": [
                                [
                                    7.392246,
                                    46.945531
                                ],
                                [
                                    7.392277,
                                    46.945531
                                ]
                            ]
                        },
                        {
                            "type": "LineString",
                            "coordinates": [
                                [
                                    7.392307,
                                    46.945536
                                ],
                                [
                                    7.392277,
                                    46.945531
                                ]
                            ]
                        },
                        {
                            "type": "LineString",
                            "coordinates": [
                                [
                                    7.392677,
                                    46.945528
                                ],
                                [
                                    7.392732,
                                    46.945641
                                ]
                            ]
                        },
                        {
                            "type": "LineString",
                            "coordinates": [
                                [
                                    7.392856,
                                    46.945899
                                ],
                                [
                                    7.392732,
                                    46.945641
                                ]
                            ]
                        },
                        {
                            "type": "LineString",
                            "coordinates": [
                                [
                                    7.397498,
                                    46.94559
                                ],
                                [
                                    7.397416,
                                    46.945648
                                ]
                            ]
                        },
                        {
                            "type": "LineString",
                            "coordinates": [
                                [
                                    7.397498,
                                    46.94559
                                ],
                                [
                                    7.397541,
                                    46.945614
                                ]
                            ]
                        },
                        {
                            "type": "LineString",
                            "coordinates": [
                                [
                                    7.397589,
                                    46.94564
                                ],
                                [
                                    7.397541,
                                    46.945614
                                ]
                            ]
                        },
                        {
                            "type": "LineString",
                            "coordinates": [
                                [
                                    7.396507,
                                    46.946172
                                ],
                                [
                                    7.396565,
                                    46.946154
                                ]
                            ]
                        },
                        {
                            "type": "LineString",
                            "coordinates": [
                                [
                                    7.396565,
                                    46.946154
                                ],
                                [
                                    7.396625,
                                    46.946132
                                ]
                            ]
                        },
                        {
                            "type": "LineString",
                            "coordinates": [
                                [
                                    7.397416,
                                    46.945648
                                ],
                                [
                                    7.397283,
                                    46.945732
                                ]
                            ]
                        },
                        {
                            "type": "LineString",
                            "coordinates": [
                                [
                                    7.396281,
                                    46.946219
                                ],
                                [
                                    7.396374,
                                    46.946205
                                ]
                            ]
                        },
                        {
                            "type": "LineString",
                            "coordinates": [
                                [
                                    7.396458,
                                    46.946186
                                ],
                                [
                                    7.396374,
                                    46.946205
                                ]
                            ]
                        },
                        {
                            "type": "LineString",
                            "coordinates": [
                                [
                                    7.39671,
                                    46.946089
                                ],
                                [
                                    7.396983,
                                    46.945922
                                ]
                            ]
                        },
                        {
                            "type": "LineString",
                            "coordinates": [
                                [
                                    7.397283,
                                    46.945732
                                ],
                                [
                                    7.396983,
                                    46.945922
                                ]
                            ]
                        },
                        {
                            "type": "LineString",
                            "coordinates": [
                                [
                                    7.393002,
                                    46.94603
                                ],
                                [
                                    7.392959,
                                    46.946004
                                ]
                            ]
                        },
                        {
                            "type": "LineString",
                            "coordinates": [
                                [
                                    7.392915,
                                    46.945971
                                ],
                                [
                                    7.392959,
                                    46.946004
                                ]
                            ]
                        },
                        {
                            "type": "LineString",
                            "coordinates": [
                                [
                                    7.392915,
                                    46.945971
                                ],
                                [
                                    7.392884,
                                    46.945937
                                ]
                            ]
                        },
                        {
                            "type": "LineString",
                            "coordinates": [
                                [
                                    7.392856,
                                    46.945899
                                ],
                                [
                                    7.392884,
                                    46.945937
                                ]
                            ]
                        },
                        {
                            "type": "LineString",
                            "coordinates": [
                                [
                                    7.393002,
                                    46.94603
                                ],
                                [
                                    7.393044,
                                    46.946049
                                ]
                            ]
                        },
                        {
                            "type": "LineString",
                            "coordinates": [
                                [
                                    7.393092,
                                    46.946067
                                ],
                                [
                                    7.393044,
                                    46.946049
                                ]
                            ]
                        },
                        {
                            "type": "LineString",
                            "coordinates": [
                                [
                                    7.393156,
                                    46.946084
                                ],
                                [
                                    7.393211,
                                    46.946092
                                ]
                            ]
                        },
                        {
                            "type": "LineString",
                            "coordinates": [
                                [
                                    7.393265,
                                    46.946097
                                ],
                                [
                                    7.393211,
                                    46.946092
                                ]
                            ]
                        },
                        {
                            "type": "LineString",
                            "coordinates": [
                                [
                                    7.392246,
                                    46.945531
                                ],
                                [
                                    7.392215,
                                    46.945538
                                ]
                            ]
                        },
                        {
                            "type": "LineString",
                            "coordinates": [
                                [
                                    7.392188,
                                    46.94555
                                ],
                                [
                                    7.392215,
                                    46.945538
                                ]
                            ]
                        },
                        {
                            "type": "LineString",
                            "coordinates": [
                                [
                                    7.391111,
                                    46.945678
                                ],
                                [
                                    7.391299,
                                    46.945702
                                ]
                            ]
                        },
                        {
                            "type": "LineString",
                            "coordinates": [
                                [
                                    7.391476,
                                    46.945715
                                ],
                                [
                                    7.391404,
                                    46.945711
                                ]
                            ]
                        },
                        {
                            "type": "LineString",
                            "coordinates": [
                                [
                                    7.391299,
                                    46.945702
                                ],
                                [
                                    7.391404,
                                    46.945711
                                ]
                            ]
                        },
                        {
                            "type": "LineString",
                            "coordinates": [
                                [
                                    7.390406,
                                    46.94559
                                ],
                                [
                                    7.389726,
                                    46.945507
                                ]
                            ]
                        },
                        {
                            "type": "LineString",
                            "coordinates": [
                                [
                                    7.389249,
                                    46.945448
                                ],
                                [
                                    7.389726,
                                    46.945507
                                ]
                            ]
                        },
                        {
                            "type": "LineString",
                            "coordinates": [
                                [
                                    7.388425,
                                    46.945087
                                ],
                                [
                                    7.388536,
                                    46.94516
                                ]
                            ]
                        },
                        {
                            "type": "LineString",
                            "coordinates": [
                                [
                                    7.388552,
                                    46.94517
                                ],
                                [
                                    7.388536,
                                    46.94516
                                ]
                            ]
                        },
                        {
                            "type": "LineString",
                            "coordinates": [
                                [
                                    7.391587,
                                    46.945714
                                ],
                                [
                                    7.39165,
                                    46.945711
                                ]
                            ]
                        },
                        {
                            "type": "LineString",
                            "coordinates": [
                                [
                                    7.391696,
                                    46.945708
                                ],
                                [
                                    7.39165,
                                    46.945711
                                ]
                            ]
                        },
                        {
                            "type": "LineString",
                            "coordinates": [
                                [
                                    7.395452,
                                    46.946193
                                ],
                                [
                                    7.39609,
                                    46.946224
                                ]
                            ]
                        },
                        {
                            "type": "LineString",
                            "coordinates": [
                                [
                                    7.396192,
                                    46.946225
                                ],
                                [
                                    7.39609,
                                    46.946224
                                ]
                            ]
                        },
                        {
                            "type": "LineString",
                            "coordinates": [
                                [
                                    7.39671,
                                    46.946089
                                ],
                                [
                                    7.396669,
                                    46.946112
                                ]
                            ]
                        },
                        {
                            "type": "LineString",
                            "coordinates": [
                                [
                                    7.396625,
                                    46.946132
                                ],
                                [
                                    7.396669,
                                    46.946112
                                ]
                            ]
                        }
                    ]
                }
            }
        ],
        [
            {
                "type": "Feature",
                "properties": {
                    "stage": 35
                },
                "geometry": {
                    "type": "GeometryCollection",
                    "geometries": []
                }
            }
        ],
        [
            {
                "type": "Feature",
                "properties": {
                    "stage": 36
                },
                "geometry": {
                    "type": "GeometryCollection",
                    "geometries": []
                }
            }
        ],
        [
            {
                "type": "Feature",
                "properties": {
                    "stage": 37
                },
                "geometry": {
                    "type": "GeometryCollection",
                    "geometries": [
                        {
                            "type": "LineString",
                            "coordinates": [
                                [
                                    7.401644,
                                    46.944281
                                ],
                                [
                                    7.40165,
                                    46.944245
                                ]
                            ]
                        },
                        {
                            "type": "LineString",
                            "coordinates": [
                                [
                                    7.40161,
                                    46.944338
                                ],
                                [
                                    7.401575,
                                    46.944368
                                ]
                            ]
                        },
                        {
                            "type": "LineString",
                            "coordinates": [
                                [
                                    7.401625,
                                    46.943928
                                ],
                                [
                                    7.401642,
                                    46.943997
                                ]
                            ]
                        },
                        {
                            "type": "LineString",
                            "coordinates": [
                                [
                                    7.40165,
                                    46.944071
                                ],
                                [
                                    7.401642,
                                    46.943997
                                ]
                            ]
                        },
                        {
                            "type": "LineString",
                            "coordinates": [
                                [
                                    7.40165,
                                    46.944245
                                ],
                                [
                                    7.401652,
                                    46.944181
                                ]
                            ]
                        },
                        {
                            "type": "LineString",
                            "coordinates": [
                                [
                                    7.401594,
                                    46.943842
                                ],
                                [
                                    7.40156,
                                    46.94377
                                ]
                            ]
                        },
                        {
                            "type": "LineString",
                            "coordinates": [
                                [
                                    7.401461,
                                    46.94356
                                ],
                                [
                                    7.40156,
                                    46.94377
                                ]
                            ]
                        },
                        {
                            "type": "LineString",
                            "coordinates": [
                                [
                                    7.40165,
                                    46.944071
                                ],
                                [
                                    7.40165,
                                    46.944091
                                ]
                            ]
                        },
                        {
                            "type": "LineString",
                            "coordinates": [
                                [
                                    7.401652,
                                    46.944181
                                ],
                                [
                                    7.40165,
                                    46.944091
                                ]
                            ]
                        },
                        {
                            "type": "LineString",
                            "coordinates": [
                                [
                                    7.401594,
                                    46.943842
                                ],
                                [
                                    7.401611,
                                    46.943889
                                ]
                            ]
                        },
                        {
                            "type": "LineString",
                            "coordinates": [
                                [
                                    7.401644,
                                    46.944281
                                ],
                                [
                                    7.40163,
                                    46.944312
                                ]
                            ]
                        },
                        {
                            "type": "LineString",
                            "coordinates": [
                                [
                                    7.40161,
                                    46.944338
                                ],
                                [
                                    7.40163,
                                    46.944312
                                ]
                            ]
                        },
                        {
                            "type": "LineString",
                            "coordinates": [
                                [
                                    7.400704,
                                    46.944849
                                ],
                                [
                                    7.400759,
                                    46.944818
                                ]
                            ]
                        },
                        {
                            "type": "LineString",
                            "coordinates": [
                                [
                                    7.401094,
                                    46.944636
                                ],
                                [
                                    7.400759,
                                    46.944818
                                ]
                            ]
                        },
                        {
                            "type": "LineString",
                            "coordinates": [
                                [
                                    7.401422,
                                    46.943498
                                ],
                                [
                                    7.401452,
                                    46.943545
                                ]
                            ]
                        },
                        {
                            "type": "LineString",
                            "coordinates": [
                                [
                                    7.401461,
                                    46.94356
                                ],
                                [
                                    7.401452,
                                    46.943545
                                ]
                            ]
                        },
                        {
                            "type": "LineString",
                            "coordinates": [
                                [
                                    7.401625,
                                    46.943928
                                ],
                                [
                                    7.401616,
                                    46.943902
                                ]
                            ]
                        },
                        {
                            "type": "LineString",
                            "coordinates": [
                                [
                                    7.401611,
                                    46.943889
                                ],
                                [
                                    7.401616,
                                    46.943902
                                ]
                            ]
                        },
                        {
                            "type": "LineString",
                            "coordinates": [
                                [
                                    7.401533,
                                    46.944395
                                ],
                                [
                                    7.401449,
                                    46.944441
                                ]
                            ]
                        },
                        {
                            "type": "LineString",
                            "coordinates": [
                                [
                                    7.401094,
                                    46.944636
                                ],
                                [
                                    7.401449,
                                    46.944441
                                ]
                            ]
                        },
                        {
                            "type": "LineString",
                            "coordinates": [
                                [
                                    7.401533,
                                    46.944395
                                ],
                                [
                                    7.401561,
                                    46.944377
                                ]
                            ]
                        },
                        {
                            "type": "LineString",
                            "coordinates": [
                                [
                                    7.401575,
                                    46.944368
                                ],
                                [
                                    7.401561,
                                    46.944377
                                ]
                            ]
                        }
                    ]
                }
            }
        ],
        [
            {
                "type": "Feature",
                "properties": {
                    "stage": 38
                },
                "geometry": {
                    "type": "GeometryCollection",
                    "geometries": []
                }
            }
        ],
        [
            {
                "type": "Feature",
                "properties": {
                    "stage": 39
                },
                "geometry": {
                    "type": "GeometryCollection",
                    "geometries": [
                        {
                            "type": "LineString",
                            "coordinates": [
                                [
                                    7.402891,
                                    46.94393
                                ],
                                [
                                    7.402815,
                                    46.943982
                                ]
                            ]
                        },
                        {
                            "type": "LineString",
                            "coordinates": [
                                [
                                    7.402328,
                                    46.944572
                                ],
                                [
                                    7.402445,
                                    46.944382
                                ]
                            ]
                        },
                        {
                            "type": "LineString",
                            "coordinates": [
                                [
                                    7.40197,
                                    46.944498
                                ],
                                [
                                    7.401904,
                                    46.944484
                                ]
                            ]
                        },
                        {
                            "type": "LineString",
                            "coordinates": [
                                [
                                    7.402583,
                                    46.944192
                                ],
                                [
                                    7.40264,
                                    46.944132
                                ]
                            ]
                        },
                        {
                            "type": "LineString",
                            "coordinates": [
                                [
                                    7.402701,
                                    46.944073
                                ],
                                [
                                    7.40264,
                                    46.944132
                                ]
                            ]
                        },
                        {
                            "type": "LineString",
                            "coordinates": [
                                [
                                    7.402583,
                                    46.944192
                                ],
                                [
                                    7.40249,
                                    46.944319
                                ]
                            ]
                        },
                        {
                            "type": "LineString",
                            "coordinates": [
                                [
                                    7.402445,
                                    46.944382
                                ],
                                [
                                    7.40249,
                                    46.944319
                                ]
                            ]
                        },
                        {
                            "type": "LineString",
                            "coordinates": [
                                [
                                    7.402328,
                                    46.944572
                                ],
                                [
                                    7.402195,
                                    46.944545
                                ]
                            ]
                        },
                        {
                            "type": "LineString",
                            "coordinates": [
                                [
                                    7.40197,
                                    46.944498
                                ],
                                [
                                    7.402195,
                                    46.944545
                                ]
                            ]
                        },
                        {
                            "type": "LineString",
                            "coordinates": [
                                [
                                    7.402891,
                                    46.94393
                                ],
                                [
                                    7.402986,
                                    46.943867
                                ]
                            ]
                        },
                        {
                            "type": "LineString",
                            "coordinates": [
                                [
                                    7.403398,
                                    46.943644
                                ],
                                [
                                    7.402986,
                                    46.943867
                                ]
                            ]
                        },
                        {
                            "type": "LineString",
                            "coordinates": [
                                [
                                    7.402815,
                                    46.943982
                                ],
                                [
                                    7.402748,
                                    46.944035
                                ]
                            ]
                        },
                        {
                            "type": "LineString",
                            "coordinates": [
                                [
                                    7.402701,
                                    46.944073
                                ],
                                [
                                    7.402748,
                                    46.944035
                                ]
                            ]
                        },
                        {
                            "type": "LineString",
                            "coordinates": [
                                [
                                    7.401904,
                                    46.944484
                                ],
                                [
                                    7.401766,
                                    46.944455
                                ]
                            ]
                        },
                        {
                            "type": "LineString",
                            "coordinates": [
                                [
                                    7.401766,
                                    46.944455
                                ],
                                [
                                    7.401561,
                                    46.944377
                                ]
                            ]
                        }
                    ]
                }
            }
        ],
        [
            {
                "type": "Feature",
                "properties": {
                    "stage": 40
                },
                "geometry": {
                    "type": "GeometryCollection",
                    "geometries": [
                        {
                            "type": "LineString",
                            "coordinates": [
                                [
                                    7.439336,
                                    46.945742
                                ],
                                [
                                    7.439288,
                                    46.945872
                                ]
                            ]
                        },
                        {
                            "type": "LineString",
                            "coordinates": [
                                [
                                    7.437328,
                                    46.945979
                                ],
                                [
                                    7.437285,
                                    46.945914
                                ]
                            ]
                        },
                        {
                            "type": "LineString",
                            "coordinates": [
                                [
                                    7.437656,
                                    46.945854
                                ],
                                [
                                    7.437818,
                                    46.945882
                                ]
                            ]
                        },
                        {
                            "type": "LineString",
                            "coordinates": [
                                [
                                    7.437461,
                                    46.94623
                                ],
                                [
                                    7.437373,
                                    46.946246
                                ]
                            ]
                        },
                        {
                            "type": "LineString",
                            "coordinates": [
                                [
                                    7.439201,
                                    46.946114
                                ],
                                [
                                    7.439119,
                                    46.9461
                                ]
                            ]
                        },
                        {
                            "type": "LineString",
                            "coordinates": [
                                [
                                    7.439201,
                                    46.946114
                                ],
                                [
                                    7.439227,
                                    46.946039
                                ]
                            ]
                        },
                        {
                            "type": "LineString",
                            "coordinates": [
                                [
                                    7.439288,
                                    46.945872
                                ],
                                [
                                    7.439227,
                                    46.946039
                                ]
                            ]
                        },
                        {
                            "type": "LineString",
                            "coordinates": [
                                [
                                    7.437461,
                                    46.94623
                                ],
                                [
                                    7.437433,
                                    46.94616
                                ]
                            ]
                        },
                        {
                            "type": "LineString",
                            "coordinates": [
                                [
                                    7.437328,
                                    46.945979
                                ],
                                [
                                    7.437402,
                                    46.946101
                                ]
                            ]
                        },
                        {
                            "type": "LineString",
                            "coordinates": [
                                [
                                    7.437433,
                                    46.94616
                                ],
                                [
                                    7.437402,
                                    46.946101
                                ]
                            ]
                        },
                        {
                            "type": "LineString",
                            "coordinates": [
                                [
                                    7.437656,
                                    46.945854
                                ],
                                [
                                    7.437402,
                                    46.945812
                                ]
                            ]
                        },
                        {
                            "type": "LineString",
                            "coordinates": [
                                [
                                    7.43721,
                                    46.945789
                                ],
                                [
                                    7.437257,
                                    46.945792
                                ]
                            ]
                        },
                        {
                            "type": "LineString",
                            "coordinates": [
                                [
                                    7.437402,
                                    46.945812
                                ],
                                [
                                    7.43732,
                                    46.945799
                                ]
                            ]
                        },
                        {
                            "type": "LineString",
                            "coordinates": [
                                [
                                    7.439332,
                                    46.945623
                                ],
                                [
                                    7.439339,
                                    46.945635
                                ]
                            ]
                        },
                        {
                            "type": "LineString",
                            "coordinates": [
                                [
                                    7.437818,
                                    46.945882
                                ],
                                [
                                    7.438101,
                                    46.945929
                                ]
                            ]
                        },
                        {
                            "type": "LineString",
                            "coordinates": [
                                [
                                    7.439119,
                                    46.9461
                                ],
                                [
                                    7.438101,
                                    46.945929
                                ]
                            ]
                        },
                        {
                            "type": "LineString",
                            "coordinates": [
                                [
                                    7.437257,
                                    46.945792
                                ],
                                [
                                    7.437289,
                                    46.945796
                                ]
                            ]
                        },
                        {
                            "type": "LineString",
                            "coordinates": [
                                [
                                    7.43732,
                                    46.945799
                                ],
                                [
                                    7.437289,
                                    46.945796
                                ]
                            ]
                        },
                        {
                            "type": "LineString",
                            "coordinates": [
                                [
                                    7.43721,
                                    46.945789
                                ],
                                [
                                    7.437225,
                                    46.945814
                                ]
                            ]
                        },
                        {
                            "type": "LineString",
                            "coordinates": [
                                [
                                    7.437285,
                                    46.945914
                                ],
                                [
                                    7.437225,
                                    46.945814
                                ]
                            ]
                        },
                        {
                            "type": "LineString",
                            "coordinates": [
                                [
                                    7.437373,
                                    46.946246
                                ],
                                [
                                    7.437033,
                                    46.946307
                                ]
                            ]
                        },
                        {
                            "type": "LineString",
                            "coordinates": [
                                [
                                    7.439346,
                                    46.945663
                                ],
                                [
                                    7.439344,
                                    46.94565
                                ]
                            ]
                        },
                        {
                            "type": "LineString",
                            "coordinates": [
                                [
                                    7.439339,
                                    46.945635
                                ],
                                [
                                    7.439344,
                                    46.94565
                                ]
                            ]
                        },
                        {
                            "type": "LineString",
                            "coordinates": [
                                [
                                    7.439347,
                                    46.945686
                                ],
                                [
                                    7.439348,
                                    46.945674
                                ]
                            ]
                        },
                        {
                            "type": "LineString",
                            "coordinates": [
                                [
                                    7.439346,
                                    46.945663
                                ],
                                [
                                    7.439348,
                                    46.945674
                                ]
                            ]
                        },
                        {
                            "type": "LineString",
                            "coordinates": [
                                [
                                    7.439347,
                                    46.945686
                                ],
                                [
                                    7.439346,
                                    46.945701
                                ]
                            ]
                        },
                        {
                            "type": "LineString",
                            "coordinates": [
                                [
                                    7.439343,
                                    46.94572
                                ],
                                [
                                    7.439346,
                                    46.945701
                                ]
                            ]
                        },
                        {
                            "type": "LineString",
                            "coordinates": [
                                [
                                    7.439332,
                                    46.945623
                                ],
                                [
                                    7.439325,
                                    46.945613
                                ]
                            ]
                        },
                        {
                            "type": "LineString",
                            "coordinates": [
                                [
                                    7.439419,
                                    46.945533
                                ],
                                [
                                    7.439325,
                                    46.945613
                                ]
                            ]
                        },
                        {
                            "type": "LineString",
                            "coordinates": [
                                [
                                    7.439419,
                                    46.945533
                                ],
                                [
                                    7.440009,
                                    46.945017
                                ]
                            ]
                        },
                        {
                            "type": "LineString",
                            "coordinates": [
                                [
                                    7.436413,
                                    46.946418
                                ],
                                [
                                    7.436695,
                                    46.946367
                                ]
                            ]
                        },
                        {
                            "type": "LineString",
                            "coordinates": [
                                [
                                    7.437033,
                                    46.946307
                                ],
                                [
                                    7.436695,
                                    46.946367
                                ]
                            ]
                        },
                        {
                            "type": "LineString",
                            "coordinates": [
                                [
                                    7.435401,
                                    46.946599
                                ],
                                [
                                    7.435479,
                                    46.946585
                                ]
                            ]
                        },
                        {
                            "type": "LineString",
                            "coordinates": [
                                [
                                    7.436413,
                                    46.946418
                                ],
                                [
                                    7.435479,
                                    46.946585
                                ]
                            ]
                        },
                        {
                            "type": "LineString",
                            "coordinates": [
                                [
                                    7.439336,
                                    46.945742
                                ],
                                [
                                    7.43934,
                                    46.945732
                                ]
                            ]
                        },
                        {
                            "type": "LineString",
                            "coordinates": [
                                [
                                    7.439343,
                                    46.94572
                                ],
                                [
                                    7.43934,
                                    46.945732
                                ]
                            ]
                        }
                    ]
                }
            }
        ]
    ]
}