[
    {
        "length": "13735.94599999999",
        "length_lcc": "3923.6290000000013",
        "coverage": "17.155279643564757",
        "directness": "0.9016506709930869",
        "directness_lcc": "0.898582869730236",
        "poi_coverage": "11",
        "components": "5",
        "overlap_biketrack": "436.4559999999999",
        "overlap_bikeable": "436.4559999999999",
        "efficiency_global": "0.19791133711203393",
        "efficiency_local": "0",
        "efficiency_global_routed": "0.1979113371120339",
        "efficiency_local_routed": "0"
    },
    {
        "length": "25471.381000000005",
        "length_lcc": "5570.731000000001",
        "coverage": "29.89127481845785",
        "directness": "0.7237848655218244",
        "directness_lcc": "0.6203510989121449",
        "poi_coverage": "19",
        "components": "8",
        "overlap_biketrack": "436.4559999999999",
        "overlap_bikeable": "436.4559999999999",
        "efficiency_global": "0.11381947037930422",
        "efficiency_local": "0.0",
        "efficiency_global_routed": "0.1581356711918007",
        "efficiency_local_routed": "0.0"
    },
    {
        "length": "39282.75600000007",
        "length_lcc": "5570.731000000001",
        "coverage": "41.81948883597794",
        "directness": "0.6733467328390368",
        "directness_lcc": "0.6203510989121344",
        "poi_coverage": "26",
        "components": "10",
        "overlap_biketrack": "1155.7569999999996",
        "overlap_bikeable": "1155.7569999999996",
        "efficiency_global": "0.09270341575317853",
        "efficiency_local": "0.0",
        "efficiency_global_routed": "0.2247057008238742",
        "efficiency_local_routed": "0.0"
    },
    {
        "length": "51778.01899999995",
        "length_lcc": "14478.372999999992",
        "coverage": "50.8457453723642",
        "directness": "0.46964618585935763",
        "directness_lcc": "0.35776520214246543",
        "poi_coverage": "30",
        "components": "10",
        "overlap_biketrack": "1155.7569999999996",
        "overlap_bikeable": "1208.572",
        "efficiency_global": "0.10611426677270702",
        "efficiency_local": "0.0",
        "efficiency_global_routed": "0.25697342257651185",
        "efficiency_local_routed": "0.0"
    },
    {
        "length": "62364.27699999987",
        "length_lcc": "18599.80499999999",
        "coverage": "58.655202325101925",
        "directness": "0.5052710748930079",
        "directness_lcc": "0.46490355399875977",
        "poi_coverage": "35",
        "components": "10",
        "overlap_biketrack": "1738.911",
        "overlap_bikeable": "2019.2380000000003",
        "efficiency_global": "0.1093678140947753",
        "efficiency_local": "0.0",
        "efficiency_global_routed": "0.27577657552785695",
        "efficiency_local_routed": "0.0"
    },
    {
        "length": "71024.60699999976",
        "length_lcc": "18599.80499999999",
        "coverage": "66.19770800814887",
        "directness": "0.5349781355693858",
        "directness_lcc": "0.4537365035563411",
        "poi_coverage": "41",
        "components": "11",
        "overlap_biketrack": "2343.824000000001",
        "overlap_bikeable": "2624.151000000002",
        "efficiency_global": "0.10758509698395571",
        "efficiency_local": "0.0",
        "efficiency_global_routed": "0.2496190350423872",
        "efficiency_local_routed": "0.0"
    },
    {
        "length": "79172.31899999977",
        "length_lcc": "19890.00099999999",
        "coverage": "70.45886814636151",
        "directness": "0.5229645816282494",
        "directness_lcc": "0.4573583997371986",
        "poi_coverage": "42",
        "components": "9",
        "overlap_biketrack": "2343.824000000001",
        "overlap_bikeable": "2624.151000000002",
        "efficiency_global": "0.12601101126224953",
        "efficiency_local": "0.0",
        "efficiency_global_routed": "0.39250454419455943",
        "efficiency_local_routed": "0.0"
    },
    {
        "length": "101802.25299999984",
        "length_lcc": "40746.66199999994",
        "coverage": "80.6218700650731",
        "directness": "0.6111025463101866",
        "directness_lcc": "0.5871849472676262",
        "poi_coverage": "46",
        "components": "6",
        "overlap_biketrack": "2747.2330000000015",
        "overlap_bikeable": "3027.5600000000018",
        "efficiency_global": "0.13567792951049082",
        "efficiency_local": "0.0",
        "efficiency_global_routed": "0.522160143160722",
        "efficiency_local_routed": "0.14926528764956923"
    },
    {
        "length": "115562.38099999989",
        "length_lcc": "50054.75699999995",
        "coverage": "87.47220531911793",
        "directness": "0.588729684055099",
        "directness_lcc": "0.542188527165792",
        "poi_coverage": "49",
        "components": "5",
        "overlap_biketrack": "2747.2330000000015",
        "overlap_bikeable": "3255.614000000002",
        "efficiency_global": "0.13855288348331393",
        "efficiency_local": "0.0",
        "efficiency_global_routed": "0.6485432664556161",
        "efficiency_local_routed": "0.24497608501331408"
    },
    {
        "length": "119859.13499999983",
        "length_lcc": "50476.89799999993",
        "coverage": "90.65880516075886",
        "directness": "0.5962974093955691",
        "directness_lcc": "0.5468402216166728",
        "poi_coverage": "51",
        "components": "6",
        "overlap_biketrack": "3317.153000000001",
        "overlap_bikeable": "3825.5340000000015",
        "efficiency_global": "0.1351727008470555",
        "efficiency_local": "0.0",
        "efficiency_global_routed": "0.638086523495753",
        "efficiency_local_routed": "0.23530088126501297"
    },
    {
        "length": "127458.3519999997",
        "length_lcc": "101047.53299999973",
        "coverage": "93.44679346677995",
        "directness": "0.4323616815568778",
        "directness_lcc": "0.4270754419929158",
        "poi_coverage": "52",
        "components": "5",
        "overlap_biketrack": "3317.153000000001",
        "overlap_bikeable": "3825.5340000000015",
        "efficiency_global": "0.17480414184679216",
        "efficiency_local": "0.0",
        "efficiency_global_routed": "0.7233079660615541",
        "efficiency_local_routed": "0.2471073448646577"
    },
    {
        "length": "134792.62500000012",
        "length_lcc": "105607.86599999985",
        "coverage": "96.28570391815677",
        "directness": "0.5700921428225871",
        "directness_lcc": "0.5724760454452866",
        "poi_coverage": "52",
        "components": "5",
        "overlap_biketrack": "3317.153000000001",
        "overlap_bikeable": "3825.5340000000015",
        "efficiency_global": "0.2271267556744207",
        "efficiency_local": "0.0",
        "efficiency_global_routed": "0.7510571391198468",
        "efficiency_local_routed": "0.23663673957361503"
    },
    {
        "length": "143529.9880000003",
        "length_lcc": "133764.60199999996",
        "coverage": "100.40079411609254",
        "directness": "0.5466047609393643",
        "directness_lcc": "0.5430224700963805",
        "poi_coverage": "53",
        "components": "4",
        "overlap_biketrack": "3317.153000000001",
        "overlap_bikeable": "3825.5340000000015",
        "efficiency_global": "0.2957902435480285",
        "efficiency_local": "0.01318400826445132",
        "efficiency_global_routed": "0.788932668385622",
        "efficiency_local_routed": "0.22164488135412466"
    },
    {
        "length": "149926.66200000007",
        "length_lcc": "138161.93700000035",
        "coverage": "101.4864626624888",
        "directness": "0.5710823571664475",
        "directness_lcc": "0.5641166069233269",
        "poi_coverage": "53",
        "components": "3",
        "overlap_biketrack": "3317.153000000001",
        "overlap_bikeable": "3825.5340000000015",
        "efficiency_global": "0.32473761662503065",
        "efficiency_local": "0.042213675630622255",
        "efficiency_global_routed": "0.7797694406138332",
        "efficiency_local_routed": "0.21495176137610036"
    },
    {
        "length": "153769.75899999993",
        "length_lcc": "142005.03400000028",
        "coverage": "101.5572989683308",
        "directness": "0.6441336325908856",
        "directness_lcc": "0.6321705989828501",
        "poi_coverage": "53",
        "components": "3",
        "overlap_biketrack": "4783.429",
        "overlap_bikeable": "5291.810000000002",
        "efficiency_global": "0.375439813603821",
        "efficiency_local": "0.08535413423616081",
        "efficiency_global_routed": "0.7989454994125569",
        "efficiency_local_routed": "0.20570771670238747"
    },
    {
        "length": "158841.30099999983",
        "length_lcc": "147076.5760000002",
        "coverage": "103.51539901771709",
        "directness": "0.6348732764412572",
        "directness_lcc": "0.6321474956560731",
        "poi_coverage": "54",
        "components": "3",
        "overlap_biketrack": "4783.429",
        "overlap_bikeable": "5291.810000000002",
        "efficiency_global": "0.40347434440179675",
        "efficiency_local": "0.07697942838800409",
        "efficiency_global_routed": "0.7928728669450635",
        "efficiency_local_routed": "0.1972249242610519"
    },
    {
        "length": "164317.3750000001",
        "length_lcc": "155819.4010000001",
        "coverage": "105.91079854055464",
        "directness": "0.6156944370591957",
        "directness_lcc": "0.620527460064813",
        "poi_coverage": "55",
        "components": "2",
        "overlap_biketrack": "4783.429",
        "overlap_bikeable": "5291.810000000002",
        "efficiency_global": "0.42176237164878033",
        "efficiency_local": "0.12183723268156524",
        "efficiency_global_routed": "0.7970519798397371",
        "efficiency_local_routed": "0.1912591037505742"
    },
    {
        "length": "171508.6130000002",
        "length_lcc": "171508.6130000002",
        "coverage": "107.93108519034303",
        "directness": "0.5920862977998835",
        "directness_lcc": "0.5920862977998835",
        "poi_coverage": "55",
        "components": "1",
        "overlap_biketrack": "4783.429",
        "overlap_bikeable": "5291.810000000002",
        "efficiency_global": "0.4877779935269883",
        "efficiency_local": "0.12033515209658337",
        "efficiency_global_routed": "0.8171714240990782",
        "efficiency_local_routed": "0.2131359100762835"
    },
    {
        "length": "178436.75900000034",
        "length_lcc": "178436.75900000034",
        "coverage": "110.40133527344481",
        "directness": "0.5818606457452236",
        "directness_lcc": "0.5818606457452236",
        "poi_coverage": "55",
        "components": "1",
        "overlap_biketrack": "4783.429",
        "overlap_bikeable": "5291.810000000002",
        "efficiency_global": "0.49415697596877994",
        "efficiency_local": "0.13522660188936822",
        "efficiency_global_routed": "0.8119705779950652",
        "efficiency_local_routed": "0.23566187628132132"
    },
    {
        "length": "180425.47400000042",
        "length_lcc": "180425.47400000042",
        "coverage": "110.50564332129026",
        "directness": "0.6096034059495092",
        "directness_lcc": "0.6096034059495092",
        "poi_coverage": "55",
        "components": "1",
        "overlap_biketrack": "4783.429",
        "overlap_bikeable": "5291.810000000002",
        "efficiency_global": "0.5039281664751729",
        "efficiency_local": "0.20870344705590552",
        "efficiency_global_routed": "0.8119386467629353",
        "efficiency_local_routed": "0.20614888799825878"
    },
    {
        "length": "185644.4180000004",
        "length_lcc": "185644.4180000004",
        "coverage": "112.58430799240716",
        "directness": "0.6135797947922793",
        "directness_lcc": "0.6135797947922793",
        "poi_coverage": "56",
        "components": "1",
        "overlap_biketrack": "4783.429000000001",
        "overlap_bikeable": "5291.810000000002",
        "efficiency_global": "0.5144100292641294",
        "efficiency_local": "0.21644149585459224",
        "efficiency_global_routed": "0.825024501040811",
        "efficiency_local_routed": "0.2319004606190469"
    },
    {
        "length": "194357.77200000046",
        "length_lcc": "194357.77200000046",
        "coverage": "117.66119639289874",
        "directness": "0.6482881669461614",
        "directness_lcc": "0.6482881669461614",
        "poi_coverage": "57",
        "components": "1",
        "overlap_biketrack": "4783.429000000001",
        "overlap_bikeable": "5291.810000000002",
        "efficiency_global": "0.5271241758147098",
        "efficiency_local": "0.21874108934574124",
        "efficiency_global_routed": "0.8270537471510213",
        "efficiency_local_routed": "0.22367728813018953"
    },
    {
        "length": "200651.73200000028",
        "length_lcc": "200651.73200000028",
        "coverage": "118.84641316677077",
        "directness": "0.6593116809641812",
        "directness_lcc": "0.6593116809641812",
        "poi_coverage": "57",
        "components": "1",
        "overlap_biketrack": "4783.429000000001",
        "overlap_bikeable": "5291.810000000002",
        "efficiency_global": "0.5463211740961343",
        "efficiency_local": "0.24050062108569964",
        "efficiency_global_routed": "0.8248979523939453",
        "efficiency_local_routed": "0.2311427149404966"
    },
    {
        "length": "203911.5610000006",
        "length_lcc": "203911.5610000006",
        "coverage": "119.36779784316451",
        "directness": "0.6706296349231984",
        "directness_lcc": "0.6706296349231984",
        "poi_coverage": "57",
        "components": "1",
        "overlap_biketrack": "4783.429000000001",
        "overlap_bikeable": "5291.810000000002",
        "efficiency_global": "0.5736078522673186",
        "efficiency_local": "0.23270186175073138",
        "efficiency_global_routed": "0.8309425615720768",
        "efficiency_local_routed": "0.24317057174721923"
    },
    {
        "length": "207926.56700000053",
        "length_lcc": "207926.56700000053",
        "coverage": "119.92648102382321",
        "directness": "0.6788534963919058",
        "directness_lcc": "0.6788534963919058",
        "poi_coverage": "57",
        "components": "1",
        "overlap_biketrack": "4783.429000000001",
        "overlap_bikeable": "5291.810000000002",
        "efficiency_global": "0.5845686006842207",
        "efficiency_local": "0.23868430274629907",
        "efficiency_global_routed": "0.8384244101441785",
        "efficiency_local_routed": "0.23220918778999572"
    },
    {
        "length": "210510.0570000006",
        "length_lcc": "210510.0570000006",
        "coverage": "119.96946093431852",
        "directness": "0.6857001097152199",
        "directness_lcc": "0.6857001097152199",
        "poi_coverage": "57",
        "components": "1",
        "overlap_biketrack": "4783.429000000001",
        "overlap_bikeable": "5291.810000000002",
        "efficiency_global": "0.5946196331429267",
        "efficiency_local": "0.29846476499113866",
        "efficiency_global_routed": "0.8384710914597435",
        "efficiency_local_routed": "0.22252503629781897"
    },
    {
        "length": "217345.3840000008",
        "length_lcc": "217345.3840000008",
        "coverage": "121.03735121243712",
        "directness": "0.6945309314717308",
        "directness_lcc": "0.6945309314717308",
        "poi_coverage": "57",
        "components": "1",
        "overlap_biketrack": "4783.429000000001",
        "overlap_bikeable": "5410.877000000001",
        "efficiency_global": "0.6017473920980544",
        "efficiency_local": "0.3119701064886462",
        "efficiency_global_routed": "0.8376139175729469",
        "efficiency_local_routed": "0.22352004666452366"
    },
    {
        "length": "219796.57800000077",
        "length_lcc": "219796.57800000077",
        "coverage": "121.52956087624551",
        "directness": "0.6827844229748309",
        "directness_lcc": "0.6827844229748309",
        "poi_coverage": "57",
        "components": "1",
        "overlap_biketrack": "4783.429000000001",
        "overlap_bikeable": "5410.877000000001",
        "efficiency_global": "0.6033184602905056",
        "efficiency_local": "0.34533322072294803",
        "efficiency_global_routed": "0.8394444883530576",
        "efficiency_local_routed": "0.2535400340470919"
    },
    {
        "length": "227492.76900000073",
        "length_lcc": "227492.76900000073",
        "coverage": "123.8049896267131",
        "directness": "0.6889338561361087",
        "directness_lcc": "0.6889338561361087",
        "poi_coverage": "58",
        "components": "1",
        "overlap_biketrack": "4894.0",
        "overlap_bikeable": "5521.448",
        "efficiency_global": "0.6118373020042037",
        "efficiency_local": "0.36017448259079893",
        "efficiency_global_routed": "0.8368672823194627",
        "efficiency_local_routed": "0.24918575767636245"
    },
    {
        "length": "231313.46600000086",
        "length_lcc": "231313.46600000086",
        "coverage": "124.29055069055157",
        "directness": "0.6964883859265195",
        "directness_lcc": "0.6964883859265195",
        "poi_coverage": "58",
        "components": "1",
        "overlap_biketrack": "5396.646000000001",
        "overlap_bikeable": "6267.616999999999",
        "efficiency_global": "0.6170190684309229",
        "efficiency_local": "0.39600926635087397",
        "efficiency_global_routed": "0.8366990343391334",
        "efficiency_local_routed": "0.24546658853360767"
    },
    {
        "length": "234700.82000000097",
        "length_lcc": "234700.82000000097",
        "coverage": "124.29322260563511",
        "directness": "0.693504674985827",
        "directness_lcc": "0.693504674985827",
        "poi_coverage": "58",
        "components": "1",
        "overlap_biketrack": "5396.646000000001",
        "overlap_bikeable": "6267.616999999999",
        "efficiency_global": "0.629341787142039",
        "efficiency_local": "0.4483607913128821",
        "efficiency_global_routed": "0.8331204011714923",
        "efficiency_local_routed": "0.24736735863183593"
    },
    {
        "length": "241688.92100000108",
        "length_lcc": "241688.92100000108",
        "coverage": "124.96390431305456",
        "directness": "0.7074839029483269",
        "directness_lcc": "0.7074839029483269",
        "poi_coverage": "58",
        "components": "1",
        "overlap_biketrack": "5396.646000000001",
        "overlap_bikeable": "6267.616999999999",
        "efficiency_global": "0.6461442908579974",
        "efficiency_local": "0.49523958697078496",
        "efficiency_global_routed": "0.837320147972422",
        "efficiency_local_routed": "0.24327416541247487"
    },
    {
        "length": "246124.19700000103",
        "length_lcc": "246124.19700000103",
        "coverage": "125.72697947695626",
        "directness": "0.7160211796762138",
        "directness_lcc": "0.7160211796762138",
        "poi_coverage": "58",
        "components": "1",
        "overlap_biketrack": "5444.517",
        "overlap_bikeable": "6315.4879999999985",
        "efficiency_global": "0.6568024041682613",
        "efficiency_local": "0.5025601499857337",
        "efficiency_global_routed": "0.8387747432882023",
        "efficiency_local_routed": "0.24242774173453338"
    },
    {
        "length": "251371.34200000076",
        "length_lcc": "251371.34200000076",
        "coverage": "126.79603327172195",
        "directness": "0.709144406392516",
        "directness_lcc": "0.709144406392516",
        "poi_coverage": "58",
        "components": "1",
        "overlap_biketrack": "5444.517",
        "overlap_bikeable": "6315.487999999998",
        "efficiency_global": "0.6625503080322886",
        "efficiency_local": "0.5551513542229582",
        "efficiency_global_routed": "0.8435206221119116",
        "efficiency_local_routed": "0.24314900343136567"
    },
    {
        "length": "255557.76400000066",
        "length_lcc": "255557.76400000066",
        "coverage": "127.41677220781122",
        "directness": "0.71088266345382",
        "directness_lcc": "0.71088266345382",
        "poi_coverage": "58",
        "components": "1",
        "overlap_biketrack": "5444.517",
        "overlap_bikeable": "6315.487999999998",
        "efficiency_global": "0.6706141743822184",
        "efficiency_local": "0.5769487831997184",
        "efficiency_global_routed": "0.8435695553375462",
        "efficiency_local_routed": "0.23888562997929597"
    },
    {
        "length": "259749.5130000008",
        "length_lcc": "259749.5130000008",
        "coverage": "127.9630236996598",
        "directness": "0.7213235202458476",
        "directness_lcc": "0.7213235202458476",
        "poi_coverage": "58",
        "components": "1",
        "overlap_biketrack": "5444.517",
        "overlap_bikeable": "6495.330999999998",
        "efficiency_global": "0.6751682129644091",
        "efficiency_local": "0.6031464870203034",
        "efficiency_global_routed": "0.8425958394677634",
        "efficiency_local_routed": "0.23986430320119173"
    },
    {
        "length": "264549.99200000043",
        "length_lcc": "264549.99200000043",
        "coverage": "128.23697111736323",
        "directness": "0.7309091288041175",
        "directness_lcc": "0.7309091288041175",
        "poi_coverage": "58",
        "components": "1",
        "overlap_biketrack": "5444.517",
        "overlap_bikeable": "6495.330999999998",
        "efficiency_global": "0.6827915902945353",
        "efficiency_local": "0.6220413732602775",
        "efficiency_global_routed": "0.8431447652546645",
        "efficiency_local_routed": "0.24092405798221112"
    },
    {
        "length": "271140.5400000002",
        "length_lcc": "271140.5400000002",
        "coverage": "129.5763747823595",
        "directness": "0.7352127961171793",
        "directness_lcc": "0.7352127961171793",
        "poi_coverage": "58",
        "components": "1",
        "overlap_biketrack": "5444.517",
        "overlap_bikeable": "6495.330999999998",
        "efficiency_global": "0.696701652581835",
        "efficiency_local": "0.6432320382896518",
        "efficiency_global_routed": "0.843216224044396",
        "efficiency_local_routed": "0.2447951681622783"
    },
    {
        "length": "277123.8660000004",
        "length_lcc": "277123.8660000004",
        "coverage": "130.5445271703389",
        "directness": "0.7329240144041204",
        "directness_lcc": "0.7329240144041204",
        "poi_coverage": "58",
        "components": "1",
        "overlap_biketrack": "6806.487000000002",
        "overlap_bikeable": "7857.301",
        "efficiency_global": "0.7095326171135765",
        "efficiency_local": "0.6747482782124448",
        "efficiency_global_routed": "0.8450613582625144",
        "efficiency_local_routed": "0.26010297395594223"
    },
    {
        "length": "281575.0700000007",
        "length_lcc": "281575.0700000007",
        "coverage": "131.1485359545506",
        "directness": "0.7366393351930807",
        "directness_lcc": "0.7366393351930807",
        "poi_coverage": "58",
        "components": "1",
        "overlap_biketrack": "6806.487000000002",
        "overlap_bikeable": "7857.301",
        "efficiency_global": "0.7173781986357015",
        "efficiency_local": "0.6977764376737056",
        "efficiency_global_routed": "0.8455682160153241",
        "efficiency_local_routed": "0.25076719318680313"
    }
]