[
    {
        "network": "bikeable",
        "length": "289413.39599999983",
        "length_lcc": "18482.643999999997",
        "coverage": "171.56518481172722",
        "directness": "0.6797454438954645",
        "directness_lcc": "0.6527276619365431",
        "poi_coverage": "62",
        "components": "442",
        "efficiency_global": "0.14762724103099617",
        "efficiency_local": "0.10707002217933187",
        "efficiency_global_routed": "0.17903904374308913",
        "efficiency_local_routed": "0.14391589175971514"
    },
    {
        "network": "bikeable_offstreet",
        "length": "215605.81999999983",
        "length_lcc": "17384.969000000005",
        "coverage": "156.8986424762684",
        "directness": "0.6438019122152214",
        "directness_lcc": "0.6523315162103763",
        "poi_coverage": "56",
        "components": "288",
        "efficiency_global": "0.2792259235606662",
        "efficiency_local": "0.09278472067230818",
        "efficiency_global_routed": "0.20139753868985194",
        "efficiency_local_routed": "0.17280016733475229"
    },
    {
        "network": "biketrack",
        "length": "185356.32999999993",
        "length_lcc": "17384.969000000005",
        "coverage": "144.90377047611665",
        "directness": "0.6686168483238263",
        "directness_lcc": "0.6536849962092957",
        "poi_coverage": "52",
        "components": "230",
        "efficiency_global": "0.2784535062792081",
        "efficiency_local": "0.07400381638738213",
        "efficiency_global_routed": "0.2953648817742041",
        "efficiency_local_routed": "0.13214432768853482"
    },
    {
        "network": "biketrack_onstreet",
        "length": "4155.926000000001",
        "length_lcc": "1121.084",
        "coverage": "14.686311221378162",
        "directness": "0.9472119220957398",
        "directness_lcc": "0.9990774506345582",
        "poi_coverage": "3",
        "components": "17",
        "efficiency_global": "0.9105239287520411",
        "efficiency_local": "0.0",
        "efficiency_global_routed": "0.6103228428957843",
        "efficiency_local_routed": "0.0"
    },
    {
        "network": "biketrackcarall",
        "length": "2145038.3410000163",
        "length_lcc": "2131200.906000014",
        "coverage": "206.0991383019617",
        "directness": "0.842445296279232",
        "directness_lcc": "0.8420883608812392",
        "poi_coverage": "69",
        "components": "46",
        "efficiency_global": "0.8161158634108047",
        "efficiency_local": "0.16467157534930674",
        "efficiency_global_routed": "0.8095810097004925",
        "efficiency_local_routed": "0.16362557770363018"
    },
    {
        "network": "carall",
        "length": "1963837.9370000104",
        "length_lcc": "1963837.9370000104",
        "coverage": "202.22502575311697",
        "directness": "0.844065737373887",
        "directness_lcc": "0.844065737373887",
        "poi_coverage": "69",
        "components": "1",
        "efficiency_global": "0.8167407995906247",
        "efficiency_local": "0.15694766844894728",
        "efficiency_global_routed": "0.8265527226746942",
        "efficiency_local_routed": "0.1997435812312434"
    }
]