[
    {
        "length": "48249.697999999975",
        "length_lcc": "10783.870000000003",
        "coverage": "55.808703684299154",
        "directness": "0.7137778152201392",
        "directness_lcc": "0.650794136326664",
        "poi_coverage": "33",
        "components": "15",
        "overlap_biketrack": "0",
        "overlap_bikeable": "2254.4649999999997",
        "efficiency_global": "0.10743202683801246",
        "efficiency_local": "0.0",
        "efficiency_global_routed": "0.12620042972334325",
        "efficiency_local_routed": "0.0"
    },
    {
        "length": "100483.5839999999",
        "length_lcc": "15304.633999999993",
        "coverage": "109.9976714548489",
        "directness": "0.7666734538913914",
        "directness_lcc": "0.6529777465882216",
        "poi_coverage": "63",
        "components": "24",
        "overlap_biketrack": "313.571",
        "overlap_bikeable": "2919.567999999999",
        "efficiency_global": "0.07658683534636203",
        "efficiency_local": "0.0",
        "efficiency_global_routed": "0.6522541200952504",
        "efficiency_local_routed": "0.3349261222639014"
    },
    {
        "length": "153687.60699999996",
        "length_lcc": "24722.313000000006",
        "coverage": "161.82322235705848",
        "directness": "0.8111506181531521",
        "directness_lcc": "0.8180180531613782",
        "poi_coverage": "92",
        "components": "30",
        "overlap_biketrack": "514.341",
        "overlap_bikeable": "4428.0160000000005",
        "efficiency_global": "0.0666272280473561",
        "efficiency_local": "0.0",
        "efficiency_global_routed": "0.5655830117288225",
        "efficiency_local_routed": "0.2972463173414182"
    },
    {
        "length": "194806.48000000004",
        "length_lcc": "26497.301000000014",
        "coverage": "203.0399942942677",
        "directness": "0.8222979696225259",
        "directness_lcc": "0.8289665554795036",
        "poi_coverage": "117",
        "components": "38",
        "overlap_biketrack": "1215.0829999999999",
        "overlap_bikeable": "5317.322000000001",
        "efficiency_global": "0.05419106735306079",
        "efficiency_local": "0.0",
        "efficiency_global_routed": "0.5621914327899593",
        "efficiency_local_routed": "0.23465707515656256"
    },
    {
        "length": "268706.5420000003",
        "length_lcc": "79779.71899999991",
        "coverage": "254.51676690275403",
        "directness": "0.8530315009443716",
        "directness_lcc": "0.8559806638175861",
        "poi_coverage": "140",
        "components": "31",
        "overlap_biketrack": "1215.0829999999999",
        "overlap_bikeable": "6352.301000000001",
        "efficiency_global": "0.056938210125747374",
        "efficiency_local": "0.0",
        "efficiency_global_routed": "0.6185974433824044",
        "efficiency_local_routed": "0.31543331940990127"
    },
    {
        "length": "308597.63200000057",
        "length_lcc": "99693.69699999977",
        "coverage": "286.81340626536917",
        "directness": "0.7893867356723099",
        "directness_lcc": "0.8099404381670785",
        "poi_coverage": "154",
        "components": "32",
        "overlap_biketrack": "1908.4240000000002",
        "overlap_bikeable": "10678.185",
        "efficiency_global": "0.05563389915663673",
        "efficiency_local": "0.0",
        "efficiency_global_routed": "0.6054561419906637",
        "efficiency_local_routed": "0.30011319787781826"
    },
    {
        "length": "343479.90100000007",
        "length_lcc": "137548.30199999994",
        "coverage": "311.26392093592386",
        "directness": "0.7601897908239096",
        "directness_lcc": "0.762153416949231",
        "poi_coverage": "165",
        "components": "29",
        "overlap_biketrack": "3061.791",
        "overlap_bikeable": "12849.375000000007",
        "efficiency_global": "0.062496897850922786",
        "efficiency_local": "0.0",
        "efficiency_global_routed": "0.6049743682914843",
        "efficiency_local_routed": "0.3156847938730181"
    },
    {
        "length": "384421.9510000008",
        "length_lcc": "171052.34300000058",
        "coverage": "336.02841731361144",
        "directness": "0.722547332397656",
        "directness_lcc": "0.7247369138868791",
        "poi_coverage": "172",
        "components": "24",
        "overlap_biketrack": "3061.791",
        "overlap_bikeable": "13126.672000000004",
        "efficiency_global": "0.0694102933700259",
        "efficiency_local": "0.02400806112270254",
        "efficiency_global_routed": "0.6185233735893456",
        "efficiency_local_routed": "0.33854281417134546"
    },
    {
        "length": "422208.2980000011",
        "length_lcc": "196953.53000000058",
        "coverage": "357.2960209030066",
        "directness": "0.7298606416266533",
        "directness_lcc": "0.7270460348563408",
        "poi_coverage": "182",
        "components": "20",
        "overlap_biketrack": "3061.791",
        "overlap_bikeable": "14983.571000000013",
        "efficiency_global": "0.08542645134353825",
        "efficiency_local": "0.02069660441612288",
        "efficiency_global_routed": "0.6021396489182927",
        "efficiency_local_routed": "0.3199381210234614"
    },
    {
        "length": "457281.13900000235",
        "length_lcc": "214499.16600000052",
        "coverage": "376.67121667972583",
        "directness": "0.6953619647082443",
        "directness_lcc": "0.7490243725457313",
        "poi_coverage": "188",
        "components": "16",
        "overlap_biketrack": "3061.791",
        "overlap_bikeable": "15156.427000000012",
        "efficiency_global": "0.1003174142694555",
        "efficiency_local": "0.040700194049254915",
        "efficiency_global_routed": "0.6350178684735984",
        "efficiency_local_routed": "0.32501263173564104"
    },
    {
        "length": "497246.03600000154",
        "length_lcc": "238889.74200000038",
        "coverage": "401.1147177750278",
        "directness": "0.732161634616342",
        "directness_lcc": "0.7684222360960478",
        "poi_coverage": "199",
        "components": "15",
        "overlap_biketrack": "3061.791",
        "overlap_bikeable": "16054.712000000009",
        "efficiency_global": "0.104449743568031",
        "efficiency_local": "0.034990776505443445",
        "efficiency_global_routed": "0.630618559759624",
        "efficiency_local_routed": "0.3288160011850073"
    },
    {
        "length": "527897.4740000016",
        "length_lcc": "318774.4840000005",
        "coverage": "419.21676976681556",
        "directness": "0.6317434932077884",
        "directness_lcc": "0.6442378816155828",
        "poi_coverage": "205",
        "components": "13",
        "overlap_biketrack": "3061.791",
        "overlap_bikeable": "17861.789000000008",
        "efficiency_global": "0.11781989820640668",
        "efficiency_local": "0.052842744441717555",
        "efficiency_global_routed": "0.6580345612326398",
        "efficiency_local_routed": "0.343412459007049"
    },
    {
        "length": "562182.7660000027",
        "length_lcc": "363083.3030000011",
        "coverage": "440.4524351648391",
        "directness": "0.5645013188896875",
        "directness_lcc": "0.5866890306974573",
        "poi_coverage": "212",
        "components": "10",
        "overlap_biketrack": "3061.791",
        "overlap_bikeable": "17861.789000000008",
        "efficiency_global": "0.14544222589955771",
        "efficiency_local": "0.07214322459036175",
        "efficiency_global_routed": "0.6781518479788029",
        "efficiency_local_routed": "0.36131773987483246"
    },
    {
        "length": "600951.1960000017",
        "length_lcc": "528058.7330000013",
        "coverage": "457.01784087718556",
        "directness": "0.45867870579793196",
        "directness_lcc": "0.479882918937531",
        "poi_coverage": "212",
        "components": "7",
        "overlap_biketrack": "3061.791",
        "overlap_bikeable": "18815.46900000001",
        "efficiency_global": "0.22153624427477342",
        "efficiency_local": "0.08746075337290364",
        "efficiency_global_routed": "0.7231153655534036",
        "efficiency_local_routed": "0.3293327418030342"
    },
    {
        "length": "630659.6060000007",
        "length_lcc": "619067.7710000013",
        "coverage": "469.77877642165106",
        "directness": "0.47657823697514673",
        "directness_lcc": "0.4722743201264427",
        "poi_coverage": "215",
        "components": "5",
        "overlap_biketrack": "3709.5299999999997",
        "overlap_bikeable": "20235.997000000014",
        "efficiency_global": "0.3283567281905354",
        "efficiency_local": "0.10429856740746683",
        "efficiency_global_routed": "0.7520037678811812",
        "efficiency_local_routed": "0.3007228664635751"
    },
    {
        "length": "664407.2530000003",
        "length_lcc": "659829.9649999999",
        "coverage": "485.3380302730225",
        "directness": "0.5030991224656981",
        "directness_lcc": "0.5095004267454997",
        "poi_coverage": "219",
        "components": "3",
        "overlap_biketrack": "4090.3840000000005",
        "overlap_bikeable": "22051.243000000024",
        "efficiency_global": "0.3561142784595304",
        "efficiency_local": "0.11687417033209951",
        "efficiency_global_routed": "0.7558645573954638",
        "efficiency_local_routed": "0.29555715225178203"
    },
    {
        "length": "694083.8460000013",
        "length_lcc": "689506.5580000012",
        "coverage": "495.79744800119647",
        "directness": "0.5151286091619677",
        "directness_lcc": "0.5147234672676456",
        "poi_coverage": "220",
        "components": "3",
        "overlap_biketrack": "4090.3840000000005",
        "overlap_bikeable": "22870.72700000003",
        "efficiency_global": "0.38241214339612634",
        "efficiency_local": "0.13365508446427127",
        "efficiency_global_routed": "0.7517681755402434",
        "efficiency_local_routed": "0.2927886514218137"
    },
    {
        "length": "719126.8580000007",
        "length_lcc": "717206.9750000007",
        "coverage": "503.498550763019",
        "directness": "0.5340305231969666",
        "directness_lcc": "0.539543316207844",
        "poi_coverage": "221",
        "components": "2",
        "overlap_biketrack": "4090.3840000000005",
        "overlap_bikeable": "22870.72700000003",
        "efficiency_global": "0.40699749378424327",
        "efficiency_local": "0.14635165477680395",
        "efficiency_global_routed": "0.7513197342682019",
        "efficiency_local_routed": "0.2977845359606729"
    },
    {
        "length": "755940.3620000021",
        "length_lcc": "754020.4790000019",
        "coverage": "513.8059546179405",
        "directness": "0.6155127179711712",
        "directness_lcc": "0.6308120604513088",
        "poi_coverage": "221",
        "components": "2",
        "overlap_biketrack": "4290.948000000002",
        "overlap_bikeable": "24767.825000000033",
        "efficiency_global": "0.44678982498709474",
        "efficiency_local": "0.1563257405480846",
        "efficiency_global_routed": "0.7680269448742407",
        "efficiency_local_routed": "0.27366253706885074"
    },
    {
        "length": "777813.3530000031",
        "length_lcc": "777813.3530000031",
        "coverage": "520.9151126271942",
        "directness": "0.6315989106140821",
        "directness_lcc": "0.6315989106140821",
        "poi_coverage": "222",
        "components": "1",
        "overlap_biketrack": "4365.060000000002",
        "overlap_bikeable": "25085.008000000027",
        "efficiency_global": "0.47275754114608726",
        "efficiency_local": "0.19162657206113007",
        "efficiency_global_routed": "0.7706971890733011",
        "efficiency_local_routed": "0.2804847364450418"
    },
    {
        "length": "810928.1440000024",
        "length_lcc": "810928.1440000024",
        "coverage": "534.7993140735373",
        "directness": "0.6547612369822529",
        "directness_lcc": "0.6547612369822529",
        "poi_coverage": "224",
        "components": "1",
        "overlap_biketrack": "4365.060000000002",
        "overlap_bikeable": "25859.72400000002",
        "efficiency_global": "0.5027254320618532",
        "efficiency_local": "0.2057370937448622",
        "efficiency_global_routed": "0.7876391062813647",
        "efficiency_local_routed": "0.2527529518680049"
    },
    {
        "length": "837621.9300000035",
        "length_lcc": "837621.9300000035",
        "coverage": "540.2712236133501",
        "directness": "0.6577261582684865",
        "directness_lcc": "0.6577261582684865",
        "poi_coverage": "224",
        "components": "1",
        "overlap_biketrack": "4365.060000000002",
        "overlap_bikeable": "28945.095000000005",
        "efficiency_global": "0.5108645807579043",
        "efficiency_local": "0.23894211128237644",
        "efficiency_global_routed": "0.7864977614781572",
        "efficiency_local_routed": "0.27307218176851356"
    },
    {
        "length": "864884.3550000018",
        "length_lcc": "864884.3550000018",
        "coverage": "545.6631125690526",
        "directness": "0.6693958587398174",
        "directness_lcc": "0.6693958587398174",
        "poi_coverage": "224",
        "components": "1",
        "overlap_biketrack": "4365.060000000002",
        "overlap_bikeable": "33414.03999999999",
        "efficiency_global": "0.5231454257465167",
        "efficiency_local": "0.26433913171346557",
        "efficiency_global_routed": "0.778101706884745",
        "efficiency_local_routed": "0.26998095612637873"
    },
    {
        "length": "893100.5750000009",
        "length_lcc": "893100.5750000009",
        "coverage": "551.8493830594911",
        "directness": "0.6791259544874529",
        "directness_lcc": "0.6791259544874529",
        "poi_coverage": "224",
        "components": "1",
        "overlap_biketrack": "4602.457000000002",
        "overlap_bikeable": "35001.460999999996",
        "efficiency_global": "0.5393596709741841",
        "efficiency_local": "0.28295648376200444",
        "efficiency_global_routed": "0.7931186124747392",
        "efficiency_local_routed": "0.27696599810733874"
    },
    {
        "length": "910646.3260000006",
        "length_lcc": "910646.3260000006",
        "coverage": "555.0977109545463",
        "directness": "0.6916816576177859",
        "directness_lcc": "0.6916816576177859",
        "poi_coverage": "224",
        "components": "1",
        "overlap_biketrack": "4602.457000000002",
        "overlap_bikeable": "36122.137",
        "efficiency_global": "0.5549010025793896",
        "efficiency_local": "0.31263532375135267",
        "efficiency_global_routed": "0.7917164084716819",
        "efficiency_local_routed": "0.26681084501522806"
    },
    {
        "length": "941510.0400000018",
        "length_lcc": "941510.0400000018",
        "coverage": "563.7875346880295",
        "directness": "0.6949884016975589",
        "directness_lcc": "0.6949884016975589",
        "poi_coverage": "224",
        "components": "1",
        "overlap_biketrack": "4602.457000000002",
        "overlap_bikeable": "40512.25299999993",
        "efficiency_global": "0.5738480719663032",
        "efficiency_local": "0.34795725602231986",
        "efficiency_global_routed": "0.7860697900458133",
        "efficiency_local_routed": "0.25292338647303053"
    },
    {
        "length": "972722.1940000023",
        "length_lcc": "972722.1940000023",
        "coverage": "572.3130213297516",
        "directness": "0.7156894428414811",
        "directness_lcc": "0.7156894428414811",
        "poi_coverage": "224",
        "components": "1",
        "overlap_biketrack": "6880.423",
        "overlap_bikeable": "43349.84099999997",
        "efficiency_global": "0.5943902733942563",
        "efficiency_local": "0.3631298477524878",
        "efficiency_global_routed": "0.785369824912891",
        "efficiency_local_routed": "0.25232753080426634"
    },
    {
        "length": "992508.6150000033",
        "length_lcc": "992508.6150000033",
        "coverage": "575.3584340157372",
        "directness": "0.7171145567280379",
        "directness_lcc": "0.7171145567280379",
        "poi_coverage": "224",
        "components": "1",
        "overlap_biketrack": "6880.423",
        "overlap_bikeable": "43349.84099999997",
        "efficiency_global": "0.6060997170572671",
        "efficiency_local": "0.38529483221689315",
        "efficiency_global_routed": "0.7943194507141575",
        "efficiency_local_routed": "0.24403178671652723"
    },
    {
        "length": "1019313.8570000047",
        "length_lcc": "1019313.8570000047",
        "coverage": "580.9287657515463",
        "directness": "0.7228806834391819",
        "directness_lcc": "0.7228806834391819",
        "poi_coverage": "224",
        "components": "1",
        "overlap_biketrack": "6880.423",
        "overlap_bikeable": "43768.80499999997",
        "efficiency_global": "0.6138738514515308",
        "efficiency_local": "0.408140372480973",
        "efficiency_global_routed": "0.8023904040482087",
        "efficiency_local_routed": "0.25848001959647693"
    },
    {
        "length": "1044935.6050000038",
        "length_lcc": "1044935.6050000038",
        "coverage": "585.9448223180151",
        "directness": "0.7272046777120912",
        "directness_lcc": "0.7272046777120912",
        "poi_coverage": "224",
        "components": "1",
        "overlap_biketrack": "6880.423",
        "overlap_bikeable": "45074.94399999998",
        "efficiency_global": "0.6236916496389433",
        "efficiency_local": "0.42764663631868943",
        "efficiency_global_routed": "0.7956558740601374",
        "efficiency_local_routed": "0.25745722454858727"
    },
    {
        "length": "1062700.776000002",
        "length_lcc": "1062700.776000002",
        "coverage": "587.8070814166446",
        "directness": "0.7365306442521602",
        "directness_lcc": "0.7365306442521602",
        "poi_coverage": "224",
        "components": "1",
        "overlap_biketrack": "7250.771",
        "overlap_bikeable": "45532.07899999998",
        "efficiency_global": "0.6358873666635969",
        "efficiency_local": "0.446904371547065",
        "efficiency_global_routed": "0.8014256642331251",
        "efficiency_local_routed": "0.2415625490302269"
    },
    {
        "length": "1084423.8300000015",
        "length_lcc": "1084423.8300000015",
        "coverage": "592.4971508525089",
        "directness": "0.7409690307080771",
        "directness_lcc": "0.7409690307080771",
        "poi_coverage": "224",
        "components": "1",
        "overlap_biketrack": "7250.771",
        "overlap_bikeable": "47079.75799999997",
        "efficiency_global": "0.6474676057445167",
        "efficiency_local": "0.46453736232791115",
        "efficiency_global_routed": "0.8100676425791623",
        "efficiency_local_routed": "0.24031469742871694"
    },
    {
        "length": "1108493.587000001",
        "length_lcc": "1108493.587000001",
        "coverage": "597.5819493634726",
        "directness": "0.736723888061461",
        "directness_lcc": "0.736723888061461",
        "poi_coverage": "224",
        "components": "1",
        "overlap_biketrack": "7250.771",
        "overlap_bikeable": "48544.76",
        "efficiency_global": "0.6557331559223394",
        "efficiency_local": "0.4722417475916356",
        "efficiency_global_routed": "0.8136696785316841",
        "efficiency_local_routed": "0.257340322898907"
    },
    {
        "length": "1123718.7640000014",
        "length_lcc": "1123718.7640000014",
        "coverage": "598.649365356194",
        "directness": "0.7452450102565329",
        "directness_lcc": "0.7452450102565329",
        "poi_coverage": "224",
        "components": "1",
        "overlap_biketrack": "8628.496000000003",
        "overlap_bikeable": "50727.805",
        "efficiency_global": "0.6605566636343042",
        "efficiency_local": "0.5019570837220092",
        "efficiency_global_routed": "0.805144399772917",
        "efficiency_local_routed": "0.2481418389606831"
    },
    {
        "length": "1137600.791000002",
        "length_lcc": "1137600.791000002",
        "coverage": "600.0606589423065",
        "directness": "0.7433675625995235",
        "directness_lcc": "0.7433675625995235",
        "poi_coverage": "224",
        "components": "1",
        "overlap_biketrack": "8628.496000000003",
        "overlap_bikeable": "50937.12300000001",
        "efficiency_global": "0.6669158897314715",
        "efficiency_local": "0.5294679107968383",
        "efficiency_global_routed": "0.7942520862301654",
        "efficiency_local_routed": "0.274896525091654"
    },
    {
        "length": "1155466.0700000024",
        "length_lcc": "1155466.0700000024",
        "coverage": "602.5656344702309",
        "directness": "0.7528997932494303",
        "directness_lcc": "0.7528997932494303",
        "poi_coverage": "224",
        "components": "1",
        "overlap_biketrack": "8628.496000000003",
        "overlap_bikeable": "50937.12300000001",
        "efficiency_global": "0.6781427580950791",
        "efficiency_local": "0.5747171108793998",
        "efficiency_global_routed": "0.8018955822099331",
        "efficiency_local_routed": "0.26167199324253143"
    },
    {
        "length": "1175939.3980000021",
        "length_lcc": "1175939.3980000021",
        "coverage": "605.9132303759934",
        "directness": "0.7601211297421767",
        "directness_lcc": "0.7601211297421767",
        "poi_coverage": "224",
        "components": "1",
        "overlap_biketrack": "8628.496000000003",
        "overlap_bikeable": "51734.99899999998",
        "efficiency_global": "0.6845717947072287",
        "efficiency_local": "0.603457492688359",
        "efficiency_global_routed": "0.8090420014732029",
        "efficiency_local_routed": "0.23730879960298779"
    },
    {
        "length": "1194484.9710000022",
        "length_lcc": "1194484.9710000022",
        "coverage": "608.6477185704755",
        "directness": "0.761643022067445",
        "directness_lcc": "0.761643022067445",
        "poi_coverage": "224",
        "components": "1",
        "overlap_biketrack": "8628.496000000003",
        "overlap_bikeable": "51734.99899999998",
        "efficiency_global": "0.6925148873325687",
        "efficiency_local": "0.6307801688318021",
        "efficiency_global_routed": "0.8050689090809215",
        "efficiency_local_routed": "0.2721859690030451"
    },
    {
        "length": "1214311.7659999996",
        "length_lcc": "1214311.7659999996",
        "coverage": "610.8965308606827",
        "directness": "0.7601088685724987",
        "directness_lcc": "0.7601088685724987",
        "poi_coverage": "224",
        "components": "1",
        "overlap_biketrack": "9513.136000000002",
        "overlap_bikeable": "53824.92499999999",
        "efficiency_global": "0.6994655607716541",
        "efficiency_local": "0.6560791587784712",
        "efficiency_global_routed": "0.8093619312212982",
        "efficiency_local_routed": "0.22317164669843223"
    },
    {
        "length": "1231424.8970000006",
        "length_lcc": "1231424.8970000006",
        "coverage": "611.5823320568963",
        "directness": "0.7683782300306957",
        "directness_lcc": "0.7683782300306957",
        "poi_coverage": "224",
        "components": "1",
        "overlap_biketrack": "9513.136000000002",
        "overlap_bikeable": "54939.866999999984",
        "efficiency_global": "0.7055839646600515",
        "efficiency_local": "0.6743642312710267",
        "efficiency_global_routed": "0.8099704456619824",
        "efficiency_local_routed": "0.2783960644688428"
    }
]