[
    {
        "length": "82666.71200000003",
        "length_lcc": "42078.793999999994",
        "coverage": "80.4992342329134",
        "directness": "0.799854877735005",
        "directness_lcc": "0.8170552489195683",
        "poi_coverage": "41",
        "components": "5",
        "overlap_biketrack": "100.403",
        "overlap_bikeable": "100.403",
        "efficiency_global": "0.39417635580165633",
        "efficiency_local": "0.0",
        "efficiency_global_routed": "0.8510662713464052",
        "efficiency_local_routed": "0.356218485131216"
    },
    {
        "length": "161537.9710000001",
        "length_lcc": "125953.962",
        "coverage": "154.604295240393",
        "directness": "0.7204332408446825",
        "directness_lcc": "0.7160815489162697",
        "poi_coverage": "79",
        "components": "10",
        "overlap_biketrack": "100.403",
        "overlap_bikeable": "100.403",
        "efficiency_global": "0.37982726867421757",
        "efficiency_local": "0.0",
        "efficiency_global_routed": "0.8834840122575592",
        "efficiency_local_routed": "0.11551707173253507"
    },
    {
        "length": "247766.12200000018",
        "length_lcc": "217477.85000000027",
        "coverage": "225.3021883226023",
        "directness": "0.7141807938015282",
        "directness_lcc": "0.7136687914278209",
        "poi_coverage": "108",
        "components": "7",
        "overlap_biketrack": "100.403",
        "overlap_bikeable": "117.35000000000001",
        "efficiency_global": "0.48736089030391366",
        "efficiency_local": "0.010229459776624757",
        "efficiency_global_routed": "0.8919445546626299",
        "efficiency_local_routed": "0.15555230035073767"
    },
    {
        "length": "325571.33900000184",
        "length_lcc": "304950.39000000124",
        "coverage": "283.54077735022844",
        "directness": "0.6920121322439526",
        "directness_lcc": "0.6872701189841937",
        "poi_coverage": "135",
        "components": "5",
        "overlap_biketrack": "100.403",
        "overlap_bikeable": "117.35000000000001",
        "efficiency_global": "0.5321271136768234",
        "efficiency_local": "0.00536746767935905",
        "efficiency_global_routed": "0.8839547434372511",
        "efficiency_local_routed": "0.2532443787496553"
    },
    {
        "length": "411886.79300000163",
        "length_lcc": "401332.672000002",
        "coverage": "347.02117208214156",
        "directness": "0.702454058335005",
        "directness_lcc": "0.7048636929289094",
        "poi_coverage": "159",
        "components": "4",
        "overlap_biketrack": "100.403",
        "overlap_bikeable": "117.35000000000001",
        "efficiency_global": "0.5998472159159157",
        "efficiency_local": "0.036931729393522704",
        "efficiency_global_routed": "0.8734605358777985",
        "efficiency_local_routed": "0.22545138201812528"
    },
    {
        "length": "488739.68800000125",
        "length_lcc": "461073.52100000187",
        "coverage": "406.04768000506533",
        "directness": "0.7168083453074614",
        "directness_lcc": "0.7210574728409376",
        "poi_coverage": "186",
        "components": "7",
        "overlap_biketrack": "100.403",
        "overlap_bikeable": "117.35000000000001",
        "efficiency_global": "0.5574187490218385",
        "efficiency_local": "0.06519639935007245",
        "efficiency_global_routed": "0.8414099460218175",
        "efficiency_local_routed": "0.26455863080897873"
    },
    {
        "length": "571842.5430000009",
        "length_lcc": "563499.2120000012",
        "coverage": "469.43360741882594",
        "directness": "0.6891500289594039",
        "directness_lcc": "0.6959192925626276",
        "poi_coverage": "212",
        "components": "5",
        "overlap_biketrack": "100.403",
        "overlap_bikeable": "117.35000000000001",
        "efficiency_global": "0.6032829856927934",
        "efficiency_local": "0.06579032539394447",
        "efficiency_global_routed": "0.8483196963060549",
        "efficiency_local_routed": "0.2826985879684279"
    },
    {
        "length": "651575.9079999996",
        "length_lcc": "643116.5149999994",
        "coverage": "525.5143739358778",
        "directness": "0.6737846035095599",
        "directness_lcc": "0.6797181227506751",
        "poi_coverage": "235",
        "components": "4",
        "overlap_biketrack": "100.403",
        "overlap_bikeable": "117.35000000000001",
        "efficiency_global": "0.6015970345559827",
        "efficiency_local": "0.07521443658830726",
        "efficiency_global_routed": "0.8587446913557116",
        "efficiency_local_routed": "0.26567902278568356"
    },
    {
        "length": "728097.5570000025",
        "length_lcc": "719250.3700000028",
        "coverage": "571.4993741328551",
        "directness": "0.72197765163777",
        "directness_lcc": "0.7150646059301488",
        "poi_coverage": "257",
        "components": "4",
        "overlap_biketrack": "100.403",
        "overlap_bikeable": "117.35000000000001",
        "efficiency_global": "0.6195433368180879",
        "efficiency_local": "0.08019400479161336",
        "efficiency_global_routed": "0.8539644014585472",
        "efficiency_local_routed": "0.26318896354847665"
    },
    {
        "length": "802166.7660000002",
        "length_lcc": "795393.1160000006",
        "coverage": "618.2734973234094",
        "directness": "0.7249375979404161",
        "directness_lcc": "0.7239038846962218",
        "poi_coverage": "277",
        "components": "3",
        "overlap_biketrack": "100.403",
        "overlap_bikeable": "117.35000000000001",
        "efficiency_global": "0.6299163731445244",
        "efficiency_local": "0.08309376476951984",
        "efficiency_global_routed": "0.8507083174209291",
        "efficiency_local_routed": "0.2674612358756946"
    },
    {
        "length": "887880.4489999999",
        "length_lcc": "887880.4489999999",
        "coverage": "666.6463485069482",
        "directness": "0.7251408044001042",
        "directness_lcc": "0.7251408044001042",
        "poi_coverage": "294",
        "components": "1",
        "overlap_biketrack": "100.403",
        "overlap_bikeable": "117.35000000000001",
        "efficiency_global": "0.6497999243246187",
        "efficiency_local": "0.0871055038671224",
        "efficiency_global_routed": "0.8455522130124993",
        "efficiency_local_routed": "0.25202328895470966"
    },
    {
        "length": "971356.1909999994",
        "length_lcc": "969084.7149999995",
        "coverage": "721.2233108586856",
        "directness": "0.7221738794477468",
        "directness_lcc": "0.7266750897326302",
        "poi_coverage": "315",
        "components": "2",
        "overlap_biketrack": "100.403",
        "overlap_bikeable": "234.977",
        "efficiency_global": "0.6406197986838336",
        "efficiency_local": "0.10477324881023005",
        "efficiency_global_routed": "0.8430132903058095",
        "efficiency_local_routed": "0.2557417735967033"
    },
    {
        "length": "1043719.7699999983",
        "length_lcc": "1041448.293999998",
        "coverage": "755.6525078113881",
        "directness": "0.730722670857334",
        "directness_lcc": "0.7279198784423712",
        "poi_coverage": "326",
        "components": "2",
        "overlap_biketrack": "179.79",
        "overlap_bikeable": "314.364",
        "efficiency_global": "0.6517008128910825",
        "efficiency_local": "0.1219446505412597",
        "efficiency_global_routed": "0.8369135534925293",
        "efficiency_local_routed": "0.25465619058420724"
    },
    {
        "length": "1114012.7730000063",
        "length_lcc": "1114012.7730000063",
        "coverage": "792.0707008469544",
        "directness": "0.7356910530418214",
        "directness_lcc": "0.7356910530418214",
        "poi_coverage": "341",
        "components": "1",
        "overlap_biketrack": "179.79",
        "overlap_bikeable": "314.364",
        "efficiency_global": "0.6597276308619748",
        "efficiency_local": "0.13858510566104484",
        "efficiency_global_routed": "0.8327171535131034",
        "efficiency_local_routed": "0.23958173113130163"
    },
    {
        "length": "1187078.9670000083",
        "length_lcc": "1187078.9670000083",
        "coverage": "828.268617173789",
        "directness": "0.7367535668036957",
        "directness_lcc": "0.7367535668036957",
        "poi_coverage": "357",
        "components": "1",
        "overlap_biketrack": "179.79",
        "overlap_bikeable": "407.17999999999995",
        "efficiency_global": "0.6600295984789207",
        "efficiency_local": "0.1592172882013513",
        "efficiency_global_routed": "0.827402669544664",
        "efficiency_local_routed": "0.24571765579751673"
    },
    {
        "length": "1260663.834000013",
        "length_lcc": "1260663.834000013",
        "coverage": "860.2327121496475",
        "directness": "0.738581297754645",
        "directness_lcc": "0.738581297754645",
        "poi_coverage": "367",
        "components": "1",
        "overlap_biketrack": "179.79",
        "overlap_bikeable": "407.17999999999995",
        "efficiency_global": "0.6659042396866202",
        "efficiency_local": "0.18789453358401825",
        "efficiency_global_routed": "0.834180774918766",
        "efficiency_local_routed": "0.21049684530580204"
    },
    {
        "length": "1328392.3500000061",
        "length_lcc": "1328392.3500000061",
        "coverage": "893.2660827437174",
        "directness": "0.738624584200465",
        "directness_lcc": "0.738624584200465",
        "poi_coverage": "381",
        "components": "1",
        "overlap_biketrack": "179.79",
        "overlap_bikeable": "407.17999999999995",
        "efficiency_global": "0.6659906810825867",
        "efficiency_local": "0.2036887066833327",
        "efficiency_global_routed": "0.8246454415056599",
        "efficiency_local_routed": "0.2126019734466649"
    },
    {
        "length": "1397491.4380000103",
        "length_lcc": "1397491.4380000103",
        "coverage": "933.2006947129612",
        "directness": "0.738185999649312",
        "directness_lcc": "0.738185999649312",
        "poi_coverage": "399",
        "components": "1",
        "overlap_biketrack": "179.79",
        "overlap_bikeable": "407.17999999999995",
        "efficiency_global": "0.6635392750561097",
        "efficiency_local": "0.20918052569618692",
        "efficiency_global_routed": "0.8123205250698592",
        "efficiency_local_routed": "0.20533996348291497"
    },
    {
        "length": "1478316.8200000138",
        "length_lcc": "1478316.8200000138",
        "coverage": "979.64985499682",
        "directness": "0.7421683705060448",
        "directness_lcc": "0.7421683705060448",
        "poi_coverage": "418",
        "components": "1",
        "overlap_biketrack": "274.204",
        "overlap_bikeable": "501.59399999999994",
        "efficiency_global": "0.6590996746430063",
        "efficiency_local": "0.20679977405862585",
        "efficiency_global_routed": "0.8193522279993555",
        "efficiency_local_routed": "0.18197133636933502"
    },
    {
        "length": "1547954.5470000189",
        "length_lcc": "1547954.5470000189",
        "coverage": "1010.0800016311638",
        "directness": "0.7450675403712761",
        "directness_lcc": "0.7450675403712761",
        "poi_coverage": "430",
        "components": "1",
        "overlap_biketrack": "274.204",
        "overlap_bikeable": "501.59399999999994",
        "efficiency_global": "0.6601448849989744",
        "efficiency_local": "0.216644586080623",
        "efficiency_global_routed": "0.8203321372906512",
        "efficiency_local_routed": "0.21162698685594275"
    },
    {
        "length": "1620181.8070000228",
        "length_lcc": "1620181.8070000228",
        "coverage": "1040.2742717331685",
        "directness": "0.7441880692600377",
        "directness_lcc": "0.7441880692600377",
        "poi_coverage": "442",
        "components": "1",
        "overlap_biketrack": "274.204",
        "overlap_bikeable": "501.59399999999994",
        "efficiency_global": "0.6599484686189869",
        "efficiency_local": "0.23580514296764196",
        "efficiency_global_routed": "0.8328084639597222",
        "efficiency_local_routed": "0.2006915206784299"
    },
    {
        "length": "1688408.0670000259",
        "length_lcc": "1688408.0670000259",
        "coverage": "1069.5525159130232",
        "directness": "0.747492021907091",
        "directness_lcc": "0.747492021907091",
        "poi_coverage": "453",
        "components": "1",
        "overlap_biketrack": "274.204",
        "overlap_bikeable": "501.59399999999994",
        "efficiency_global": "0.6606477638663601",
        "efficiency_local": "0.24945351611128758",
        "efficiency_global_routed": "0.8287409659779124",
        "efficiency_local_routed": "0.19334899662009244"
    },
    {
        "length": "1750335.4360000207",
        "length_lcc": "1750335.4360000207",
        "coverage": "1091.199876417419",
        "directness": "0.7482891975291455",
        "directness_lcc": "0.7482891975291455",
        "poi_coverage": "460",
        "components": "1",
        "overlap_biketrack": "274.204",
        "overlap_bikeable": "501.59399999999994",
        "efficiency_global": "0.6636786155116868",
        "efficiency_local": "0.2831893893759372",
        "efficiency_global_routed": "0.8116205582554492",
        "efficiency_local_routed": "0.15920073135284313"
    },
    {
        "length": "1823037.4870000184",
        "length_lcc": "1823037.4870000184",
        "coverage": "1110.2602013595974",
        "directness": "0.7522236174270596",
        "directness_lcc": "0.7522236174270596",
        "poi_coverage": "468",
        "components": "1",
        "overlap_biketrack": "274.204",
        "overlap_bikeable": "501.59399999999994",
        "efficiency_global": "0.6647621441773495",
        "efficiency_local": "0.30366202185081625",
        "efficiency_global_routed": "0.8123318191673251",
        "efficiency_local_routed": "0.19624582871490942"
    },
    {
        "length": "1878665.354000018",
        "length_lcc": "1878665.354000018",
        "coverage": "1126.1449273346689",
        "directness": "0.7488016047187991",
        "directness_lcc": "0.7488016047187991",
        "poi_coverage": "471",
        "components": "1",
        "overlap_biketrack": "274.204",
        "overlap_bikeable": "501.59399999999994",
        "efficiency_global": "0.668186077183821",
        "efficiency_local": "0.3373553310153198",
        "efficiency_global_routed": "0.8169287769565665",
        "efficiency_local_routed": "0.2312334049860805"
    },
    {
        "length": "1939034.325000017",
        "length_lcc": "1939034.325000017",
        "coverage": "1136.0635629468152",
        "directness": "0.7555158924100636",
        "directness_lcc": "0.7555158924100636",
        "poi_coverage": "472",
        "components": "1",
        "overlap_biketrack": "274.204",
        "overlap_bikeable": "501.59399999999994",
        "efficiency_global": "0.6716653342218142",
        "efficiency_local": "0.36904073896641537",
        "efficiency_global_routed": "0.807477349086164",
        "efficiency_local_routed": "0.19049876838305815"
    },
    {
        "length": "2006950.8580000184",
        "length_lcc": "2006950.8580000184",
        "coverage": "1150.957622393475",
        "directness": "0.7555384840809497",
        "directness_lcc": "0.7555384840809497",
        "poi_coverage": "473",
        "components": "1",
        "overlap_biketrack": "274.204",
        "overlap_bikeable": "501.59399999999994",
        "efficiency_global": "0.6748505196086515",
        "efficiency_local": "0.3970632914541404",
        "efficiency_global_routed": "0.816250620755725",
        "efficiency_local_routed": "0.2044017013604172"
    },
    {
        "length": "2068234.466000026",
        "length_lcc": "2068234.466000026",
        "coverage": "1162.139145990675",
        "directness": "0.7593704193784101",
        "directness_lcc": "0.7593704193784101",
        "poi_coverage": "473",
        "components": "1",
        "overlap_biketrack": "274.204",
        "overlap_bikeable": "501.59399999999994",
        "efficiency_global": "0.6778575932727099",
        "efficiency_local": "0.43148458080199903",
        "efficiency_global_routed": "0.8184137422779658",
        "efficiency_local_routed": "0.19332489982041903"
    },
    {
        "length": "2119988.82400002",
        "length_lcc": "2119988.82400002",
        "coverage": "1171.391112380073",
        "directness": "0.7580777276915163",
        "directness_lcc": "0.7580777276915163",
        "poi_coverage": "473",
        "components": "1",
        "overlap_biketrack": "274.204",
        "overlap_bikeable": "501.59399999999994",
        "efficiency_global": "0.6808026665306312",
        "efficiency_local": "0.4564984819183695",
        "efficiency_global_routed": "0.8172290203430009",
        "efficiency_local_routed": "0.19691956432917615"
    },
    {
        "length": "2199966.784000021",
        "length_lcc": "2199966.784000021",
        "coverage": "1183.8226450280622",
        "directness": "0.7599245668654806",
        "directness_lcc": "0.7599245668654806",
        "poi_coverage": "473",
        "components": "1",
        "overlap_biketrack": "274.204",
        "overlap_bikeable": "501.59399999999994",
        "efficiency_global": "0.6835060541954142",
        "efficiency_local": "0.47519122321040846",
        "efficiency_global_routed": "0.8029397081421854",
        "efficiency_local_routed": "0.17709961906535762"
    },
    {
        "length": "2246510.652000016",
        "length_lcc": "2246510.652000016",
        "coverage": "1189.9166790878116",
        "directness": "0.7649529270611024",
        "directness_lcc": "0.7649529270611024",
        "poi_coverage": "473",
        "components": "1",
        "overlap_biketrack": "986.302",
        "overlap_bikeable": "1213.6920000000002",
        "efficiency_global": "0.6861748445160331",
        "efficiency_local": "0.5028775622814772",
        "efficiency_global_routed": "0.8073168184291285",
        "efficiency_local_routed": "0.1789721905866497"
    },
    {
        "length": "2300311.506000022",
        "length_lcc": "2300311.506000022",
        "coverage": "1197.8293479375961",
        "directness": "0.765882436970746",
        "directness_lcc": "0.765882436970746",
        "poi_coverage": "473",
        "components": "1",
        "overlap_biketrack": "986.302",
        "overlap_bikeable": "1213.6920000000002",
        "efficiency_global": "0.6881074144475148",
        "efficiency_local": "0.5260370863114092",
        "efficiency_global_routed": "0.8192895530761619",
        "efficiency_local_routed": "0.17703148735008734"
    },
    {
        "length": "2352242.304000028",
        "length_lcc": "2352242.304000028",
        "coverage": "1202.803401991785",
        "directness": "0.7680581484942157",
        "directness_lcc": "0.7680581484942157",
        "poi_coverage": "473",
        "components": "1",
        "overlap_biketrack": "1370.487",
        "overlap_bikeable": "1597.8770000000002",
        "efficiency_global": "0.6901580177007691",
        "efficiency_local": "0.5482895089478916",
        "efficiency_global_routed": "0.7992345606938318",
        "efficiency_local_routed": "0.18824578171492498"
    },
    {
        "length": "2405440.4210000257",
        "length_lcc": "2405440.4210000257",
        "coverage": "1209.5773369764138",
        "directness": "0.7709051077051922",
        "directness_lcc": "0.7709051077051922",
        "poi_coverage": "473",
        "components": "1",
        "overlap_biketrack": "1370.487",
        "overlap_bikeable": "1597.8770000000002",
        "efficiency_global": "0.6914963530558744",
        "efficiency_local": "0.5771391871074067",
        "efficiency_global_routed": "0.8091453721319228",
        "efficiency_local_routed": "0.19540209499824515"
    },
    {
        "length": "2446105.60600003",
        "length_lcc": "2446105.60600003",
        "coverage": "1214.499156262876",
        "directness": "0.7701294844084834",
        "directness_lcc": "0.7701294844084834",
        "poi_coverage": "473",
        "components": "1",
        "overlap_biketrack": "1370.487",
        "overlap_bikeable": "1597.8770000000002",
        "efficiency_global": "0.693358748623956",
        "efficiency_local": "0.6006619911589322",
        "efficiency_global_routed": "0.8018003940381689",
        "efficiency_local_routed": "0.1803376132546461"
    },
    {
        "length": "2500520.364000026",
        "length_lcc": "2500520.364000026",
        "coverage": "1221.3487234755937",
        "directness": "0.7752527967017857",
        "directness_lcc": "0.7752527967017857",
        "poi_coverage": "473",
        "components": "1",
        "overlap_biketrack": "1387.156",
        "overlap_bikeable": "1614.546",
        "efficiency_global": "0.6942572237748401",
        "efficiency_local": "0.6065292725094886",
        "efficiency_global_routed": "0.8067801754223415",
        "efficiency_local_routed": "0.16189959141873808"
    },
    {
        "length": "2543950.7830000287",
        "length_lcc": "2543950.7830000287",
        "coverage": "1224.922527797413",
        "directness": "0.7727151240652551",
        "directness_lcc": "0.7727151240652551",
        "poi_coverage": "473",
        "components": "1",
        "overlap_biketrack": "1387.156",
        "overlap_bikeable": "1614.546",
        "efficiency_global": "0.695162246245341",
        "efficiency_local": "0.6268834724950012",
        "efficiency_global_routed": "0.8197596222289416",
        "efficiency_local_routed": "0.18134005051940708"
    },
    {
        "length": "2597645.8250000286",
        "length_lcc": "2597645.8250000286",
        "coverage": "1227.14626404428",
        "directness": "0.7801399720435548",
        "directness_lcc": "0.7801399720435548",
        "poi_coverage": "473",
        "components": "1",
        "overlap_biketrack": "1387.156",
        "overlap_bikeable": "1614.546",
        "efficiency_global": "0.695562004002782",
        "efficiency_local": "0.63318722176108",
        "efficiency_global_routed": "0.8129151017991577",
        "efficiency_local_routed": "0.16527313916771716"
    },
    {
        "length": "2632926.5670000296",
        "length_lcc": "2632926.5670000296",
        "coverage": "1230.7068282345167",
        "directness": "0.7813227412729431",
        "directness_lcc": "0.7813227412729431",
        "poi_coverage": "473",
        "components": "1",
        "overlap_biketrack": "1387.156",
        "overlap_bikeable": "1614.546",
        "efficiency_global": "0.6962002787160467",
        "efficiency_local": "0.6509680006297617",
        "efficiency_global_routed": "0.8194457627424234",
        "efficiency_local_routed": "0.17666043186892147"
    },
    {
        "length": "2632926.5670000296",
        "length_lcc": "2632926.5670000296",
        "coverage": "1230.7068282345167",
        "directness": "0.7776389707697371",
        "directness_lcc": "0.7776389707697371",
        "poi_coverage": "473",
        "components": "1",
        "overlap_biketrack": "1387.156",
        "overlap_bikeable": "1614.546",
        "efficiency_global": "0.6962002787160467",
        "efficiency_local": "0.6542326444085497",
        "efficiency_global_routed": "0.8107348186216257",
        "efficiency_local_routed": "0.16279782758381292"
    }
]