[
    {
        "network": "bikeable",
        "length": "3061666.946000036",
        "length_lcc": "1638880.6409999873",
        "coverage": "644.1493982485449",
        "directness": "0.5722946710239999",
        "directness_lcc": "0.5567440093876126",
        "poi_coverage": "209",
        "components": "1213",
        "efficiency_global": "0.25853989310008696",
        "efficiency_local": "0.07288877982358918",
        "efficiency_global_routed": "0.2358413841321249",
        "efficiency_local_routed": "0.1268867062733008"
    },
    {
        "network": "bikeable_offstreet",
        "length": "514882.144999997",
        "length_lcc": "15050.403999999999",
        "coverage": "441.1909558742836",
        "directness": "0.6807487045996783",
        "directness_lcc": "0.6985119505080365",
        "poi_coverage": "148",
        "components": "1279",
        "efficiency_global": "0.0947745496596423",
        "efficiency_local": "0.09468383506806766",
        "efficiency_global_routed": "0.1570808019552516",
        "efficiency_local_routed": "0.14216154469373093"
    },
    {
        "network": "biketrack",
        "length": "858443.2690000051",
        "length_lcc": "138663.13499999998",
        "coverage": "476.26817516311854",
        "directness": "0.6192782362532419",
        "directness_lcc": "0.6472467554626005",
        "poi_coverage": "166",
        "components": "885",
        "efficiency_global": "0.1651009906099172",
        "efficiency_local": "0.12919041963560335",
        "efficiency_global_routed": "0.16189872341249997",
        "efficiency_local_routed": "0.17518074206263318"
    },
    {
        "network": "biketrack_onstreet",
        "length": "571168.7370000031",
        "length_lcc": "45838.21899999991",
        "coverage": "409.9870246394353",
        "directness": "0.7021787799441714",
        "directness_lcc": "0.6877424723201838",
        "poi_coverage": "143",
        "components": "568",
        "efficiency_global": "0.23994518403073883",
        "efficiency_local": "0.28800970813471954",
        "efficiency_global_routed": "0.10993078193032546",
        "efficiency_local_routed": "0.2626644745065829"
    },
    {
        "network": "biketrackcarall",
        "length": "4636198.117000022",
        "length_lcc": "4614981.643000019",
        "coverage": "723.6548580618005",
        "directness": "0.7978184912516159",
        "directness_lcc": "0.7940737721388808",
        "poi_coverage": "228",
        "components": "118",
        "efficiency_global": "0.7717359901531302",
        "efficiency_local": "0.139164705390259",
        "efficiency_global_routed": "0.7760276773224715",
        "efficiency_local_routed": "0.18631427902077716"
    },
    {
        "network": "carall",
        "length": "4348923.58500005",
        "length_lcc": "4348923.58500005",
        "coverage": "720.0336713537367",
        "directness": "0.7913873366617644",
        "directness_lcc": "0.7913873366617644",
        "poi_coverage": "228",
        "components": "1",
        "efficiency_global": "0.7888166940200035",
        "efficiency_local": "0.16842025121237758",
        "efficiency_global_routed": "0.7804960216960682",
        "efficiency_local_routed": "0.20152127199783393"
    }
]