[
    {
        "length": "2399.5350000000003",
        "length_lcc": "2399.5350000000003",
        "coverage": "2.9517353387889798",
        "directness": "0.820149129515763",
        "directness_lcc": "0.820149129515763",
        "poi_coverage": "2",
        "components": "1",
        "overlap_biketrack": "0",
        "overlap_bikeable": "0",
        "efficiency_global": "0.727367674283992",
        "efficiency_local": "0",
        "efficiency_global_routed": "0.727367674283992",
        "efficiency_local_routed": "0"
    },
    {
        "length": "2399.5350000000003",
        "length_lcc": "2399.5350000000003",
        "coverage": "2.9517353387889798",
        "directness": "0.8201491295157606",
        "directness_lcc": "0.8201491295157606",
        "poi_coverage": "2",
        "components": "1",
        "overlap_biketrack": "0",
        "overlap_bikeable": "0",
        "efficiency_global": "0.727367674283992",
        "efficiency_local": "0",
        "efficiency_global_routed": "0.727367674283992",
        "efficiency_local_routed": "0"
    },
    {
        "length": "2399.5350000000003",
        "length_lcc": "2399.5350000000003",
        "coverage": "2.9517353387889798",
        "directness": "0.8201491295157625",
        "directness_lcc": "0.8201491295157625",
        "poi_coverage": "2",
        "components": "1",
        "overlap_biketrack": "0",
        "overlap_bikeable": "0",
        "efficiency_global": "0.727367674283992",
        "efficiency_local": "0",
        "efficiency_global_routed": "0.727367674283992",
        "efficiency_local_routed": "0"
    },
    {
        "length": "19122.02300000001",
        "length_lcc": "19122.02300000001",
        "coverage": "15.383830317630595",
        "directness": "0.7443164493230272",
        "directness_lcc": "0.7443164493230272",
        "poi_coverage": "6",
        "components": "1",
        "overlap_biketrack": "0",
        "overlap_bikeable": "229.083",
        "efficiency_global": "0.6726576843589895",
        "efficiency_local": "0.5588534529109112",
        "efficiency_global_routed": "0.9636820945702095",
        "efficiency_local_routed": "0.48215030434194556"
    },
    {
        "length": "19122.02300000001",
        "length_lcc": "19122.02300000001",
        "coverage": "15.383830317630595",
        "directness": "0.7454370810492028",
        "directness_lcc": "0.7454370810492028",
        "poi_coverage": "6",
        "components": "1",
        "overlap_biketrack": "0",
        "overlap_bikeable": "229.083",
        "efficiency_global": "0.6726576843589895",
        "efficiency_local": "0.5588534529109112",
        "efficiency_global_routed": "0.9636820945702095",
        "efficiency_local_routed": "0.48215030434194556"
    },
    {
        "length": "19122.02300000001",
        "length_lcc": "19122.02300000001",
        "coverage": "15.383830317630595",
        "directness": "0.7484684253168372",
        "directness_lcc": "0.7484684253168372",
        "poi_coverage": "6",
        "components": "1",
        "overlap_biketrack": "0",
        "overlap_bikeable": "229.083",
        "efficiency_global": "0.6726576843589895",
        "efficiency_local": "0.5588534529109112",
        "efficiency_global_routed": "0.9636820945702095",
        "efficiency_local_routed": "0.48215030434194556"
    },
    {
        "length": "19122.02300000001",
        "length_lcc": "19122.02300000001",
        "coverage": "15.383830317630595",
        "directness": "0.7483232465751668",
        "directness_lcc": "0.7483232465751668",
        "poi_coverage": "6",
        "components": "1",
        "overlap_biketrack": "0",
        "overlap_bikeable": "229.083",
        "efficiency_global": "0.6726576843589895",
        "efficiency_local": "0.5588534529109112",
        "efficiency_global_routed": "0.9636820945702095",
        "efficiency_local_routed": "0.48215030434194556"
    },
    {
        "length": "19122.02300000001",
        "length_lcc": "19122.02300000001",
        "coverage": "15.383830317630595",
        "directness": "0.7416673962695509",
        "directness_lcc": "0.7416673962695509",
        "poi_coverage": "6",
        "components": "1",
        "overlap_biketrack": "0",
        "overlap_bikeable": "229.083",
        "efficiency_global": "0.6726576843589895",
        "efficiency_local": "0.5588534529109112",
        "efficiency_global_routed": "0.9636820945702095",
        "efficiency_local_routed": "0.48215030434194556"
    },
    {
        "length": "19122.02300000001",
        "length_lcc": "19122.02300000001",
        "coverage": "15.383830317630595",
        "directness": "0.7439117818723529",
        "directness_lcc": "0.7439117818723529",
        "poi_coverage": "6",
        "components": "1",
        "overlap_biketrack": "0",
        "overlap_bikeable": "229.083",
        "efficiency_global": "0.6726576843589895",
        "efficiency_local": "0.5588534529109112",
        "efficiency_global_routed": "0.9636820945702095",
        "efficiency_local_routed": "0.48215030434194556"
    },
    {
        "length": "19122.02300000001",
        "length_lcc": "19122.02300000001",
        "coverage": "15.383830317630595",
        "directness": "0.7455894265598003",
        "directness_lcc": "0.7455894265598003",
        "poi_coverage": "6",
        "components": "1",
        "overlap_biketrack": "0",
        "overlap_bikeable": "229.083",
        "efficiency_global": "0.6726576843589895",
        "efficiency_local": "0.5588534529109112",
        "efficiency_global_routed": "0.9636820945702095",
        "efficiency_local_routed": "0.48215030434194556"
    },
    {
        "length": "19122.02300000001",
        "length_lcc": "19122.02300000001",
        "coverage": "15.383830317630595",
        "directness": "0.7443236983828849",
        "directness_lcc": "0.7443236983828849",
        "poi_coverage": "6",
        "components": "1",
        "overlap_biketrack": "0",
        "overlap_bikeable": "229.083",
        "efficiency_global": "0.6726576843589895",
        "efficiency_local": "0.5588534529109112",
        "efficiency_global_routed": "0.9636820945702095",
        "efficiency_local_routed": "0.48215030434194556"
    },
    {
        "length": "19122.02300000001",
        "length_lcc": "19122.02300000001",
        "coverage": "15.383830317630595",
        "directness": "0.7454428676513118",
        "directness_lcc": "0.7454428676513118",
        "poi_coverage": "6",
        "components": "1",
        "overlap_biketrack": "0",
        "overlap_bikeable": "229.083",
        "efficiency_global": "0.6726576843589895",
        "efficiency_local": "0.5588534529109112",
        "efficiency_global_routed": "0.9636820945702095",
        "efficiency_local_routed": "0.48215030434194556"
    },
    {
        "length": "19122.02300000001",
        "length_lcc": "19122.02300000001",
        "coverage": "15.383830317630595",
        "directness": "0.7435466030177424",
        "directness_lcc": "0.7435466030177424",
        "poi_coverage": "6",
        "components": "1",
        "overlap_biketrack": "0",
        "overlap_bikeable": "229.083",
        "efficiency_global": "0.6726576843589895",
        "efficiency_local": "0.5588534529109112",
        "efficiency_global_routed": "0.9636820945702095",
        "efficiency_local_routed": "0.48215030434194556"
    },
    {
        "length": "19122.02300000001",
        "length_lcc": "19122.02300000001",
        "coverage": "15.383830317630595",
        "directness": "0.743248125745583",
        "directness_lcc": "0.743248125745583",
        "poi_coverage": "6",
        "components": "1",
        "overlap_biketrack": "0",
        "overlap_bikeable": "229.083",
        "efficiency_global": "0.6726576843589895",
        "efficiency_local": "0.5588534529109112",
        "efficiency_global_routed": "0.9636820945702095",
        "efficiency_local_routed": "0.48215030434194556"
    },
    {
        "length": "19122.02300000001",
        "length_lcc": "19122.02300000001",
        "coverage": "15.383830317630595",
        "directness": "0.7397383964733413",
        "directness_lcc": "0.7397383964733413",
        "poi_coverage": "6",
        "components": "1",
        "overlap_biketrack": "0",
        "overlap_bikeable": "229.083",
        "efficiency_global": "0.6726576843589895",
        "efficiency_local": "0.5588534529109112",
        "efficiency_global_routed": "0.9636820945702095",
        "efficiency_local_routed": "0.48215030434194556"
    },
    {
        "length": "19122.02300000001",
        "length_lcc": "19122.02300000001",
        "coverage": "15.383830317630595",
        "directness": "0.7434412844698136",
        "directness_lcc": "0.7434412844698136",
        "poi_coverage": "6",
        "components": "1",
        "overlap_biketrack": "0",
        "overlap_bikeable": "229.083",
        "efficiency_global": "0.6726576843589895",
        "efficiency_local": "0.5588534529109112",
        "efficiency_global_routed": "0.9636820945702095",
        "efficiency_local_routed": "0.48215030434194556"
    },
    {
        "length": "19122.02300000001",
        "length_lcc": "19122.02300000001",
        "coverage": "15.383830317630595",
        "directness": "0.7405766013942258",
        "directness_lcc": "0.7405766013942258",
        "poi_coverage": "6",
        "components": "1",
        "overlap_biketrack": "0",
        "overlap_bikeable": "229.083",
        "efficiency_global": "0.6726576843589895",
        "efficiency_local": "0.5588534529109112",
        "efficiency_global_routed": "0.9636820945702095",
        "efficiency_local_routed": "0.48215030434194556"
    },
    {
        "length": "19122.02300000001",
        "length_lcc": "19122.02300000001",
        "coverage": "15.383830317630595",
        "directness": "0.7456688150937518",
        "directness_lcc": "0.7456688150937518",
        "poi_coverage": "6",
        "components": "1",
        "overlap_biketrack": "0",
        "overlap_bikeable": "229.083",
        "efficiency_global": "0.6726576843589895",
        "efficiency_local": "0.5588534529109112",
        "efficiency_global_routed": "0.9636820945702095",
        "efficiency_local_routed": "0.48215030434194556"
    },
    {
        "length": "19122.02300000001",
        "length_lcc": "19122.02300000001",
        "coverage": "15.383830317630595",
        "directness": "0.7486632749987044",
        "directness_lcc": "0.7486632749987044",
        "poi_coverage": "6",
        "components": "1",
        "overlap_biketrack": "0",
        "overlap_bikeable": "229.083",
        "efficiency_global": "0.6726576843589895",
        "efficiency_local": "0.5588534529109112",
        "efficiency_global_routed": "0.9636820945702095",
        "efficiency_local_routed": "0.48215030434194556"
    },
    {
        "length": "19122.02300000001",
        "length_lcc": "19122.02300000001",
        "coverage": "15.383830317630595",
        "directness": "0.740106965666009",
        "directness_lcc": "0.740106965666009",
        "poi_coverage": "6",
        "components": "1",
        "overlap_biketrack": "0",
        "overlap_bikeable": "229.083",
        "efficiency_global": "0.6726576843589895",
        "efficiency_local": "0.5588534529109112",
        "efficiency_global_routed": "0.9636820945702095",
        "efficiency_local_routed": "0.48215030434194556"
    },
    {
        "length": "19122.02300000001",
        "length_lcc": "19122.02300000001",
        "coverage": "15.383830317630595",
        "directness": "0.7409359005954377",
        "directness_lcc": "0.7409359005954377",
        "poi_coverage": "6",
        "components": "1",
        "overlap_biketrack": "0",
        "overlap_bikeable": "229.083",
        "efficiency_global": "0.6726576843589895",
        "efficiency_local": "0.5588534529109112",
        "efficiency_global_routed": "0.9636820945702095",
        "efficiency_local_routed": "0.48215030434194556"
    },
    {
        "length": "19122.02300000001",
        "length_lcc": "19122.02300000001",
        "coverage": "15.383830317630595",
        "directness": "0.7413786215546405",
        "directness_lcc": "0.7413786215546405",
        "poi_coverage": "6",
        "components": "1",
        "overlap_biketrack": "0",
        "overlap_bikeable": "229.083",
        "efficiency_global": "0.6726576843589895",
        "efficiency_local": "0.5588534529109112",
        "efficiency_global_routed": "0.9636820945702095",
        "efficiency_local_routed": "0.48215030434194556"
    },
    {
        "length": "19122.02300000001",
        "length_lcc": "19122.02300000001",
        "coverage": "15.383830317630595",
        "directness": "0.7476543696733882",
        "directness_lcc": "0.7476543696733882",
        "poi_coverage": "6",
        "components": "1",
        "overlap_biketrack": "0",
        "overlap_bikeable": "229.083",
        "efficiency_global": "0.6726576843589895",
        "efficiency_local": "0.5588534529109112",
        "efficiency_global_routed": "0.9636820945702095",
        "efficiency_local_routed": "0.48215030434194556"
    },
    {
        "length": "19122.02300000001",
        "length_lcc": "19122.02300000001",
        "coverage": "15.383830317630595",
        "directness": "0.7457372072087763",
        "directness_lcc": "0.7457372072087763",
        "poi_coverage": "6",
        "components": "1",
        "overlap_biketrack": "0",
        "overlap_bikeable": "229.083",
        "efficiency_global": "0.6726576843589895",
        "efficiency_local": "0.5588534529109112",
        "efficiency_global_routed": "0.9636820945702095",
        "efficiency_local_routed": "0.48215030434194556"
    },
    {
        "length": "19122.02300000001",
        "length_lcc": "19122.02300000001",
        "coverage": "15.383830317630595",
        "directness": "0.7449894394582474",
        "directness_lcc": "0.7449894394582474",
        "poi_coverage": "6",
        "components": "1",
        "overlap_biketrack": "0",
        "overlap_bikeable": "229.083",
        "efficiency_global": "0.6726576843589895",
        "efficiency_local": "0.5588534529109112",
        "efficiency_global_routed": "0.9636820945702095",
        "efficiency_local_routed": "0.48215030434194556"
    },
    {
        "length": "19122.02300000001",
        "length_lcc": "19122.02300000001",
        "coverage": "15.383830317630595",
        "directness": "0.7453434943651499",
        "directness_lcc": "0.7453434943651499",
        "poi_coverage": "6",
        "components": "1",
        "overlap_biketrack": "0",
        "overlap_bikeable": "229.083",
        "efficiency_global": "0.6726576843589895",
        "efficiency_local": "0.5588534529109112",
        "efficiency_global_routed": "0.9636820945702095",
        "efficiency_local_routed": "0.48215030434194556"
    },
    {
        "length": "19122.02300000001",
        "length_lcc": "19122.02300000001",
        "coverage": "15.383830317630595",
        "directness": "0.7424853559095459",
        "directness_lcc": "0.7424853559095459",
        "poi_coverage": "6",
        "components": "1",
        "overlap_biketrack": "0",
        "overlap_bikeable": "229.083",
        "efficiency_global": "0.6726576843589895",
        "efficiency_local": "0.5588534529109112",
        "efficiency_global_routed": "0.9636820945702095",
        "efficiency_local_routed": "0.48215030434194556"
    },
    {
        "length": "19122.02300000001",
        "length_lcc": "19122.02300000001",
        "coverage": "15.383830317630595",
        "directness": "0.7429177311728397",
        "directness_lcc": "0.7429177311728397",
        "poi_coverage": "6",
        "components": "1",
        "overlap_biketrack": "0",
        "overlap_bikeable": "229.083",
        "efficiency_global": "0.6726576843589895",
        "efficiency_local": "0.5588534529109112",
        "efficiency_global_routed": "0.9636820945702095",
        "efficiency_local_routed": "0.48215030434194556"
    },
    {
        "length": "30123.370000000035",
        "length_lcc": "30123.370000000035",
        "coverage": "17.97324160288828",
        "directness": "0.7179853265662889",
        "directness_lcc": "0.7179853265662889",
        "poi_coverage": "6",
        "components": "1",
        "overlap_biketrack": "0",
        "overlap_bikeable": "229.083",
        "efficiency_global": "0.7195251829002223",
        "efficiency_local": "0.7187190973004816",
        "efficiency_global_routed": "0.9543326737345227",
        "efficiency_local_routed": "0.3172079013258392"
    },
    {
        "length": "30123.370000000035",
        "length_lcc": "30123.370000000035",
        "coverage": "17.97324160288828",
        "directness": "0.7184855576584867",
        "directness_lcc": "0.7184855576584867",
        "poi_coverage": "6",
        "components": "1",
        "overlap_biketrack": "0",
        "overlap_bikeable": "229.083",
        "efficiency_global": "0.7195251829002223",
        "efficiency_local": "0.7187190973004816",
        "efficiency_global_routed": "0.9543326737345227",
        "efficiency_local_routed": "0.3172079013258392"
    },
    {
        "length": "30123.370000000035",
        "length_lcc": "30123.370000000035",
        "coverage": "17.97324160288828",
        "directness": "0.7099716426502932",
        "directness_lcc": "0.7099716426502932",
        "poi_coverage": "6",
        "components": "1",
        "overlap_biketrack": "0",
        "overlap_bikeable": "229.083",
        "efficiency_global": "0.7195251829002223",
        "efficiency_local": "0.7187190973004816",
        "efficiency_global_routed": "0.9543326737345227",
        "efficiency_local_routed": "0.3172079013258392"
    },
    {
        "length": "30123.370000000035",
        "length_lcc": "30123.370000000035",
        "coverage": "17.97324160288828",
        "directness": "0.7237425952247407",
        "directness_lcc": "0.7237425952247407",
        "poi_coverage": "6",
        "components": "1",
        "overlap_biketrack": "0",
        "overlap_bikeable": "229.083",
        "efficiency_global": "0.7195251829002223",
        "efficiency_local": "0.7187190973004816",
        "efficiency_global_routed": "0.9543326737345227",
        "efficiency_local_routed": "0.3172079013258392"
    },
    {
        "length": "30123.370000000035",
        "length_lcc": "30123.370000000035",
        "coverage": "17.97324160288828",
        "directness": "0.7205694448194327",
        "directness_lcc": "0.7205694448194327",
        "poi_coverage": "6",
        "components": "1",
        "overlap_biketrack": "0",
        "overlap_bikeable": "229.083",
        "efficiency_global": "0.7195251829002223",
        "efficiency_local": "0.7187190973004816",
        "efficiency_global_routed": "0.9543326737345227",
        "efficiency_local_routed": "0.3172079013258392"
    },
    {
        "length": "30123.370000000035",
        "length_lcc": "30123.370000000035",
        "coverage": "17.97324160288828",
        "directness": "0.7255387907867894",
        "directness_lcc": "0.7255387907867894",
        "poi_coverage": "6",
        "components": "1",
        "overlap_biketrack": "0",
        "overlap_bikeable": "229.083",
        "efficiency_global": "0.7195251829002223",
        "efficiency_local": "0.7187190973004816",
        "efficiency_global_routed": "0.9543326737345227",
        "efficiency_local_routed": "0.3172079013258392"
    },
    {
        "length": "30123.370000000035",
        "length_lcc": "30123.370000000035",
        "coverage": "17.97324160288828",
        "directness": "0.7262604248468103",
        "directness_lcc": "0.7262604248468103",
        "poi_coverage": "6",
        "components": "1",
        "overlap_biketrack": "0",
        "overlap_bikeable": "229.083",
        "efficiency_global": "0.7195251829002223",
        "efficiency_local": "0.7187190973004816",
        "efficiency_global_routed": "0.9543326737345227",
        "efficiency_local_routed": "0.3172079013258392"
    },
    {
        "length": "30123.370000000035",
        "length_lcc": "30123.370000000035",
        "coverage": "17.97324160288828",
        "directness": "0.7042197327463678",
        "directness_lcc": "0.7042197327463678",
        "poi_coverage": "6",
        "components": "1",
        "overlap_biketrack": "0",
        "overlap_bikeable": "229.083",
        "efficiency_global": "0.7195251829002223",
        "efficiency_local": "0.7187190973004816",
        "efficiency_global_routed": "0.9543326737345227",
        "efficiency_local_routed": "0.3172079013258392"
    },
    {
        "length": "30123.370000000035",
        "length_lcc": "30123.370000000035",
        "coverage": "17.97324160288828",
        "directness": "0.7231370256626013",
        "directness_lcc": "0.7231370256626013",
        "poi_coverage": "6",
        "components": "1",
        "overlap_biketrack": "0",
        "overlap_bikeable": "229.083",
        "efficiency_global": "0.7195251829002223",
        "efficiency_local": "0.7187190973004816",
        "efficiency_global_routed": "0.9543326737345227",
        "efficiency_local_routed": "0.3172079013258392"
    },
    {
        "length": "30123.370000000035",
        "length_lcc": "30123.370000000035",
        "coverage": "17.97324160288828",
        "directness": "0.7193791061344769",
        "directness_lcc": "0.7193791061344769",
        "poi_coverage": "6",
        "components": "1",
        "overlap_biketrack": "0",
        "overlap_bikeable": "229.083",
        "efficiency_global": "0.7195251829002223",
        "efficiency_local": "0.7187190973004816",
        "efficiency_global_routed": "0.9543326737345227",
        "efficiency_local_routed": "0.3172079013258392"
    },
    {
        "length": "30123.370000000035",
        "length_lcc": "30123.370000000035",
        "coverage": "17.97324160288828",
        "directness": "0.7052486973870421",
        "directness_lcc": "0.7052486973870421",
        "poi_coverage": "6",
        "components": "1",
        "overlap_biketrack": "0",
        "overlap_bikeable": "229.083",
        "efficiency_global": "0.7195251829002223",
        "efficiency_local": "0.7187190973004816",
        "efficiency_global_routed": "0.9543326737345227",
        "efficiency_local_routed": "0.3172079013258392"
    },
    {
        "length": "30123.370000000035",
        "length_lcc": "30123.370000000035",
        "coverage": "17.97324160288828",
        "directness": "0.7125763892953834",
        "directness_lcc": "0.7125763892953834",
        "poi_coverage": "6",
        "components": "1",
        "overlap_biketrack": "0",
        "overlap_bikeable": "229.083",
        "efficiency_global": "0.7195251829002223",
        "efficiency_local": "0.7187190973004816",
        "efficiency_global_routed": "0.9543326737345227",
        "efficiency_local_routed": "0.3172079013258392"
    }
]