{
    "features": [
        [
            {
                "type": "Feature",
                "properties": {
                    "stage": 1
                },
                "geometry": {
                    "type": "GeometryCollection",
                    "geometries": [
                        {
                            "type": "LineString",
                            "coordinates": [
                                [
                                    -2.360943,
                                    51.377437
                                ],
                                [
                                    -2.361229,
                                    51.377468
                                ]
                            ]
                        },
                        {
                            "type": "LineString",
                            "coordinates": [
                                [
                                    -2.370468,
                                    51.379598
                                ],
                                [
                                    -2.36989,
                                    51.379405
                                ]
                            ]
                        },
                        {
                            "type": "LineString",
                            "coordinates": [
                                [
                                    -2.360943,
                                    51.377437
                                ],
                                [
                                    -2.360285,
                                    51.377358
                                ]
                            ]
                        },
                        {
                            "type": "LineString",
                            "coordinates": [
                                [
                                    -2.379809,
                                    51.380327
                                ],
                                [
                                    -2.379246,
                                    51.380272
                                ]
                            ]
                        },
                        {
                            "type": "LineString",
                            "coordinates": [
                                [
                                    -2.379246,
                                    51.380272
                                ],
                                [
                                    -2.379454,
                                    51.379565
                                ]
                            ]
                        },
                        {
                            "type": "LineString",
                            "coordinates": [
                                [
                                    -2.379454,
                                    51.379565
                                ],
                                [
                                    -2.380408,
                                    51.37967
                                ]
                            ]
                        },
                        {
                            "type": "LineString",
                            "coordinates": [
                                [
                                    -2.381473,
                                    51.380952
                                ],
                                [
                                    -2.381621,
                                    51.381331
                                ]
                            ]
                        },
                        {
                            "type": "LineString",
                            "coordinates": [
                                [
                                    -2.3747,
                                    51.381269
                                ],
                                [
                                    -2.374835,
                                    51.38129
                                ]
                            ]
                        },
                        {
                            "type": "LineString",
                            "coordinates": [
                                [
                                    -2.362841,
                                    51.377839
                                ],
                                [
                                    -2.362297,
                                    51.377702
                                ]
                            ]
                        },
                        {
                            "type": "LineString",
                            "coordinates": [
                                [
                                    -2.359516,
                                    51.378033
                                ],
                                [
                                    -2.359649,
                                    51.378002
                                ]
                            ]
                        },
                        {
                            "type": "LineString",
                            "coordinates": [
                                [
                                    -2.3572,
                                    51.377917
                                ],
                                [
                                    -2.357011,
                                    51.377929
                                ]
                            ]
                        },
                        {
                            "type": "LineString",
                            "coordinates": [
                                [
                                    -2.361229,
                                    51.377468
                                ],
                                [
                                    -2.361699,
                                    51.377559
                                ]
                            ]
                        },
                        {
                            "type": "LineString",
                            "coordinates": [
                                [
                                    -2.360054,
                                    51.37785
                                ],
                                [
                                    -2.359964,
                                    51.377851
                                ]
                            ]
                        },
                        {
                            "type": "LineString",
                            "coordinates": [
                                [
                                    -2.359888,
                                    51.377859
                                ],
                                [
                                    -2.359964,
                                    51.377851
                                ]
                            ]
                        },
                        {
                            "type": "LineString",
                            "coordinates": [
                                [
                                    -2.360416,
                                    51.377746
                                ],
                                [
                                    -2.360396,
                                    51.377772
                                ]
                            ]
                        },
                        {
                            "type": "LineString",
                            "coordinates": [
                                [
                                    -2.360484,
                                    51.377474
                                ],
                                [
                                    -2.360463,
                                    51.377436
                                ]
                            ]
                        },
                        {
                            "type": "LineString",
                            "coordinates": [
                                [
                                    -2.368168,
                                    51.378814
                                ],
                                [
                                    -2.36845,
                                    51.378914
                                ]
                            ]
                        },
                        {
                            "type": "LineString",
                            "coordinates": [
                                [
                                    -2.3572,
                                    51.377917
                                ],
                                [
                                    -2.357305,
                                    51.377916
                                ]
                            ]
                        },
                        {
                            "type": "LineString",
                            "coordinates": [
                                [
                                    -2.359516,
                                    51.378033
                                ],
                                [
                                    -2.358758,
                                    51.377986
                                ]
                            ]
                        },
                        {
                            "type": "LineString",
                            "coordinates": [
                                [
                                    -2.358376,
                                    51.377966
                                ],
                                [
                                    -2.358541,
                                    51.377975
                                ]
                            ]
                        },
                        {
                            "type": "LineString",
                            "coordinates": [
                                [
                                    -2.358758,
                                    51.377986
                                ],
                                [
                                    -2.358541,
                                    51.377975
                                ]
                            ]
                        },
                        {
                            "type": "LineString",
                            "coordinates": [
                                [
                                    -2.358376,
                                    51.377966
                                ],
                                [
                                    -2.357954,
                                    51.377946
                                ]
                            ]
                        },
                        {
                            "type": "LineString",
                            "coordinates": [
                                [
                                    -2.360054,
                                    51.37785
                                ],
                                [
                                    -2.360249,
                                    51.377824
                                ]
                            ]
                        },
                        {
                            "type": "LineString",
                            "coordinates": [
                                [
                                    -2.359888,
                                    51.377859
                                ],
                                [
                                    -2.359863,
                                    51.377865
                                ]
                            ]
                        },
                        {
                            "type": "LineString",
                            "coordinates": [
                                [
                                    -2.360396,
                                    51.377772
                                ],
                                [
                                    -2.360359,
                                    51.377794
                                ]
                            ]
                        },
                        {
                            "type": "LineString",
                            "coordinates": [
                                [
                                    -2.360463,
                                    51.377436
                                ],
                                [
                                    -2.360443,
                                    51.377418
                                ]
                            ]
                        },
                        {
                            "type": "LineString",
                            "coordinates": [
                                [
                                    -2.360285,
                                    51.377358
                                ],
                                [
                                    -2.3604,
                                    51.377395
                                ]
                            ]
                        },
                        {
                            "type": "LineString",
                            "coordinates": [
                                [
                                    -2.360443,
                                    51.377418
                                ],
                                [
                                    -2.3604,
                                    51.377395
                                ]
                            ]
                        },
                        {
                            "type": "LineString",
                            "coordinates": [
                                [
                                    -2.371079,
                                    51.379855
                                ],
                                [
                                    -2.370941,
                                    51.379797
                                ]
                            ]
                        },
                        {
                            "type": "LineString",
                            "coordinates": [
                                [
                                    -2.36989,
                                    51.379405
                                ],
                                [
                                    -2.369856,
                                    51.379394
                                ]
                            ]
                        },
                        {
                            "type": "LineString",
                            "coordinates": [
                                [
                                    -2.371079,
                                    51.379855
                                ],
                                [
                                    -2.371195,
                                    51.379912
                                ]
                            ]
                        },
                        {
                            "type": "LineString",
                            "coordinates": [
                                [
                                    -2.367558,
                                    51.378662
                                ],
                                [
                                    -2.367916,
                                    51.37874
                                ]
                            ]
                        },
                        {
                            "type": "LineString",
                            "coordinates": [
                                [
                                    -2.368168,
                                    51.378814
                                ],
                                [
                                    -2.367916,
                                    51.37874
                                ]
                            ]
                        },
                        {
                            "type": "LineString",
                            "coordinates": [
                                [
                                    -2.362297,
                                    51.377702
                                ],
                                [
                                    -2.362027,
                                    51.377638
                                ]
                            ]
                        },
                        {
                            "type": "LineString",
                            "coordinates": [
                                [
                                    -2.361699,
                                    51.377559
                                ],
                                [
                                    -2.362027,
                                    51.377638
                                ]
                            ]
                        },
                        {
                            "type": "LineString",
                            "coordinates": [
                                [
                                    -2.37288,
                                    51.380603
                                ],
                                [
                                    -2.372396,
                                    51.380417
                                ]
                            ]
                        },
                        {
                            "type": "LineString",
                            "coordinates": [
                                [
                                    -2.372032,
                                    51.380273
                                ],
                                [
                                    -2.372396,
                                    51.380417
                                ]
                            ]
                        },
                        {
                            "type": "LineString",
                            "coordinates": [
                                [
                                    -2.372032,
                                    51.380273
                                ],
                                [
                                    -2.371674,
                                    51.380119
                                ]
                            ]
                        },
                        {
                            "type": "LineString",
                            "coordinates": [
                                [
                                    -2.371195,
                                    51.379912
                                ],
                                [
                                    -2.371674,
                                    51.380119
                                ]
                            ]
                        },
                        {
                            "type": "LineString",
                            "coordinates": [
                                [
                                    -2.38143,
                                    51.380442
                                ],
                                [
                                    -2.381465,
                                    51.380542
                                ]
                            ]
                        },
                        {
                            "type": "LineString",
                            "coordinates": [
                                [
                                    -2.381473,
                                    51.380952
                                ],
                                [
                                    -2.381465,
                                    51.380542
                                ]
                            ]
                        },
                        {
                            "type": "LineString",
                            "coordinates": [
                                [
                                    -2.38143,
                                    51.380442
                                ],
                                [
                                    -2.381321,
                                    51.380443
                                ]
                            ]
                        },
                        {
                            "type": "LineString",
                            "coordinates": [
                                [
                                    -2.379809,
                                    51.380327
                                ],
                                [
                                    -2.380219,
                                    51.380377
                                ]
                            ]
                        },
                        {
                            "type": "LineString",
                            "coordinates": [
                                [
                                    -2.381321,
                                    51.380443
                                ],
                                [
                                    -2.380219,
                                    51.380377
                                ]
                            ]
                        },
                        {
                            "type": "LineString",
                            "coordinates": [
                                [
                                    -2.360416,
                                    51.377746
                                ],
                                [
                                    -2.360496,
                                    51.377502
                                ]
                            ]
                        },
                        {
                            "type": "LineString",
                            "coordinates": [
                                [
                                    -2.360484,
                                    51.377474
                                ],
                                [
                                    -2.360496,
                                    51.377502
                                ]
                            ]
                        },
                        {
                            "type": "LineString",
                            "coordinates": [
                                [
                                    -2.377379,
                                    51.381571
                                ],
                                [
                                    -2.377032,
                                    51.381523
                                ]
                            ]
                        },
                        {
                            "type": "LineString",
                            "coordinates": [
                                [
                                    -2.376876,
                                    51.381504
                                ],
                                [
                                    -2.377032,
                                    51.381523
                                ]
                            ]
                        },
                        {
                            "type": "LineString",
                            "coordinates": [
                                [
                                    -2.370468,
                                    51.379598
                                ],
                                [
                                    -2.370517,
                                    51.379616
                                ]
                            ]
                        },
                        {
                            "type": "LineString",
                            "coordinates": [
                                [
                                    -2.370679,
                                    51.37968
                                ],
                                [
                                    -2.370517,
                                    51.379616
                                ]
                            ]
                        },
                        {
                            "type": "LineString",
                            "coordinates": [
                                [
                                    -2.370679,
                                    51.37968
                                ],
                                [
                                    -2.370844,
                                    51.379752
                                ]
                            ]
                        },
                        {
                            "type": "LineString",
                            "coordinates": [
                                [
                                    -2.370941,
                                    51.379797
                                ],
                                [
                                    -2.370874,
                                    51.379766
                                ]
                            ]
                        },
                        {
                            "type": "LineString",
                            "coordinates": [
                                [
                                    -2.370844,
                                    51.379752
                                ],
                                [
                                    -2.370874,
                                    51.379766
                                ]
                            ]
                        },
                        {
                            "type": "LineString",
                            "coordinates": [
                                [
                                    -2.373604,
                                    51.380937
                                ],
                                [
                                    -2.373507,
                                    51.380857
                                ]
                            ]
                        },
                        {
                            "type": "LineString",
                            "coordinates": [
                                [
                                    -2.374211,
                                    51.381181
                                ],
                                [
                                    -2.373975,
                                    51.381104
                                ]
                            ]
                        },
                        {
                            "type": "LineString",
                            "coordinates": [
                                [
                                    -2.373944,
                                    51.38109
                                ],
                                [
                                    -2.373975,
                                    51.381104
                                ]
                            ]
                        },
                        {
                            "type": "LineString",
                            "coordinates": [
                                [
                                    -2.374359,
                                    51.381215
                                ],
                                [
                                    -2.374426,
                                    51.381223
                                ]
                            ]
                        },
                        {
                            "type": "LineString",
                            "coordinates": [
                                [
                                    -2.3747,
                                    51.381269
                                ],
                                [
                                    -2.37446,
                                    51.381228
                                ]
                            ]
                        },
                        {
                            "type": "LineString",
                            "coordinates": [
                                [
                                    -2.374426,
                                    51.381223
                                ],
                                [
                                    -2.37446,
                                    51.381228
                                ]
                            ]
                        },
                        {
                            "type": "LineString",
                            "coordinates": [
                                [
                                    -2.376876,
                                    51.381504
                                ],
                                [
                                    -2.374967,
                                    51.381306
                                ]
                            ]
                        },
                        {
                            "type": "LineString",
                            "coordinates": [
                                [
                                    -2.374835,
                                    51.38129
                                ],
                                [
                                    -2.374967,
                                    51.381306
                                ]
                            ]
                        },
                        {
                            "type": "LineString",
                            "coordinates": [
                                [
                                    -2.381541,
                                    51.38157
                                ],
                                [
                                    -2.381334,
                                    51.381907
                                ]
                            ]
                        },
                        {
                            "type": "LineString",
                            "coordinates": [
                                [
                                    -2.381334,
                                    51.381907
                                ],
                                [
                                    -2.38126,
                                    51.381955
                                ]
                            ]
                        },
                        {
                            "type": "LineString",
                            "coordinates": [
                                [
                                    -2.38126,
                                    51.381955
                                ],
                                [
                                    -2.381144,
                                    51.382007
                                ]
                            ]
                        },
                        {
                            "type": "LineString",
                            "coordinates": [
                                [
                                    -2.381144,
                                    51.382007
                                ],
                                [
                                    -2.381017,
                                    51.382034
                                ]
                            ]
                        },
                        {
                            "type": "LineString",
                            "coordinates": [
                                [
                                    -2.373944,
                                    51.38109
                                ],
                                [
                                    -2.373902,
                                    51.38107
                                ]
                            ]
                        },
                        {
                            "type": "LineString",
                            "coordinates": [
                                [
                                    -2.374211,
                                    51.381181
                                ],
                                [
                                    -2.374243,
                                    51.381191
                                ]
                            ]
                        },
                        {
                            "type": "LineString",
                            "coordinates": [
                                [
                                    -2.374359,
                                    51.381215
                                ],
                                [
                                    -2.374243,
                                    51.381191
                                ]
                            ]
                        },
                        {
                            "type": "LineString",
                            "coordinates": [
                                [
                                    -2.37288,
                                    51.380603
                                ],
                                [
                                    -2.373278,
                                    51.380764
                                ]
                            ]
                        },
                        {
                            "type": "LineString",
                            "coordinates": [
                                [
                                    -2.373507,
                                    51.380857
                                ],
                                [
                                    -2.373278,
                                    51.380764
                                ]
                            ]
                        },
                        {
                            "type": "LineString",
                            "coordinates": [
                                [
                                    -2.373604,
                                    51.380937
                                ],
                                [
                                    -2.373812,
                                    51.381031
                                ]
                            ]
                        },
                        {
                            "type": "LineString",
                            "coordinates": [
                                [
                                    -2.373902,
                                    51.38107
                                ],
                                [
                                    -2.373812,
                                    51.381031
                                ]
                            ]
                        },
                        {
                            "type": "LineString",
                            "coordinates": [
                                [
                                    -2.357305,
                                    51.377916
                                ],
                                [
                                    -2.357608,
                                    51.377925
                                ]
                            ]
                        },
                        {
                            "type": "LineString",
                            "coordinates": [
                                [
                                    -2.357954,
                                    51.377946
                                ],
                                [
                                    -2.357608,
                                    51.377925
                                ]
                            ]
                        },
                        {
                            "type": "LineString",
                            "coordinates": [
                                [
                                    -2.381017,
                                    51.382034
                                ],
                                [
                                    -2.380816,
                                    51.38205
                                ]
                            ]
                        },
                        {
                            "type": "LineString",
                            "coordinates": [
                                [
                                    -2.380459,
                                    51.382039
                                ],
                                [
                                    -2.380816,
                                    51.38205
                                ]
                            ]
                        },
                        {
                            "type": "LineString",
                            "coordinates": [
                                [
                                    -2.362841,
                                    51.377839
                                ],
                                [
                                    -2.362946,
                                    51.377866
                                ]
                            ]
                        },
                        {
                            "type": "LineString",
                            "coordinates": [
                                [
                                    -2.381541,
                                    51.38157
                                ],
                                [
                                    -2.381615,
                                    51.381433
                                ]
                            ]
                        },
                        {
                            "type": "LineString",
                            "coordinates": [
                                [
                                    -2.381615,
                                    51.381433
                                ],
                                [
                                    -2.38163,
                                    51.381376
                                ]
                            ]
                        },
                        {
                            "type": "LineString",
                            "coordinates": [
                                [
                                    -2.364763,
                                    51.378332
                                ],
                                [
                                    -2.365146,
                                    51.378401
                                ]
                            ]
                        },
                        {
                            "type": "LineString",
                            "coordinates": [
                                [
                                    -2.365209,
                                    51.378412
                                ],
                                [
                                    -2.365146,
                                    51.378401
                                ]
                            ]
                        },
                        {
                            "type": "LineString",
                            "coordinates": [
                                [
                                    -2.363469,
                                    51.378
                                ],
                                [
                                    -2.363316,
                                    51.377961
                                ]
                            ]
                        },
                        {
                            "type": "LineString",
                            "coordinates": [
                                [
                                    -2.362946,
                                    51.377866
                                ],
                                [
                                    -2.363316,
                                    51.377961
                                ]
                            ]
                        },
                        {
                            "type": "LineString",
                            "coordinates": [
                                [
                                    -2.363469,
                                    51.378
                                ],
                                [
                                    -2.36367,
                                    51.378052
                                ]
                            ]
                        },
                        {
                            "type": "LineString",
                            "coordinates": [
                                [
                                    -2.364763,
                                    51.378332
                                ],
                                [
                                    -2.364309,
                                    51.378216
                                ]
                            ]
                        },
                        {
                            "type": "LineString",
                            "coordinates": [
                                [
                                    -2.36367,
                                    51.378052
                                ],
                                [
                                    -2.364309,
                                    51.378216
                                ]
                            ]
                        },
                        {
                            "type": "LineString",
                            "coordinates": [
                                [
                                    -2.366463,
                                    51.378579
                                ],
                                [
                                    -2.36532,
                                    51.378427
                                ]
                            ]
                        },
                        {
                            "type": "LineString",
                            "coordinates": [
                                [
                                    -2.365209,
                                    51.378412
                                ],
                                [
                                    -2.36532,
                                    51.378427
                                ]
                            ]
                        },
                        {
                            "type": "LineString",
                            "coordinates": [
                                [
                                    -2.367558,
                                    51.378662
                                ],
                                [
                                    -2.367123,
                                    51.378618
                                ]
                            ]
                        },
                        {
                            "type": "LineString",
                            "coordinates": [
                                [
                                    -2.366463,
                                    51.378579
                                ],
                                [
                                    -2.367123,
                                    51.378618
                                ]
                            ]
                        },
                        {
                            "type": "LineString",
                            "coordinates": [
                                [
                                    -2.359793,
                                    51.377934
                                ],
                                [
                                    -2.359831,
                                    51.377883
                                ]
                            ]
                        },
                        {
                            "type": "LineString",
                            "coordinates": [
                                [
                                    -2.359863,
                                    51.377865
                                ],
                                [
                                    -2.359831,
                                    51.377883
                                ]
                            ]
                        },
                        {
                            "type": "LineString",
                            "coordinates": [
                                [
                                    -2.359793,
                                    51.377934
                                ],
                                [
                                    -2.359688,
                                    51.377992
                                ]
                            ]
                        },
                        {
                            "type": "LineString",
                            "coordinates": [
                                [
                                    -2.359649,
                                    51.378002
                                ],
                                [
                                    -2.359688,
                                    51.377992
                                ]
                            ]
                        },
                        {
                            "type": "LineString",
                            "coordinates": [
                                [
                                    -2.379258,
                                    51.381877
                                ],
                                [
                                    -2.378497,
                                    51.381764
                                ]
                            ]
                        },
                        {
                            "type": "LineString",
                            "coordinates": [
                                [
                                    -2.378299,
                                    51.381729
                                ],
                                [
                                    -2.378497,
                                    51.381764
                                ]
                            ]
                        },
                        {
                            "type": "LineString",
                            "coordinates": [
                                [
                                    -2.377379,
                                    51.381571
                                ],
                                [
                                    -2.378094,
                                    51.381695
                                ]
                            ]
                        },
                        {
                            "type": "LineString",
                            "coordinates": [
                                [
                                    -2.378299,
                                    51.381729
                                ],
                                [
                                    -2.378094,
                                    51.381695
                                ]
                            ]
                        },
                        {
                            "type": "LineString",
                            "coordinates": [
                                [
                                    -2.379258,
                                    51.381877
                                ],
                                [
                                    -2.380145,
                                    51.381996
                                ]
                            ]
                        },
                        {
                            "type": "LineString",
                            "coordinates": [
                                [
                                    -2.380459,
                                    51.382039
                                ],
                                [
                                    -2.380145,
                                    51.381996
                                ]
                            ]
                        },
                        {
                            "type": "LineString",
                            "coordinates": [
                                [
                                    -2.360249,
                                    51.377824
                                ],
                                [
                                    -2.360308,
                                    51.37781
                                ]
                            ]
                        },
                        {
                            "type": "LineString",
                            "coordinates": [
                                [
                                    -2.360359,
                                    51.377794
                                ],
                                [
                                    -2.360308,
                                    51.37781
                                ]
                            ]
                        },
                        {
                            "type": "LineString",
                            "coordinates": [
                                [
                                    -2.381621,
                                    51.381331
                                ],
                                [
                                    -2.381628,
                                    51.381364
                                ]
                            ]
                        },
                        {
                            "type": "LineString",
                            "coordinates": [
                                [
                                    -2.38163,
                                    51.381376
                                ],
                                [
                                    -2.381628,
                                    51.381364
                                ]
                            ]
                        },
                        {
                            "type": "LineString",
                            "coordinates": [
                                [
                                    -2.369856,
                                    51.379394
                                ],
                                [
                                    -2.369641,
                                    51.37933
                                ]
                            ]
                        },
                        {
                            "type": "LineString",
                            "coordinates": [
                                [
                                    -2.36845,
                                    51.378914
                                ],
                                [
                                    -2.36894,
                                    51.379097
                                ]
                            ]
                        },
                        {
                            "type": "LineString",
                            "coordinates": [
                                [
                                    -2.369641,
                                    51.37933
                                ],
                                [
                                    -2.36894,
                                    51.379097
                                ]
                            ]
                        }
                    ]
                }
            }
        ],
        [
            {
                "type": "Feature",
                "properties": {
                    "stage": 2
                },
                "geometry": {
                    "type": "GeometryCollection",
                    "geometries": []
                }
            }
        ],
        [
            {
                "type": "Feature",
                "properties": {
                    "stage": 3
                },
                "geometry": {
                    "type": "GeometryCollection",
                    "geometries": []
                }
            }
        ],
        [
            {
                "type": "Feature",
                "properties": {
                    "stage": 4
                },
                "geometry": {
                    "type": "GeometryCollection",
                    "geometries": []
                }
            }
        ],
        [
            {
                "type": "Feature",
                "properties": {
                    "stage": 5
                },
                "geometry": {
                    "type": "GeometryCollection",
                    "geometries": []
                }
            }
        ],
        [
            {
                "type": "Feature",
                "properties": {
                    "stage": 6
                },
                "geometry": {
                    "type": "GeometryCollection",
                    "geometries": []
                }
            }
        ],
        [
            {
                "type": "Feature",
                "properties": {
                    "stage": 7
                },
                "geometry": {
                    "type": "GeometryCollection",
                    "geometries": []
                }
            }
        ],
        [
            {
                "type": "Feature",
                "properties": {
                    "stage": 8
                },
                "geometry": {
                    "type": "GeometryCollection",
                    "geometries": []
                }
            }
        ],
        [
            {
                "type": "Feature",
                "properties": {
                    "stage": 9
                },
                "geometry": {
                    "type": "GeometryCollection",
                    "geometries": []
                }
            }
        ],
        [
            {
                "type": "Feature",
                "properties": {
                    "stage": 10
                },
                "geometry": {
                    "type": "GeometryCollection",
                    "geometries": []
                }
            }
        ]
    ]
}