[
    {
        "length": "14167.244999999992",
        "length_lcc": "3105.259",
        "coverage": "16.93586957155974",
        "directness": "0.7852864912743516",
        "directness_lcc": "0.6941695275456439",
        "poi_coverage": "11",
        "components": "5",
        "overlap_biketrack": "1004.4240000000004",
        "overlap_bikeable": "1004.4240000000004",
        "efficiency_global": "0.1857812556265376",
        "efficiency_local": "0",
        "efficiency_global_routed": "0.1857812556265376",
        "efficiency_local_routed": "0"
    },
    {
        "length": "25549.192",
        "length_lcc": "4147.365999999999",
        "coverage": "27.967526960067904",
        "directness": "0.7670731138893183",
        "directness_lcc": "0.734528181873623",
        "poi_coverage": "17",
        "components": "7",
        "overlap_biketrack": "1004.4240000000004",
        "overlap_bikeable": "1689.368",
        "efficiency_global": "0.11071864853103844",
        "efficiency_local": "0.0",
        "efficiency_global_routed": "0.3085169047300369",
        "efficiency_local_routed": "0.0"
    },
    {
        "length": "40247.952000000034",
        "length_lcc": "11449.008999999993",
        "coverage": "40.31040276545934",
        "directness": "0.6309980216175172",
        "directness_lcc": "0.6029223874377062",
        "poi_coverage": "24",
        "components": "9",
        "overlap_biketrack": "1068.8900000000003",
        "overlap_bikeable": "2515.8369999999995",
        "efficiency_global": "0.11000618143717772",
        "efficiency_local": "0.0",
        "efficiency_global_routed": "0.3722494642877722",
        "efficiency_local_routed": "0.0"
    },
    {
        "length": "57093.33000000004",
        "length_lcc": "14132.331999999999",
        "coverage": "55.0297805691645",
        "directness": "0.6119608574055668",
        "directness_lcc": "0.5295425710599319",
        "poi_coverage": "30",
        "components": "10",
        "overlap_biketrack": "1206.805",
        "overlap_bikeable": "2914.379",
        "efficiency_global": "0.0938004487467471",
        "efficiency_local": "0.0",
        "efficiency_global_routed": "0.4798526856030959",
        "efficiency_local_routed": "0.24787032099140432"
    },
    {
        "length": "70452.10600000003",
        "length_lcc": "16790.50500000001",
        "coverage": "67.34801829089776",
        "directness": "0.5869163337670618",
        "directness_lcc": "0.5733097113409371",
        "poi_coverage": "36",
        "components": "11",
        "overlap_biketrack": "1206.805",
        "overlap_bikeable": "2914.379",
        "efficiency_global": "0.1012817410602741",
        "efficiency_local": "0.0",
        "efficiency_global_routed": "0.4406053298576291",
        "efficiency_local_routed": "0.20655860082617028"
    },
    {
        "length": "79699.49500000005",
        "length_lcc": "16790.50500000001",
        "coverage": "75.64474729461055",
        "directness": "0.6009040693015196",
        "directness_lcc": "0.5733097113409313",
        "poi_coverage": "40",
        "components": "11",
        "overlap_biketrack": "1206.805",
        "overlap_bikeable": "3192.1979999999994",
        "efficiency_global": "0.09849542042394757",
        "efficiency_local": "0.0",
        "efficiency_global_routed": "0.41827180211101767",
        "efficiency_local_routed": "0.19409680959317385"
    },
    {
        "length": "88375.8040000001",
        "length_lcc": "16790.50500000001",
        "coverage": "80.9149779542453",
        "directness": "0.6499960869854302",
        "directness_lcc": "0.5733097113409347",
        "poi_coverage": "43",
        "components": "10",
        "overlap_biketrack": "3101.031",
        "overlap_bikeable": "5269.803000000004",
        "efficiency_global": "0.0993010806978456",
        "efficiency_local": "0.14150449435636442",
        "efficiency_global_routed": "0.42012961459893505",
        "efficiency_local_routed": "0.126162926235563"
    },
    {
        "length": "98581.70900000016",
        "length_lcc": "34701.234000000026",
        "coverage": "86.33722635621359",
        "directness": "0.6614089726131851",
        "directness_lcc": "0.6452515136915555",
        "poi_coverage": "45",
        "components": "9",
        "overlap_biketrack": "3101.031",
        "overlap_bikeable": "5269.803000000004",
        "efficiency_global": "0.10754122352389202",
        "efficiency_local": "0.1687502359624685",
        "efficiency_global_routed": "0.4343972707171791",
        "efficiency_local_routed": "0.10513577186296917"
    },
    {
        "length": "111660.67600000023",
        "length_lcc": "26354.068",
        "coverage": "94.69055455525563",
        "directness": "0.6620486124596509",
        "directness_lcc": "0.7018043087801437",
        "poi_coverage": "49",
        "components": "7",
        "overlap_biketrack": "3101.031",
        "overlap_bikeable": "5434.127000000005",
        "efficiency_global": "0.11135977091281613",
        "efficiency_local": "0.2137889113863426",
        "efficiency_global_routed": "0.6995490026361759",
        "efficiency_local_routed": "0.1290078311854096"
    },
    {
        "length": "119520.18500000035",
        "length_lcc": "53548.588999999985",
        "coverage": "101.17357468405014",
        "directness": "0.5875079842461175",
        "directness_lcc": "0.5582267837017432",
        "poi_coverage": "52",
        "components": "7",
        "overlap_biketrack": "3471.4379999999996",
        "overlap_bikeable": "5804.534000000004",
        "efficiency_global": "0.1414079345639543",
        "efficiency_local": "0.16867894084456425",
        "efficiency_global_routed": "0.6919640783160222",
        "efficiency_local_routed": "0.1223920449707732"
    },
    {
        "length": "129564.26400000027",
        "length_lcc": "64402.73500000006",
        "coverage": "105.93913791604325",
        "directness": "0.5635065818253576",
        "directness_lcc": "0.531924076782403",
        "poi_coverage": "54",
        "components": "6",
        "overlap_biketrack": "3471.4379999999996",
        "overlap_bikeable": "5980.203000000004",
        "efficiency_global": "0.16658951746433026",
        "efficiency_local": "0.18987381811109086",
        "efficiency_global_routed": "0.7514176612129801",
        "efficiency_local_routed": "0.23284955378729352"
    },
    {
        "length": "135193.9260000002",
        "length_lcc": "68412.17100000005",
        "coverage": "108.42756671667108",
        "directness": "0.5862219880764342",
        "directness_lcc": "0.5587587038872026",
        "poi_coverage": "55",
        "components": "6",
        "overlap_biketrack": "3593.655",
        "overlap_bikeable": "6102.420000000005",
        "efficiency_global": "0.1814113216508921",
        "efficiency_local": "0.20891300940328314",
        "efficiency_global_routed": "0.74187919312947",
        "efficiency_local_routed": "0.28671923115567904"
    },
    {
        "length": "149011.41200000045",
        "length_lcc": "111196.97700000016",
        "coverage": "113.23282951338864",
        "directness": "0.4720721939298877",
        "directness_lcc": "0.465519174343103",
        "poi_coverage": "57",
        "components": "5",
        "overlap_biketrack": "6653.641000000002",
        "overlap_bikeable": "9162.406",
        "efficiency_global": "0.2018335929434368",
        "efficiency_local": "0.2426494470768528",
        "efficiency_global_routed": "0.753302891733219",
        "efficiency_local_routed": "0.25889386064170283"
    },
    {
        "length": "156561.16500000036",
        "length_lcc": "135796.4650000004",
        "coverage": "114.81540639937633",
        "directness": "0.40197914933885814",
        "directness_lcc": "0.41457435060785736",
        "poi_coverage": "57",
        "components": "3",
        "overlap_biketrack": "6653.641000000002",
        "overlap_bikeable": "9162.406",
        "efficiency_global": "0.2416592784311895",
        "efficiency_local": "0.2094983112230912",
        "efficiency_global_routed": "0.7891924519558676",
        "efficiency_local_routed": "0.2377554126452487"
    },
    {
        "length": "167118.73800000083",
        "length_lcc": "144942.65300000072",
        "coverage": "120.03215237957316",
        "directness": "0.4127709622223859",
        "directness_lcc": "0.43543238362261116",
        "poi_coverage": "59",
        "components": "3",
        "overlap_biketrack": "6653.641000000002",
        "overlap_bikeable": "10420.055999999995",
        "efficiency_global": "0.24455113347177582",
        "efficiency_local": "0.18721125683765596",
        "efficiency_global_routed": "0.7880176866288925",
        "efficiency_local_routed": "0.2484003332089969"
    },
    {
        "length": "176424.22900000116",
        "length_lcc": "172141.23000000106",
        "coverage": "124.63061195209474",
        "directness": "0.49434925145832126",
        "directness_lcc": "0.48065358066444414",
        "poi_coverage": "60",
        "components": "2",
        "overlap_biketrack": "6653.641000000002",
        "overlap_bikeable": "10556.112",
        "efficiency_global": "0.3643588469636846",
        "efficiency_local": "0.20901023436015173",
        "efficiency_global_routed": "0.8152645651455195",
        "efficiency_local_routed": "0.23200891395499967"
    },
    {
        "length": "186694.49200000076",
        "length_lcc": "182411.49300000083",
        "coverage": "128.65287405010062",
        "directness": "0.48597789254096263",
        "directness_lcc": "0.4887844850051374",
        "poi_coverage": "61",
        "components": "2",
        "overlap_biketrack": "6653.640999999996",
        "overlap_bikeable": "10556.112",
        "efficiency_global": "0.3857316282767661",
        "efficiency_local": "0.18084774192101216",
        "efficiency_global_routed": "0.8125295032985701",
        "efficiency_local_routed": "0.19158943935325154"
    },
    {
        "length": "190769.84400000088",
        "length_lcc": "186486.84500000076",
        "coverage": "129.83395030956558",
        "directness": "0.48496464451048593",
        "directness_lcc": "0.5013666796293988",
        "poi_coverage": "61",
        "components": "2",
        "overlap_biketrack": "6653.640999999996",
        "overlap_bikeable": "10556.112",
        "efficiency_global": "0.39871139806882294",
        "efficiency_local": "0.19121791927974296",
        "efficiency_global_routed": "0.8038480042776956",
        "efficiency_local_routed": "0.20635756986706075"
    },
    {
        "length": "196446.74200000108",
        "length_lcc": "196446.74200000108",
        "coverage": "131.7044842909744",
        "directness": "0.5631587272410055",
        "directness_lcc": "0.5631587272410055",
        "poi_coverage": "61",
        "components": "1",
        "overlap_biketrack": "6653.640999999996",
        "overlap_bikeable": "10556.112",
        "efficiency_global": "0.4594330566755678",
        "efficiency_local": "0.16673853685808937",
        "efficiency_global_routed": "0.8153237640089077",
        "efficiency_local_routed": "0.2120454149698138"
    },
    {
        "length": "198887.22900000107",
        "length_lcc": "198887.22900000107",
        "coverage": "132.26420658552146",
        "directness": "0.565469189244801",
        "directness_lcc": "0.565469189244801",
        "poi_coverage": "61",
        "components": "1",
        "overlap_biketrack": "6729.531999999996",
        "overlap_bikeable": "10632.002999999997",
        "efficiency_global": "0.4753039326357645",
        "efficiency_local": "0.2134541271026656",
        "efficiency_global_routed": "0.8134553712876218",
        "efficiency_local_routed": "0.2518665684526452"
    },
    {
        "length": "207697.3660000007",
        "length_lcc": "207697.3660000007",
        "coverage": "135.10726268108698",
        "directness": "0.5991240542301813",
        "directness_lcc": "0.5991240542301813",
        "poi_coverage": "62",
        "components": "1",
        "overlap_biketrack": "6729.531999999996",
        "overlap_bikeable": "11508.566999999997",
        "efficiency_global": "0.48534057296150884",
        "efficiency_local": "0.2050719669272319",
        "efficiency_global_routed": "0.8168535641866317",
        "efficiency_local_routed": "0.26561672870223774"
    },
    {
        "length": "217692.31800000055",
        "length_lcc": "217692.31800000055",
        "coverage": "138.06319020633032",
        "directness": "0.6100623514245742",
        "directness_lcc": "0.6100623514245742",
        "poi_coverage": "63",
        "components": "1",
        "overlap_biketrack": "6729.531999999996",
        "overlap_bikeable": "13183.846999999992",
        "efficiency_global": "0.49523973476349237",
        "efficiency_local": "0.2164649323456758",
        "efficiency_global_routed": "0.8170712170949923",
        "efficiency_local_routed": "0.2789376001489315"
    },
    {
        "length": "223037.97800000035",
        "length_lcc": "223037.97800000035",
        "coverage": "139.70890310072195",
        "directness": "0.6231949759998762",
        "directness_lcc": "0.6231949759998762",
        "poi_coverage": "63",
        "components": "1",
        "overlap_biketrack": "6729.531999999996",
        "overlap_bikeable": "13609.753999999992",
        "efficiency_global": "0.5110442966197313",
        "efficiency_local": "0.25968749003375585",
        "efficiency_global_routed": "0.8272205667767821",
        "efficiency_local_routed": "0.2878541182822271"
    },
    {
        "length": "231632.57600000047",
        "length_lcc": "231632.57600000047",
        "coverage": "141.57414751779487",
        "directness": "0.6537883485222241",
        "directness_lcc": "0.6537883485222241",
        "poi_coverage": "63",
        "components": "1",
        "overlap_biketrack": "6729.531999999996",
        "overlap_bikeable": "14521.968999999994",
        "efficiency_global": "0.5303038278422628",
        "efficiency_local": "0.2643109979241863",
        "efficiency_global_routed": "0.8334025043326855",
        "efficiency_local_routed": "0.28248536932422297"
    },
    {
        "length": "238921.67400000046",
        "length_lcc": "238921.67400000046",
        "coverage": "142.50488372068244",
        "directness": "0.6572142814107693",
        "directness_lcc": "0.6572142814107693",
        "poi_coverage": "63",
        "components": "1",
        "overlap_biketrack": "6729.531999999996",
        "overlap_bikeable": "14521.968999999994",
        "efficiency_global": "0.5401549751044153",
        "efficiency_local": "0.2664347867628594",
        "efficiency_global_routed": "0.8358204632874533",
        "efficiency_local_routed": "0.27586104565650427"
    },
    {
        "length": "246658.4110000001",
        "length_lcc": "246658.4110000001",
        "coverage": "144.05027812701252",
        "directness": "0.670987267022911",
        "directness_lcc": "0.670987267022911",
        "poi_coverage": "63",
        "components": "1",
        "overlap_biketrack": "6729.531999999996",
        "overlap_bikeable": "14521.968999999994",
        "efficiency_global": "0.5601198355529245",
        "efficiency_local": "0.3232630762578632",
        "efficiency_global_routed": "0.8345709405904829",
        "efficiency_local_routed": "0.27116287591288113"
    },
    {
        "length": "253651.84800000003",
        "length_lcc": "253651.84800000003",
        "coverage": "146.28816951993582",
        "directness": "0.685710377837282",
        "directness_lcc": "0.685710377837282",
        "poi_coverage": "63",
        "components": "1",
        "overlap_biketrack": "6729.531999999996",
        "overlap_bikeable": "14521.968999999994",
        "efficiency_global": "0.5752197509304292",
        "efficiency_local": "0.33467911368118275",
        "efficiency_global_routed": "0.8355898295573673",
        "efficiency_local_routed": "0.2631492919720174"
    },
    {
        "length": "261298.363",
        "length_lcc": "261298.363",
        "coverage": "149.5650375026303",
        "directness": "0.6961722974563697",
        "directness_lcc": "0.6961722974563697",
        "poi_coverage": "64",
        "components": "1",
        "overlap_biketrack": "6729.531999999996",
        "overlap_bikeable": "14521.968999999994",
        "efficiency_global": "0.5874063419341119",
        "efficiency_local": "0.3587325129858011",
        "efficiency_global_routed": "0.8372039504274332",
        "efficiency_local_routed": "0.26333872586726165"
    },
    {
        "length": "264545.9519999998",
        "length_lcc": "264545.9519999998",
        "coverage": "149.73334825845262",
        "directness": "0.698859230726092",
        "directness_lcc": "0.698859230726092",
        "poi_coverage": "64",
        "components": "1",
        "overlap_biketrack": "6729.531999999996",
        "overlap_bikeable": "14521.968999999994",
        "efficiency_global": "0.593104661246447",
        "efficiency_local": "0.3856741705889608",
        "efficiency_global_routed": "0.8390085331526856",
        "efficiency_local_routed": "0.26955969389484247"
    },
    {
        "length": "270658.16699999984",
        "length_lcc": "270658.16699999984",
        "coverage": "150.19000533771865",
        "directness": "0.7047780756949791",
        "directness_lcc": "0.7047780756949791",
        "poi_coverage": "64",
        "components": "1",
        "overlap_biketrack": "6729.531999999996",
        "overlap_bikeable": "14521.968999999994",
        "efficiency_global": "0.613768703384622",
        "efficiency_local": "0.3863436839399555",
        "efficiency_global_routed": "0.8417865967400698",
        "efficiency_local_routed": "0.2637784565520801"
    },
    {
        "length": "274726.0780000002",
        "length_lcc": "274726.0780000002",
        "coverage": "150.32956550331707",
        "directness": "0.7017305001465686",
        "directness_lcc": "0.7017305001465686",
        "poi_coverage": "64",
        "components": "1",
        "overlap_biketrack": "6729.531999999996",
        "overlap_bikeable": "14521.968999999994",
        "efficiency_global": "0.6213302671426808",
        "efficiency_local": "0.4215145638697102",
        "efficiency_global_routed": "0.8387891916748672",
        "efficiency_local_routed": "0.2752654999009086"
    },
    {
        "length": "281344.442",
        "length_lcc": "281344.442",
        "coverage": "151.2079379934634",
        "directness": "0.7116363659096037",
        "directness_lcc": "0.7116363659096037",
        "poi_coverage": "64",
        "components": "1",
        "overlap_biketrack": "7464.782999999997",
        "overlap_bikeable": "15257.219999999994",
        "efficiency_global": "0.6389842931251081",
        "efficiency_local": "0.4393595282289288",
        "efficiency_global_routed": "0.8392397460164439",
        "efficiency_local_routed": "0.26850457096226177"
    },
    {
        "length": "283117.00399999984",
        "length_lcc": "283117.00399999984",
        "coverage": "151.39706470295815",
        "directness": "0.7135652091521929",
        "directness_lcc": "0.7135652091521929",
        "poi_coverage": "64",
        "components": "1",
        "overlap_biketrack": "7464.782999999997",
        "overlap_bikeable": "15257.219999999994",
        "efficiency_global": "0.6413538972530777",
        "efficiency_local": "0.4778149766982735",
        "efficiency_global_routed": "0.83789391003047",
        "efficiency_local_routed": "0.2726003081298861"
    },
    {
        "length": "286439.09499999986",
        "length_lcc": "286439.09499999986",
        "coverage": "152.00132012116524",
        "directness": "0.7108467712342809",
        "directness_lcc": "0.7108467712342809",
        "poi_coverage": "64",
        "components": "1",
        "overlap_biketrack": "7512.0989999999965",
        "overlap_bikeable": "15304.535999999991",
        "efficiency_global": "0.6446799693885271",
        "efficiency_local": "0.49138978871810346",
        "efficiency_global_routed": "0.83974577192488",
        "efficiency_local_routed": "0.2717098753524592"
    },
    {
        "length": "290792.7759999999",
        "length_lcc": "290792.7759999999",
        "coverage": "152.60479904507625",
        "directness": "0.7195344298199312",
        "directness_lcc": "0.7195344298199312",
        "poi_coverage": "64",
        "components": "1",
        "overlap_biketrack": "7512.0989999999965",
        "overlap_bikeable": "15304.535999999991",
        "efficiency_global": "0.6517317370146072",
        "efficiency_local": "0.5119544811422077",
        "efficiency_global_routed": "0.8418357642865393",
        "efficiency_local_routed": "0.2653748791805875"
    },
    {
        "length": "298830.2049999998",
        "length_lcc": "298830.2049999998",
        "coverage": "154.18454465079958",
        "directness": "0.725371275981113",
        "directness_lcc": "0.725371275981113",
        "poi_coverage": "64",
        "components": "1",
        "overlap_biketrack": "7512.0989999999965",
        "overlap_bikeable": "15304.535999999991",
        "efficiency_global": "0.6599263908775204",
        "efficiency_local": "0.5381379963082175",
        "efficiency_global_routed": "0.8406317013213885",
        "efficiency_local_routed": "0.260373111210374"
    },
    {
        "length": "303714.10200000025",
        "length_lcc": "303714.10200000025",
        "coverage": "155.36779842918688",
        "directness": "0.7329987075510646",
        "directness_lcc": "0.7329987075510646",
        "poi_coverage": "64",
        "components": "1",
        "overlap_biketrack": "7512.0989999999965",
        "overlap_bikeable": "15304.535999999991",
        "efficiency_global": "0.6662460165681336",
        "efficiency_local": "0.5525860465455245",
        "efficiency_global_routed": "0.8410600015494304",
        "efficiency_local_routed": "0.2582003959765007"
    },
    {
        "length": "308172.26600000093",
        "length_lcc": "308172.26600000093",
        "coverage": "155.66876220032785",
        "directness": "0.7321518395446258",
        "directness_lcc": "0.7321518395446258",
        "poi_coverage": "64",
        "components": "1",
        "overlap_biketrack": "8406.909",
        "overlap_bikeable": "16199.345999999992",
        "efficiency_global": "0.6696493453756035",
        "efficiency_local": "0.5786538426209848",
        "efficiency_global_routed": "0.8423198823576972",
        "efficiency_local_routed": "0.25801215229733915"
    },
    {
        "length": "311253.1100000013",
        "length_lcc": "311253.1100000013",
        "coverage": "155.7794181628203",
        "directness": "0.7346182692688967",
        "directness_lcc": "0.7346182692688967",
        "poi_coverage": "64",
        "components": "1",
        "overlap_biketrack": "8406.909",
        "overlap_bikeable": "16674.367999999988",
        "efficiency_global": "0.6776954864555553",
        "efficiency_local": "0.6093071841299016",
        "efficiency_global_routed": "0.8417548791002498",
        "efficiency_local_routed": "0.25561775992382363"
    },
    {
        "length": "313169.5240000015",
        "length_lcc": "313169.5240000015",
        "coverage": "156.0219631703033",
        "directness": "0.7368303111222735",
        "directness_lcc": "0.7368303111222735",
        "poi_coverage": "64",
        "components": "1",
        "overlap_biketrack": "8406.909",
        "overlap_bikeable": "16674.367999999988",
        "efficiency_global": "0.6828807453494955",
        "efficiency_local": "0.6367125040508811",
        "efficiency_global_routed": "0.8409223327490711",
        "efficiency_local_routed": "0.2560014394769879"
    }
]